﻿<?xml version="1.0"?>
<!-- Generator: Adobe Illustrator 10.0, SVG Export Plug-In . SVG Version: 3.0.0 Build 77)  -->
<!DOCTYPE svg PUBLIC "-//W3C//DTD SVG 1.0//EN" "http://www.w3.org/TR/2001/REC-SVG-20010904/DTD/svg10.dtd"[
	<!ENTITY ns_flows "http://ns.adobe.com/Flows/1.0/">
	<!ENTITY ns_svg "http://www.w3.org/2000/svg">
	<!ENTITY ns_xlink "http://www.w3.org/1999/xlink">
	<!ENTITY st0 "fill:none;stroke:#000000;stroke-linecap:round;stroke-linejoin:round;">
	<!ENTITY st1 "fill:none;stroke:#000000;stroke-width:0.6;stroke-linecap:round;stroke-linejoin:round;">
	<!ENTITY st2 "font-size:6px;">
	<!ENTITY st3 "font-family:'Arial';">
	<!ATTLIST svg
		ewd:ver CDATA #IMPLIED
		xmlns:ewd CDATA #FIXED "http://shcl.co.jp/ewd"
		xmlns:a CDATA #FIXED "http://ns.adobe.com/AdobeSVGViewerExtensions/3.0/">
	<!ATTLIST g
		ewd:pinNo CDATA #IMPLIED>
]>
<svg width="479.753" height="100.15" viewBox="0 0 479.753 100.15" style="overflow:visible;enable-background:new 0 0 479.753 100.15" xml:space="preserve" onload="call_execInitLoadProc_svg('connector')" ewd:ver="L2.1.2.9" xmlns="&ns_svg;" xmlns:ewd="http://shcl.co.jp/ewd" xmlns:a="http://ns.adobe.com/AdobeSVGViewerExtensions/3.0/" xmlns:xlink="&ns_xlink;">
<script type="text/javascript" xlink:href="../../../../../system/js/ewd/fig/svgfig.js"/>
<g id="レイヤー_1">
	<path style="&st0;" d="M269.622,31.373c0-1.681-0.645-3.117-1.901-4.234"/>
	<path style="&st0;" d="M21.066,17.498c-1.447,0-2.681,0.469-3.763,1.43"/>
	<path style="&st0;" d="M258.483,18.928c-1.082-0.961-2.315-1.43-3.762-1.43"/>
	<path style="&st0;" d="M8.066,27.138c-1.257,1.117-1.901,2.553-1.901,4.235"/>
	<path style="&st0;" d="M6.166,83.616c0,1.054,0.814,1.918,1.867,1.979"/>
	<path style="&st0;" d="M267.755,85.597c1.052-0.062,1.866-0.926,1.866-1.98"/>
	<path style="&st1;" d="M353.191,30.245c0-1.564-1.269-2.833-2.833-2.833"/>
	<path style="&st1;" d="M324.401,51.492c0-0.527-0.428-0.955-0.955-0.955"/>
	<path style="&st1;" d="M323.446,50.537c-0.527,0-0.955,0.427-0.955,0.955"/>
	<path style="&st1;" d="M322.491,51.492c0,0.527,0.428,0.955,0.955,0.955"/>
	<path style="&st1;" d="M323.446,52.446c0.527,0,0.955-0.427,0.955-0.955"/>
	<path style="&st1;" d="M324.721,51.492c0-0.704-0.571-1.275-1.275-1.275"/>
	<path style="&st1;" d="M323.446,50.217c-0.704,0-1.274,0.571-1.274,1.275"/>
	<path style="&st1;" d="M322.171,51.492c0,0.704,0.57,1.275,1.274,1.275"/>
	<path style="&st1;" d="M323.446,52.767c0.704,0,1.275-0.571,1.275-1.275"/>
	<path style="&st1;" d="M338.885,65.656c0-0.704-0.571-1.275-1.275-1.275"/>
	<path style="&st1;" d="M337.61,64.381c-0.704,0-1.274,0.571-1.274,1.275"/>
	<path style="&st1;" d="M336.335,65.656c0,0.704,0.57,1.274,1.274,1.274"/>
	<path style="&st1;" d="M337.61,66.931c0.704,0,1.275-0.571,1.275-1.274"/>
	<path style="&st1;" d="M324.721,65.656c0-0.704-0.571-1.275-1.275-1.275"/>
	<path style="&st1;" d="M323.446,64.381c-0.704,0-1.274,0.571-1.274,1.275"/>
	<path style="&st1;" d="M322.171,65.656c0,0.704,0.57,1.274,1.274,1.274"/>
	<path style="&st1;" d="M323.446,66.931c0.704,0,1.275-0.571,1.275-1.274"/>
	<path style="&st1;" d="M324.401,65.656c0-0.527-0.428-0.955-0.955-0.955"/>
	<path style="&st1;" d="M323.446,64.701c-0.527,0-0.955,0.428-0.955,0.955"/>
	<path style="&st1;" d="M322.491,65.656c0,0.527,0.428,0.955,0.955,0.955"/>
	<path style="&st1;" d="M323.446,66.611c0.527,0,0.955-0.428,0.955-0.955"/>
	<path style="&st1;" d="M338.565,65.656c0-0.527-0.427-0.955-0.955-0.955"/>
	<path style="&st1;" d="M337.61,64.701c-0.527,0-0.954,0.428-0.954,0.955"/>
	<path style="&st1;" d="M336.656,65.656c0,0.527,0.427,0.955,0.954,0.955"/>
	<path style="&st1;" d="M337.61,66.611c0.528,0,0.955-0.428,0.955-0.955"/>
	<path style="&st1;" d="M338.885,51.492c0-0.704-0.571-1.275-1.275-1.275"/>
	<path style="&st1;" d="M337.61,50.217c-0.704,0-1.274,0.571-1.274,1.275"/>
	<path style="&st1;" d="M336.335,51.492c0,0.704,0.57,1.275,1.274,1.275"/>
	<path style="&st1;" d="M337.61,52.767c0.704,0,1.275-0.571,1.275-1.275"/>
	<path style="&st1;" d="M338.565,51.492c0-0.527-0.427-0.955-0.955-0.955"/>
	<path style="&st1;" d="M337.61,50.537c-0.527,0-0.954,0.427-0.954,0.955"/>
	<path style="&st1;" d="M336.656,51.492c0,0.527,0.427,0.955,0.954,0.955"/>
	<path style="&st1;" d="M337.61,52.446c0.528,0,0.955-0.427,0.955-0.955"/>
	<path style="&st1;" d="M339.027,27.413c-1.565,0-2.833,1.268-2.833,2.833"/>
	<path style="&st1;" d="M333.361,35.911c1.564,0,2.833-1.269,2.833-2.833"/>
	<path style="&st1;" d="M326.279,33.078c0,1.564,1.269,2.833,2.833,2.833"/>
	<path style="&st1;" d="M326.279,30.245c0-1.564-1.269-2.833-2.833-2.833"/>
	<path style="&st1;" d="M476.42,24.58c0-1.564-1.269-2.833-2.833-2.833"/>
	<path style="&st0;" d="M479.253,24.58c0-1.564-1.269-2.833-2.833-2.833"/>
	<path style="&st1;" d="M473.587,89.735c1.564,0,2.833-1.269,2.833-2.833"/>
	<path style="&st0;" d="M476.42,89.735c1.564,0,2.833-1.269,2.833-2.833"/>
	<path style="&st0;" d="M295.118,86.902c0,1.564,1.268,2.833,2.833,2.833"/>
	<path style="&st1;" d="M297.951,86.902c0,1.564,1.268,2.833,2.833,2.833"/>
	<path style="&st0;" d="M297.951,21.747c-1.565,0-2.833,1.269-2.833,2.833"/>
	<path style="&st1;" d="M300.784,21.747c-1.565,0-2.833,1.269-2.833,2.833"/>
	<path style="&st1;" d="M424.013,27.413c-1.565,0-2.833,1.268-2.833,2.833"/>
	<path style="&st1;" d="M438.176,30.245c0-1.564-1.268-2.833-2.833-2.833"/>
	<path style="&st1;" d="M438.176,33.078c0,1.564,1.27,2.833,2.833,2.833"/>
	<path style="&st1;" d="M450.925,27.413c-1.565,0-2.833,1.268-2.833,2.833"/>
	<path style="&st1;" d="M445.259,35.911c1.563,0,2.833-1.269,2.833-2.833"/>
	<path style="&st1;" d="M352.729,51.492c0-0.527-0.428-0.955-0.955-0.955"/>
	<path style="&st1;" d="M351.774,50.537c-0.526,0-0.954,0.427-0.954,0.955"/>
	<path style="&st1;" d="M350.82,51.492c0,0.527,0.428,0.955,0.954,0.955"/>
	<path style="&st1;" d="M351.774,52.446c0.527,0,0.955-0.427,0.955-0.955"/>
	<path style="&st1;" d="M353.049,51.492c0-0.704-0.57-1.275-1.275-1.275"/>
	<path style="&st1;" d="M351.774,50.217c-0.703,0-1.273,0.571-1.273,1.275"/>
	<path style="&st1;" d="M350.5,51.492c0,0.704,0.57,1.275,1.273,1.275"/>
	<path style="&st1;" d="M351.774,52.767c0.705,0,1.275-0.571,1.275-1.275"/>
	<path style="&st0;" d="M409.848,99.65c1.564,0,2.833-1.269,2.833-2.833"/>
	<path style="&st0;" d="M361.689,96.817c0,1.564,1.269,2.833,2.833,2.833"/>
	<path style="&st1;" d="M353.049,65.656c0-0.704-0.57-1.275-1.275-1.275"/>
	<path style="&st1;" d="M351.774,64.381c-0.703,0-1.273,0.571-1.273,1.275"/>
	<path style="&st1;" d="M350.5,65.656c0,0.704,0.57,1.274,1.273,1.274"/>
	<path style="&st1;" d="M351.774,66.931c0.705,0,1.275-0.571,1.275-1.274"/>
	<path style="&st1;" d="M352.729,65.656c0-0.527-0.428-0.955-0.955-0.955"/>
	<path style="&st1;" d="M351.774,64.701c-0.526,0-0.954,0.428-0.954,0.955"/>
	<path style="&st1;" d="M350.82,65.656c0,0.527,0.428,0.955,0.954,0.955"/>
	<path style="&st1;" d="M351.774,66.611c0.527,0,0.955-0.428,0.955-0.955"/>
	<path style="&st1;" d="M367.213,65.656c0-0.704-0.57-1.275-1.274-1.275"/>
	<path style="&st1;" d="M365.939,64.381c-0.704,0-1.275,0.571-1.275,1.275"/>
	<path style="&st1;" d="M364.664,65.656c0,0.704,0.571,1.274,1.275,1.274"/>
	<path style="&st1;" d="M365.939,66.931c0.704,0,1.274-0.571,1.274-1.274"/>
	<path style="&st1;" d="M366.893,65.656c0-0.527-0.427-0.955-0.954-0.955"/>
	<path style="&st1;" d="M365.939,64.701c-0.527,0-0.954,0.428-0.954,0.955"/>
	<path style="&st1;" d="M364.985,65.656c0,0.527,0.427,0.955,0.954,0.955"/>
	<path style="&st1;" d="M365.939,66.611c0.527,0,0.954-0.428,0.954-0.955"/>
	<path style="&st1;" d="M367.213,51.492c0-0.704-0.57-1.275-1.274-1.275"/>
	<path style="&st1;" d="M365.939,50.217c-0.704,0-1.275,0.571-1.275,1.275"/>
	<path style="&st1;" d="M364.664,51.492c0,0.704,0.571,1.275,1.275,1.275"/>
	<path style="&st1;" d="M365.939,52.767c0.704,0,1.274-0.571,1.274-1.275"/>
	<path style="&st1;" d="M366.893,51.492c0-0.527-0.427-0.955-0.954-0.955"/>
	<path style="&st1;" d="M365.939,50.537c-0.527,0-0.954,0.427-0.954,0.955"/>
	<path style="&st1;" d="M364.985,51.492c0,0.527,0.427,0.955,0.954,0.955"/>
	<path style="&st1;" d="M365.939,52.446c0.527,0,0.954-0.427,0.954-0.955"/>
	<path style="&st1;" d="M381.377,51.492c0-0.704-0.57-1.275-1.274-1.275"/>
	<path style="&st1;" d="M380.103,50.217c-0.704,0-1.274,0.571-1.274,1.275"/>
	<path style="&st1;" d="M378.829,51.492c0,0.704,0.57,1.275,1.274,1.275"/>
	<path style="&st1;" d="M380.103,52.767c0.704,0,1.274-0.571,1.274-1.275"/>
	<path style="&st1;" d="M381.057,51.492c0-0.527-0.427-0.955-0.954-0.955"/>
	<path style="&st1;" d="M380.103,50.537c-0.527,0-0.954,0.427-0.954,0.955"/>
	<path style="&st1;" d="M379.149,51.492c0,0.527,0.427,0.955,0.954,0.955"/>
	<path style="&st1;" d="M380.103,52.446c0.527,0,0.954-0.427,0.954-0.955"/>
	<path style="&st1;" d="M381.377,65.656c0-0.704-0.57-1.275-1.274-1.275"/>
	<path style="&st1;" d="M380.103,64.381c-0.704,0-1.274,0.571-1.274,1.275"/>
	<path style="&st1;" d="M378.829,65.656c0,0.704,0.57,1.274,1.274,1.274"/>
	<path style="&st1;" d="M380.103,66.931c0.704,0,1.274-0.571,1.274-1.274"/>
	<path style="&st1;" d="M381.057,65.656c0-0.527-0.427-0.955-0.954-0.955"/>
	<path style="&st1;" d="M380.103,64.701c-0.527,0-0.954,0.428-0.954,0.955"/>
	<path style="&st1;" d="M379.149,65.656c0,0.527,0.427,0.955,0.954,0.955"/>
	<path style="&st1;" d="M380.103,66.611c0.527,0,0.954-0.428,0.954-0.955"/>
	<path style="&st1;" d="M395.542,65.656c0-0.704-0.57-1.275-1.274-1.275"/>
	<path style="&st1;" d="M394.268,64.381c-0.704,0-1.275,0.571-1.275,1.275"/>
	<path style="&st1;" d="M392.993,65.656c0,0.704,0.571,1.274,1.275,1.274"/>
	<path style="&st1;" d="M394.268,66.931c0.704,0,1.274-0.571,1.274-1.274"/>
	<path style="&st1;" d="M395.222,65.656c0-0.527-0.427-0.955-0.954-0.955"/>
	<path style="&st1;" d="M394.268,64.701c-0.527,0-0.955,0.428-0.955,0.955"/>
	<path style="&st1;" d="M393.313,65.656c0,0.527,0.428,0.955,0.955,0.955"/>
	<path style="&st1;" d="M394.268,66.611c0.527,0,0.954-0.428,0.954-0.955"/>
	<path style="&st1;" d="M395.542,51.492c0-0.704-0.57-1.275-1.274-1.275"/>
	<path style="&st1;" d="M394.268,50.217c-0.704,0-1.275,0.571-1.275,1.275"/>
	<path style="&st1;" d="M392.993,51.492c0,0.704,0.571,1.275,1.275,1.275"/>
	<path style="&st1;" d="M394.268,52.767c0.704,0,1.274-0.571,1.274-1.275"/>
	<path style="&st1;" d="M395.222,51.492c0-0.527-0.427-0.955-0.954-0.955"/>
	<path style="&st1;" d="M394.268,50.537c-0.527,0-0.955,0.427-0.955,0.955"/>
	<path style="&st1;" d="M393.313,51.492c0,0.527,0.428,0.955,0.955,0.955"/>
	<path style="&st1;" d="M394.268,52.446c0.527,0,0.954-0.427,0.954-0.955"/>
	<path style="&st1;" d="M409.707,51.492c0-0.704-0.571-1.275-1.275-1.275"/>
	<path style="&st1;" d="M408.431,50.217c-0.704,0-1.274,0.571-1.274,1.275"/>
	<path style="&st1;" d="M407.157,51.492c0,0.704,0.57,1.275,1.274,1.275"/>
	<path style="&st1;" d="M408.431,52.767c0.704,0,1.275-0.571,1.275-1.275"/>
	<path style="&st1;" d="M409.386,51.492c0-0.527-0.427-0.955-0.955-0.955"/>
	<path style="&st1;" d="M408.431,50.537c-0.526,0-0.954,0.427-0.954,0.955"/>
	<path style="&st1;" d="M407.477,51.492c0,0.527,0.428,0.955,0.954,0.955"/>
	<path style="&st1;" d="M408.431,52.446c0.528,0,0.955-0.427,0.955-0.955"/>
	<path style="&st1;" d="M409.707,65.656c0-0.704-0.571-1.275-1.275-1.275"/>
	<path style="&st1;" d="M408.431,64.381c-0.704,0-1.274,0.571-1.274,1.275"/>
	<path style="&st1;" d="M407.157,65.656c0,0.704,0.57,1.274,1.274,1.274"/>
	<path style="&st1;" d="M408.431,66.931c0.704,0,1.275-0.571,1.275-1.274"/>
	<path style="&st1;" d="M409.386,65.656c0-0.527-0.427-0.955-0.955-0.955"/>
	<path style="&st1;" d="M408.431,64.701c-0.526,0-0.954,0.428-0.954,0.955"/>
	<path style="&st1;" d="M407.477,65.656c0,0.527,0.428,0.955,0.954,0.955"/>
	<path style="&st1;" d="M408.431,66.611c0.528,0,0.955-0.428,0.955-0.955"/>
	<path style="&st1;" d="M423.871,65.656c0-0.704-0.57-1.275-1.274-1.275"/>
	<path style="&st1;" d="M422.596,64.381c-0.704,0-1.274,0.571-1.274,1.275"/>
	<path style="&st1;" d="M421.322,65.656c0,0.704,0.57,1.274,1.274,1.274"/>
	<path style="&st1;" d="M422.596,66.931c0.704,0,1.274-0.571,1.274-1.274"/>
	<path style="&st1;" d="M423.551,65.656c0-0.527-0.428-0.955-0.955-0.955"/>
	<path style="&st1;" d="M422.596,64.701c-0.527,0-0.954,0.428-0.954,0.955"/>
	<path style="&st1;" d="M421.642,65.656c0,0.527,0.427,0.955,0.954,0.955"/>
	<path style="&st1;" d="M422.596,66.611c0.527,0,0.955-0.428,0.955-0.955"/>
	<path style="&st1;" d="M423.871,51.492c0-0.704-0.57-1.275-1.274-1.275"/>
	<path style="&st1;" d="M422.596,50.217c-0.704,0-1.274,0.571-1.274,1.275"/>
	<path style="&st1;" d="M421.322,51.492c0,0.704,0.57,1.275,1.274,1.275"/>
	<path style="&st1;" d="M422.596,52.767c0.704,0,1.274-0.571,1.274-1.275"/>
	<path style="&st1;" d="M423.551,51.492c0-0.527-0.428-0.955-0.955-0.955"/>
	<path style="&st1;" d="M422.596,50.537c-0.527,0-0.954,0.427-0.954,0.955"/>
	<path style="&st1;" d="M421.642,51.492c0,0.527,0.427,0.955,0.954,0.955"/>
	<path style="&st1;" d="M422.596,52.446c0.527,0,0.955-0.427,0.955-0.955"/>
	<path style="&st1;" d="M438.035,51.492c0-0.704-0.57-1.275-1.274-1.275"/>
	<path style="&st1;" d="M436.76,50.217c-0.704,0-1.274,0.571-1.274,1.275"/>
	<path style="&st1;" d="M435.486,51.492c0,0.704,0.57,1.275,1.274,1.275"/>
	<path style="&st1;" d="M436.76,52.767c0.704,0,1.274-0.571,1.274-1.275"/>
	<path style="&st1;" d="M437.714,51.492c0-0.527-0.427-0.955-0.954-0.955"/>
	<path style="&st1;" d="M436.76,50.537c-0.527,0-0.955,0.427-0.955,0.955"/>
	<path style="&st1;" d="M435.805,51.492c0,0.527,0.428,0.955,0.955,0.955"/>
	<path style="&st1;" d="M436.76,52.446c0.527,0,0.954-0.427,0.954-0.955"/>
	<path style="&st1;" d="M438.035,65.656c0-0.704-0.57-1.275-1.274-1.275"/>
	<path style="&st1;" d="M436.76,64.381c-0.704,0-1.274,0.571-1.274,1.275"/>
	<path style="&st1;" d="M435.486,65.656c0,0.704,0.57,1.274,1.274,1.274"/>
	<path style="&st1;" d="M436.76,66.931c0.704,0,1.274-0.571,1.274-1.274"/>
	<path style="&st1;" d="M437.714,65.656c0-0.527-0.427-0.955-0.954-0.955"/>
	<path style="&st1;" d="M436.76,64.701c-0.527,0-0.955,0.428-0.955,0.955"/>
	<path style="&st1;" d="M435.805,65.656c0,0.527,0.428,0.955,0.955,0.955"/>
	<path style="&st1;" d="M436.76,66.611c0.527,0,0.954-0.428,0.954-0.955"/>
	<path style="&st1;" d="M452.2,65.656c0-0.704-0.57-1.275-1.274-1.275"/>
	<path style="&st1;" d="M450.925,64.381c-0.704,0-1.275,0.571-1.275,1.275"/>
	<path style="&st1;" d="M449.65,65.656c0,0.704,0.571,1.274,1.275,1.274"/>
	<path style="&st1;" d="M450.925,66.931c0.704,0,1.274-0.571,1.274-1.274"/>
	<path style="&st1;" d="M451.879,65.656c0-0.527-0.428-0.955-0.954-0.955"/>
	<path style="&st1;" d="M450.925,64.701c-0.528,0-0.955,0.428-0.955,0.955"/>
	<path style="&st1;" d="M449.97,65.656c0,0.527,0.427,0.955,0.955,0.955"/>
	<path style="&st1;" d="M450.925,66.611c0.526,0,0.954-0.428,0.954-0.955"/>
	<path style="&st1;" d="M452.2,51.492c0-0.704-0.57-1.275-1.274-1.275"/>
	<path style="&st1;" d="M450.925,50.217c-0.704,0-1.275,0.571-1.275,1.275"/>
	<path style="&st1;" d="M449.65,51.492c0,0.704,0.571,1.275,1.275,1.275"/>
	<path style="&st1;" d="M450.925,52.767c0.704,0,1.274-0.571,1.274-1.275"/>
	<path style="&st1;" d="M451.879,51.492c0-0.527-0.428-0.955-0.954-0.955"/>
	<path style="&st1;" d="M450.925,50.537c-0.528,0-0.955,0.427-0.955,0.955"/>
	<path style="&st1;" d="M449.97,51.492c0,0.527,0.427,0.955,0.955,0.955"/>
	<path style="&st1;" d="M450.925,52.446c0.526,0,0.954-0.427,0.954-0.955"/>
	<path style="&st1;" d="M85.486,78.404v7.082"/>
	<path style="&st1;" d="M258.999,78.404v3.541h-17.706v-3.541"/>
	<path style="&st1;" d="M82.653,78.404v7.082"/>
	<path style="&st1;" d="M88.319,78.404v3.541h14.164v-3.541"/>
	<path style="&st1;" d="M237.043,78.404v3.541h-22.663v-3.541"/>
	<path style="&st1;" d="M210.131,78.404v3.541h-14.164v-3.541"/>
	<path style="&st1;" d="M146.392,51.492v25.496"/>
	<path style="&st1;" d="M156.307,51.492v25.496"/>
	<path style="&st1;" d="M146.392,51.492h9.915"/>
	<path style="&st1;" d="M146.392,64.239h9.915"/>
	<path style="&st1;" d="M146.392,76.987h9.915"/>
	<path style="&st1;" d="M214.381,64.239v11.332h8.499V64.239H214.381"/>
	<path style="&st1;" d="M241.292,47.242v11.332h8.499V47.242H241.292"/>
	<path style="&st1;" d="M119.48,51.492v25.496"/>
	<path style="&st1;" d="M241.292,64.239v11.332h8.499V64.239H241.292"/>
	<path style="&st1;" d="M129.395,51.492v25.496"/>
	<path style="&st1;" d="M119.48,51.492h9.915"/>
	<path style="&st1;" d="M119.48,64.239h9.915"/>
	<path style="&st1;" d="M119.48,76.987h9.915"/>
	<path style="&st1;" d="M214.381,47.242v11.332h8.499V47.242H214.381"/>
	<path style="&st1;" d="M195.967,42.993v12.748"/>
	<path style="&st1;" d="M187.469,61.407v14.164h8.499V61.407H187.469"/>
	<path style="&st1;" d="M187.469,78.404v3.541h-14.165v-3.541"/>
	<path style="&st1;" d="M169.055,78.404v3.541h-22.663v-3.541"/>
	<path style="&st1;" d="M160.557,64.239v11.332h8.499V64.239H160.557"/>
	<path style="&st1;" d="M133.645,47.242v8.499h8.499v-8.499H133.645"/>
	<path style="&st1;" d="M106.732,78.404v3.541h22.663v-3.541"/>
	<path style="&st1;" d="M193.134,78.404v7.082"/>
	<path style="&st1;" d="M190.302,78.404v7.082"/>
	<path style="&st1;" d="M132.228,59.99v18.414"/>
	<path style="&st1;" d="M143.559,59.99v18.414"/>
	<path style="&st1;" d="M132.228,59.99h11.331"/>
	<path style="&st1;" d="M160.557,47.242v11.332h8.499V47.242H160.557"/>
	<path style="&st1;" d="M173.304,51.492v25.496"/>
	<path style="&st1;" d="M183.219,51.492v25.496"/>
	<path style="&st1;" d="M173.304,51.492h9.915"/>
	<path style="&st1;" d="M173.304,64.239h9.915"/>
	<path style="&st1;" d="M173.304,76.987h9.915"/>
	<path style="&st1;" d="M200.216,51.492v25.496"/>
	<path style="&st1;" d="M210.131,51.492v25.496"/>
	<path style="&st1;" d="M200.216,51.492h9.915"/>
	<path style="&st1;" d="M200.216,64.239h9.915"/>
	<path style="&st1;" d="M200.216,76.987h9.915"/>
	<path style="&st1;" d="M227.129,51.492v25.496"/>
	<path style="&st1;" d="M237.043,51.492v25.496"/>
	<path style="&st1;" d="M227.129,51.492h9.915"/>
	<path style="&st1;" d="M227.129,64.239h9.915"/>
	<path style="&st1;" d="M227.129,76.987h9.915"/>
	<path style="&st1;" d="M254.042,51.492v25.496"/>
	<path style="&st1;" d="M263.956,51.492v25.496"/>
	<path style="&st1;" d="M254.042,51.492h9.914"/>
	<path style="&st1;" d="M254.042,64.239h9.914"/>
	<path style="&st1;" d="M254.042,76.987h9.914"/>
	<path style="&st1;" d="M92.568,51.492v25.496"/>
	<path style="&st1;" d="M102.483,51.492v25.496"/>
	<path style="&st1;" d="M92.568,51.492h9.915"/>
	<path style="&st1;" d="M92.568,64.239h9.915"/>
	<path style="&st1;" d="M92.568,76.987h9.915"/>
	<path style="&st1;" d="M65.656,51.492v25.496"/>
	<path style="&st1;" d="M75.571,51.492v25.496"/>
	<path style="&st1;" d="M65.656,51.492h9.915"/>
	<path style="&st1;" d="M65.656,64.239h9.915"/>
	<path style="&st1;" d="M65.656,76.987h9.915"/>
	<path style="&st1;" d="M38.744,51.492v25.496"/>
	<path style="&st1;" d="M48.659,51.492v25.496"/>
	<path style="&st1;" d="M38.744,51.492h9.915"/>
	<path style="&st1;" d="M38.744,64.239h9.915"/>
	<path style="&st1;" d="M38.744,76.987h9.915"/>
	<path style="&st1;" d="M11.832,51.492v25.496"/>
	<path style="&st1;" d="M21.747,51.492v25.496"/>
	<path style="&st1;" d="M11.832,51.492h9.915"/>
	<path style="&st1;" d="M11.832,64.239h9.915"/>
	<path style="&st1;" d="M11.832,76.987h9.915"/>
	<path style="&st1;" d="M263.956,78.404v7.082"/>
	<path style="&st1;" d="M191.01,42.993v12.748"/>
	<path style="&st1;" d="M186.052,49.367v6.374"/>
	<path style="&st1;" d="M186.052,55.741h9.915"/>
	<path style="&st1;" d="M11.832,78.404v7.082"/>
	<path style="&st1;" d="M186.052,49.367h4.958"/>
	<path style="&st1;" d="M212.256,31.662h12.748"/>
	<path style="&st1;" d="M65.656,78.404v3.541H79.82v-3.541"/>
	<path style="&st1;" d="M38.744,78.404v3.541h22.663v-3.541"/>
	<path style="&st1;" d="M225.004,31.662v11.332"/>
	<path style="&st1;" d="M222.171,34.495v8.499h-7.083v-8.499H222.171"/>
	<path style="&st1;" d="M225.004,42.993h44.618"/>
	<path style="&st1;" d="M212.256,31.662v11.332"/>
	<path style="&st1;" d="M173.304,42.993h38.952"/>
	<path style="&st1;" d="M173.304,28.829v14.165"/>
	<path style="&st1;" d="M169.055,28.829h4.249"/>
	<path style="&st1;" d="M169.055,28.829v14.165"/>
	<path style="&st1;" d="M158.432,42.993h10.624"/>
	<path style="&st1;" d="M158.432,31.662v11.332"/>
	<path style="&st1;" d="M16.789,78.404v3.541h17.705v-3.541"/>
	<path style="&st1;" d="M7.488,85.486h260.811"/>
	<path style="&st0;" d="M102.483,91.152L8.032,85.597"/>
	<path style="&st1;" d="M53.616,34.495v8.499h7.082v-8.499H53.616"/>
	<path style="&st0;" d="M102.483,91.152h70.821"/>
	<path style="&st1;" d="M169.055,23.163v5.666"/>
	<path style="&st0;" d="M6.166,59.99H0.5v7.082h5.666"/>
	<path style="&st1;" d="M6.166,78.404h263.456"/>
	<path style="&st0;" d="M17.304,18.928l-9.238,8.209"/>
	<path style="&st0;" d="M21.066,17.498h233.655"/>
	<path style="&st0;" d="M6.166,31.373V59.99"/>
	<path style="&st1;" d="M13.248,31.662v11.332"/>
	<path style="&st1;" d="M166.222,24.58v7.082"/>
	<path style="&st1;" d="M158.432,31.662h7.791"/>
	<path style="&st1;" d="M6.166,59.99v7.082"/>
	<path style="&st0;" d="M6.166,67.072v16.544"/>
	<path style="&st1;" d="M13.248,31.662H6.166"/>
	<path style="&st1;" d="M144.268,31.662h14.164"/>
	<path style="&st1;" d="M131.52,28.829h-21.955"/>
	<path style="&st1;" d="M131.52,31.662v-2.833h12.748v2.833"/>
	<path style="&st0;" d="M269.622,31.373V59.99"/>
	<path style="&st1;" d="M131.52,31.662h-14.164"/>
	<path style="&st1;" d="M117.355,34.495h41.076"/>
	<path style="&st1;" d="M117.355,31.662h-7.791"/>
	<path style="&st1;" d="M109.565,24.58h56.657"/>
	<path style="&st1;" d="M109.565,24.58v7.082"/>
	<path style="&st1;" d="M144.268,28.829h21.955"/>
	<path style="&st1;" d="M262.54,31.662h7.082"/>
	<path style="&st1;" d="M269.622,59.99v7.082"/>
	<path style="&st1;" d="M106.732,23.163v5.666"/>
	<path style="&st1;" d="M106.732,23.163h62.323"/>
	<path style="&st1;" d="M262.54,31.662v11.332"/>
	<path style="&st1;" d="M117.355,31.662v11.332"/>
	<path style="&st1;" d="M117.355,42.993h-10.623"/>
	<path style="&st1;" d="M106.732,28.829v14.165"/>
	<path style="&st1;" d="M106.732,28.829h-4.25"/>
	<path style="&st1;" d="M63.531,31.662v11.332"/>
	<path style="&st1;" d="M102.483,28.829v14.165"/>
	<path style="&st1;" d="M50.783,42.993H6.166"/>
	<path style="&st1;" d="M50.783,31.662v11.332"/>
	<path style="&st1;" d="M102.483,42.993H63.531"/>
	<path style="&st0;" d="M258.483,18.928l9.238,8.209"/>
	<path style="&st1;" d="M63.531,31.662H50.783"/>
	<path style="&st1;" d="M89.735,49.367h-4.958"/>
	<path style="&st1;" d="M89.735,55.741H79.82"/>
	<path style="&st1;" d="M89.735,49.367v6.374"/>
	<path style="&st0;" d="M269.622,59.99h5.666v7.082h-5.666"/>
	<path style="&st1;" d="M84.777,42.993v12.748"/>
	<path style="&st1;" d="M115.231,64.239v11.332h-8.499V64.239H115.231"/>
	<path style="&st1;" d="M115.231,47.242v11.332h-8.499V47.242H115.231"/>
	<path style="&st0;" d="M269.622,67.072v16.544"/>
	<path style="&st1;" d="M88.319,61.407v14.164H79.82V61.407H88.319"/>
	<path style="&st1;" d="M79.82,42.993v12.748"/>
	<path style="&st1;" d="M34.494,64.239v11.332h-8.499V64.239H34.494"/>
	<path style="&st1;" d="M61.406,47.242v11.332h-8.499V47.242H61.406"/>
	<path style="&st0;" d="M173.304,91.152l94.451-5.555"/>
	<path style="&st1;" d="M133.645,78.404v3.541h8.499v-3.541"/>
	<path style="&st1;" d="M34.494,47.242v11.332h-8.499V47.242H34.494"/>
	<path style="&st1;" d="M61.406,64.239v11.332h-8.499V64.239H61.406"/>
	<path style="&st0;" d="M339.027,18.914h5.666"/>
	<path style="&st1;" d="M339.027,18.914l-2.833,2.833"/>
	<path style="&st1;" d="M336.194,21.747v5.666"/>
	<path style="&st0;" d="M347.526,21.747v5.666"/>
	<path style="&st1;" d="M316.364,44.41h141.643"/>
	<path style="&st1;" d="M316.364,72.738h141.643"/>
	<path style="&st1;" d="M316.364,44.41v28.329"/>
	<path style="&st1;" d="M330.528,44.41v28.329"/>
	<path style="&st1;" d="M344.693,44.41v28.329"/>
	<path style="&st1;" d="M358.857,44.41v28.329"/>
	<path style="&st1;" d="M373.021,44.41v28.329"/>
	<path style="&st1;" d="M387.185,44.41v28.329"/>
	<path style="&st1;" d="M401.35,44.41v28.329"/>
	<path style="&st1;" d="M415.514,44.41v28.329"/>
	<path style="&st1;" d="M429.678,44.41v28.329"/>
	<path style="&st1;" d="M443.842,44.41v28.329"/>
	<path style="&st1;" d="M458.006,44.41v28.329"/>
	<path style="&st1;" d="M316.364,58.574h141.643"/>
	<path style="&st0;" d="M344.693,18.914l2.833,2.833"/>
	<path style="&st1;" d="M353.191,30.245v5.666"/>
	<path style="&st1;" d="M312.115,78.404h150.142"/>
	<path style="&st1;" d="M361.689,27.413v8.499"/>
	<path style="&st0;" d="M361.689,24.58v2.833"/>
	<path style="&st0;" d="M350.358,27.413h11.331"/>
	<path style="&st1;" d="M353.191,35.911h8.498"/>
	<path style="&st1;" d="M312.115,27.413v50.991"/>
	<path style="&st1;" d="M312.115,51.492h-7.083v14.165h7.083"/>
	<path style="&st1;" d="M323.123,52.39v-1.796h0.646v1.796"/>
	<path style="&st1;" d="M323.123,66.554v-1.796h0.646v1.796"/>
	<path style="&st0;" d="M361.689,24.58h50.992"/>
	<path style="&st1;" d="M312.115,27.413h11.331"/>
	<path style="&st1;" d="M323.446,27.413v11.331"/>
	<path style="&st1;" d="M323.446,38.744h15.581"/>
	<path style="&st1;" d="M337.288,66.554v-1.796h0.646v1.796"/>
	<path style="&st1;" d="M339.027,27.413v11.331"/>
	<path style="&st1;" d="M377.27,33.078h19.83"/>
	<path style="&st1;" d="M408.431,27.413h-7.081"/>
	<path style="&st1;" d="M408.431,27.413v8.499"/>
	<path style="&st1;" d="M401.35,27.413v11.331"/>
	<path style="&st1;" d="M350.358,27.413v11.331"/>
	<path style="&st1;" d="M401.35,38.744h-4.25"/>
	<path style="&st1;" d="M435.343,27.413h-8.498"/>
	<path style="&st1;" d="M397.1,30.245v8.499"/>
	<path style="&st1;" d="M350.358,38.744h12.748"/>
	<path style="&st1;" d="M337.288,52.39v-1.796h0.646v1.796"/>
	<path style="&st1;" d="M408.431,35.911l2.833,2.833"/>
	<path style="&st1;" d="M424.013,38.744h-12.749"/>
	<path style="&st1;" d="M412.681,81.237v5.666"/>
	<path style="&st1;" d="M365.939,35.911l-2.833,2.833"/>
	<path style="&st1;" d="M377.27,30.245h19.83"/>
	<path style="&st1;" d="M424.013,27.413v11.331"/>
	<path style="&st1;" d="M450.925,38.744h-15.582"/>
	<path style="&st1;" d="M435.343,27.413v11.331"/>
	<path style="&st1;" d="M450.925,27.413v11.331"/>
	<path style="&st1;" d="M377.27,30.245v8.499"/>
	<path style="&st1;" d="M462.256,27.413h-11.331"/>
	<path style="&st1;" d="M462.256,51.492h7.082v14.165h-7.082"/>
	<path style="&st1;" d="M373.021,38.744h4.249"/>
	<path style="&st1;" d="M462.256,27.413v50.991"/>
	<path style="&st1;" d="M373.021,27.413v11.331"/>
	<path style="&st1;" d="M365.939,27.413v8.499"/>
	<path style="&st1;" d="M365.939,27.413h7.082"/>
	<path style="&st1;" d="M336.194,30.245v2.833"/>
	<path style="&st1;" d="M329.112,35.911h4.249"/>
	<path style="&st1;" d="M323.446,27.413h15.581"/>
	<path style="&st1;" d="M326.279,30.245v2.833"/>
	<path style="&st0;" d="M320.614,18.914l1.416-1.417h15.58l1.417,1.417"/>
	<path style="&st0;" d="M303.616,18.914h16.998"/>
	<path style="&st1;" d="M320.614,18.914l2.832,2.833v5.666"/>
	<path style="&st0;" d="M303.616,18.914l-2.832,2.833"/>
	<path style="&st0;" d="M361.689,86.902v9.915"/>
	<path style="&st0;" d="M412.681,86.902v9.915"/>
	<path style="&st0;" d="M426.845,27.413h-2.832"/>
	<path style="&st0;" d="M422.596,86.902h-9.915"/>
	<path style="&st0;" d="M422.596,86.902v2.833"/>
	<path style="&st1;" d="M306.449,48.659h-2.833"/>
	<path style="&st0;" d="M433.928,92.568h-8.5"/>
	<path style="&st0;" d="M422.596,89.735l2.832,2.833"/>
	<path style="&st1;" d="M303.616,48.659l-2.832,2.833"/>
	<path style="&st0;" d="M300.784,89.735l2.832,2.833"/>
	<path style="&st1;" d="M300.784,65.656l2.832,2.833"/>
	<path style="&st1;" d="M303.616,68.489h2.833"/>
	<path style="&st1;" d="M306.449,30.245v18.414"/>
	<path style="&st1;" d="M479.253,38.744h-2.833"/>
	<path style="&st1;" d="M479.253,72.738h-2.833"/>
	<path style="&st1;" d="M309.282,27.413h2.833"/>
	<path style="&st1;" d="M309.282,27.413l-2.833,2.833"/>
	<path style="&st1;" d="M306.449,68.489v9.915l2.833,2.833"/>
	<path style="&st1;" d="M479.253,84.07h-2.833"/>
	<path style="&st1;" d="M479.253,27.413h-2.833"/>
	<path style="&st1;" d="M476.42,24.58v62.323"/>
	<path style="&st1;" d="M309.282,81.237h52.407"/>
	<path style="&st1;" d="M300.784,21.747v67.989"/>
	<path style="&st0;" d="M479.253,24.58v62.323"/>
	<path style="&st0;" d="M303.616,92.568h16.998"/>
	<path style="&st0;" d="M476.42,89.735h-2.833"/>
	<path style="&st1;" d="M323.446,86.902v2.833l-2.832,2.833"/>
	<path style="&st0;" d="M476.42,21.747h-2.833"/>
	<path style="&st0;" d="M453.757,92.568l-1.416,1.416h-16.998l-1.415-1.416"/>
	<path style="&st1;" d="M436.76,86.902v2.833l-2.832,2.833"/>
	<path style="&st1;" d="M450.925,86.902H436.76"/>
	<path style="&st1;" d="M450.925,86.902v2.833l2.832,2.833"/>
	<path style="&st0;" d="M470.755,92.568h-16.998"/>
	<path style="&st1;" d="M473.587,21.747v67.989"/>
	<path style="&st1;" d="M465.088,81.237h-52.407"/>
	<path style="&st1;" d="M467.922,68.489v9.915l-2.834,2.833"/>
	<path style="&st1;" d="M323.446,86.902h14.164"/>
	<path style="&st1;" d="M465.088,27.413l2.834,2.833"/>
	<path style="&st1;" d="M337.61,86.902v2.833l2.833,2.833"/>
	<path style="&st1;" d="M465.088,27.413h-2.832"/>
	<path style="&st1;" d="M467.922,30.245v18.414"/>
	<path style="&st1;" d="M470.755,68.489h-2.833"/>
	<path style="&st1;" d="M473.587,65.656l-2.832,2.833"/>
	<path style="&st0;" d="M320.614,92.568l1.416,1.416h16.997l1.416-1.416"/>
	<path style="&st1;" d="M402.766,93.276l1.416,6.374"/>
	<path style="&st1;" d="M402.766,93.276h-9.915"/>
	<path style="&st0;" d="M297.951,21.747h2.833"/>
	<path style="&st1;" d="M391.434,89.735l1.417,3.541"/>
	<path style="&st0;" d="M297.951,89.735h2.833"/>
	<path style="&st0;" d="M295.118,24.58v62.323"/>
	<path style="&st0;" d="M473.587,89.735l-2.832,2.833"/>
	<path style="&st0;" d="M347.526,27.413h2.832"/>
	<path style="&st0;" d="M435.343,18.914h-5.665"/>
	<path style="&st1;" d="M385.06,96.109h4.25"/>
	<path style="&st1;" d="M467.922,48.659h2.833"/>
	<path style="&st1;" d="M470.755,48.659l2.832,2.833"/>
	<path style="&st1;" d="M385.06,94.693v2.833h4.25v-2.833"/>
	<path style="&st1;" d="M435.343,18.914l2.833,2.833"/>
	<path style="&st1;" d="M297.951,24.58v62.323"/>
	<path style="&st1;" d="M438.176,21.747v5.666"/>
	<path style="&st1;" d="M295.118,27.413h2.833"/>
	<path style="&st0;" d="M426.845,21.747v5.666"/>
	<path style="&st1;" d="M383.644,94.693v-3.541h7.082v3.541"/>
	<path style="&st1;" d="M295.118,84.07h2.833"/>
	<path style="&st1;" d="M295.118,72.738h2.833"/>
	<path style="&st1;" d="M295.118,38.744h2.833"/>
	<path style="&st0;" d="M429.678,18.914l-2.833,2.833"/>
	<path style="&st1;" d="M421.18,30.245v5.666"/>
	<path style="&st0;" d="M351.774,89.735l-2.832,2.833"/>
	<path style="&st0;" d="M340.443,92.568h8.499"/>
	<path style="&st0;" d="M351.774,86.902v2.833"/>
	<path style="&st1;" d="M412.681,27.413v8.499"/>
	<path style="&st0;" d="M351.774,86.902h9.915"/>
	<path style="&st0;" d="M412.681,24.58v2.833"/>
	<path style="&st1;" d="M382.936,89.735l-1.416,3.541"/>
	<path style="&st0;" d="M424.013,27.413h-11.332"/>
	<path style="&st1;" d="M421.18,35.911h-8.499"/>
	<path style="&st1;" d="M339.027,27.413h8.499"/>
	<path style="&st0;" d="M364.522,99.65h45.326"/>
	<path style="&st1;" d="M438.176,30.245v2.833"/>
	<path style="&st1;" d="M371.605,93.276h9.915"/>
	<path style="&st1;" d="M371.605,93.276l-1.417,6.374"/>
	<path style="&st1;" d="M361.689,86.902h2.833l2.833,2.833h39.66l2.833-2.833h2.833"/>
	<path style="&st1;" d="M450.925,27.413h-15.582"/>
	<path style="&st1;" d="M381.52,81.237v4.249h11.331v-4.249H381.52"/>
	<path style="&st1;" d="M448.092,30.245v2.833"/>
	<path style="&st1;" d="M445.259,35.911h-4.25"/>
	<path style="&st1;" d="M365.939,81.237v4.249h11.331v-4.249H365.939"/>
	<path style="&st0;" d="M453.757,18.914l-1.416-1.417H436.76l-1.417,1.417"/>
	<path style="&st0;" d="M470.755,18.914h-16.998"/>
	<path style="&st1;" d="M371.29,94.693h31.791"/>
	<path style="&st1;" d="M361.689,81.237v5.666"/>
	<path style="&st1;" d="M408.431,81.237v4.249H397.1v-4.249H408.431"/>
	<path style="&st1;" d="M351.452,52.39v-1.796h0.646v1.796"/>
	<path style="&st1;" d="M453.757,18.914l-2.832,2.833v5.666"/>
	<path style="&st0;" d="M470.755,18.914l2.832,2.833"/>
	<path style="&st1;" d="M351.452,66.554v-1.796h0.646v1.796"/>
	<path style="&st1;" d="M365.616,66.554v-1.796h0.646v1.796"/>
	<path style="&st1;" d="M365.616,52.39v-1.796h0.646v1.796"/>
	<path style="&st1;" d="M379.781,52.39v-1.796h0.646v1.796"/>
	<path style="&st1;" d="M379.781,66.554v-1.796h0.646v1.796"/>
	<path style="&st1;" d="M393.944,66.554v-1.796h0.646v1.796"/>
	<path style="&st1;" d="M393.944,52.39v-1.796h0.646v1.796"/>
	<path style="&st1;" d="M408.109,52.39v-1.796h0.646v1.796"/>
	<path style="&st1;" d="M408.109,66.554v-1.796h0.646v1.796"/>
	<path style="&st1;" d="M422.273,66.554v-1.796h0.646v1.796"/>
	<path style="&st1;" d="M422.273,52.39v-1.796h0.646v1.796"/>
	<path style="&st1;" d="M436.438,52.39v-1.796h0.646v1.796"/>
	<path style="&st1;" d="M436.438,66.554v-1.796h0.646v1.796"/>
	<path style="&st1;" d="M450.601,66.554v-1.796h0.646v1.796"/>
	<path style="&st1;" d="M450.601,52.39v-1.796h0.646v1.796"/>
	<path style="&st1;" d="M323.446,51.492h127.479"/>
	<path style="&st1;" d="M323.446,65.656h127.479"/>
	<path style="&st0;" d="M137.894,8.999V0.5h249.292v8.499"/>
	<g ewd:pinNo="2">
		<text transform="matrix(1 0 0 1 42.0088 60.0493)"><tspan x="0" y="0" style="&st3; &st2;">2</tspan></text>
	</g>
	<g ewd:pinNo="3">
		<text transform="matrix(1 0 0 1 68.918 60.0493)"><tspan x="0" y="0" style="&st3; &st2;">3</tspan></text>
	</g>
	<g ewd:pinNo="4">
		<text transform="matrix(1 0 0 1 95.8271 60.0493)"><tspan x="0" y="0" style="&st3; &st2;">4</tspan></text>
	</g>
	<g ewd:pinNo="5">
		<text transform="matrix(1 0 0 1 122.7363 60.0493)"><tspan x="0" y="0" style="&st3; &st2;">5</tspan></text>
	</g>
	<g ewd:pinNo="6">
		<text transform="matrix(1 0 0 1 149.646 60.0493)"><tspan x="0" y="0" style="&st3; &st2;">6</tspan></text>
	</g>
	<g ewd:pinNo="7">
		<text transform="matrix(1 0 0 1 176.5562 60.0493)"><tspan x="0" y="0" style="&st3; &st2;">7</tspan></text>
	</g>
	<g ewd:pinNo="1">
		<text transform="matrix(1 0 0 1 15.0996 60.0493)"><tspan x="0" y="0" style="&st3; &st2;">1</tspan></text>
	</g>
	<g ewd:pinNo="10">
		<text transform="matrix(1 0 0 1 255.6147 60.0493)"><tspan x="0" y="0" style="&st3; &st2;">10</tspan></text>
	</g>
	<g ewd:pinNo="11">
		<text transform="matrix(1 0 0 1 13.6543 72.8989)"><tspan x="0" y="0" style="&st3; &st2;">11</tspan></text>
	</g>
	<g ewd:pinNo="12">
		<text transform="matrix(1 0 0 1 40.3408 72.8989)"><tspan x="0" y="0" style="&st3; &st2;">12</tspan></text>
	</g>
	<g ewd:pinNo="8">
		<text transform="matrix(1 0 0 1 203.4644 60.0493)"><tspan x="0" y="0" style="&st3; &st2;">8</tspan></text>
	</g>
	<g ewd:pinNo="14">
		<text transform="matrix(1 0 0 1 94.1592 72.8989)"><tspan x="0" y="0" style="&st3; &st2;">14</tspan></text>
	</g>
	<g ewd:pinNo="13">
		<text transform="matrix(1 0 0 1 67.25 72.8989)"><tspan x="0" y="0" style="&st3; &st2;">13</tspan></text>
	</g>
	<g ewd:pinNo="9">
		<text transform="matrix(1 0 0 1 230.373 60.0493)"><tspan x="0" y="0" style="&st3; &st2;">9</tspan></text>
	</g>
	<g ewd:pinNo="15">
		<text transform="matrix(1 0 0 1 121.0684 72.8989)"><tspan x="0" y="0" style="&st3; &st2;">15</tspan></text>
	</g>
	<g ewd:pinNo="16">
		<text transform="matrix(1 0 0 1 147.978 72.8989)"><tspan x="0" y="0" style="&st3; &st2;">16</tspan></text>
	</g>
	<g ewd:pinNo="17">
		<text transform="matrix(1 0 0 1 174.8872 72.8989)"><tspan x="0" y="0" style="&st3; &st2;">17</tspan></text>
	</g>
	<g ewd:pinNo="18">
		<text transform="matrix(1 0 0 1 201.7964 72.8989)"><tspan x="0" y="0" style="&st3; &st2;">18</tspan></text>
	</g>
	<g ewd:pinNo="19">
		<text transform="matrix(1 0 0 1 228.7051 72.8989)"><tspan x="0" y="0" style="&st3; &st2;">19</tspan></text>
	</g>
	<g ewd:pinNo="20">
		<text transform="matrix(1 0 0 1 255.6147 72.8989)"><tspan x="0" y="0" style="&st3; &st2;">20</tspan></text>
	</g>
</g>
</svg>