﻿<?xml version="1.0"?>
<!-- Generator: Adobe Illustrator 10.0, SVG Export Plug-In . SVG Version: 3.0.0 Build 77)  -->
<!DOCTYPE svg PUBLIC "-//W3C//DTD SVG 1.0//EN" "http://www.w3.org/TR/2001/REC-SVG-20010904/DTD/svg10.dtd"[
	<!ENTITY ns_flows "http://ns.adobe.com/Flows/1.0/">
	<!ENTITY ns_svg "http://www.w3.org/2000/svg">
	<!ENTITY ns_xlink "http://www.w3.org/1999/xlink">
	<!ENTITY st0 "fill:none;">
	<!ENTITY st1 "stroke:#000000;">
	<!ENTITY st2 "stroke-linecap:round;">
	<!ENTITY st3 "stroke-linejoin:round;">
	<!ENTITY st4 "stroke-width:0.6;">
	<!ENTITY st5 "font-size:6px;">
	<!ENTITY st6 "font-family:'Arial';">
	<!ENTITY st7 "stroke-width:1.4;">
	<!ATTLIST svg
		ewd:ver CDATA #IMPLIED
		xmlns:ewd CDATA #FIXED "http://shcl.co.jp/ewd"
		xmlns:a CDATA #FIXED "http://ns.adobe.com/AdobeSVGViewerExtensions/3.0/">
	<!ATTLIST g
		ewd:pinNo CDATA #IMPLIED>
]>
<svg width="99.462" height="77.779" viewBox="0 0 99.462 77.779" style="overflow:visible;enable-background:new 0 0 37.261 46.609" xml:space="preserve" onload="call_execInitLoadProc_svg('connector')" ewd:ver="L2.1.2.9" xmlns="&ns_svg;" xmlns:ewd="http://shcl.co.jp/ewd" xmlns:a="http://ns.adobe.com/AdobeSVGViewerExtensions/3.0/" xmlns:xlink="&ns_xlink;">
<script type="text/javascript" xlink:href="../../../../../system/js/ewd/fig/svgfig.js"/>
<g id="レイヤー_1" transform="translate(0,17.008)">
	<path style="&st0;&st1;&st4;&st2;&st3;" d="M27.129,14.665c1.877,0,3.399-1.522,3.399-3.399"/>
	<path style="&st0;&st1;&st4;&st2;&st3;" d="M6.732,11.265c0,1.877,1.521,3.399,3.399,3.399"/>
	<path style="&st0;&st1;&st4;&st2;&st3;" d="M30.528,22.313c0-1.095-0.888-1.983-1.983-1.983"/>
	<path style="&st0;&st1;&st4;&st2;&st3;" d="M8.715,20.33c-1.095,0-1.983,0.888-1.983,1.983"/>
	<path style="&st0;&st1;&st2;&st3;" d="M0.5,0.5h7.649"/>
	<path style="&st0;&st1;&st4;&st2;&st3;" d="M6.732,6.166h23.796"/>
	<path style="&st0;&st1;&st4;&st2;&st3;" d="M8.715,22.313v14.164h19.83V22.313H8.715"/>
	<path style="&st0;&st1;&st4;&st2;&st3;" d="M18.63,22.313v14.164"/>
	<path style="&st0;&st1;&st4;&st2;&st3;" d="M8.715,46.109V38.46h19.83v7.649"/>
	<path style="&st0;&st1;&st2;&st3;" d="M26.279,0.5l1.417,1.417L29.112,0.5h7.649"/>
	<path style="&st0;&st1;&st4;&st2;&st3;" d="M30.528,6.166v5.099"/>
	<path style="&st0;&st1;&st4;&st2;&st3;" d="M6.732,6.166v5.099"/>
	<path style="&st0;&st1;&st4;&st2;&st3;" d="M6.732,41.86V22.313"/>
	<path style="&st0;&st1;&st4;&st2;&st3;" d="M8.715,20.33h19.83"/>
	<path style="&st0;&st1;&st4;&st2;&st3;" d="M30.528,22.313V41.86"/>
	<path style="&st0;&st1;&st4;&st2;&st3;" d="M4.749,41.86h27.762"/>
	<path style="&st0;&st1;&st4;&st2;&st3;" d="M10.132,14.665h16.997"/>
	<path style="&st0;&st1;&st4;&st2;&st3;" d="M29.846,20.817l2.666-1.903"/>
	<path style="&st0;&st1;&st4;&st2;&st3;" d="M7.415,20.817l-2.666-1.903"/>
	<path style="&st0;&st1;&st4;&st2;&st3;" d="M32.511,3.333V41.86"/>
	<path style="&st0;&st1;&st4;&st2;&st3;" d="M4.749,3.333V41.86"/>
	<path style="&st0;&st1;&st4;&st2;&st3;" d="M15.797,14.665v3.399h5.666v-3.399"/>
	<path style="&st0;&st1;&st4;&st2;&st3;" d="M4.749,16.081h11.048"/>
	<path style="&st0;&st1;&st4;&st2;&st3;" d="M21.463,16.081h11.048"/>
	<path style="&st0;&st1;&st2;&st3;" d="M10.981,0.5L9.565,1.917L8.149,0.5"/>
	<path style="&st0;&st1;&st2;&st3;" d="M10.981,0.5h15.297"/>
	<path style="&st0;&st1;&st4;&st2;&st3;" d="M9.565,6.166v-4.25"/>
	<path style="&st0;&st1;&st4;&st2;&st3;" d="M27.695,1.917v4.25"/>
	<path style="&st0;&st1;&st4;&st2;&st3;" d="M4.749,3.333h27.762"/>
	<path style="&st0;&st1;&st4;&st2;&st3;" d="M15.797,3.333v2.833"/>
	<path style="&st0;&st1;&st4;&st2;&st3;" d="M13.673,41.86v1.983h9.915V41.86"/>
	<path style="&st0;&st1;&st2;&st3;" d="M0.5,0.5v45.609h36.261V0.5"/>
	<path style="&st0;&st1;&st4;&st2;&st3;" d="M26.562,41.86v4.25"/>
	<path style="&st0;&st1;&st4;&st2;&st3;" d="M10.698,41.86v4.25"/>
	<path style="&st0;&st1;&st4;&st2;&st3;" d="M21.463,3.333v2.833"/>
	<g ewd:pinNo="2">
		<text transform="matrix(1 0 0 1 22.0967 31.4463)"><tspan x="0" y="0" style="&st6; &st5;">2</tspan></text>
	</g>
	<g ewd:pinNo="1">
		<text transform="matrix(1 0 0 1 12.1816 31.4463)"><tspan x="0" y="0" style="&st6; &st5;">1</tspan></text>
	</g>
</g>
<g id="レイヤー_1" transform="translate(57.102,17.008)">
	<path style="&st0;&st1;&st2;&st3;" d="M0.5,57.724c0,1.408,1.142,2.55,2.55,2.55"/>
	<path style="&st0;&st1;&st2;&st3;" d="M39.311,60.273c1.408,0,2.549-1.142,2.549-2.55"/>
	<path style="&st0;&st1;&st4;&st2;&st3;" d="M16.223,50.075c-0.782,0-1.417,0.634-1.417,1.416"/>
	<path style="&st0;&st1;&st4;&st2;&st3;" d="M27.554,51.491c0-0.782-0.634-1.416-1.417-1.416"/>
	<path style="&st0;&st1;&st4;&st2;&st3;" d="M30.104,54.041c0-0.782-0.634-1.417-1.417-1.417"/>
	<path style="&st0;&st1;&st4;&st2;&st3;" d="M13.673,52.625c-0.782,0-1.417,0.634-1.417,1.417"/>
	<path style="&st0;&st1;&st4;&st2;&st3;" d="M39.027,10.84c0-0.782-0.634-1.417-1.417-1.417"/>
	<path style="&st0;&st1;&st4;&st2;&st3;" d="M4.75,9.423c-0.782,0-1.417,0.634-1.417,1.417"/>
	<path style="&st0;&st1;&st2;&st3;" d="M7.583,6.874c-3.912,0-7.083,3.17-7.083,7.082"/>
	<path style="&st0;&st1;&st2;&st3;" d="M41.86,13.956c0-3.912-3.17-7.082-7.082-7.082"/>
	<path style="&st0;&st1;&st2;&st3;" d="M7.583,6.874h4.532"/>
	<path style="&st0;&st1;&st4;&st2;&st3;" d="M12.115,6.874h3.966"/>
	<path style="&st0;&st1;&st2;&st3;" d="M30.245,6.874h4.533"/>
	<path style="&st0;&st1;&st4;&st2;&st3;" d="M17.356,55.174v-2.549h7.648v2.549"/>
	<path style="&st0;&st1;&st4;&st2;&st3;" d="M18.63,55.174v1.785h5.099v-1.785"/>
	<path style="&st0;&st1;&st4;&st2;&st3;" d="M2.483,50.075h37.394"/>
	<path style="&st0;&st1;&st4;&st2;&st3;" d="M26.279,6.874h3.966"/>
	<path style="&st0;&st1;&st4;&st2;&st3;" d="M16.081,6.874l1.275,1.274h7.648l1.275-1.274"/>
	<path style="&st0;&st1;&st4;&st2;&st3;" d="M26.279,3.049v3.825"/>
	<path style="&st0;&st1;&st4;&st2;&st3;" d="M16.081,3.049v3.825"/>
	<path style="&st0;&st1;&st2;&st3;" d="M26.279,3.049V0.5h3.966v6.374"/>
	<path style="&st0;&st1;&st4;&st2;&st3;" d="M12.256,55.174h17.847"/>
	<path style="&st0;&st1;&st4;&st2;&st3;" d="M12.256,54.041v6.232"/>
	<path style="&st0;&st1;&st4;&st2;&st3;" d="M30.104,54.041v6.232"/>
	<path style="&st0;&st1;&st2;&st3;" d="M3.05,60.273h36.261"/>
	<path style="&st0;&st1;&st2;&st3;" d="M41.86,13.956v43.768"/>
	<path style="&st0;&st1;&st2;&st3;" d="M0.5,13.956v43.768"/>
	<path style="&st0;&st1;&st2;&st3;" d="M12.115,6.874V0.5h3.966v2.549"/>
	<path style="&st0;&st1;&st4;&st2;&st3;" d="M0.5,43.843h41.36"/>
	<path style="&st0;&st1;&st4;&st2;&st3;" d="M39.027,10.84v33.003"/>
	<path style="&st0;&st1;&st4;&st2;&st3;" d="M4.75,9.423h32.861"/>
	<path style="&st0;&st1;&st4;&st2;&st3;" d="M3.333,10.84v33.003"/>
	<path style="&st0;&st1;&st2;&st3;" d="M16.081,3.049h10.198"/>
	<path style="&st0;&st1;&st4;&st2;&st3;" d="M28.687,52.625h-1.133"/>
	<path style="&st0;&st1;&st4;&st2;&st3;" d="M14.806,52.625h-1.133"/>
	<path style="&st0;&st1;&st4;&st2;&st3;" d="M14.806,52.625v-1.133"/>
	<path style="&st0;&st1;&st4;&st2;&st3;" d="M27.554,51.491v1.133"/>
	<path style="&st0;&st1;&st4;&st2;&st3;" d="M33.928,28.049V13.885H8.432v14.164H33.928"/>
	<path style="&st0;&st1;&st4;&st2;&st3;" d="M21.18,13.885v14.164"/>
	<path style="&st0;&st1;&st4;&st2;&st3;" d="M25.429,28.049v2.833h8.499v12.96"/>
	<path style="&st0;&st1;&st4;&st2;&st3;" d="M8.432,43.843v-12.96h8.499v-2.833"/>
	<path style="&st0;&st1;&st4;&st2;&st3;" d="M3.333,13.956H0.5"/>
	<path style="&st0;&st1;&st4;&st2;&st3;" d="M41.86,13.956h-2.833"/>
	<g ewd:pinNo="2">
		<text transform="matrix(1 0 0 1 13.3413 23.1738)"><tspan x="0" y="0" style="&st6; &st5;">2</tspan></text>
	</g>
	<g ewd:pinNo="1">
		<text transform="matrix(1 0 0 1 25.8057 23.1738)"><tspan x="0" y="0" style="&st6; &st5;">1</tspan></text>
	</g>
</g>
<path d="M18.6305,9.069v-8.504h59.6515v8.504" style="&st0;&st1;&st7;&st2;&st3;"/>
</svg>