﻿<?xml version="1.0"?>
<!-- Generator: Adobe Illustrator 10.0, SVG Export Plug-In . SVG Version: 3.0.0 Build 77)  -->
<!DOCTYPE svg PUBLIC "-//W3C//DTD SVG 1.0//EN" "http://www.w3.org/TR/2001/REC-SVG-20010904/DTD/svg10.dtd"[
	<!ENTITY ns_flows "http://ns.adobe.com/Flows/1.0/">
	<!ENTITY ns_svg "http://www.w3.org/2000/svg">
	<!ENTITY ns_xlink "http://www.w3.org/1999/xlink">
	<!ENTITY st0 "fill:none;stroke:#000000;stroke-linecap:round;stroke-linejoin:round;">
	<!ENTITY st1 "fill:none;stroke:#000000;stroke-width:0.6;stroke-linecap:round;stroke-linejoin:round;">
	<!ENTITY st2 "font-size:6px;">
	<!ENTITY st3 "font-family:'Arial';">
	<!ATTLIST svg
		ewd:ver CDATA #IMPLIED
		xmlns:ewd CDATA #FIXED "http://shcl.co.jp/ewd"
		xmlns:a CDATA #FIXED "http://ns.adobe.com/AdobeSVGViewerExtensions/3.0/">
	<!ATTLIST g
		ewd:pinNo CDATA #IMPLIED>
]>
<svg width="98.173" height="67.867" viewBox="0 0 98.173 67.867" style="overflow:visible;enable-background:new 0 0 98.173 67.867" xml:space="preserve" onload="call_execInitLoadProc_svg('connector')" ewd:ver="L2.1.2.9" xmlns="&ns_svg;" xmlns:ewd="http://shcl.co.jp/ewd" xmlns:a="http://ns.adobe.com/AdobeSVGViewerExtensions/3.0/" xmlns:xlink="&ns_xlink;">
<script type="text/javascript" xlink:href="../../../../../system/js/ewd/fig/svgfig.js"/>
<g id="レイヤー_1">
	<path style="&st1;" d="M75.228,36.206c0-6.258-5.073-11.332-11.332-11.332"/>
	<path style="&st1;" d="M22.82,46.121c0,4.693,3.805,8.499,8.499,8.499"/>
	<path style="&st1;" d="M66.729,54.619c4.693,0,8.499-3.805,8.499-8.499"/>
	<path style="&st1;" d="M34.151,24.874c-6.258,0-11.331,5.073-11.331,11.332"/>
	<path style="&st1;" d="M77.503,22.6c-1.118-1.303-2.584-1.977-4.3-1.977"/>
	<path style="&st1;" d="M24.843,20.625c-1.716,0-3.182,0.674-4.299,1.976"/>
	<path style="&st1;" d="M23.081,54.355c1.822,1.299,3.484,2.228,5.546,3.098"/>
	<path style="&st1;" d="M69.42,57.452c2.061-0.87,3.723-1.798,5.544-3.096"/>
	<path style="&st1;" d="M20.826,56.613c2.095,1.546,4.018,2.647,6.41,3.673"/>
	<path style="&st1;" d="M70.809,60.285c2.393-1.025,4.315-2.127,6.41-3.673"/>
	<path style="&st1;" d="M90.667,31.956c0-6.079-2.891-11.263-8.062-14.459"/>
	<path style="&st1;" d="M73.67,64.534c9.387,0,16.997-7.61,16.997-16.997"/>
	<path style="&st1;" d="M15.44,17.498c-5.171,3.196-8.061,8.38-8.061,14.458"/>
	<path style="&st1;" d="M7.381,47.537c0,9.387,7.61,16.997,16.998,16.997"/>
	<path style="&st0;" d="M87.959,6.245C87.31,2.869,84.442,0.5,81.004,0.5"/>
	<path style="&st0;" d="M90.591,64.534c3.911,0,7.082-3.171,7.082-7.082"/>
	<path style="&st0;" d="M97.673,57.452c0-0.473-0.038-0.873-0.127-1.337"/>
	<path style="&st0;" d="M17.044,0.5c-3.438,0-6.306,2.369-6.955,5.745"/>
	<path style="&st0;" d="M0.5,56.115c-0.738,3.841,1.776,7.553,5.618,8.292"/>
	<path style="&st0;" d="M6.118,64.407c0.464,0.089,0.864,0.127,1.337,0.127"/>
	<path style="&st1;" d="M79.477,29.124V50.37"/>
	<path style="&st1;" d="M14.463,50.512v-2.833"/>
	<path style="&st1;" d="M16.446,26.999v1.983"/>
	<path style="&st1;" d="M14.463,28.982h1.983"/>
	<path style="&st1;" d="M14.463,28.982v2.833"/>
	<path style="&st1;" d="M83.585,50.512v-2.833"/>
	<path style="&st1;" d="M81.602,26.999v1.983"/>
	<path style="&st1;" d="M29.902,36.206v12.748h38.244V36.206H29.902"/>
	<path style="&st1;" d="M42.65,36.206v12.748"/>
	<path style="&st1;" d="M55.398,36.206v12.748"/>
	<path style="&st1;" d="M14.463,50.512h1.983"/>
	<path style="&st1;" d="M10.214,31.814h4.249"/>
	<path style="&st1;" d="M83.585,28.982h-1.983"/>
	<path style="&st1;" d="M14.321,24.874l4.25,4.25"/>
	<path style="&st1;" d="M22.82,36.206v9.915"/>
	<path style="&st1;" d="M75.228,36.206v9.915"/>
	<path style="&st1;" d="M22.82,24.874h52.408"/>
	<path style="&st1;" d="M31.319,54.619h35.411"/>
	<path style="&st1;" d="M18.571,20.625l-4.25,4.25"/>
	<path style="&st1;" d="M83.585,28.982v2.833"/>
	<path style="&st0;" d="M10.089,6.245L0.5,56.115"/>
	<path style="&st1;" d="M18.571,29.124V50.37"/>
	<path style="&st1;" d="M83.727,24.874l-4.25,4.25"/>
	<path style="&st1;" d="M16.446,52.495v-1.983"/>
	<path style="&st1;" d="M83.585,50.512h-1.983"/>
	<path style="&st1;" d="M46.191,24.874v1.983h5.666v-1.983"/>
	<path style="&st1;" d="M18.571,20.625l4.25,4.25"/>
	<path style="&st1;" d="M10.214,47.679h4.249"/>
	<path style="&st1;" d="M79.477,20.625l4.25,4.25"/>
	<path style="&st1;" d="M79.477,20.625l-4.249,4.25"/>
	<path style="&st1;" d="M87.834,31.814h-4.249"/>
	<path style="&st1;" d="M81.602,52.495v-1.983"/>
	<path style="&st1;" d="M14.321,54.619l4.25-4.249"/>
	<path style="&st1;" d="M18.571,58.868l-4.25-4.249"/>
	<path style="&st1;" d="M83.727,54.619l-4.25-4.249"/>
	<path style="&st1;" d="M18.571,58.868l4.51-4.513"/>
	<path style="&st1;" d="M79.477,58.868l4.25-4.249"/>
	<path style="&st1;" d="M79.477,58.868l-4.513-4.513"/>
	<path style="&st1;" d="M24.843,20.625h48.36"/>
	<path style="&st1;" d="M34.293,57.452h29.462"/>
	<path style="&st1;" d="M87.834,31.814v15.864"/>
	<path style="&st1;" d="M87.834,47.679h-4.249"/>
	<path style="&st1;" d="M10.214,31.814v15.864"/>
	<path style="&st1;" d="M34.293,57.452v7.082"/>
	<path style="&st1;" d="M28.627,57.452v7.082"/>
	<path style="&st1;" d="M20.129,64.534h57.79"/>
	<path style="&st1;" d="M34.293,60.285h29.462"/>
	<path style="&st1;" d="M83.727,54.619l-4.25-4.249"/>
	<path style="&st1;" d="M18.571,50.37l4.51,3.985"/>
	<path style="&st1;" d="M79.477,58.868l4.25-4.249"/>
	<path style="&st1;" d="M63.755,57.452v7.082"/>
	<path style="&st1;" d="M69.42,57.452v7.082"/>
	<path style="&st1;" d="M79.477,50.37l-4.513,3.985"/>
	<path style="&st1;" d="M70.809,60.285H69.42"/>
	<path style="&st1;" d="M27.236,60.285h1.391"/>
	<path style="&st1;" d="M7.381,31.814v15.723"/>
	<path style="&st1;" d="M90.667,31.814v15.723"/>
	<path style="&st0;" d="M20.129,64.534l2.833,2.833"/>
	<path style="&st0;" d="M87.959,6.245l9.586,49.87"/>
	<path style="&st0;" d="M77.919,64.534l-2.833,2.833"/>
	<path style="&st0;" d="M77.919,64.534h12.672"/>
	<path style="&st1;" d="M15.44,17.498L19.69,0.5"/>
	<path style="&st1;" d="M78.355,0.5l4.25,16.998"/>
	<path style="&st0;" d="M17.044,0.5h63.96"/>
	<path style="&st0;" d="M7.455,64.534h12.674"/>
	<path style="&st0;" d="M22.962,67.367h52.125"/>
	<path style="&st1;" d="M31.319,0.5v20.125"/>
	<path style="&st1;" d="M66.729,0.5v20.125"/>
	<path style="&st1;" d="M22.522,3.333h8.796"/>
	<path style="&st1;" d="M31.319,17.498h35.411"/>
	<path style="&st1;" d="M22.522,3.333L19.69,17.498"/>
	<path style="&st1;" d="M19.69,17.498h11.629"/>
	<path style="&st1;" d="M31.319,3.333h35.411"/>
	<path style="&st1;" d="M31.319,13.248h35.411"/>
	<path style="&st1;" d="M75.522,3.333h-8.793"/>
	<path style="&st1;" d="M75.522,3.333l2.833,14.165"/>
	<path style="&st1;" d="M78.355,17.498H66.729"/>
	<g ewd:pinNo="1">
		<text transform="matrix(1 0 0 1 34.5103 44.8652)"><tspan x="0" y="0" style="&st3; &st2;">1</tspan></text>
	</g>
	<g ewd:pinNo="2">
		<text transform="matrix(1 0 0 1 47.2583 44.8652)"><tspan x="0" y="0" style="&st3; &st2;">2</tspan></text>
	</g>
	<g ewd:pinNo="3">
		<text transform="matrix(1 0 0 1 60.0059 44.8652)"><tspan x="0" y="0" style="&st3; &st2;">3</tspan></text>
	</g>
</g>
</svg>