﻿<?xml version="1.0" encoding="utf-8"?>
<!DOCTYPE svg PUBLIC "-//W3C//DTD SVG 1.0//EN" "http://www.w3.org/TR/2001/REC-SVG-20010904/DTD/svg10.dtd"[
	<!ENTITY ns_flows "http://ns.adobe.com/Flows/1.0/">
	<!ENTITY ns_svg "http://www.w3.org/2000/svg">
	<!ENTITY ns_xlink "http://www.w3.org/1999/xlink">
	<!ENTITY st0 "font-size:7px;font-family:'MS-PGothic';adobe-font-script:japanese;">
	<!ENTITY st1 "font-size:6px;font-family:'ArialMT';">
	<!-- White fill  -->
	<!ENTITY st2 "fill:#FFFFFF;stroke:#000000; stroke-width:1.41;stroke-linecap:round;stroke-linejoin:round;">
	<!-- Yellow fill  -->
	<!ENTITY st3 "fill:#FFFFCC;stroke:#FFFFCC; stroke-width:0.1;stroke-linecap:round;stroke-linejoin:round;">
	<!-- Gray fill  -->
	<!ENTITY st4 "fill:#CCCCCC;stroke:#CCCCCC; stroke-width:0.1;stroke-linecap:round;stroke-linejoin:round;">
	<!-- Light-blue fill -->
	<!ENTITY st5 "fill:#CCECF4;stroke:#000000; stroke-width:1.133;stroke-linecap:round;stroke-linejoin:round;">
	<!ENTITY st6 "fill:none;stroke-linecap:butt; stroke-linejoin:round;">
	<!ENTITY st7 "fill:none;stroke:#000000;stroke-linecap:round;stroke-linejoin:round;">
	<!ENTITY st8 "enable-background:new    ;">
	<!-- Black fill -->
	<!ENTITY st9 "fill:#000000;stroke:#000000; stroke-linecap:round;stroke-linejoin:round;">
	<!-- SRS note   -->
	<!ENTITY st10 "font-size:9px;font-family:'ArialMT';">
	<!ENTITY st11 "font-size:9px;font-family:'Svg Symbol';">
	<!ENTITY st12 "font-size:6px;font-family:'Svg Symbol';">
	<!ENTITY st13 "fill:none;stroke:#ff0000;stroke-linecap:round;stroke-linejoin:round;">
	<!-- Yellow fill  -->
	<!ENTITY st14 "fill:#FFFF00;stroke:#FFFF00; stroke-width:0.1;stroke-linecap:round;stroke-linejoin:round;">
	<!ENTITY st15 "font-size:6px;font-family:'MS-PGothic';adobe-font-script:japanese;">
	<!ENTITY st16 "1.00 0.00 0.00 1.00">
	<!ENTITY st17 "0.00 -1.00 1.00 0.00">
	<!ENTITY st18 "font-size:6px;font-family:'Arial';">
	<!ENTITY st19 "font-size:9px;font-family:'Arial';">
	<!ENTITY st20 "font-size:6px;font-family:'MS-PGothic','MS PGothic';adobe-font-script:japanese;">
	<!ENTITY st21 "font-size:7px;font-family:'MS-PGothic','MS PGothic';adobe-font-script:japanese;">
	<!ATTLIST svg
		xmlns:ewd CDATA #FIXED "http://shcl.co.jp/ewd"
		xmlns:a CDATA #FIXED "http://ns.adobe.com/AdobeSVGViewerExtensions/3.0/"
		ewd:ver CDATA #IMPLIED
	>
	<!ATTLIST a
		ewd:lineID CDATA #IMPLIED
		ewd:groupID CDATA #IMPLIED
		ewd:figtype CDATA #IMPLIED
		ewd:code CDATA #IMPLIED
		ewd:figID CDATA #IMPLIED
		ewd:pinNo CDATA #IMPLIED
		ewd:comment CDATA #IMPLIED >
	<!ATTLIST g
		ewd:lineID CDATA #IMPLIED
		ewd:groupID CDATA #IMPLIED
		ewd:figtype CDATA #IMPLIED
		ewd:code CDATA #IMPLIED
		ewd:figID CDATA #IMPLIED
		ewd:pinNo CDATA #IMPLIED
		ewd:comment CDATA #IMPLIED >
	<!ATTLIST text
		ewd:textID CDATA #IMPLIED >
	<!ATTLIST title
		ewd:textID CDATA #IMPLIED >
]>
<!-- Generator: Shintec Hozumi YS   -->
<svg onload="call_execInitLoadProc_svg('system')" style="overflow:visible;  enable-background:new 0 0 4131.018 710.000" viewBox="0 0 4131.018 710.000" height="710.000" width="4131.018" xml:space="preserve" ewd:ver="L2.1.2.9" xmlns="&ns_svg;" xmlns:a="http://ns.adobe.com/AdobeSVGViewerExtensions/3.0/" xmlns:ewd="http://shcl.co.jp/ewd" xmlns:xlink="&ns_xlink;">
<path d=" M   365.44,   214.25  L   365.44,   210.00  " style="stroke-width: 0.85 ;&st7;  " /><path d=" M   365.44,   180.26  L   365.44,   184.50  " style="stroke-width: 0.85 ;&st7;  " /><path d=" M   365.44,    69.77  L   365.44,   112.27  " style="stroke-width: 0.85 ;&st7;  " /><path d=" M   367.56,   112.27  L   363.31,   112.27  " style="stroke-width: 1.42 ;&st7;  " /><path d=" M   367.56,   120.77  L   363.31,   120.77  " style="stroke-width: 1.42 ;&st7;  " /><path d=" M   288.95,    69.77  L   288.95,   112.27  " style="stroke-width: 0.85 ;&st7;  " /><path d=" M   291.08,   112.27  L   286.83,   112.27  " style="stroke-width: 1.42 ;&st7;  " /><path d=" M   291.08,   120.77  L   286.83,   120.77  " style="stroke-width: 1.42 ;&st7;  " /><path d=" M   223.09,   112.27  L   218.84,   112.27  " style="stroke-width: 1.42 ;&st7;  " /><path d=" M   223.09,   120.77  L   218.84,   120.77  " style="stroke-width: 1.42 ;&st7;  " /><path d=" M    93.48,   508.17  L    88.51,   503.20  " style="stroke-width: 1.42 ;&st7;  " /><path d=" M    76.49,   515.23  L    81.46,   520.20  " style="stroke-width: 1.42 ;&st7;  " /><path d=" M    88.51,   520.20  L    93.48,   515.23  " style="stroke-width: 1.42 ;&st7;  " /><path d=" M    81.46,   503.20  L    76.49,   508.17  " style="stroke-width: 1.42 ;&st7;  " /><path d=" M   144.48,    69.77  L   144.48,    78.27  " style="stroke-width: 0.85 ;&st7;  " /><path d=" M   146.60,    95.27  L   142.35,    95.27  " style="stroke-width: 1.42 ;&st7;  " /><path d=" M   146.60,   103.77  L   142.35,   103.77  " style="stroke-width: 1.42 ;&st7;  " /><path d=" M   146.60,   231.25  L   142.35,   231.25  " style="stroke-width: 1.42 ;&st7;  " /><path d=" M   146.60,   197.25  L   142.35,   197.25  " style="stroke-width: 1.42 ;&st7;  " /><path d=" M   146.60,   188.75  L   142.35,   188.75  " style="stroke-width: 1.42 ;&st7;  " /><path d=" M   146.60,   239.75  L   142.35,   239.75  " style="stroke-width: 1.42 ;&st7;  " /><path d=" M   365.44,   207.17  L   371.10,   184.50  " style="stroke-width: 1.42 ;&st7;  " /><path d=" M   144.48,    78.27  L   144.48,    95.27  " style="stroke-width: 0.85 ;&st7;  " /><path d=" M   365.44,   107.37  L   362.61,   104.54  L   362.61,   108.79  L   365.44,   111.62  L   368.27,   108.79  L   368.27,   104.54  L   365.44,   107.37  " style="stroke-width: 0.28 ;&st9;  " /><path d=" M   352.69,    35.78  L   352.69,    78.27  L   378.19,    78.27  L   378.19,    35.78  L   352.69,    35.78  " style="stroke-width: 1.42 ;&st7;  " /><path d=" M   288.95,   107.37  L   286.12,   104.54  L   286.12,   108.79  L   288.95,   111.62  L   291.78,   108.79  L   291.78,   104.54  L   288.95,   107.37  " style="stroke-width: 0.28 ;&st9;  " /><path d=" M   276.20,    35.78  L   276.20,    78.27  L   301.70,    78.27  L   301.70,    35.78  L   276.20,    35.78  " style="stroke-width: 1.42 ;&st7;  " /><path d=" M   220.96,   107.37  L   218.13,   104.54  L   218.13,   108.79  L   220.96,   111.62  L   223.80,   108.79  L   223.80,   104.54  L   220.96,   107.37  " style="stroke-width: 0.28 ;&st9;  " /><path d=" M   220.96,   112.27  L   220.96,    95.27  L   288.95,    95.27  " style="stroke-width: 0.85 ;&st7;  " /><path d=" M    67.99,   409.72  L   237.96,   409.72  L   237.96,   367.22  L    67.99,   367.22  L    67.99,   409.72  " style="stroke-width: 1.42 ;&st7;  " /><path d=" M   220.96,   188.75  L   220.96,   205.75  " style="stroke-width: 0.85 ;&st7;  " /><path d=" M   212.46,   188.75  L   229.46,   188.75  L   229.46,   205.75  L   212.46,   205.75  L   212.46,   188.75  " style="stroke-width: 1.42 ;&st7;  " /><path d=" M    84.99,   697.25  L    84.99,   701.50  " style="stroke-width: 0.85 ;&st7;  " /><path d=" M    76.49,   701.50  L    93.48,   701.50  " style="stroke-width: 0.85 ;&st7;  " /><path d=" M    80.74,   704.33  L    89.24,   704.33  " style="stroke-width: 0.85 ;&st7;  " /><path d=" M    82.15,   707.17  L    87.82,   707.17  " style="stroke-width: 0.85 ;&st7;  " /><path d=" M    83.57,   710.00  L    86.40,   710.00  " style="stroke-width: 0.85 ;&st7;  " /><path d=" M   144.48,    90.37  L   141.64,    87.54  L   141.64,    91.79  L   144.48,    94.62  L   147.31,    91.79  L   147.31,    87.54  L   144.48,    90.37  " style="stroke-width: 0.28 ;&st9;  " /><path d=" M   131.73,    35.78  L   131.73,    78.27  L   157.22,    78.27  L   157.22,    35.78  L   131.73,    35.78  " style="stroke-width: 1.42 ;&st7;  " /><path d=" M   144.48,   202.15  L   147.31,   204.98  L   147.31,   200.73  L   144.48,   197.90  L   141.64,   200.73  L   141.64,   204.98  L   144.48,   202.15  " style="stroke-width: 0.28 ;&st9;  " /><path d=" M   144.48,   226.35  L   141.64,   223.52  L   141.64,   227.77  L   144.48,   230.60  L   147.31,   227.77  L   147.31,   223.52  L   144.48,   226.35  " style="stroke-width: 0.28 ;&st9;  " /><path d=" M   144.48,   231.25  L   144.48,   197.25  " style="stroke-width: 0.85 ;&st7;  " /><path d=" M   287.76,    94.27  L   287.49,    94.74  L   287.39,    95.27  L   287.49,    95.80  L   287.76,    96.27  L   288.17,    96.62  L   288.68,    96.81  L   289.22,    96.81  L   289.73,    96.62  L   290.14,    96.27  L   290.42,    95.80  L   290.51,    95.27  L   290.42,    94.74  L   290.14,    94.27  L   289.73,    93.92  L   289.22,    93.73  L   288.68,    93.73  L   288.17,    93.92  L   287.76,    94.27  L   288.15,    94.98  L   288.15,    95.56  L   288.53,    96.01  L   289.10,    96.11  L   289.60,    95.82  L   289.80,    95.27  L   289.60,    94.72  L   289.10,    94.43  L   288.53,    94.53  L   288.95,    95.27  " style="stroke-width: 0.85 ;&st7;  " /><path d=" M   373.94,   180.26  L   356.94,   180.26  L   356.94,   214.25  L   373.94,   214.25  L   373.94,   180.26  " style="stroke-width: 1.42 ;&st7;  " /><path d=" M   144.48,   290.74  L   144.48,   307.73  " style="stroke-width: 0.85 ;&st7;  " /><path d=" M   135.98,   290.74  L   152.97,   290.74  L   152.97,   307.73  L   135.98,   307.73  L   135.98,   290.74  " style="stroke-width: 1.42 ;&st7;  " /><path d=" M   365.44,    47.11  C   362.70     48.72    361.79     52.25    363.40     54.99  " style="stroke-width: 1.42 ;&st7;   " /><path d=" M   363.40,    54.99  C   363.92     55.87    364.56     56.51    365.44     57.03  " style="stroke-width: 1.42 ;&st7;   " /><path d=" M   365.44,    66.94  C   368.18     65.33    369.09     61.80    367.48     59.06  " style="stroke-width: 1.42 ;&st7;   " /><path d=" M   367.48,    59.06  C   366.96     58.18    366.32     57.55    365.44     57.03  " style="stroke-width: 1.42 ;&st7;   " /><path d=" M   366.86,    45.69  C   366.86     44.91    366.22     44.28    365.44     44.28  " style="stroke-width: 0.85 ;&st7;   " /><path d=" M   365.44,    44.28  C   364.66     44.28    364.02     44.91    364.02     45.69  " style="stroke-width: 0.85 ;&st7;   " /><path d=" M   364.02,    45.69  C   364.02     46.48    364.66     47.11    365.44     47.11  " style="stroke-width: 0.85 ;&st7;   " /><path d=" M   365.44,    47.11  C   366.22     47.11    366.86     46.48    366.86     45.69  " style="stroke-width: 0.85 ;&st7;   " /><path d=" M   366.86,    68.36  C   366.86     67.57    366.22     66.94    365.44     66.94  " style="stroke-width: 0.85 ;&st7;   " /><path d=" M   365.44,    66.94  C   364.66     66.94    364.02     67.57    364.02     68.36  " style="stroke-width: 0.85 ;&st7;   " /><path d=" M   364.02,    68.36  C   364.02     69.14    364.66     69.77    365.44     69.77  " style="stroke-width: 0.85 ;&st7;   " /><path d=" M   365.44,    69.77  C   366.22     69.77    366.86     69.14    366.86     68.36  " style="stroke-width: 0.85 ;&st7;   " /><path d=" M   363.31,   112.27  C   360.97    112.27    359.07    114.17    359.07    116.52  " style="stroke-width: 1.42 ;&st7;   " /><path d=" M   359.07,   116.52  C   359.07    118.86    360.97    120.77    363.31    120.77  " style="stroke-width: 1.42 ;&st7;   " /><path d=" M   367.56,   120.77  C   369.91    120.77    371.81    118.86    371.81    116.52  " style="stroke-width: 1.42 ;&st7;   " /><path d=" M   371.81,   116.52  C   371.81    114.17    369.91    112.27    367.56    112.27  " style="stroke-width: 1.42 ;&st7;   " /><path d=" M   288.95,    47.11  C   286.21     48.72    285.30     52.25    286.91     54.99  " style="stroke-width: 1.42 ;&st7;   " /><path d=" M   286.91,    54.99  C   287.43     55.87    288.07     56.51    288.95     57.03  " style="stroke-width: 1.42 ;&st7;   " /><path d=" M   288.95,    66.94  C   291.69     65.33    292.60     61.80    290.99     59.06  " style="stroke-width: 1.42 ;&st7;   " /><path d=" M   290.99,    59.06  C   290.47     58.18    289.83     57.55    288.95     57.03  " style="stroke-width: 1.42 ;&st7;   " /><path d=" M   290.37,    45.69  C   290.37     44.91    289.73     44.28    288.95     44.28  " style="stroke-width: 0.85 ;&st7;   " /><path d=" M   288.95,    44.28  C   288.17     44.28    287.54     44.91    287.54     45.69  " style="stroke-width: 0.85 ;&st7;   " /><path d=" M   287.54,    45.69  C   287.54     46.48    288.17     47.11    288.95     47.11  " style="stroke-width: 0.85 ;&st7;   " /><path d=" M   288.95,    47.11  C   289.73     47.11    290.37     46.48    290.37     45.69  " style="stroke-width: 0.85 ;&st7;   " /><path d=" M   290.37,    68.36  C   290.37     67.57    289.73     66.94    288.95     66.94  " style="stroke-width: 0.85 ;&st7;   " /><path d=" M   288.95,    66.94  C   288.17     66.94    287.54     67.57    287.54     68.36  " style="stroke-width: 0.85 ;&st7;   " /><path d=" M   287.54,    68.36  C   287.54     69.14    288.17     69.77    288.95     69.77  " style="stroke-width: 0.85 ;&st7;   " /><path d=" M   288.95,    69.77  C   289.73     69.77    290.37     69.14    290.37     68.36  " style="stroke-width: 0.85 ;&st7;   " /><path d=" M   286.83,   112.27  C   284.48    112.27    282.58    114.17    282.58    116.52  " style="stroke-width: 1.42 ;&st7;   " /><path d=" M   282.58,   116.52  C   282.58    118.86    284.48    120.77    286.83    120.77  " style="stroke-width: 1.42 ;&st7;   " /><path d=" M   291.08,   120.77  C   293.42    120.77    295.33    118.86    295.33    116.52  " style="stroke-width: 1.42 ;&st7;   " /><path d=" M   295.33,   116.52  C   295.33    114.17    293.42    112.27    291.08    112.27  " style="stroke-width: 1.42 ;&st7;   " /><path d=" M   218.84,   112.27  C   216.49    112.27    214.59    114.17    214.59    116.52  " style="stroke-width: 1.42 ;&st7;   " /><path d=" M   214.59,   116.52  C   214.59    118.86    216.49    120.77    218.84    120.77  " style="stroke-width: 1.42 ;&st7;   " /><path d=" M   223.09,   120.77  C   225.43    120.77    227.34    118.86    227.34    116.52  " style="stroke-width: 1.42 ;&st7;   " /><path d=" M   227.34,   116.52  C   227.34    114.17    225.43    112.27    223.09    112.27  " style="stroke-width: 1.42 ;&st7;   " /><path d=" M   144.48,    47.11  C   141.74     48.72    140.83     52.25    142.44     54.99  " style="stroke-width: 1.42 ;&st7;   " /><path d=" M   142.44,    54.99  C   142.96     55.87    143.59     56.51    144.48     57.03  " style="stroke-width: 1.42 ;&st7;   " /><path d=" M   144.48,    66.94  C   147.21     65.33    148.13     61.80    146.51     59.06  " style="stroke-width: 1.42 ;&st7;   " /><path d=" M   146.51,    59.06  C   145.99     58.18    145.36     57.55    144.48     57.03  " style="stroke-width: 1.42 ;&st7;   " /><path d=" M   145.89,    45.69  C   145.89     44.91    145.26     44.28    144.48     44.28  " style="stroke-width: 0.85 ;&st7;   " /><path d=" M   144.48,    44.28  C   143.69     44.28    143.06     44.91    143.06     45.69  " style="stroke-width: 0.85 ;&st7;   " /><path d=" M   143.06,    45.69  C   143.06     46.48    143.69     47.11    144.48     47.11  " style="stroke-width: 0.85 ;&st7;   " /><path d=" M   144.48,    47.11  C   145.26     47.11    145.89     46.48    145.89     45.69  " style="stroke-width: 0.85 ;&st7;   " /><path d=" M   145.89,    68.36  C   145.89     67.57    145.26     66.94    144.48     66.94  " style="stroke-width: 0.85 ;&st7;   " /><path d=" M   144.48,    66.94  C   143.69     66.94    143.06     67.57    143.06     68.36  " style="stroke-width: 0.85 ;&st7;   " /><path d=" M   143.06,    68.36  C   143.06     69.14    143.69     69.77    144.48     69.77  " style="stroke-width: 0.85 ;&st7;   " /><path d=" M   144.48,    69.77  C   145.26     69.77    145.89     69.14    145.89     68.36  " style="stroke-width: 0.85 ;&st7;   " /><path d=" M   142.35,    95.27  C   140.00     95.27    138.10     97.17    138.10     99.52  " style="stroke-width: 1.42 ;&st7;   " /><path d=" M   138.10,    99.52  C   138.10    101.87    140.00    103.77    142.35    103.77  " style="stroke-width: 1.42 ;&st7;   " /><path d=" M   146.60,   103.77  C   148.95    103.77    150.85    101.87    150.85     99.52  " style="stroke-width: 1.42 ;&st7;   " /><path d=" M   150.85,    99.52  C   150.85     97.17    148.95     95.27    146.60     95.27  " style="stroke-width: 1.42 ;&st7;   " /><path d=" M   146.60,   197.25  C   148.95    197.25    150.85    195.35    150.85    193.00  " style="stroke-width: 1.42 ;&st7;   " /><path d=" M   138.10,   193.00  C   138.10    195.35    140.00    197.25    142.35    197.25  " style="stroke-width: 1.42 ;&st7;   " /><path d=" M   142.35,   188.75  C   140.00    188.75    138.10    190.66    138.10    193.00  " style="stroke-width: 1.42 ;&st7;   " /><path d=" M   150.85,   193.00  C   150.85    190.66    148.95    188.75    146.60    188.75  " style="stroke-width: 1.42 ;&st7;   " /><path d=" M   142.35,   231.25  C   140.00    231.25    138.10    233.15    138.10    235.50  " style="stroke-width: 1.42 ;&st7;   " /><path d=" M   138.10,   235.50  C   138.10    237.84    140.00    239.75    142.35    239.75  " style="stroke-width: 1.42 ;&st7;   " /><path d=" M   146.60,   239.75  C   148.95    239.75    150.85    237.84    150.85    235.50  " style="stroke-width: 1.42 ;&st7;   " /><path d=" M   150.85,   235.50  C   150.85    233.15    148.95    231.25    146.60    231.25  " style="stroke-width: 1.42 ;&st7;   " /><path d=" M   366.86,   208.58  C   366.86    207.80    366.22    207.17    365.44    207.17  " style="stroke-width: 0.85 ;&st7;   " /><path d=" M   365.44,   207.17  C   364.66    207.17    364.02    207.80    364.02    208.58  " style="stroke-width: 0.85 ;&st7;   " /><path d=" M   364.02,   208.58  C   364.02    209.37    364.66    210.00    365.44    210.00  " style="stroke-width: 0.85 ;&st7;   " /><path d=" M   365.44,   210.00  C   366.22    210.00    366.86    209.37    366.86    208.58  " style="stroke-width: 0.85 ;&st7;   " /><path d=" M   366.86,   185.92  C   366.86    185.14    366.22    184.50    365.44    184.50  " style="stroke-width: 0.85 ;&st7;   " /><path d=" M   365.44,   184.50  C   364.66    184.50    364.02    185.14    364.02    185.92  " style="stroke-width: 0.85 ;&st7;   " /><path d=" M   364.02,   185.92  C   364.02    186.70    364.66    187.34    365.44    187.34  " style="stroke-width: 0.85 ;&st7;   " /><path d=" M   365.44,   187.34  C   366.22    187.34    366.86    186.70    366.86    185.92  " style="stroke-width: 0.85 ;&st7;   " /><text style="&st18;" transform="matrix(&st16;  359.25  222.44 )">1</text><text style="&st18;" transform="matrix(&st16;  359.25  176.57 )">2</text><text style="&st18;" transform="matrix(&st16;  381.86  56.17 )">7.5A <tspan dy="6.0" x="0 ">STOP</tspan></text><text style="&st18;" transform="matrix(&st16;  361.51  118.49 )">3D</text><text style="&st18;" transform="matrix(&st16;  351.83  118.49 )">30</text><text style="&st18;" transform="matrix(&st16;  357.4  32.08 )">(BAT)</text><text style="&st18;" transform="matrix(&st16;  305.38  53.34 )">10A <tspan dy="6.0" x="0 ">ECU-IG1 </tspan><tspan dy="6.0" x="0 ">NO.1</tspan></text><text style="&st18;" transform="matrix(&st16;  285.02  118.49 )">3D</text><text style="&st18;" transform="matrix(&st16;  275.34  118.49 )">36</text><text style="&st18;" transform="matrix(&st16;  283.74  32.08 )">(IG)</text><text style="&st18;" transform="matrix(&st16;  217.11  118.49 )">3A</text><text style="&st18;" transform="matrix(&st16;  207.35  118.49 )">56</text><text style="&st18;" transform="matrix(&st16;  211.68  185.06 )">12</text><text style="&st18;" transform="matrix(&st16;  211.68  213.94 )">13</text><text ewd:textID="19" style="&st18;" transform="matrix(&st16;  64.58  363.53 )">Steering Sensor</text><text style="&st18;" transform="matrix(&st16;  64.58  356.42 )">I29</text><text style="&st18;" transform="matrix(&st16;  79.77  406.02 )">ESS</text><text style="&st18;" transform="matrix(&st16;  160.9  53.34 )">10A <tspan dy="6.0" x="0 ">ECU-B </tspan><tspan dy="6.0" x="0 ">NO.1</tspan></text><text style="&st18;" transform="matrix(&st16;  142.68  101.49 )">1</text><text style="&st18;" transform="matrix(&st16;  138.29  86.47 )">2</text><text style="&st18;" transform="matrix(&st16;  136.43  32.08 )">(BAT)</text><text style="&st18;" transform="matrix(&st16;  140.54  194.97 )">3D</text><text style="&st18;" transform="matrix(&st16;  130.87  194.97 )">31</text><text style="&st18;" transform="matrix(&st16;  140.74  237.47 )">3B</text><text style="&st18;" transform="matrix(&st16;  130.87  237.47 )">26</text><text style="&st18;" transform="matrix(&st16;  212.61  406.02 )">CANL</text><text style="&st18;" transform="matrix(&st16;  178.19  406.02 )">CANH</text><text style="&st18;" transform="matrix(&st17;  217.27  147.95 )">B</text><text style="&st18;" transform="matrix(&st17;  285.26  148.07 )">V</text><text style="&st18;" transform="matrix(&st17;  361.74  147.83 )">L</text><text style="&st18;" transform="matrix(&st17;  140.78  148.07 )">V</text><text style="&st18;" transform="matrix(&st17;  81.29  449.67 )">W-B</text><text style="&st18;" transform="matrix(&st17;  217.27  241.43 )">B</text><text style="&st18;" transform="matrix(&st17;  81.29  594.14 )">W-B</text><text style="&st18;" transform="matrix(&st16;  78.8  417.91 )">1</text><text style="&st18;" transform="matrix(&st16;  180.78  417.91 )">3</text><text style="&st18;" transform="matrix(&st16;  214.78  417.91 )">2</text><text style="&st18;" transform="matrix(&st17;  183.27  445.52 )">V</text><text style="&st18;" transform="matrix(&st17;  217.27  446.18 )">W</text><text style="&st18;" transform="matrix(&st16;  490.61  287.04 )">V</text><text style="&st18;" transform="matrix(&st16;  490.81  261.54 )">R</text><text style="&st18;" transform="matrix(&st17;  381.55  217.15 )">A33</text><text ewd:textID="20" style="&st18;" transform="matrix(&st17;  388.66  217.16 )">Stop Light <tspan dy="6.0" x="0 ">Switch Assembly</tspan></text><text style="&st18;" transform="matrix(&st16;  282.77  86.47 )">2</text><text style="&st18;" transform="matrix(&st16;  359.25  86.47 )">2</text><text style="&st18;" transform="matrix(&st16;  217.61  374.86 )">IG</text><text style="&st18;" transform="matrix(&st16;  214.78  363.53 )">4</text><text style="&st18;" transform="matrix(&st16;  138.29  374.86 )">BAT</text><text style="&st18;" transform="matrix(&st16;  138.29  363.53 )">5</text><text style="&st18;" transform="matrix(&st17;  160.59  310.63 )">I125</text><text ewd:textID="12" style="&st18;" transform="matrix(&st17;  167.69  310.64 )">Junction Connector</text><text style="&st18;" transform="matrix(&st16;  138.29  287.05 )">1</text><text style="&st18;" transform="matrix(&st16;  138.29  315.93 )">2</text><text style="&st18;" transform="matrix(&st17;  140.78  267.71 )">W</text><text style="&st18;" transform="matrix(&st17;  140.78  335.69 )">W</text><text style="&st18;" transform="matrix(&st16;  490.61  584.49 )">V</text><text style="&st18;" transform="matrix(&st16;  489.95  567.49 )">W</text><text ewd:textID="12" style="&st18;" transform="matrix(&st17;  208.77  208.66 )">Junction Connector</text><text style="&st18;" transform="matrix(&st17;  201.66  208.65 )">I124</text></svg>