﻿<?xml version="1.0" encoding="utf-8"?>
<!DOCTYPE svg PUBLIC "-//W3C//DTD SVG 1.0//EN" "http://www.w3.org/TR/2001/REC-SVG-20010904/DTD/svg10.dtd"[
	<!ENTITY ns_flows "http://ns.adobe.com/Flows/1.0/">
	<!ENTITY ns_svg "http://www.w3.org/2000/svg">
	<!ENTITY ns_xlink "http://www.w3.org/1999/xlink">
	<!ENTITY st0 "font-size:7px;font-family:'MS-PGothic';adobe-font-script:japanese;">
	<!ENTITY st1 "font-size:6px;font-family:'ArialMT';">
	<!-- White fill  -->
	<!ENTITY st2 "fill:#FFFFFF;stroke:#000000; stroke-width:1.41;stroke-linecap:round;stroke-linejoin:round;">
	<!-- Yellow fill  -->
	<!ENTITY st3 "fill:#FFFFCC;stroke:#FFFFCC; stroke-width:0.1;stroke-linecap:round;stroke-linejoin:round;">
	<!-- Gray fill  -->
	<!ENTITY st4 "fill:#CCCCCC;stroke:#CCCCCC; stroke-width:0.1;stroke-linecap:round;stroke-linejoin:round;">
	<!-- Light-blue fill -->
	<!ENTITY st5 "fill:#CCECF4;stroke:#000000; stroke-width:1.133;stroke-linecap:round;stroke-linejoin:round;">
	<!ENTITY st6 "fill:none;stroke-linecap:butt; stroke-linejoin:round;">
	<!ENTITY st7 "fill:none;stroke:#000000;stroke-linecap:round;stroke-linejoin:round;">
	<!ENTITY st8 "enable-background:new    ;">
	<!-- Black fill -->
	<!ENTITY st9 "fill:#000000;stroke:#000000; stroke-linecap:round;stroke-linejoin:round;">
	<!-- SRS note   -->
	<!ENTITY st10 "font-size:9px;font-family:'ArialMT';">
	<!ENTITY st11 "font-size:9px;font-family:'Svg Symbol';">
	<!ENTITY st12 "font-size:6px;font-family:'Svg Symbol';">
	<!ENTITY st13 "fill:none;stroke:#ff0000;stroke-linecap:round;stroke-linejoin:round;">
	<!-- Yellow fill  -->
	<!ENTITY st14 "fill:#FFFF00;stroke:#FFFF00; stroke-width:0.1;stroke-linecap:round;stroke-linejoin:round;">
	<!ENTITY st15 "font-size:6px;font-family:'MS-PGothic';adobe-font-script:japanese;">
	<!ENTITY st16 "1.00 0.00 0.00 1.00">
	<!ENTITY st17 "0.00 -1.00 1.00 0.00">
	<!ENTITY st18 "font-size:6px;font-family:'Arial';">
	<!ENTITY st19 "font-size:9px;font-family:'Arial';">
	<!ENTITY st20 "font-size:6px;font-family:'MS-PGothic','MS PGothic';adobe-font-script:japanese;">
	<!ENTITY st21 "font-size:7px;font-family:'MS-PGothic','MS PGothic';adobe-font-script:japanese;">
	<!ATTLIST svg
		xmlns:ewd CDATA #FIXED "http://shcl.co.jp/ewd"
		xmlns:a CDATA #FIXED "http://ns.adobe.com/AdobeSVGViewerExtensions/3.0/"
		ewd:ver CDATA #IMPLIED
	>
	<!ATTLIST a
		ewd:lineID CDATA #IMPLIED
		ewd:groupID CDATA #IMPLIED
		ewd:figtype CDATA #IMPLIED
		ewd:code CDATA #IMPLIED
		ewd:figID CDATA #IMPLIED
		ewd:pinNo CDATA #IMPLIED
		ewd:comment CDATA #IMPLIED >
	<!ATTLIST g
		ewd:lineID CDATA #IMPLIED
		ewd:groupID CDATA #IMPLIED
		ewd:figtype CDATA #IMPLIED
		ewd:code CDATA #IMPLIED
		ewd:figID CDATA #IMPLIED
		ewd:pinNo CDATA #IMPLIED
		ewd:comment CDATA #IMPLIED >
	<!ATTLIST text
		ewd:textID CDATA #IMPLIED >
	<!ATTLIST title
		ewd:textID CDATA #IMPLIED >
]>
<!-- Generator: Shintec Hozumi YS   -->
<svg onload="call_execInitLoadProc_svg('system')" style="overflow:visible;  enable-background:new 0 0 5686.258 710.000" viewBox="0 0 5686.258 710.000" height="710.000" width="5686.258" xml:space="preserve" ewd:ver="L2.1.2.9" xmlns="&ns_svg;" xmlns:a="http://ns.adobe.com/AdobeSVGViewerExtensions/3.0/" xmlns:ewd="http://shcl.co.jp/ewd" xmlns:xlink="&ns_xlink;">
<path d=" M  4291.78,   443.71  L  4300.28,   443.71  " style="stroke-width: 1.42 ;&st7;  " /><path d=" M  4325.78,   443.71  L  4334.28,   443.71  " style="stroke-width: 1.42 ;&st7;  " /><path d=" M  4478.75,   452.21  L  4470.25,   452.21  " style="stroke-width: 1.42 ;&st7;  " /><path d=" M  4461.75,   350.23  L  4614.73,   350.23  L  4614.73,   324.73  L  4461.75,   324.73  L  4461.75,   350.23  " style="stroke-width: 1.42 ;&st7;  " /><path d=" M  4470.25,   333.23  L  4606.23,   333.23  " style="stroke-width: 0.85 ;&st7;  " /><path d=" M  4470.25,   350.23  L  4470.25,   333.23  " style="stroke-width: 0.85 ;&st7;  " /><path d=" M  4189.80,   324.73  L  4189.80,   350.23  L  4419.26,   350.23  L  4419.26,   324.73  L  4189.80,   324.73  " style="stroke-width: 1.42 ;&st7;  " /><path d=" M  4299.09,   340.73  L  4298.82,   341.20  L  4298.72,   341.73  L  4298.82,   342.26  L  4299.09,   342.73  L  4299.50,   343.08  L  4300.01,   343.26  L  4300.55,   343.26  L  4301.06,   343.08  L  4301.47,   342.73  L  4301.74,   342.26  L  4301.84,   341.73  L  4301.74,   341.20  L  4301.47,   340.73  L  4301.06,   340.38  L  4300.55,   340.19  L  4300.01,   340.19  L  4299.50,   340.38  L  4299.09,   340.73  L  4299.48,   341.44  L  4299.48,   342.02  L  4299.85,   342.46  L  4300.43,   342.56  L  4300.93,   342.28  L  4301.13,   341.73  L  4300.93,   341.18  L  4300.43,   340.89  L  4299.85,   340.99  L  4300.28,   341.73  " style="stroke-width: 0.85 ;&st7;  " /><path d=" M  4334.27,   324.73  L  4334.27,   350.23  " style="stroke-width: 0.85 ;&st7;  " /><path d=" M  4300.28,   324.73  L  4300.28,   350.23  " style="stroke-width: 0.85 ;&st7;  " /><path d=" M  4410.76,   324.73  L  4410.76,   341.73  L  4198.30,   341.73  L  4198.30,   350.23  " style="stroke-width: 0.85 ;&st7;  " /><path d=" M  4376.77,   324.73  L  4376.77,   333.23  L  4232.29,   333.23  L  4232.29,   350.23  " style="stroke-width: 0.85 ;&st7;  " /><path d=" M  4333.08,   332.23  L  4332.81,   332.70  L  4332.72,   333.23  L  4332.81,   333.76  L  4333.08,   334.23  L  4333.49,   334.58  L  4334.00,   334.77  L  4334.54,   334.77  L  4335.05,   334.58  L  4335.47,   334.23  L  4335.74,   333.76  L  4335.83,   333.23  L  4335.74,   332.70  L  4335.47,   332.23  L  4335.05,   331.88  L  4334.54,   331.69  L  4334.00,   331.69  L  4333.49,   331.88  L  4333.08,   332.23  L  4333.48,   332.94  L  4333.48,   333.52  L  4333.85,   333.97  L  4334.42,   334.07  L  4334.93,   333.78  L  4335.12,   333.23  L  4334.93,   332.68  L  4334.42,   332.39  L  4333.85,   332.49  L  4334.27,   333.23  " style="stroke-width: 0.85 ;&st7;  " /><path d=" M  4385.27,   218.78  L  4398.01,   218.78  " style="stroke-width: 0.85 ;&st7; stroke-dasharray:3, 1.5;" /><path d=" M  4385.27,   227.85  L  4398.01,   227.85  " style="stroke-width: 0.85 ;&st7; stroke-dasharray:3, 1.5;" /><path d=" M  4041.07,   103.77  L  4041.07,   146.26  L  4066.57,   146.26  L  4066.57,   103.77  L  4041.07,   103.77  " style="stroke-width: 1.42 ;&st7;  " /><path d=" M  4053.82,   146.26  L  4053.82,   282.24  " style="stroke-width: 0.85 ;&st7;  " /><path d=" M  4053.82,   137.76  L  4053.82,   146.26  " style="stroke-width: 0.85 ;&st7;  " /><path d=" M  4359.77,   214.25  L  4427.76,   214.25  L  4427.76,   180.26  L  4359.77,   180.26  L  4359.77,   214.25  " style="stroke-width: 1.42 ;&st7;  " /><path d=" M  4376.77,   435.21  L  4376.77,   452.21  " style="stroke-width: 0.85 ;&st7;  " /><path d=" M  4410.76,   435.21  L  4410.76,   452.21  " style="stroke-width: 0.85 ;&st7;  " /><path d=" M  4368.27,   435.21  L  4368.27,   452.21  L  4419.26,   452.21  L  4419.26,   435.21  L  4368.27,   435.21  " style="stroke-width: 1.42 ;&st7;  " /><path d=" M  4409.57,   340.73  L  4409.30,   341.20  L  4409.20,   341.73  L  4409.30,   342.26  L  4409.57,   342.73  L  4409.98,   343.08  L  4410.49,   343.26  L  4411.03,   343.26  L  4411.54,   343.08  L  4411.95,   342.73  L  4412.23,   342.26  L  4412.32,   341.73  L  4412.23,   341.20  L  4411.95,   340.73  L  4411.54,   340.38  L  4411.03,   340.19  L  4410.49,   340.19  L  4409.98,   340.38  L  4409.57,   340.73  L  4409.96,   341.44  L  4409.96,   342.02  L  4410.34,   342.46  L  4410.91,   342.56  L  4411.41,   342.28  L  4411.61,   341.73  L  4411.41,   341.18  L  4410.91,   340.89  L  4410.34,   340.99  L  4410.76,   341.73  " style="stroke-width: 0.85 ;&st7;  " /><path d=" M  4410.76,   350.23  L  4410.76,   341.73  " style="stroke-width: 0.85 ;&st7;  " /><path d=" M  4376.77,   350.23  L  4376.77,   333.23  " style="stroke-width: 0.85 ;&st7;  " /><path d=" M  4375.57,   332.23  L  4375.30,   332.70  L  4375.21,   333.23  L  4375.30,   333.76  L  4375.57,   334.23  L  4375.99,   334.58  L  4376.50,   334.77  L  4377.04,   334.77  L  4377.55,   334.58  L  4377.96,   334.23  L  4378.23,   333.76  L  4378.32,   333.23  L  4378.23,   332.70  L  4377.96,   332.23  L  4377.55,   331.88  L  4377.04,   331.69  L  4376.50,   331.69  L  4375.99,   331.88  L  4375.57,   332.23  L  4375.97,   332.94  L  4375.97,   333.52  L  4376.34,   333.97  L  4376.91,   334.07  L  4377.42,   333.78  L  4377.62,   333.23  L  4377.42,   332.68  L  4376.91,   332.39  L  4376.34,   332.49  L  4376.77,   333.23  " style="stroke-width: 0.85 ;&st7;  " /><path d=" M  4296.03,   434.65  L  4300.28,   438.90  L  4304.53,   434.65  " style="stroke-width: 1.42 ;&st7;  " /><path d=" M  4304.53,   438.05  L  4300.28,   442.29  L  4296.03,   438.05  " style="stroke-width: 1.42 ;&st7;  " /><path d=" M  4330.02,   434.65  L  4334.27,   438.90  L  4338.52,   434.65  " style="stroke-width: 1.42 ;&st7;  " /><path d=" M  4338.52,   438.05  L  4334.27,   442.29  L  4330.02,   438.05  " style="stroke-width: 1.42 ;&st7;  " /><path d=" M  4474.50,   461.27  L  4470.25,   457.03  L  4466.00,   461.27  " style="stroke-width: 1.42 ;&st7;  " /><path d=" M  4474.50,   457.88  L  4470.25,   453.63  L  4466.00,   457.88  " style="stroke-width: 1.42 ;&st7;  " /><path d=" M  4499.71,   320.20  C  4499.71    322.70   4501.74    324.73   4504.25    324.73  " style="stroke-width: 1.42 ;&st7;   " /><path d=" M  4474.79,   354.76  C  4474.79    352.26   4472.76    350.23   4470.25    350.23  " style="stroke-width: 1.42 ;&st7;   " /><path d=" M  4470.25,   350.23  C  4467.75    350.23   4465.72    352.26   4465.72    354.76  " style="stroke-width: 1.42 ;&st7;   " /><path d=" M  4465.72,   354.76  C  4465.72    357.26   4467.75    359.29   4470.25    359.29  " style="stroke-width: 1.42 ;&st7;   " /><path d=" M  4470.25,   359.29  C  4472.76    359.29   4474.79    357.26   4474.79    354.76  " style="stroke-width: 1.42 ;&st7;   " /><path d=" M  4499.71,   354.76  C  4499.71    357.26   4501.74    359.29   4504.25    359.29  " style="stroke-width: 1.42 ;&st7;   " /><path d=" M  4304.81,   320.20  C  4304.81    317.70   4302.78    315.67   4300.28    315.67  " style="stroke-width: 1.42 ;&st7;   " /><path d=" M  4300.28,   315.67  C  4297.78    315.67   4295.75    317.70   4295.75    320.20  " style="stroke-width: 1.42 ;&st7;   " /><path d=" M  4295.75,   320.20  C  4295.75    322.70   4297.78    324.73   4300.28    324.73  " style="stroke-width: 1.42 ;&st7;   " /><path d=" M  4300.28,   324.73  C  4302.78    324.73   4304.81    322.70   4304.81    320.20  " style="stroke-width: 1.42 ;&st7;   " /><path d=" M  4338.81,   320.20  C  4338.81    317.70   4336.78    315.67   4334.28    315.67  " style="stroke-width: 1.42 ;&st7;   " /><path d=" M  4334.28,   315.67  C  4331.77    315.67   4329.74    317.70   4329.74    320.20  " style="stroke-width: 1.42 ;&st7;   " /><path d=" M  4329.74,   320.20  C  4329.74    322.70   4331.77    324.73   4334.28    324.73  " style="stroke-width: 1.42 ;&st7;   " /><path d=" M  4334.28,   324.73  C  4336.78    324.73   4338.81    322.70   4338.81    320.20  " style="stroke-width: 1.42 ;&st7;   " /><path d=" M  4236.83,   354.76  C  4236.83    352.26   4234.80    350.23   4232.29    350.23  " style="stroke-width: 1.42 ;&st7;   " /><path d=" M  4232.29,   350.23  C  4229.79    350.23   4227.76    352.26   4227.76    354.76  " style="stroke-width: 1.42 ;&st7;   " /><path d=" M  4227.76,   354.76  C  4227.76    357.26   4229.79    359.29   4232.29    359.29  " style="stroke-width: 1.42 ;&st7;   " /><path d=" M  4232.29,   359.29  C  4234.80    359.29   4236.83    357.26   4236.83    354.76  " style="stroke-width: 1.42 ;&st7;   " /><path d=" M  4202.83,   354.76  C  4202.83    352.26   4200.80    350.23   4198.30    350.23  " style="stroke-width: 1.42 ;&st7;   " /><path d=" M  4198.30,   350.23  C  4195.80    350.23   4193.77    352.26   4193.77    354.76  " style="stroke-width: 1.42 ;&st7;   " /><path d=" M  4193.77,   354.76  C  4193.77    357.26   4195.80    359.29   4198.30    359.29  " style="stroke-width: 1.42 ;&st7;   " /><path d=" M  4198.30,   359.29  C  4200.80    359.29   4202.83    357.26   4202.83    354.76  " style="stroke-width: 1.42 ;&st7;   " /><path d=" M  4381.30,   320.20  C  4381.30    317.70   4379.27    315.67   4376.77    315.67  " style="stroke-width: 1.42 ;&st7;   " /><path d=" M  4376.77,   315.67  C  4374.27    315.67   4372.24    317.70   4372.24    320.20  " style="stroke-width: 1.42 ;&st7;   " /><path d=" M  4372.24,   320.20  C  4372.24    322.70   4374.27    324.73   4376.77    324.73  " style="stroke-width: 1.42 ;&st7;   " /><path d=" M  4376.77,   324.73  C  4379.27    324.73   4381.30    322.70   4381.30    320.20  " style="stroke-width: 1.42 ;&st7;   " /><path d=" M  4415.30,   320.20  C  4415.30    317.70   4413.27    315.67   4410.76    315.67  " style="stroke-width: 1.42 ;&st7;   " /><path d=" M  4410.76,   315.67  C  4408.26    315.67   4406.23    317.70   4406.23    320.20  " style="stroke-width: 1.42 ;&st7;   " /><path d=" M  4406.23,   320.20  C  4406.23    322.70   4408.26    324.73   4410.76    324.73  " style="stroke-width: 1.42 ;&st7;   " /><path d=" M  4410.76,   324.73  C  4413.27    324.73   4415.30    322.70   4415.30    320.20  " style="stroke-width: 1.42 ;&st7;   " /><path d=" M  4338.81,   354.76  C  4338.81    352.26   4336.78    350.23   4334.28    350.23  " style="stroke-width: 1.42 ;&st7;   " /><path d=" M  4334.28,   350.23  C  4331.77    350.23   4329.74    352.26   4329.74    354.76  " style="stroke-width: 1.42 ;&st7;   " /><path d=" M  4329.74,   354.76  C  4329.74    357.26   4331.77    359.29   4334.28    359.29  " style="stroke-width: 1.42 ;&st7;   " /><path d=" M  4334.28,   359.29  C  4336.78    359.29   4338.81    357.26   4338.81    354.76  " style="stroke-width: 1.42 ;&st7;   " /><path d=" M  4304.81,   354.76  C  4304.81    352.26   4302.78    350.23   4300.28    350.23  " style="stroke-width: 1.42 ;&st7;   " /><path d=" M  4300.28,   350.23  C  4297.78    350.23   4295.75    352.26   4295.75    354.76  " style="stroke-width: 1.42 ;&st7;   " /><path d=" M  4295.75,   354.76  C  4295.75    357.26   4297.78    359.29   4300.28    359.29  " style="stroke-width: 1.42 ;&st7;   " /><path d=" M  4300.28,   359.29  C  4302.78    359.29   4304.81    357.26   4304.81    354.76  " style="stroke-width: 1.42 ;&st7;   " /><path d=" M  4075.35,   337.76  C  4075.35    335.26   4073.32    333.23   4070.82    333.23  " style="stroke-width: 1.42 ;&st7;   " /><path d=" M  4070.82,   333.23  C  4068.32    333.23   4066.29    335.26   4066.29    337.76  " style="stroke-width: 1.42 ;&st7;   " /><path d=" M  4066.29,   337.76  C  4066.29    340.27   4068.32    342.29   4070.82    342.29  " style="stroke-width: 1.42 ;&st7;   " /><path d=" M  4070.82,   342.29  C  4073.32    342.29   4075.35    340.27   4075.35    337.76  " style="stroke-width: 1.42 ;&st7;   " /><path d=" M  4024.36,   337.76  C  4024.36    335.26   4022.33    333.23   4019.83    333.23  " style="stroke-width: 1.42 ;&st7;   " /><path d=" M  4019.83,   333.23  C  4017.33    333.23   4015.30    335.26   4015.30    337.76  " style="stroke-width: 1.42 ;&st7;   " /><path d=" M  4015.30,   337.76  C  4015.30    340.27   4017.33    342.29   4019.83    342.29  " style="stroke-width: 1.42 ;&st7;   " /><path d=" M  4019.83,   342.29  C  4022.33    342.29   4024.36    340.27   4024.36    337.76  " style="stroke-width: 1.42 ;&st7;   " /><path d=" M  4055.24,   136.35  C  4055.24    135.56   4054.60    134.93   4053.82    134.93  " style="stroke-width: 0.85 ;&st7;   " /><path d=" M  4053.82,   134.93  C  4053.04    134.93   4052.41    135.56   4052.41    136.35  " style="stroke-width: 0.85 ;&st7;   " /><path d=" M  4052.41,   136.35  C  4052.41    137.13   4053.04    137.76   4053.82    137.76  " style="stroke-width: 0.85 ;&st7;   " /><path d=" M  4053.82,   137.76  C  4054.60    137.76   4055.24    137.13   4055.24    136.35  " style="stroke-width: 0.85 ;&st7;   " /><path d=" M  4055.24,   113.68  C  4055.24    112.90   4054.60    112.27   4053.82    112.27  " style="stroke-width: 0.85 ;&st7;   " /><path d=" M  4053.82,   112.27  C  4053.04    112.27   4052.41    112.90   4052.41    113.68  " style="stroke-width: 0.85 ;&st7;   " /><path d=" M  4052.41,   113.68  C  4052.41    114.47   4053.04    115.10   4053.82    115.10  " style="stroke-width: 0.85 ;&st7;   " /><path d=" M  4053.82,   115.10  C  4054.60    115.10   4055.24    114.47   4055.24    113.68  " style="stroke-width: 0.85 ;&st7;   " /><path d=" M  4053.82,   134.93  C  4056.56    133.32   4057.47    129.79   4055.86    127.05  " style="stroke-width: 1.42 ;&st7;   " /><path d=" M  4055.86,   127.05  C  4055.34    126.17   4054.70    125.53   4053.82    125.01  " style="stroke-width: 1.42 ;&st7;   " /><path d=" M  4053.82,   115.10  C  4051.08    116.71   4050.17    120.24   4051.79    122.98  " style="stroke-width: 1.42 ;&st7;   " /><path d=" M  4051.79,   122.98  C  4052.31    123.86   4052.94    124.49   4053.82    125.01  " style="stroke-width: 1.42 ;&st7;   " /><path d=" M  4304.81,    82.80  C  4304.81     80.30   4302.78     78.27   4300.28     78.27  " style="stroke-width: 1.42 ;&st7;   " /><path d=" M  4300.28,    78.27  C  4297.78     78.27   4295.75     80.30   4295.75     82.80  " style="stroke-width: 1.42 ;&st7;   " /><path d=" M  4295.75,    82.80  C  4295.75     85.31   4297.78     87.34   4300.28     87.34  " style="stroke-width: 1.42 ;&st7;   " /><path d=" M  4300.28,    87.34  C  4302.78     87.34   4304.81     85.31   4304.81     82.80  " style="stroke-width: 1.42 ;&st7;   " /><path d=" M  4338.81,    82.80  C  4338.81     80.30   4336.78     78.27   4334.28     78.27  " style="stroke-width: 1.42 ;&st7;   " /><path d=" M  4334.28,    78.27  C  4331.77     78.27   4329.74     80.30   4329.74     82.80  " style="stroke-width: 1.42 ;&st7;   " /><path d=" M  4329.74,    82.80  C  4329.74     85.31   4331.77     87.34   4334.28     87.34  " style="stroke-width: 1.42 ;&st7;   " /><path d=" M  4334.28,    87.34  C  4336.78     87.34   4338.81     85.31   4338.81     82.80  " style="stroke-width: 1.42 ;&st7;   " /><path d=" M  4415.30,   227.85  C  4415.30    225.34   4413.27    223.31   4410.76    223.31  " style="stroke-width: 1.42 ;&st7;   " /><path d=" M  4410.76,   223.31  C  4408.26    223.31   4406.23    225.34   4406.23    227.85  " style="stroke-width: 1.42 ;&st7;   " /><path d=" M  4406.23,   227.85  C  4406.23    230.35   4408.26    232.38   4410.76    232.38  " style="stroke-width: 1.42 ;&st7;   " /><path d=" M  4410.76,   232.38  C  4413.27    232.38   4415.30    230.35   4415.30    227.85  " style="stroke-width: 1.42 ;&st7;   " /><path d=" M  4381.30,   227.85  C  4381.30    225.34   4379.27    223.31   4376.77    223.31  " style="stroke-width: 1.42 ;&st7;   " /><path d=" M  4376.77,   223.31  C  4374.27    223.31   4372.24    225.34   4372.24    227.85  " style="stroke-width: 1.42 ;&st7;   " /><path d=" M  4372.24,   227.85  C  4372.24    230.35   4374.27    232.38   4376.77    232.38  " style="stroke-width: 1.42 ;&st7;   " /><path d=" M  4376.77,   232.38  C  4379.27    232.38   4381.30    230.35   4381.30    227.85  " style="stroke-width: 1.42 ;&st7;   " /><path d=" M  4381.30,   218.78  C  4381.30    216.28   4379.27    214.25   4376.77    214.25  " style="stroke-width: 1.42 ;&st7;   " /><path d=" M  4376.77,   214.25  C  4374.27    214.25   4372.24    216.28   4372.24    218.78  " style="stroke-width: 1.42 ;&st7;   " /><path d=" M  4372.24,   218.78  C  4372.24    221.29   4374.27    223.31   4376.77    223.31  " style="stroke-width: 1.42 ;&st7;   " /><path d=" M  4376.77,   223.31  C  4379.27    223.31   4381.30    221.29   4381.30    218.78  " style="stroke-width: 1.42 ;&st7;   " /><path d=" M  4415.30,   218.78  C  4415.30    216.28   4413.27    214.25   4410.76    214.25  " style="stroke-width: 1.42 ;&st7;   " /><path d=" M  4410.76,   214.25  C  4408.26    214.25   4406.23    216.28   4406.23    218.78  " style="stroke-width: 1.42 ;&st7;   " /><path d=" M  4406.23,   218.78  C  4406.23    221.29   4408.26    223.31   4410.76    223.31  " style="stroke-width: 1.42 ;&st7;   " /><path d=" M  4410.76,   223.31  C  4413.27    223.31   4415.30    221.29   4415.30    218.78  " style="stroke-width: 1.42 ;&st7;   " /><path d=" M  4415.30,   354.76  C  4415.30    352.26   4413.27    350.23   4410.76    350.23  " style="stroke-width: 1.42 ;&st7;   " /><path d=" M  4410.76,   350.23  C  4408.26    350.23   4406.23    352.26   4406.23    354.76  " style="stroke-width: 1.42 ;&st7;   " /><path d=" M  4406.23,   354.76  C  4406.23    357.26   4408.26    359.29   4410.76    359.29  " style="stroke-width: 1.42 ;&st7;   " /><path d=" M  4410.76,   359.29  C  4413.27    359.29   4415.30    357.26   4415.30    354.76  " style="stroke-width: 1.42 ;&st7;   " /><path d=" M  4381.30,   354.76  C  4381.30    352.26   4379.27    350.23   4376.77    350.23  " style="stroke-width: 1.42 ;&st7;   " /><path d=" M  4376.77,   350.23  C  4374.27    350.23   4372.24    352.26   4372.24    354.76  " style="stroke-width: 1.42 ;&st7;   " /><path d=" M  4372.24,   354.76  C  4372.24    357.26   4374.27    359.29   4376.77    359.29  " style="stroke-width: 1.42 ;&st7;   " /><path d=" M  4376.77,   359.29  C  4379.27    359.29   4381.30    357.26   4381.30    354.76  " style="stroke-width: 1.42 ;&st7;   " /><path d=" M  4381.30,   456.74  C  4381.30    454.24   4379.27    452.21   4376.77    452.21  " style="stroke-width: 1.42 ;&st7;   " /><path d=" M  4376.77,   452.21  C  4374.27    452.21   4372.24    454.24   4372.24    456.74  " style="stroke-width: 1.42 ;&st7;   " /><path d=" M  4372.24,   456.74  C  4372.24    459.25   4374.27    461.27   4376.77    461.27  " style="stroke-width: 1.42 ;&st7;   " /><path d=" M  4376.77,   461.27  C  4379.27    461.27   4381.30    459.25   4381.30    456.74  " style="stroke-width: 1.42 ;&st7;   " /><path d=" M  4415.30,   456.74  C  4415.30    454.24   4413.27    452.21   4410.76    452.21  " style="stroke-width: 1.42 ;&st7;   " /><path d=" M  4410.76,   452.21  C  4408.26    452.21   4406.23    454.24   4406.23    456.74  " style="stroke-width: 1.42 ;&st7;   " /><path d=" M  4406.23,   456.74  C  4406.23    459.25   4408.26    461.27   4410.76    461.27  " style="stroke-width: 1.42 ;&st7;   " /><path d=" M  4410.76,   461.27  C  4413.27    461.27   4415.30    459.25   4415.30    456.74  " style="stroke-width: 1.42 ;&st7;   " /><path d=" M  4381.30,   430.68  C  4381.30    428.18   4379.27    426.15   4376.77    426.15  " style="stroke-width: 1.42 ;&st7;   " /><path d=" M  4376.77,   426.15  C  4374.27    426.15   4372.24    428.18   4372.24    430.68  " style="stroke-width: 1.42 ;&st7;   " /><path d=" M  4372.24,   430.68  C  4372.24    433.18   4374.27    435.21   4376.77    435.21  " style="stroke-width: 1.42 ;&st7;   " /><path d=" M  4376.77,   435.21  C  4379.27    435.21   4381.30    433.18   4381.30    430.68  " style="stroke-width: 1.42 ;&st7;   " /><path d=" M  4415.30,   430.68  C  4415.30    428.18   4413.27    426.15   4410.76    426.15  " style="stroke-width: 1.42 ;&st7;   " /><path d=" M  4410.76,   426.15  C  4408.26    426.15   4406.23    428.18   4406.23    430.68  " style="stroke-width: 1.42 ;&st7;   " /><path d=" M  4406.23,   430.68  C  4406.23    433.18   4408.26    435.21   4410.76    435.21  " style="stroke-width: 1.42 ;&st7;   " /><path d=" M  4410.76,   435.21  C  4413.27    435.21   4415.30    433.18   4415.30    430.68  " style="stroke-width: 1.42 ;&st7;   " /><text style="&st18;" transform="matrix(&st16;  4495.55  322.17 )">2</text><text style="&st18;" transform="matrix(&st17;  4466.56  385.72 )">P</text><text style="&st18;" transform="matrix(&st17;  4466.56  487.89 )">B</text><text style="&st18;" transform="matrix(&st16;  4461.56  356.73 )">1</text><text style="&st18;" transform="matrix(&st16;  4468.14  356.73 )">F</text><text style="&st18;" transform="matrix(&st16;  4495.55  356.73 )">2</text><text style="&st18;" transform="matrix(&st16;  4161.74  626.98 )">W(RHD)</text><text style="&st18;" transform="matrix(&st16;  4110.74  626.98 )">W(RHD)</text><text style="&st18;" transform="matrix(&st16;  4162.7  609.99 )">P(RHD)</text><text style="&st18;" transform="matrix(&st16;  4111.71  609.99 )">P(RHD)</text><text style="&st18;" transform="matrix(&st16;  4201.97  24.98 )">I77(A),z1(B)</text><text ewd:textID="23" style="&st18;" transform="matrix(&st16;  4201.98  32.08 )">A/C Amplifier Assembly</text><text style="&st18;" transform="matrix(&st16;  4288.49  84.77 )">11</text><text style="&st18;" transform="matrix(&st16;  4297.98  84.77 )">A</text><text style="&st18;" transform="matrix(&st16;  4322.48  84.77 )">12</text><text style="&st18;" transform="matrix(&st16;  4331.97  84.77 )">A</text><text style="&st18;" transform="matrix(&st16;  4356.36  163.5 )">I155(M)</text><text style="&st18;" transform="matrix(&st16;  4402.07  229.82 )">9</text><text style="&st18;" transform="matrix(&st16;  4408.03  229.82 )">M</text><text style="&st18;" transform="matrix(&st16;  4364.97  229.82 )">10</text><text style="&st18;" transform="matrix(&st16;  4374.04  229.82 )">M</text><text style="&st18;" transform="matrix(&st16;  4374.39  220.75 )">D</text><text style="&st18;" transform="matrix(&st16;  4364.97  220.75 )">10</text><text style="&st18;" transform="matrix(&st16;  4368.42  210.55 )">CANL</text><text style="&st18;" transform="matrix(&st16;  4401.98  210.55 )">CANH</text><text style="&st18;" transform="matrix(&st17;  4407.07  305.1 )">R</text><text style="&st18;" transform="matrix(&st17;  4373.07  305.95 )">W</text><text ewd:textID="55" style="&st18;" transform="matrix(&st16;  4356.37  150.5 )">Navigation <tspan dy="6.0" x="0 ">Receiver Assembly</tspan></text><text style="&st18;" transform="matrix(&st16;  4356.36  143.39 )">I67(D)</text><text style="&st18;" transform="matrix(&st16;  4408.38  220.75 )">D</text><text style="&st18;" transform="matrix(&st16;  4402.07  220.75 )">9</text><text style="&st18;" transform="matrix(&st17;  4418.4  315.37 )">(RHD *9)</text><text style="&st18;" transform="matrix(&st17;  4384.41  315.37 )">(RHD *9)</text><text style="&st18;" transform="matrix(&st16;  4415.86  229.82 )">(*9)</text><text style="&st18;" transform="matrix(&st16;  4415.86  220.75 )">(*8)</text><text ewd:textID="59" style="&st18;" transform="matrix(&st16;  4356.37  170.61 )">Radio &amp; Display <tspan dy="6.0" x="0 ">Receiver Assembly</tspan></text><text style="&st18;" transform="matrix(&st17;  4477.89  392.04 )">(LHD)</text><text style="&st18;" transform="matrix(&st17;  4477.89  494.02 )">(LHD)</text><text style="&st18;" transform="matrix(&st17;  4228.6  386.69 )">W</text><text style="&st18;" transform="matrix(&st17;  4194.6  385.72 )">P</text><text style="&st18;" transform="matrix(&st16;  4291.59  322.17 )">1</text><text style="&st18;" transform="matrix(&st16;  4297.82  322.17 )">G</text><text style="&st18;" transform="matrix(&st16;  4325.58  322.17 )">2</text><text style="&st18;" transform="matrix(&st16;  4331.82  322.17 )">G</text><text style="&st18;" transform="matrix(&st16;  4223.6  356.73 )">2</text><text style="&st18;" transform="matrix(&st16;  4229.87  356.73 )">C</text><text style="&st18;" transform="matrix(&st16;  4189.6  356.73 )">1</text><text style="&st18;" transform="matrix(&st16;  4195.88  356.73 )">C</text><text style="&st18;" transform="matrix(&st16;  4368.07  322.17 )">2</text><text style="&st18;" transform="matrix(&st16;  4375.32  322.17 )">J</text><text style="&st18;" transform="matrix(&st16;  4402.07  322.17 )">1</text><text style="&st18;" transform="matrix(&st16;  4409.31  322.17 )">J</text><text style="&st18;" transform="matrix(&st17;  4296.59  305.29 )">V</text><text style="&st18;" transform="matrix(&st17;  4330.58  305.95 )">W</text><text style="&st18;" transform="matrix(&st17;  4341.91  311.34 )">(RHD)</text><text style="&st18;" transform="matrix(&st17;  4205.94  392.08 )">(RHD)</text><text style="&st18;" transform="matrix(&st17;  4239.93  392.08 )">(RHD)</text><text style="&st18;" transform="matrix(&st17;  4307.92  311.34 )">(RHD)</text><text style="&st18;" transform="matrix(&st16;  4325.92  74.58 )">CANL</text><text style="&st18;" transform="matrix(&st16;  4291.5  74.58 )">CANH</text><text style="&st18;" transform="matrix(&st17;  4330.58  386.69 )">W</text><text style="&st18;" transform="matrix(&st17;  4296.59  386.18 )">G</text><text style="&st18;" transform="matrix(&st17;  4296.59  487.89 )">B</text><text style="&st18;" transform="matrix(&st17;  4330.58  488.67 )">W</text><text style="&st18;" transform="matrix(&st16;  4325.58  356.73 )">2</text><text style="&st18;" transform="matrix(&st16;  4333.13  356.73 )">I</text><text style="&st18;" transform="matrix(&st16;  4291.59  356.73 )">1</text><text style="&st18;" transform="matrix(&st16;  4299.14  356.73 )">I</text><text style="&st18;" transform="matrix(&st17;  4307.92  392.08 )">(RHD)</text><text style="&st18;" transform="matrix(&st17;  4341.91  392.08 )">(RHD)</text><text style="&st18;" transform="matrix(&st17;  4307.92  494.06 )">(RHD)</text><text style="&st18;" transform="matrix(&st17;  4341.91  494.06 )">(RHD)</text><text style="&st18;" transform="matrix(&st16;  4062.47  329.53 )">CANL</text><text style="&st18;" transform="matrix(&st16;  4011.05  329.53 )">CANH</text><text style="&st18;" transform="matrix(&st16;  4059.02  339.73 )">13</text><text style="&st18;" transform="matrix(&st16;  4068.63  339.73 )">B</text><text style="&st18;" transform="matrix(&st16;  4008.03  339.73 )">14</text><text style="&st18;" transform="matrix(&st16;  4017.64  339.73 )">B</text><text style="&st18;" transform="matrix(&st16;  4047.64  154.45 )">2</text><text style="&st18;" transform="matrix(&st16;  4002.26  124.16 )">20A <tspan dy="6.0" x="0 ">D/L-AM1</tspan></text><text style="&st18;" transform="matrix(&st16;  4045.31  100.07 )">(ACC)</text><text style="&st18;" transform="matrix(&st16;  4070.25  124.16 )">7.5A <tspan dy="6.0" x="0 ">ECU-ACC</tspan></text><text style="&st18;" transform="matrix(&st16;  4044.54  278.55 )">29</text><text style="&st18;" transform="matrix(&st16;  4047.18  289.87 )">ACC</text><text ewd:textID="54" style="&st18;" transform="matrix(&st17;  4119.53  336.14 )">Main Body ECU</text><text style="&st18;" transform="matrix(&st17;  4112.43  336.13 )">I12(A),I13(B)</text><text style="&st18;" transform="matrix(&st17;  4016.13  377.22 )">P</text><text style="&st18;" transform="matrix(&st17;  4027.46  383.58 )">(RHD)</text><text style="&st18;" transform="matrix(&st17;  4067.12  378.19 )">W</text><text style="&st18;" transform="matrix(&st17;  4078.46  383.58 )">(RHD)</text><text style="&st18;" transform="matrix(&st17;  4041.63  378.19 )">W</text><text style="&st18;" transform="matrix(&st17;  4001.97  383.54 )">(LHD)</text><text style="&st18;" transform="matrix(&st17;  4052.96  383.54 )">(LHD)</text><text style="&st18;" transform="matrix(&st16;  4162.74  660.98 )">P(LHD)</text><text style="&st18;" transform="matrix(&st16;  4111.75  660.98 )">P(LHD)</text><text style="&st18;" transform="matrix(&st16;  4161.77  643.98 )">W(LHD)</text><text style="&st18;" transform="matrix(&st16;  4110.78  643.98 )">W(LHD)</text><text style="&st18;" transform="matrix(&st17;  4407.07  385.91 )">B</text><text style="&st18;" transform="matrix(&st17;  4373.07  386.69 )">W</text><text style="&st18;" transform="matrix(&st16;  4402.07  356.73 )">1</text><text style="&st18;" transform="matrix(&st16;  4408.46  356.73 )">A</text><text style="&st18;" transform="matrix(&st16;  4368.07  356.73 )">2</text><text style="&st18;" transform="matrix(&st16;  4374.46  356.73 )">A</text><text style="&st18;" transform="matrix(&st17;  4384.41  392.08 )">(RHD)</text><text style="&st18;" transform="matrix(&st17;  4418.4  392.08 )">(RHD)</text><text ewd:textID="53" style="&st18;" transform="matrix(&st17;  4433.98  455.12 )">Junction <tspan dy="6.0" x="0 ">Connector</tspan></text><text style="&st18;" transform="matrix(&st17;  4426.87  455.11 )">I94(A),I101(D)</text><text style="&st18;" transform="matrix(&st16;  4402.07  432.65 )">1</text><text style="&st18;" transform="matrix(&st16;  4408.38  432.65 )">D</text><text style="&st18;" transform="matrix(&st16;  4368.07  432.65 )">2</text><text style="&st18;" transform="matrix(&st16;  4374.39  432.65 )">D</text><text style="&st18;" transform="matrix(&st16;  4402.07  458.71 )">1</text><text style="&st18;" transform="matrix(&st16;  4408.46  458.71 )">A</text><text style="&st18;" transform="matrix(&st16;  4368.07  458.71 )">2</text><text style="&st18;" transform="matrix(&st16;  4374.46  458.71 )">A</text><text style="&st18;" transform="matrix(&st17;  4407.07  487.82 )">R</text><text style="&st18;" transform="matrix(&st17;  4373.07  488.67 )">W</text><text style="&st18;" transform="matrix(&st17;  4384.41  494.06 )">(RHD)</text><text style="&st18;" transform="matrix(&st17;  4418.4  494.06 )">(RHD)</text><text ewd:textID="53" style="&st18;" transform="matrix(&st16;  4186.39  321.03 )">Junction Connector</text><text style="&st18;" transform="matrix(&st16;  4186.39  307.99 )">I93(A),I95(C),I102(G), <tspan dy="6.0" x="0 ">I104(I),I107(J)</tspan></text><text style="&st18;" transform="matrix(&st16;  4284.55  449.93 )">18</text><text style="&st18;" transform="matrix(&st16;  4318.54  449.93 )">19</text><text style="&st18;" transform="matrix(&st16;  4454.52  449.93 )">15</text><text style="&st18;" transform="matrix(&st16;  4488.51  449.93 )">14</text></svg>