﻿<?xml version="1.0" encoding="utf-8"?>
<!DOCTYPE svg PUBLIC "-//W3C//DTD SVG 1.0//EN" "http://www.w3.org/TR/2001/REC-SVG-20010904/DTD/svg10.dtd"[
	<!ENTITY ns_flows "http://ns.adobe.com/Flows/1.0/">
	<!ENTITY ns_svg "http://www.w3.org/2000/svg">
	<!ENTITY ns_xlink "http://www.w3.org/1999/xlink">
	<!ENTITY st0 "font-size:7px;font-family:'MS-PGothic';adobe-font-script:japanese;">
	<!ENTITY st1 "font-size:6px;font-family:'ArialMT';">
	<!-- White fill  -->
	<!ENTITY st2 "fill:#FFFFFF;stroke:#000000; stroke-width:1.41;stroke-linecap:round;stroke-linejoin:round;">
	<!-- Yellow fill  -->
	<!ENTITY st3 "fill:#FFFFCC;stroke:#FFFFCC; stroke-width:0.1;stroke-linecap:round;stroke-linejoin:round;">
	<!-- Gray fill  -->
	<!ENTITY st4 "fill:#CCCCCC;stroke:#CCCCCC; stroke-width:0.1;stroke-linecap:round;stroke-linejoin:round;">
	<!-- Light-blue fill -->
	<!ENTITY st5 "fill:#CCECF4;stroke:#000000; stroke-width:1.133;stroke-linecap:round;stroke-linejoin:round;">
	<!ENTITY st6 "fill:none;stroke-linecap:butt; stroke-linejoin:round;">
	<!ENTITY st7 "fill:none;stroke:#000000;stroke-linecap:round;stroke-linejoin:round;">
	<!ENTITY st8 "enable-background:new    ;">
	<!-- Black fill -->
	<!ENTITY st9 "fill:#000000;stroke:#000000; stroke-linecap:round;stroke-linejoin:round;">
	<!-- SRS note   -->
	<!ENTITY st10 "font-size:9px;font-family:'ArialMT';">
	<!ENTITY st11 "font-size:9px;font-family:'Svg Symbol';">
	<!ENTITY st12 "font-size:6px;font-family:'Svg Symbol';">
	<!ENTITY st13 "fill:none;stroke:#ff0000;stroke-linecap:round;stroke-linejoin:round;">
	<!-- Yellow fill  -->
	<!ENTITY st14 "fill:#FFFF00;stroke:#FFFF00; stroke-width:0.1;stroke-linecap:round;stroke-linejoin:round;">
	<!ENTITY st15 "font-size:6px;font-family:'MS-PGothic';adobe-font-script:japanese;">
	<!ENTITY st16 "1.00 0.00 0.00 1.00">
	<!ENTITY st17 "0.00 -1.00 1.00 0.00">
	<!ENTITY st18 "font-size:6px;font-family:'Arial';">
	<!ENTITY st19 "font-size:9px;font-family:'Arial';">
	<!ENTITY st20 "font-size:6px;font-family:'MS-PGothic','MS PGothic';adobe-font-script:japanese;">
	<!ENTITY st21 "font-size:7px;font-family:'MS-PGothic','MS PGothic';adobe-font-script:japanese;">
	<!ATTLIST svg
		xmlns:ewd CDATA #FIXED "http://shcl.co.jp/ewd"
		xmlns:a CDATA #FIXED "http://ns.adobe.com/AdobeSVGViewerExtensions/3.0/"
		ewd:ver CDATA #IMPLIED
	>
	<!ATTLIST a
		ewd:lineID CDATA #IMPLIED
		ewd:groupID CDATA #IMPLIED
		ewd:figtype CDATA #IMPLIED
		ewd:code CDATA #IMPLIED
		ewd:figID CDATA #IMPLIED
		ewd:pinNo CDATA #IMPLIED
		ewd:comment CDATA #IMPLIED >
	<!ATTLIST g
		ewd:lineID CDATA #IMPLIED
		ewd:groupID CDATA #IMPLIED
		ewd:figtype CDATA #IMPLIED
		ewd:code CDATA #IMPLIED
		ewd:figID CDATA #IMPLIED
		ewd:pinNo CDATA #IMPLIED
		ewd:comment CDATA #IMPLIED >
	<!ATTLIST text
		ewd:textID CDATA #IMPLIED >
	<!ATTLIST title
		ewd:textID CDATA #IMPLIED >
]>
<!-- Generator: Shintec Hozumi YS   -->
<svg onload="call_execInitLoadProc_svg('system')" style="overflow:visible;  enable-background:new 0 0 447.657 710.000" viewBox="0 0 447.657 710.000" height="710.000" width="447.657" xml:space="preserve" ewd:ver="L2.1.2.9" xmlns="&ns_svg;" xmlns:a="http://ns.adobe.com/AdobeSVGViewerExtensions/3.0/" xmlns:ewd="http://shcl.co.jp/ewd" xmlns:xlink="&ns_xlink;">
<path d=" M   288.95,    69.77  L   288.95,   103.77  " style="stroke-width: 0.85 ;&st7;  " /><path d=" M   291.08,   103.77  L   286.83,   103.77  " style="stroke-width: 1.42 ;&st7;  " /><path d=" M   291.08,   112.27  L   286.83,   112.27  " style="stroke-width: 1.42 ;&st7;  " /><path d=" M   297.45,   197.25  L   288.95,   197.25  " style="stroke-width: 1.42 ;&st7;  " /><path d=" M   280.45,   571.19  L   288.95,   571.19  " style="stroke-width: 1.42 ;&st7;  " /><path d=" M   348.44,   261.71  L   343.47,   256.74  " style="stroke-width: 1.42 ;&st7;  " /><path d=" M   331.44,   268.77  L   336.41,   273.74  " style="stroke-width: 1.42 ;&st7;  " /><path d=" M   343.47,   273.74  L   348.44,   268.77  " style="stroke-width: 1.42 ;&st7;  " /><path d=" M   336.41,   256.74  L   331.44,   261.71  " style="stroke-width: 1.42 ;&st7;  " /><path d=" M   297.45,   482.68  L   292.48,   477.71  " style="stroke-width: 1.42 ;&st7;  " /><path d=" M   280.45,   489.73  L   285.42,   494.70  " style="stroke-width: 1.42 ;&st7;  " /><path d=" M   292.48,   494.70  L   297.45,   489.73  " style="stroke-width: 1.42 ;&st7;  " /><path d=" M   285.42,   477.71  L   280.45,   482.68  " style="stroke-width: 1.42 ;&st7;  " /><path d=" M   280.45,   701.50  L   297.45,   701.50  " style="stroke-width: 0.85 ;&st7;  " /><path d=" M   293.20,   565.52  L   288.95,   569.77  L   284.70,   565.52  " style="stroke-width: 1.42 ;&st7;  " /><path d=" M   284.70,   562.12  L   288.95,   566.37  L   293.20,   562.12  " style="stroke-width: 1.42 ;&st7;  " /><path d=" M   293.20,   206.32  L   288.95,   202.07  L   284.70,   206.32  " style="stroke-width: 1.42 ;&st7;  " /><path d=" M   293.20,   202.92  L   288.95,   198.67  L   284.70,   202.92  " style="stroke-width: 1.42 ;&st7;  " /><path d=" M   286.12,   707.17  L   291.78,   707.17  " style="stroke-width: 0.85 ;&st7;  " /><path d=" M   287.54,   710.00  L   290.37,   710.00  " style="stroke-width: 0.85 ;&st7;  " /><path d=" M   288.95,   697.25  L   288.95,   701.50  " style="stroke-width: 0.85 ;&st7;  " /><path d=" M   284.70,   704.33  L   293.20,   704.33  " style="stroke-width: 0.85 ;&st7;  " /><path d=" M   276.20,    35.78  L   276.20,    78.27  L   301.70,    78.27  L   301.70,    35.78  L   276.20,    35.78  " style="stroke-width: 1.42 ;&st7;  " /><path d=" M   288.95,    98.87  L   286.12,    96.04  L   286.12,   100.29  L   288.95,   103.12  L   291.78,   100.29  L   291.78,    96.04  L   288.95,    98.87  " style="stroke-width: 0.28 ;&st9;  " /><path d=" M   263.46,   401.22  L   314.45,   401.22  L   314.45,   350.23  L   263.46,   350.23  L   263.46,   401.22  " style="stroke-width: 1.42 ;&st7;  " /><path d=" M   288.95,    47.11  C   286.21     48.72    285.30     52.25    286.91     54.99  " style="stroke-width: 1.42 ;&st7;   " /><path d=" M   286.91,    54.99  C   287.43     55.87    288.07     56.51    288.95     57.03  " style="stroke-width: 1.42 ;&st7;   " /><path d=" M   288.95,    66.94  C   291.69     65.33    292.60     61.80    290.99     59.06  " style="stroke-width: 1.42 ;&st7;   " /><path d=" M   290.99,    59.06  C   290.47     58.18    289.83     57.55    288.95     57.03  " style="stroke-width: 1.42 ;&st7;   " /><path d=" M   290.37,    45.69  C   290.37     44.91    289.73     44.28    288.95     44.28  " style="stroke-width: 0.85 ;&st7;   " /><path d=" M   288.95,    44.28  C   288.17     44.28    287.54     44.91    287.54     45.69  " style="stroke-width: 0.85 ;&st7;   " /><path d=" M   287.54,    45.69  C   287.54     46.48    288.17     47.11    288.95     47.11  " style="stroke-width: 0.85 ;&st7;   " /><path d=" M   288.95,    47.11  C   289.73     47.11    290.37     46.48    290.37     45.69  " style="stroke-width: 0.85 ;&st7;   " /><path d=" M   290.37,    68.36  C   290.37     67.57    289.73     66.94    288.95     66.94  " style="stroke-width: 0.85 ;&st7;   " /><path d=" M   288.95,    66.94  C   288.17     66.94    287.54     67.57    287.54     68.36  " style="stroke-width: 0.85 ;&st7;   " /><path d=" M   287.54,    68.36  C   287.54     69.14    288.17     69.77    288.95     69.77  " style="stroke-width: 0.85 ;&st7;   " /><path d=" M   288.95,    69.77  C   289.73     69.77    290.37     69.14    290.37     68.36  " style="stroke-width: 0.85 ;&st7;   " /><path d=" M   286.83,   103.77  C   284.48    103.77    282.58    105.67    282.58    108.02  " style="stroke-width: 1.42 ;&st7;   " /><path d=" M   282.58,   108.02  C   282.58    110.36    284.48    112.27    286.83    112.27  " style="stroke-width: 1.42 ;&st7;   " /><path d=" M   291.08,   112.27  C   293.42    112.27    295.33    110.36    295.33    108.02  " style="stroke-width: 1.42 ;&st7;   " /><path d=" M   295.33,   108.02  C   295.33    105.67    293.42    103.77    291.08    103.77  " style="stroke-width: 1.42 ;&st7;   " /><text style="&st18;" transform="matrix(&st16;  305.38  53.34 )">10A <tspan dy="6.0" x="0 ">ECU-IG1 </tspan><tspan dy="6.0" x="0 ">NO.2</tspan></text><text style="&st18;" transform="matrix(&st16;  285.21  109.99 )">3B</text><text style="&st18;" transform="matrix(&st16;  275.34  109.99 )">11</text><text style="&st18;" transform="matrix(&st16;  283.74  32.08 )">(IG)</text><text ewd:textID="3" style="&st18;" transform="matrix(&st17;  329.17  404.12 )">Inner Rear View <tspan dy="6.0" x="0 ">Mirror Assembly</tspan></text><text style="&st18;" transform="matrix(&st17;  285.26  619.64 )">W-B</text><text style="&st18;" transform="matrix(&st17;  285.26  447.26 )">BR</text><text style="&st18;" transform="matrix(&st16;  286.84  397.52 )">E</text><text style="&st18;" transform="matrix(&st17;  322.06  404.12 )">S13</text><text style="&st18;" transform="matrix(&st16;  285.6  357.86 )">IG</text><text style="&st18;" transform="matrix(&st17;  285.26  275.43 )">B</text><text style="&st18;" transform="matrix(&st16;  276.32  194.97 )">8</text><text style="&st18;" transform="matrix(&st16;  273.22  577.41 )">18</text><text style="&st18;" transform="matrix(&st17;  285.26  534.65 )">W-B</text><text style="&st18;" transform="matrix(&st17;  285.26  158.58 )">GR</text><text style="&st18;" transform="matrix(&st16;  282.77  86.47 )">2</text><text style="&st18;" transform="matrix(&st17;  296.59  278.45 )">(*8)</text><text style="&st18;" transform="matrix(&st17;  336.25  300.92 )">B</text><text style="&st18;" transform="matrix(&st17;  336.25  243.57 )">GR</text><text style="&st18;" transform="matrix(&st17;  347.58  303.95 )">(*7)</text><text style="&st18;" transform="matrix(&st17;  347.58  244.46 )">(*7)</text><text ewd:textID="1" style="&st18;" transform="matrix(&st16;  370.53  139.73 )">* 7 :w/ Sliding Roof</text><text ewd:textID="2" style="&st18;" transform="matrix(&st16;  370.53  148.23 )">* 8 :w/o Sliding Roof</text><text style="&st18;" transform="matrix(&st16;  282.77  409.41 )">3</text><text style="&st18;" transform="matrix(&st16;  282.77  346.54 )">6</text></svg>