﻿<?xml version="1.0" encoding="utf-8"?>
<!DOCTYPE svg PUBLIC "-//W3C//DTD SVG 1.0//EN" "http://www.w3.org/TR/2001/REC-SVG-20010904/DTD/svg10.dtd"[
	<!ENTITY ns_flows "http://ns.adobe.com/Flows/1.0/">
	<!ENTITY ns_svg "http://www.w3.org/2000/svg">
	<!ENTITY ns_xlink "http://www.w3.org/1999/xlink">
	<!ENTITY st0 "font-size:7px;font-family:'MS-PGothic';adobe-font-script:japanese;">
	<!ENTITY st1 "font-size:6px;font-family:'ArialMT';">
	<!-- White fill  -->
	<!ENTITY st2 "fill:#FFFFFF;stroke:#000000; stroke-width:1.41;stroke-linecap:round;stroke-linejoin:round;">
	<!-- Yellow fill  -->
	<!ENTITY st3 "fill:#FFFFCC;stroke:#FFFFCC; stroke-width:0.1;stroke-linecap:round;stroke-linejoin:round;">
	<!-- Gray fill  -->
	<!ENTITY st4 "fill:#CCCCCC;stroke:#CCCCCC; stroke-width:0.1;stroke-linecap:round;stroke-linejoin:round;">
	<!-- Light-blue fill -->
	<!ENTITY st5 "fill:#CCECF4;stroke:#000000; stroke-width:1.133;stroke-linecap:round;stroke-linejoin:round;">
	<!ENTITY st6 "fill:none;stroke-linecap:butt; stroke-linejoin:round;">
	<!ENTITY st7 "fill:none;stroke:#000000;stroke-linecap:round;stroke-linejoin:round;">
	<!ENTITY st8 "enable-background:new    ;">
	<!-- Black fill -->
	<!ENTITY st9 "fill:#000000;stroke:#000000; stroke-linecap:round;stroke-linejoin:round;">
	<!-- SRS note   -->
	<!ENTITY st10 "font-size:9px;font-family:'ArialMT';">
	<!ENTITY st11 "font-size:9px;font-family:'Svg Symbol';">
	<!ENTITY st12 "font-size:6px;font-family:'Svg Symbol';">
	<!ENTITY st13 "fill:none;stroke:#ff0000;stroke-linecap:round;stroke-linejoin:round;">
	<!-- Yellow fill  -->
	<!ENTITY st14 "fill:#FFFF00;stroke:#FFFF00; stroke-width:0.1;stroke-linecap:round;stroke-linejoin:round;">
	<!ENTITY st15 "font-size:6px;font-family:'MS-PGothic';adobe-font-script:japanese;">
	<!ENTITY st16 "1.00 0.00 0.00 1.00">
	<!ENTITY st17 "0.00 -1.00 1.00 0.00">
	<!ENTITY st18 "font-size:6px;font-family:'Arial';">
	<!ENTITY st19 "font-size:9px;font-family:'Arial';">
	<!ENTITY st20 "font-size:6px;font-family:'MS-PGothic','MS PGothic';adobe-font-script:japanese;">
	<!ENTITY st21 "font-size:7px;font-family:'MS-PGothic','MS PGothic';adobe-font-script:japanese;">
	<!ATTLIST svg
		xmlns:ewd CDATA #FIXED "http://shcl.co.jp/ewd"
		xmlns:a CDATA #FIXED "http://ns.adobe.com/AdobeSVGViewerExtensions/3.0/"
		ewd:ver CDATA #IMPLIED
	>
	<!ATTLIST a
		ewd:lineID CDATA #IMPLIED
		ewd:groupID CDATA #IMPLIED
		ewd:figtype CDATA #IMPLIED
		ewd:code CDATA #IMPLIED
		ewd:figID CDATA #IMPLIED
		ewd:pinNo CDATA #IMPLIED
		ewd:comment CDATA #IMPLIED >
	<!ATTLIST g
		ewd:lineID CDATA #IMPLIED
		ewd:groupID CDATA #IMPLIED
		ewd:figtype CDATA #IMPLIED
		ewd:code CDATA #IMPLIED
		ewd:figID CDATA #IMPLIED
		ewd:pinNo CDATA #IMPLIED
		ewd:comment CDATA #IMPLIED >
	<!ATTLIST text
		ewd:textID CDATA #IMPLIED >
	<!ATTLIST title
		ewd:textID CDATA #IMPLIED >
]>
<!-- Generator: Shintec Hozumi YS   -->
<svg onload="call_execInitLoadProc_svg('system')" style="overflow:visible;  enable-background:new 0 0 481.332 710.000" viewBox="0 0 481.332 710.000" height="710.000" width="481.332" xml:space="preserve" ewd:ver="L2.1.2.9" xmlns="&ns_svg;" xmlns:a="http://ns.adobe.com/AdobeSVGViewerExtensions/3.0/" xmlns:ewd="http://shcl.co.jp/ewd" xmlns:xlink="&ns_xlink;"><script type="text/javascript" xlink:href="../../../../../system/js/ewd/fig/svgfig.js" xmlns:xlink="http://www.w3.org/1999/xlink" />
<g id="ewd_top"><a ewd:code="S2" ewd:figID="1" ewd:figtype="conn" style="cursor:pointer;"><path d=" M   237.96,   418.22  L   288.95,   418.22  L   288.95,   367.22  L   237.96,   367.22  L   237.96,   418.22 " style="fill:#CCECF4;stroke:#000000; stroke-width:1.133; stroke-linecap:round;stroke-linejoin:round; " /><title ewd:textID="4">Inner Rear View Mirror Assembly</title></a><a ewd:code="S11" ewd:figID="2" ewd:figtype="conn" style="cursor:pointer;"><path d=" M   203.97,   265.24  L   220.96,   265.24  L   220.96,   282.24  L   203.97,   282.24  L   203.97,   265.24 " style="fill:#CCECF4;stroke:#000000; stroke-width:1.133; stroke-linecap:round;stroke-linejoin:round; " /><title ewd:textID="5">Junction Connector</title></a><a ewd:code="3" ewd:figID="3" ewd:figtype="jb" style="cursor:pointer;"><path d=" M   246.46,    35.78  L   246.46,   103.77  L   314.45,   103.77  L   314.45,    35.78  L   246.46,    35.78  " style="&st4; " /></a><a ewd:code="FUSE71" ewd:figID="4" ewd:figtype="fuse" style="cursor:pointer;"><path d=" M   250.71,    35.78  L   250.71,    78.27  L   276.20,    78.27  L   276.20,    35.78  L   250.71,    35.78 " style="&st7; stroke-width:0;" /></a><a ewd:lineID="1" style="cursor:pointer;"><path d=" M   212.46,   282.24  L   212.46,   350.23  L   254.96,   350.23  L   263.46,   358.73  L   263.46,   367.22  " style="stroke:#999999;stroke-width: 5.10 ;&st6;" /></a><a ewd:lineID="2" style="cursor:pointer;"><path d=" M   263.46,   194.99  L   263.46,   197.25  L   254.96,   205.75  L   212.46,   205.75  L   212.46,   265.24  " style="stroke:#999999;stroke-width: 5.10 ;&st6;" /></a><a ewd:lineID="3" style="cursor:pointer;"><path d=" M   263.46,   579.69  L   263.46,   681.67  " style="stroke:#000000;stroke-width: 5.10 ;&st6;" /><path d=" M   263.46,   579.69  L   263.46,   681.67  " style="stroke:#FFFFFF;stroke-width: 4.53 ;&st6;" /><path d=" M   263.46,   579.69  L   263.46,   681.67  " style="stroke:#000000;stroke-width: 1.13 ;&st6;" /></a><a ewd:lineID="4" style="cursor:pointer;"><path d=" M   263.46,   503.20  L   263.46,   564.96  " style="stroke:#000000;stroke-width: 5.10 ;&st6;" /><path d=" M   263.46,   503.20  L   263.46,   564.96  " style="stroke:#FFFFFF;stroke-width: 4.53 ;&st6;" /><path d=" M   263.46,   503.20  L   263.46,   564.96  " style="stroke:#000000;stroke-width: 1.13 ;&st6;" /></a><a ewd:lineID="5" style="cursor:pointer;"><path d=" M   263.46,   486.20  L   263.46,   418.22  " style="stroke:#000000;stroke-width: 5.10 ;&st6;" /><path d=" M   263.46,   486.20  L   263.46,   418.22  " style="stroke:#FFFFFF;stroke-width: 4.53 ;&st6;" /><path d=" M   263.46,   486.20  L   263.46,   418.22  " style="stroke:#000000;stroke-width: 1.13 ;&st6;" /></a><a ewd:lineID="6" style="cursor:pointer;"><path d=" M   263.46,   282.24  L   263.46,   367.22  " style="stroke:#999999;stroke-width: 5.10 ;&st6;" /></a><a ewd:lineID="7" style="cursor:pointer;"><path d=" M   263.46,   194.99  L   263.46,   265.24  " style="stroke:#999999;stroke-width: 5.10 ;&st6;" /></a><a ewd:lineID="8" style="cursor:pointer;"><path d=" M   263.46,   103.77  L   263.46,   180.26  " style="stroke:#999999;stroke-width: 5.10 ;&st6;" /></a><a ewd:code="IS1" ewd:figID="5" ewd:figtype="w2w" ewd:pinNo="8" style="cursor:pointer;"><path d=" M   271.95,   180.26  L   254.96,   180.26  L   254.96,   188.75  L   271.95,   188.75  L   271.95,   180.26 " style="&st2;" /><text style="&st8;" transform="matrix(&st16;  259.58  186.62 )"><tspan style="&st18;" x="0" y="0">IS1</tspan></text></a><a ewd:code="IS1" ewd:figID="6" ewd:figtype="w2w" ewd:pinNo="18" style="cursor:pointer;"><path d=" M   271.95,   571.19  L   254.96,   571.19  L   254.96,   579.69  L   271.95,   579.69  L   271.95,   571.19 " style="&st2;" /><text style="&st8;" transform="matrix(&st16;  259.58  577.56 )"><tspan style="&st18;" x="0" y="0">IS1</tspan></text></a><a ewd:code="I1" ewd:figID="7" ewd:figtype="gp" style="cursor:pointer;"><path d=" M   252.83,   681.67  L   274.08,   681.67  L   263.46,   697.25  L   252.83,   681.67 " style="&st2;" /><text style="&st8;" transform="matrix(&st16;  261.09  689.46 )"><tspan style="&st18;" x="0" y="0">I1</tspan></text></a><a ewd:code="1225" ewd:figID="8" ewd:figtype="sp" style="cursor:pointer;"><path d=" M   259.21,   265.24  L   267.71,   265.24  L   271.95,   269.49  L   271.95,   277.99  L   267.71,   282.24  L   259.21,   282.24  L   254.96,   277.99  L   254.96,   269.49  L   259.21,   265.24 " style="&st2;" /></a><a ewd:code="1213" ewd:figID="9" ewd:figtype="sp" style="cursor:pointer;"><path d=" M   259.21,   486.20  L   267.71,   486.20  L   271.95,   490.45  L   271.95,   498.95  L   267.71,   503.20  L   259.21,   503.20  L   254.96,   498.95  L   254.96,   490.45  L   259.21,   486.20 " style="&st2;" /></a></g></svg>