﻿<?xml version="1.0" encoding="utf-8"?>
<!DOCTYPE svg PUBLIC "-//W3C//DTD SVG 1.0//EN" "http://www.w3.org/TR/2001/REC-SVG-20010904/DTD/svg10.dtd"[
	<!ENTITY ns_flows "http://ns.adobe.com/Flows/1.0/">
	<!ENTITY ns_svg "http://www.w3.org/2000/svg">
	<!ENTITY ns_xlink "http://www.w3.org/1999/xlink">
	<!ENTITY st0 "font-size:7px;font-family:'MS-PGothic';adobe-font-script:japanese;">
	<!ENTITY st1 "font-size:6px;font-family:'ArialMT';">
	<!-- White fill  -->
	<!ENTITY st2 "fill:#FFFFFF;stroke:#000000; stroke-width:1.41;stroke-linecap:round;stroke-linejoin:round;">
	<!-- Yellow fill  -->
	<!ENTITY st3 "fill:#FFFFCC;stroke:#FFFFCC; stroke-width:0.1;stroke-linecap:round;stroke-linejoin:round;">
	<!-- Gray fill  -->
	<!ENTITY st4 "fill:#CCCCCC;stroke:#CCCCCC; stroke-width:0.1;stroke-linecap:round;stroke-linejoin:round;">
	<!-- Light-blue fill -->
	<!ENTITY st5 "fill:#CCECF4;stroke:#000000; stroke-width:1.133;stroke-linecap:round;stroke-linejoin:round;">
	<!ENTITY st6 "fill:none;stroke-linecap:butt; stroke-linejoin:round;">
	<!ENTITY st7 "fill:none;stroke:#000000;stroke-linecap:round;stroke-linejoin:round;">
	<!ENTITY st8 "enable-background:new    ;">
	<!-- Black fill -->
	<!ENTITY st9 "fill:#000000;stroke:#000000; stroke-linecap:round;stroke-linejoin:round;">
	<!-- SRS note   -->
	<!ENTITY st10 "font-size:9px;font-family:'ArialMT';">
	<!ENTITY st11 "font-size:9px;font-family:'Svg Symbol';">
	<!ENTITY st12 "font-size:6px;font-family:'Svg Symbol';">
	<!ENTITY st13 "fill:none;stroke:#ff0000;stroke-linecap:round;stroke-linejoin:round;">
	<!-- Yellow fill  -->
	<!ENTITY st14 "fill:#FFFF00;stroke:#FFFF00; stroke-width:0.1;stroke-linecap:round;stroke-linejoin:round;">
	<!ENTITY st15 "font-size:6px;font-family:'MS-PGothic';adobe-font-script:japanese;">
	<!ENTITY st16 "1.00 0.00 0.00 1.00">
	<!ENTITY st17 "0.00 -1.00 1.00 0.00">
	<!ENTITY st18 "font-size:6px;font-family:'Arial';">
	<!ENTITY st19 "font-size:9px;font-family:'Arial';">
	<!ENTITY st20 "font-size:6px;font-family:'MS-PGothic','MS PGothic';adobe-font-script:japanese;">
	<!ENTITY st21 "font-size:7px;font-family:'MS-PGothic','MS PGothic';adobe-font-script:japanese;">
	<!ATTLIST svg
		xmlns:ewd CDATA #FIXED "http://shcl.co.jp/ewd"
		xmlns:a CDATA #FIXED "http://ns.adobe.com/AdobeSVGViewerExtensions/3.0/"
		ewd:ver CDATA #IMPLIED
	>
	<!ATTLIST a
		ewd:lineID CDATA #IMPLIED
		ewd:groupID CDATA #IMPLIED
		ewd:figtype CDATA #IMPLIED
		ewd:code CDATA #IMPLIED
		ewd:figID CDATA #IMPLIED
		ewd:pinNo CDATA #IMPLIED
		ewd:comment CDATA #IMPLIED >
	<!ATTLIST g
		ewd:lineID CDATA #IMPLIED
		ewd:groupID CDATA #IMPLIED
		ewd:figtype CDATA #IMPLIED
		ewd:code CDATA #IMPLIED
		ewd:figID CDATA #IMPLIED
		ewd:pinNo CDATA #IMPLIED
		ewd:comment CDATA #IMPLIED >
	<!ATTLIST text
		ewd:textID CDATA #IMPLIED >
	<!ATTLIST title
		ewd:textID CDATA #IMPLIED >
]>
<!-- Generator: Shintec Hozumi YS   -->
<svg onload="call_execInitLoadProc_svg('system')" style="overflow:visible;  enable-background:new 0 0 2052.259 710.000" viewBox="0 0 2052.259 710.000" height="710.000" width="2052.259" xml:space="preserve" ewd:ver="L2.1.2.9" xmlns="&ns_svg;" xmlns:a="http://ns.adobe.com/AdobeSVGViewerExtensions/3.0/" xmlns:ewd="http://shcl.co.jp/ewd" xmlns:xlink="&ns_xlink;">
<path d=" M  1861.19,    69.77  L  1861.19,    78.27  " style="stroke-width: 0.85 ;&st7;  " /><path d=" M  1616.85,   214.25  L  1612.61,   214.25  " style="stroke-width: 1.42 ;&st7;  " /><path d=" M  1616.85,   205.75  L  1612.61,   205.75  " style="stroke-width: 1.42 ;&st7;  " /><path d=" M  1929.18,    78.27  L  1929.18,   197.25  L  1657.22,   197.25  L  1657.22,   137.76  " style="stroke-width: 0.85 ;&st7;  " /><path d=" M  1793.20,    69.77  L  1793.20,    78.27  " style="stroke-width: 0.85 ;&st7;  " /><path d=" M  1861.19,    78.27  L  1861.19,   180.26  L  1699.72,   180.26  L  1699.72,   137.76  " style="stroke-width: 0.85 ;&st7;  " /><path d=" M  1793.20,    78.27  L  1793.20,   163.26  L  1742.21,   163.26  L  1742.21,   137.76  " style="stroke-width: 0.85 ;&st7;  " /><path d=" M  1916.43,    35.78  L  1916.43,    78.27  L  1941.92,    78.27  L  1941.92,    35.78  L  1916.43,    35.78  " style="stroke-width: 1.42 ;&st7;  " /><path d=" M  1780.45,    35.78  L  1780.45,    78.27  L  1805.95,    78.27  L  1805.95,    35.78  L  1780.45,    35.78  " style="stroke-width: 1.42 ;&st7;  " /><path d=" M  1614.73,   200.86  L  1611.90,   198.02  L  1611.90,   202.27  L  1614.73,   205.11  L  1617.56,   202.27  L  1617.56,   198.02  L  1614.73,   200.86  " style="stroke-width: 0.28 ;&st9;  " /><path d=" M  1614.73,   137.76  L  1614.73,   205.75  " style="stroke-width: 0.85 ;&st7;  " /><path d=" M  1848.44,    35.78  L  1848.44,    78.27  L  1873.94,    78.27  L  1873.94,    35.78  L  1848.44,    35.78  " style="stroke-width: 1.42 ;&st7;  " /><path d=" M  1992.92,    35.78  L  1992.92,    78.27  L  2018.41,    78.27  L  2018.41,    35.78  L  1992.92,    35.78  " style="stroke-width: 1.42 ;&st7;  " /><path d=" M  1929.18,    69.77  L  1929.18,    78.27  " style="stroke-width: 0.85 ;&st7;  " /><path d=" M  1999.29,    99.52  C  1999.29    101.87   2001.19    103.77   2003.54    103.77  " style="stroke-width: 1.42 ;&st7;   " /><path d=" M  1861.19,    66.94  C  1863.93     65.33   1864.84     61.80   1863.23     59.06  " style="stroke-width: 1.42 ;&st7;   " /><path d=" M  1863.23,    59.06  C  1862.71     58.18   1862.07     57.55   1861.19     57.03  " style="stroke-width: 1.42 ;&st7;   " /><path d=" M  1861.19,    47.11  C  1858.45     48.72   1857.54     52.25   1859.15     54.99  " style="stroke-width: 1.42 ;&st7;   " /><path d=" M  1859.15,    54.99  C  1859.67     55.87   1860.31     56.51   1861.19     57.03  " style="stroke-width: 1.42 ;&st7;   " /><path d=" M  1862.61,    68.36  C  1862.61     67.57   1861.97     66.94   1861.19     66.94  " style="stroke-width: 0.85 ;&st7;   " /><path d=" M  1861.19,    66.94  C  1860.41     66.94   1859.77     67.57   1859.77     68.36  " style="stroke-width: 0.85 ;&st7;   " /><path d=" M  1859.77,    68.36  C  1859.77     69.14   1860.41     69.77   1861.19     69.77  " style="stroke-width: 0.85 ;&st7;   " /><path d=" M  1861.19,    69.77  C  1861.97     69.77   1862.61     69.14   1862.61     68.36  " style="stroke-width: 0.85 ;&st7;   " /><path d=" M  1862.61,    45.69  C  1862.61     44.91   1861.97     44.28   1861.19     44.28  " style="stroke-width: 0.85 ;&st7;   " /><path d=" M  1861.19,    44.28  C  1860.41     44.28   1859.77     44.91   1859.77     45.69  " style="stroke-width: 0.85 ;&st7;   " /><path d=" M  1859.77,    45.69  C  1859.77     46.48   1860.41     47.11   1861.19     47.11  " style="stroke-width: 0.85 ;&st7;   " /><path d=" M  1861.19,    47.11  C  1861.97     47.11   1862.61     46.48   1862.61     45.69  " style="stroke-width: 0.85 ;&st7;   " /><path d=" M  1621.10,   210.00  C  1621.10    207.65   1619.20    205.75   1616.85    205.75  " style="stroke-width: 1.42 ;&st7;   " /><path d=" M  1616.85,   214.25  C  1619.20    214.25   1621.10    212.35   1621.10    210.00  " style="stroke-width: 1.42 ;&st7;   " /><path d=" M  1608.36,   210.00  C  1608.36    212.35   1610.26    214.25   1612.61    214.25  " style="stroke-width: 1.42 ;&st7;   " /><path d=" M  1612.61,   205.75  C  1610.26    205.75   1608.36    207.65   1608.36    210.00  " style="stroke-width: 1.42 ;&st7;   " /><path d=" M  1794.62,    68.36  C  1794.62     67.57   1793.98     66.94   1793.20     66.94  " style="stroke-width: 0.85 ;&st7;   " /><path d=" M  1793.20,    66.94  C  1792.42     66.94   1791.78     67.57   1791.78     68.36  " style="stroke-width: 0.85 ;&st7;   " /><path d=" M  1791.78,    68.36  C  1791.78     69.14   1792.42     69.77   1793.20     69.77  " style="stroke-width: 0.85 ;&st7;   " /><path d=" M  1793.20,    69.77  C  1793.98     69.77   1794.62     69.14   1794.62     68.36  " style="stroke-width: 0.85 ;&st7;   " /><path d=" M  1794.62,    45.69  C  1794.62     44.91   1793.98     44.28   1793.20     44.28  " style="stroke-width: 0.85 ;&st7;   " /><path d=" M  1793.20,    44.28  C  1792.42     44.28   1791.78     44.91   1791.78     45.69  " style="stroke-width: 0.85 ;&st7;   " /><path d=" M  1791.78,    45.69  C  1791.78     46.48   1792.42     47.11   1793.20     47.11  " style="stroke-width: 0.85 ;&st7;   " /><path d=" M  1793.20,    47.11  C  1793.98     47.11   1794.62     46.48   1794.62     45.69  " style="stroke-width: 0.85 ;&st7;   " /><path d=" M  1793.20,    66.94  C  1795.94     65.33   1796.85     61.80   1795.24     59.06  " style="stroke-width: 1.42 ;&st7;   " /><path d=" M  1795.24,    59.06  C  1794.72     58.18   1794.08     57.55   1793.20     57.03  " style="stroke-width: 1.42 ;&st7;   " /><path d=" M  1793.20,    47.11  C  1790.46     48.72   1789.55     52.25   1791.16     54.99  " style="stroke-width: 1.42 ;&st7;   " /><path d=" M  1791.16,    54.99  C  1791.68     55.87   1792.32     56.51   1793.20     57.03  " style="stroke-width: 1.42 ;&st7;   " /><path d=" M  1929.18,    47.11  C  1926.44     48.72   1925.53     52.25   1927.14     54.99  " style="stroke-width: 1.42 ;&st7;   " /><path d=" M  1927.14,    54.99  C  1927.66     55.87   1928.30     56.51   1929.18     57.03  " style="stroke-width: 1.42 ;&st7;   " /><path d=" M  1929.18,    66.94  C  1931.92     65.33   1932.83     61.80   1931.21     59.06  " style="stroke-width: 1.42 ;&st7;   " /><path d=" M  1931.21,    59.06  C  1930.69     58.18   1930.06     57.55   1929.18     57.03  " style="stroke-width: 1.42 ;&st7;   " /><path d=" M  1930.59,    45.69  C  1930.59     44.91   1929.96     44.28   1929.18     44.28  " style="stroke-width: 0.85 ;&st7;   " /><path d=" M  1929.18,    44.28  C  1928.40     44.28   1927.76     44.91   1927.76     45.69  " style="stroke-width: 0.85 ;&st7;   " /><path d=" M  1927.76,    45.69  C  1927.76     46.48   1928.40     47.11   1929.18     47.11  " style="stroke-width: 0.85 ;&st7;   " /><path d=" M  1929.18,    47.11  C  1929.96     47.11   1930.59     46.48   1930.59     45.69  " style="stroke-width: 0.85 ;&st7;   " /><path d=" M  1930.59,    68.36  C  1930.59     67.57   1929.96     66.94   1929.18     66.94  " style="stroke-width: 0.85 ;&st7;   " /><path d=" M  1929.18,    66.94  C  1928.40     66.94   1927.76     67.57   1927.76     68.36  " style="stroke-width: 0.85 ;&st7;   " /><path d=" M  1927.76,    68.36  C  1927.76     69.14   1928.40     69.77   1929.18     69.77  " style="stroke-width: 0.85 ;&st7;   " /><path d=" M  1929.18,    69.77  C  1929.96     69.77   1930.59     69.14   1930.59     68.36  " style="stroke-width: 0.85 ;&st7;   " /><text style="&st18;" transform="matrix(&st16;  1855.0  86.47 )">2</text><text style="&st18;" transform="matrix(&st16;  1787.02  86.47 )">2</text><text style="&st18;" transform="matrix(&st17;  1611.03  241.55 )">V</text><text style="&st18;" transform="matrix(&st16;  1999.48  86.47 )">2</text><text style="&st18;" transform="matrix(&st16;  1997.62  32.08 )">(BAT)</text><text style="&st18;" transform="matrix(&st16;  1691.71  134.07 )">ALTB</text><text style="&st18;" transform="matrix(&st16;  1690.43  145.96 )">31</text><text style="&st18;" transform="matrix(&st16;  1853.15  32.08 )">(BAT)</text><text style="&st18;" transform="matrix(&st16;  1877.61  56.17 )">20A <tspan dy="6.0" x="0 ">D/L-AM1</tspan></text><text style="&st18;" transform="matrix(&st16;  1605.44  145.96 )">30</text><text style="&st18;" transform="matrix(&st16;  1606.38  134.07 )">BECU</text><text style="&st18;" transform="matrix(&st16;  1601.12  211.97 )">31</text><text style="&st18;" transform="matrix(&st16;  1610.8  211.97 )">3D</text><text style="&st18;" transform="matrix(&st16;  1732.92  145.96 )">29</text><text style="&st18;" transform="matrix(&st16;  1735.56  134.07 )">ACC</text><text style="&st18;" transform="matrix(&st16;  1647.94  145.96 )">32</text><text style="&st18;" transform="matrix(&st16;  1653.87  134.07 )">IG</text><text style="&st18;" transform="matrix(&st16;  1784.69  32.08 )">(ACC)</text><text style="&st18;" transform="matrix(&st16;  1809.62  56.17 )">7.5A <tspan dy="6.0" x="0 ">ECU-ACC</tspan></text><text style="&st18;" transform="matrix(&st16;  1945.6  53.34 )">10A <tspan dy="6.0" x="0 ">ECU-IG1 </tspan><tspan dy="6.0" x="0 ">NO.2</tspan></text><text style="&st18;" transform="matrix(&st16;  1923.97  32.08 )">(IG)</text><text style="&st18;" transform="matrix(&st16;  1922.99  86.47 )">2</text><text style="&st18;" transform="matrix(&st16;  1628.31  84.47 )">I12(A),I13(B)</text><text ewd:textID="12" style="&st18;" transform="matrix(&st16;  1628.32  91.57 )">Main Body ECU</text></svg>