﻿<?xml version="1.0" encoding="UTF-8"?>
<!DOCTYPE svg PUBLIC "-//W3C//DTD SVG 1.0//EN" "http://www.w3.org/TR/2001/REC-SVG-20010904/DTD/svg10.dtd"[
	<!ENTITY ns_flows "http://ns.adobe.com/Flows/1.0/">
	<!ENTITY ns_svg "http://www.w3.org/2000/svg">
	<!ENTITY ns_xlink "http://www.w3.org/1999/xlink">
	<!ENTITY st0 "font-size:7px;font-family:'MS-PGothic';adobe-font-script:japanese;">
	<!ENTITY st1 "font-size:6px;font-family:'ArialMT';">
	<!-- White fill  -->
	<!ENTITY st2 "fill:#FFFFFF;stroke:#000000; stroke-width:1.41;stroke-linecap:round;stroke-linejoin:round;">
	<!-- Yellow fill  -->
	<!ENTITY st3 "fill:#FFFFCC;stroke:#FFFFCC; stroke-width:0.1;stroke-linecap:round;stroke-linejoin:round;">
	<!-- Gray fill  -->
	<!ENTITY st4 "fill:#CCCCCC;stroke:#CCCCCC; stroke-width:0.1;stroke-linecap:round;stroke-linejoin:round;">
	<!-- Light-blue fill -->
	<!ENTITY st5 "fill:#CCECF4;stroke:#000000; stroke-width:1.133;stroke-linecap:round;stroke-linejoin:round;">
	<!ENTITY st6 "fill:none;stroke-linecap:butt; stroke-linejoin:round;">
	<!ENTITY st7 "fill:none;stroke:#000000;stroke-linecap:round;stroke-linejoin:round;">
	<!ENTITY st8 "enable-background:new    ;">
	<!-- Black fill -->
	<!ENTITY st9 "fill:#000000;stroke:#000000; stroke-linecap:round;stroke-linejoin:round;">
	<!-- SRS note   -->
	<!ENTITY st10 "font-size:9px;font-family:'ArialMT';">
	<!ENTITY st11 "font-size:9px;font-family:'Svg Symbol';">
	<!ENTITY st12 "font-size:6px;font-family:'Svg Symbol';">
	<!ENTITY st13 "fill:none;stroke:#ff0000;stroke-linecap:round;stroke-linejoin:round;">
	<!-- Yellow fill  -->
	<!ENTITY st14 "fill:#FFFF00;stroke:#FFFF00; stroke-width:0.1;stroke-linecap:round;stroke-linejoin:round;">
	<!ENTITY st15 "font-size:6px;font-family:'MS-PGothic';adobe-font-script:japanese;">
	<!ENTITY st16 "1.00 0.00 0.00 1.00">
	<!ENTITY st17 "0.00 -1.00 1.00 0.00">
	<!ENTITY st18 "font-size:6px;font-family:'Arial';">
	<!ENTITY st19 "font-size:9px;font-family:'Arial';">
	<!ENTITY st20 "font-size:6px;font-family:'MS-PGothic','MS PGothic';adobe-font-script:japanese;">
	<!ENTITY st21 "font-size:7px;font-family:'MS-PGothic','MS PGothic';adobe-font-script:japanese;">
	<!ATTLIST svg
		xmlns:ewd CDATA #FIXED "http://shcl.co.jp/ewd"
		xmlns:a CDATA #FIXED "http://ns.adobe.com/AdobeSVGViewerExtensions/3.0/"
		ewd:ver CDATA #IMPLIED
	>
	<!ATTLIST a
		ewd:lineID CDATA #IMPLIED
		ewd:groupID CDATA #IMPLIED
		ewd:figtype CDATA #IMPLIED
		ewd:code CDATA #IMPLIED
		ewd:figID CDATA #IMPLIED
		ewd:pinNo CDATA #IMPLIED
		ewd:comment CDATA #IMPLIED >
	<!ATTLIST g
		ewd:lineID CDATA #IMPLIED
		ewd:groupID CDATA #IMPLIED
		ewd:figtype CDATA #IMPLIED
		ewd:code CDATA #IMPLIED
		ewd:figID CDATA #IMPLIED
		ewd:pinNo CDATA #IMPLIED
		ewd:comment CDATA #IMPLIED >
	<!ATTLIST text
		ewd:textID CDATA #IMPLIED >
	<!ATTLIST title
		ewd:textID CDATA #IMPLIED >
]>
<!-- Generator: Shintec Hozumi YS   -->
<svg onload="call_execInitLoadProc_svg('system')" style="overflow:visible;  enable-background:new 0 0 445.066 710.000" viewBox="0 0 445.066 710.000" height="710.000" width="445.066" xml:space="preserve" ewd:ver="L2.1.2.9" xmlns="&ns_svg;" xmlns:a="http://ns.adobe.com/AdobeSVGViewerExtensions/3.0/" xmlns:ewd="http://shcl.co.jp/ewd" xmlns:xlink="&ns_xlink;">
	<script type="text/javascript" xlink:href="../../../../../system/js/ewd/fig/svgfig.js"/>
<g id="ewd_top">
	<a ewd:code="I39" ewd:figID="1" ewd:figtype="conn" style="cursor:pointer;">
		<path d=" M   144.48,   537.20  L   195.47,   537.20  L   195.47,   494.70  L   144.48,   494.70  L   144.48,   537.20 " style="fill:#CCECF4;stroke:#000000; stroke-width:1.133; stroke-linecap:round;stroke-linejoin:round; "/>
		<title>DLC3</title>
	</a>
	<a ewd:code="I128" ewd:figID="2" ewd:figtype="conn" style="cursor:pointer;">
		<path d=" M   110.48,   188.75  L   127.48,   188.75  L   127.48,   205.75  L   110.48,   205.75  L   110.48,   188.75 " style="fill:#CCECF4;stroke:#000000; stroke-width:1.133; stroke-linecap:round;stroke-linejoin:round; "/>
		<title ewd:textID="3">Junction Connector</title>
	</a>
	<a ewd:code="A43" ewd:figID="3" ewd:figtype="conn" style="cursor:pointer;">
		<path d=" M   356.94,   494.70  L   356.94,   537.20  L   441.93,   537.20  L   441.93,   494.70  L   356.94,   494.70 " style="fill:#CCECF4;stroke:#000000; stroke-width:1.133; stroke-linecap:round;stroke-linejoin:round; "/>
		<title ewd:textID="1">Certification ECU</title>
	</a>
	<a ewd:code="FUSE1" ewd:figID="4" ewd:figtype="rb" style="cursor:pointer;">
		<path d=" M   182.72,    35.78  L   182.72,    78.27  L   208.22,    78.27  L   208.22,    35.78  L   182.72,    35.78 " style="fill:#CCECF4;stroke:#000000; stroke-width:0; stroke-linecap:round;stroke-linejoin:round; "/>
	</a>
	<path d=" M   314.45,   163.26  L   314.45,   273.74  L   441.93,   273.74  L   441.93,   163.26  L   314.45,   163.26 " style="fill:#CCECF4;stroke:#000000; stroke-width:1.133; stroke-linecap:round;stroke-linejoin:round; "/>
	<a ewd:code="I70" ewd:figID="5" ewd:figtype="conn" style="cursor:pointer;">
		<path d=" M   101.98,   316.23  L   441.93,   316.23  L   441.93,   273.74  L   101.98,   273.74  L   101.98,   316.23 " style="fill:#CCECF4;stroke:#000000; stroke-width:1.133; stroke-linecap:round;stroke-linejoin:round; "/>
		<title ewd:textID="6">Telephone Transceiver Assembly</title>
	</a>
	<a ewd:code="A25" ewd:figID="6" ewd:figtype="conn" style="cursor:pointer;">
		<path d=" M   229.46,   494.70  L   229.46,   537.20  L   314.45,   537.20  L   314.45,   494.70  L   229.46,   494.70 " style="fill:#CCECF4;stroke:#000000; stroke-width:1.133; stroke-linecap:round;stroke-linejoin:round; "/>
		<title>ECM</title>
	</a>
	<a ewd:code="3" ewd:figID="7" ewd:figtype="jb" style="cursor:pointer;">
		<path d=" M   101.98,    35.78  L   101.98,   103.77  L   169.97,   103.77  L   169.97,    35.78  L   101.98,    35.78  " style="&st4; "/>
	</a>
	<a ewd:code="FUSE1" ewd:figID="8" ewd:figtype="fuse" style="cursor:pointer;">
		<path d=" M   182.72,    35.78  L   182.72,    78.27  L   208.22,    78.27  L   208.22,    35.78  L   182.72,    35.78 " style="&st7; stroke-width:0;"/>
	</a>
	<a ewd:code="FUSE64" ewd:figID="9" ewd:figtype="fuse" style="cursor:pointer;">
		<path d=" M   106.23,    35.78  L   106.23,    78.27  L   131.73,    78.27  L   131.73,    35.78  L   106.23,    35.78 " style="&st7; stroke-width:0;"/>
	</a>
	<a ewd:lineID="1" style="cursor:pointer;">
		<path d=" M   118.98,   316.23  L   118.98,   681.67  " style="stroke:#992903;stroke-width: 5.10 ;&st6;"/>
	</a>
	<a ewd:lineID="2" style="cursor:pointer;">
		<path d=" M   118.98,   205.75  L   118.98,   273.74  " style="stroke:#7FC97F;stroke-width: 5.10 ;&st6;"/>
	</a>
	<a ewd:lineID="3" style="cursor:pointer;">
		<path d=" M   118.98,   103.77  L   118.98,   188.75  " style="stroke:#7FC97F;stroke-width: 5.10 ;&st6;"/>
	</a>
	<a ewd:lineID="4" style="cursor:pointer;">
		<path d=" M   169.97,   494.70  L   169.97,   316.23  " style="stroke:#999999;stroke-width: 5.10 ;&st6;"/>
	</a>
	<a ewd:lineID="5" style="cursor:pointer;">
		<path d=" M   195.47,   197.25  L   195.47,   273.74  " style="stroke:#008837;stroke-width: 5.10 ;&st6;"/>
	</a>
	<a ewd:lineID="6" style="cursor:pointer;">
		<path d=" M   195.47,   103.77  L   195.47,   182.52  " style="stroke:#00A0C6;stroke-width: 5.10 ;&st6;"/>
	</a>
	<a ewd:lineID="7" style="cursor:pointer;">
		<path d=" M   246.46,   415.95  L   246.46,   485.64  " style="stroke:#008837;stroke-width: 5.10 ;&st6;"/>
	</a>
	<a ewd:lineID="8" style="cursor:pointer;">
		<path d=" M   246.46,   316.23  L   246.46,   401.22  " style="stroke:#FF0000;stroke-width: 5.10 ;&st6;"/>
	</a>
	<a ewd:lineID="9" style="cursor:pointer;">
		<path d=" M   297.45,   415.95  L   297.45,   485.64  " style="stroke:#FFE600;stroke-width: 5.10 ;&st6;"/>
	</a>
	<a ewd:lineID="10" style="cursor:pointer;">
		<path d=" M   297.45,   401.22  L   297.45,   316.23  " style="stroke:#008837;stroke-width: 5.10 ;&st6;"/>
	</a>
	<a ewd:lineID="11" style="cursor:pointer;">
		<path d=" M   373.94,   415.95  L   373.94,   485.64  " style="stroke:#FFE600;stroke-width: 5.10 ;&st6;"/>
	</a>
	<a ewd:lineID="12" style="cursor:pointer;">
		<path d=" M   373.94,   316.23  L   373.94,   401.22  " style="stroke:#FFE600;stroke-width: 5.10 ;&st6;"/>
	</a>
	<a ewd:lineID="13" style="cursor:pointer;">
		<path d=" M   424.93,   415.95  L   424.93,   485.64  " style="stroke:#008837;stroke-width: 5.10 ;&st6;"/>
	</a>
	<a ewd:lineID="14" style="cursor:pointer;">
		<path d=" M   424.93,   316.23  L   424.93,   401.22  " style="stroke:#00A0C6;stroke-width: 5.10 ;&st6;"/>
	</a>
	<path d=" M   195.47,    69.77  L   195.47,    78.27  " style="stroke-width: 0.85 ;&st7;  "/>
	<path d=" M   197.59,    95.27  L   193.34,    95.27  " style="stroke-width: 1.42 ;&st7;  "/>
	<path d=" M   197.59,   103.77  L   193.34,   103.77  " style="stroke-width: 1.42 ;&st7;  "/>
	<path d=" M   118.98,    69.77  L   118.98,    95.27  " style="stroke-width: 0.85 ;&st7;  "/>
	<path d=" M   121.10,    95.27  L   116.86,    95.27  " style="stroke-width: 1.42 ;&st7;  "/>
	<path d=" M   121.10,   103.77  L   116.86,   103.77  " style="stroke-width: 1.42 ;&st7;  "/>
	<path d=" M   305.95,   409.72  L   297.45,   409.72  " style="stroke-width: 1.42 ;&st7;  "/>
	<path d=" M   254.96,   409.72  L   246.46,   409.72  " style="stroke-width: 1.42 ;&st7;  "/>
	<path d=" M   186.97,   188.75  L   195.47,   188.75  " style="stroke-width: 1.42 ;&st7;  "/>
	<path d=" M   433.43,   409.72  L   424.93,   409.72  " style="stroke-width: 1.42 ;&st7;  "/>
	<path d=" M   382.44,   409.72  L   373.94,   409.72  " style="stroke-width: 1.42 ;&st7;  "/>
	<path d=" M   195.47,    78.27  L   195.47,    95.27  " style="stroke-width: 0.85 ;&st7;  "/>
	<path d=" M   101.98,   316.23  L   441.93,   316.23  L   441.93,   273.74  L   101.98,   273.74  L   101.98,   316.23  " style="stroke-width: 1.42 ;&st7;  "/>
	<path d=" M   144.48,   537.20  L   195.47,   537.20  L   195.47,   494.70  L   144.48,   494.70  L   144.48,   537.20  " style="stroke-width: 1.42 ;&st7;  "/>
	<path d=" M   195.47,    90.37  L   192.63,    87.54  L   192.63,    91.79  L   195.47,    94.62  L   198.30,    91.79  L   198.30,    87.54  L   195.47,    90.37  " style="stroke-width: 0.28 ;&st9;  "/>
	<path d=" M   182.72,    35.78  L   182.72,    78.27  L   208.22,    78.27  L   208.22,    35.78  L   182.72,    35.78  " style="stroke-width: 1.42 ;&st7;  "/>
	<path d=" M   118.98,    90.37  L   116.15,    87.54  L   116.15,    91.79  L   118.98,    94.62  L   121.81,    91.79  L   121.81,    87.54  L   118.98,    90.37  " style="stroke-width: 0.28 ;&st9;  "/>
	<path d=" M   106.23,    35.78  L   106.23,    78.27  L   131.73,    78.27  L   131.73,    35.78  L   106.23,    35.78  " style="stroke-width: 1.42 ;&st7;  "/>
	<path d=" M   118.98,   188.75  L   118.98,   205.75  " style="stroke-width: 0.85 ;&st7;  "/>
	<path d=" M   110.48,   188.75  L   127.48,   188.75  L   127.48,   205.75  L   110.48,   205.75  L   110.48,   188.75  " style="stroke-width: 1.42 ;&st7;  "/>
	<path d=" M   301.70,   418.78  L   297.45,   414.53  L   293.20,   418.78  " style="stroke-width: 1.42 ;&st7;  "/>
	<path d=" M   301.70,   415.38  L   297.45,   411.13  L   293.20,   415.38  " style="stroke-width: 1.42 ;&st7;  "/>
	<path d=" M   250.71,   418.78  L   246.46,   414.53  L   242.21,   418.78  " style="stroke-width: 1.42 ;&st7;  "/>
	<path d=" M   250.71,   415.38  L   246.46,   411.13  L   242.21,   415.38  " style="stroke-width: 1.42 ;&st7;  "/>
	<path d=" M   114.73,   704.33  L   123.23,   704.33  " style="stroke-width: 0.85 ;&st7;  "/>
	<path d=" M   118.98,   697.25  L   118.98,   701.50  " style="stroke-width: 0.85 ;&st7;  "/>
	<path d=" M   110.48,   701.50  L   127.48,   701.50  " style="stroke-width: 0.85 ;&st7;  "/>
	<path d=" M   117.56,   710.00  L   120.40,   710.00  " style="stroke-width: 0.85 ;&st7;  "/>
	<path d=" M   116.15,   707.17  L   121.81,   707.17  " style="stroke-width: 0.85 ;&st7;  "/>
	<path d=" M   191.22,   179.69  L   195.47,   183.94  L   199.72,   179.69  " style="stroke-width: 1.42 ;&st7;  "/>
	<path d=" M   199.72,   183.09  L   195.47,   187.34  L   191.22,   183.09  " style="stroke-width: 1.42 ;&st7;  "/>
	<path d=" M   229.46,   494.70  L   229.46,   537.20  L   314.45,   537.20  L   314.45,   494.70  L   229.46,   494.70  " style="stroke-width: 1.42 ;&st7;  "/>
	<path d=" M   378.19,   415.38  L   373.94,   411.13  L   369.69,   415.38  " style="stroke-width: 1.42 ;&st7;  "/>
	<path d=" M   378.19,   418.78  L   373.94,   414.53  L   369.69,   418.78  " style="stroke-width: 1.42 ;&st7;  "/>
	<path d=" M   429.18,   415.38  L   424.93,   411.13  L   420.68,   415.38  " style="stroke-width: 1.42 ;&st7;  "/>
	<path d=" M   429.18,   418.78  L   424.93,   414.53  L   420.68,   418.78  " style="stroke-width: 1.42 ;&st7;  "/>
	<path d=" M   356.94,   494.70  L   356.94,   537.20  L   441.93,   537.20  L   441.93,   494.70  L   356.94,   494.70  " style="stroke-width: 1.42 ;&st7;  "/>
	<path d=" M   348.44,   205.75  L   348.44,   231.25  " style="stroke-width: 1.42 ;&st7;  "/>
	<path d=" M   331.44,   205.75  L   348.44,   231.25  L   365.44,   205.75  L   331.44,   205.75  " style="stroke-width: 1.42 ;&st7;  "/>
	<path d=" M   407.93,   205.75  L   407.93,   231.25  " style="stroke-width: 1.42 ;&st7;  "/>
	<path d=" M   390.93,   205.75  L   407.93,   231.25  L   424.93,   205.75  L   390.93,   205.75  " style="stroke-width: 1.42 ;&st7;  "/>
	<path d=" M   348.44,   231.25  L   348.44,   273.74  " style="stroke-width: 0.85 ;&st7;  "/>
	<path d=" M   407.93,   231.25  L   407.93,   273.74  " style="stroke-width: 0.85 ;&st7;  "/>
	<path d=" M   314.45,   163.26  L   314.45,   273.74  L   441.93,   273.74  L   441.93,   163.26  L   314.45,   163.26  " style="stroke-width: 1.42 ;&st7;  "/>
	<path d=" M   195.47,    47.11  C   192.73     48.72    191.82     52.25    193.43     54.99  " style="stroke-width: 1.42 ;&st7;   "/>
	<path d=" M   193.43,    54.99  C   193.95     55.87    194.59     56.51    195.47     57.03  " style="stroke-width: 1.42 ;&st7;   "/>
	<path d=" M   195.47,    66.94  C   198.21     65.33    199.12     61.80    197.50     59.06  " style="stroke-width: 1.42 ;&st7;   "/>
	<path d=" M   197.50,    59.06  C   196.98     58.18    196.35     57.55    195.47     57.03  " style="stroke-width: 1.42 ;&st7;   "/>
	<path d=" M   196.88,    45.69  C   196.88     44.91    196.25     44.28    195.47     44.28  " style="stroke-width: 0.85 ;&st7;   "/>
	<path d=" M   195.47,    44.28  C   194.69     44.28    194.05     44.91    194.05     45.69  " style="stroke-width: 0.85 ;&st7;   "/>
	<path d=" M   194.05,    45.69  C   194.05     46.48    194.69     47.11    195.47     47.11  " style="stroke-width: 0.85 ;&st7;   "/>
	<path d=" M   195.47,    47.11  C   196.25     47.11    196.88     46.48    196.88     45.69  " style="stroke-width: 0.85 ;&st7;   "/>
	<path d=" M   196.88,    68.36  C   196.88     67.57    196.25     66.94    195.47     66.94  " style="stroke-width: 0.85 ;&st7;   "/>
	<path d=" M   195.47,    66.94  C   194.69     66.94    194.05     67.57    194.05     68.36  " style="stroke-width: 0.85 ;&st7;   "/>
	<path d=" M   194.05,    68.36  C   194.05     69.14    194.69     69.77    195.47     69.77  " style="stroke-width: 0.85 ;&st7;   "/>
	<path d=" M   195.47,    69.77  C   196.25     69.77    196.88     69.14    196.88     68.36  " style="stroke-width: 0.85 ;&st7;   "/>
	<path d=" M   193.34,    95.27  C   191.00     95.27    189.09     97.17    189.09     99.52  " style="stroke-width: 1.42 ;&st7;   "/>
	<path d=" M   189.09,    99.52  C   189.09    101.87    191.00    103.77    193.34    103.77  " style="stroke-width: 1.42 ;&st7;   "/>
	<path d=" M   197.59,   103.77  C   199.94    103.77    201.84    101.87    201.84     99.52  " style="stroke-width: 1.42 ;&st7;   "/>
	<path d=" M   201.84,    99.52  C   201.84     97.17    199.94     95.27    197.59     95.27  " style="stroke-width: 1.42 ;&st7;   "/>
	<path d=" M   118.98,    47.11  C   116.24     48.72    115.33     52.25    116.94     54.99  " style="stroke-width: 1.42 ;&st7;   "/>
	<path d=" M   116.94,    54.99  C   117.46     55.87    118.10     56.51    118.98     57.03  " style="stroke-width: 1.42 ;&st7;   "/>
	<path d=" M   118.98,    66.94  C   121.72     65.33    122.63     61.80    121.02     59.06  " style="stroke-width: 1.42 ;&st7;   "/>
	<path d=" M   121.02,    59.06  C   120.50     58.18    119.86     57.55    118.98     57.03  " style="stroke-width: 1.42 ;&st7;   "/>
	<path d=" M   120.40,    45.69  C   120.40     44.91    119.76     44.28    118.98     44.28  " style="stroke-width: 0.85 ;&st7;   "/>
	<path d=" M   118.98,    44.28  C   118.20     44.28    117.56     44.91    117.56     45.69  " style="stroke-width: 0.85 ;&st7;   "/>
	<path d=" M   117.56,    45.69  C   117.56     46.48    118.20     47.11    118.98     47.11  " style="stroke-width: 0.85 ;&st7;   "/>
	<path d=" M   118.98,    47.11  C   119.76     47.11    120.40     46.48    120.40     45.69  " style="stroke-width: 0.85 ;&st7;   "/>
	<path d=" M   120.40,    68.36  C   120.40     67.57    119.76     66.94    118.98     66.94  " style="stroke-width: 0.85 ;&st7;   "/>
	<path d=" M   118.98,    66.94  C   118.20     66.94    117.56     67.57    117.56     68.36  " style="stroke-width: 0.85 ;&st7;   "/>
	<path d=" M   117.56,    68.36  C   117.56     69.14    118.20     69.77    118.98     69.77  " style="stroke-width: 0.85 ;&st7;   "/>
	<path d=" M   118.98,    69.77  C   119.76     69.77    120.40     69.14    120.40     68.36  " style="stroke-width: 0.85 ;&st7;   "/>
	<path d=" M   116.86,    95.27  C   114.51     95.27    112.61     97.17    112.61     99.52  " style="stroke-width: 1.42 ;&st7;   "/>
	<path d=" M   112.61,    99.52  C   112.61    101.87    114.51    103.77    116.86    103.77  " style="stroke-width: 1.42 ;&st7;   "/>
	<path d=" M   121.10,   103.77  C   123.45    103.77    125.35    101.87    125.35     99.52  " style="stroke-width: 1.42 ;&st7;   "/>
	<path d=" M   125.35,    99.52  C   125.35     97.17    123.45     95.27    121.10     95.27  " style="stroke-width: 1.42 ;&st7;   "/>
	<path d=" M   301.98,   490.17  C   301.98    487.67    299.95    485.64    297.45    485.64  " style="stroke-width: 1.42 ;&st7;   "/>
	<path d=" M   297.45,   485.64  C   294.95    485.64    292.92    487.67    292.92    490.17  " style="stroke-width: 1.42 ;&st7;   "/>
	<path d=" M   292.92,   490.17  C   292.92    492.67    294.95    494.70    297.45    494.70  " style="stroke-width: 1.42 ;&st7;   "/>
	<path d=" M   297.45,   494.70  C   299.95    494.70    301.98    492.67    301.98    490.17  " style="stroke-width: 1.42 ;&st7;   "/>
	<path d=" M   250.99,   490.17  C   250.99    487.67    248.96    485.64    246.46    485.64  " style="stroke-width: 1.42 ;&st7;   "/>
	<path d=" M   246.46,   485.64  C   243.96    485.64    241.93    487.67    241.93    490.17  " style="stroke-width: 1.42 ;&st7;   "/>
	<path d=" M   241.93,   490.17  C   241.93    492.67    243.96    494.70    246.46    494.70  " style="stroke-width: 1.42 ;&st7;   "/>
	<path d=" M   246.46,   494.70  C   248.96    494.70    250.99    492.67    250.99    490.17  " style="stroke-width: 1.42 ;&st7;   "/>
	<path d=" M   378.47,   490.17  C   378.47    487.67    376.44    485.64    373.94    485.64  " style="stroke-width: 1.42 ;&st7;   "/>
	<path d=" M   373.94,   485.64  C   371.43    485.64    369.40    487.67    369.40    490.17  " style="stroke-width: 1.42 ;&st7;   "/>
	<path d=" M   369.40,   490.17  C   369.40    492.67    371.43    494.70    373.94    494.70  " style="stroke-width: 1.42 ;&st7;   "/>
	<path d=" M   373.94,   494.70  C   376.44    494.70    378.47    492.67    378.47    490.17  " style="stroke-width: 1.42 ;&st7;   "/>
	<path d=" M   429.46,   490.17  C   429.46    487.67    427.43    485.64    424.93    485.64  " style="stroke-width: 1.42 ;&st7;   "/>
	<path d=" M   424.93,   485.64  C   422.43    485.64    420.40    487.67    420.40    490.17  " style="stroke-width: 1.42 ;&st7;   "/>
	<path d=" M   420.40,   490.17  C   420.40    492.67    422.43    494.70    424.93    494.70  " style="stroke-width: 1.42 ;&st7;   "/>
	<path d=" M   424.93,   494.70  C   427.43    494.70    429.46    492.67    429.46    490.17  " style="stroke-width: 1.42 ;&st7;   "/>
	<text ewd:textID="3" style="&st18;" transform="matrix(&st17;  142.2  208.66 )">Junction Connector</text>
	<text style="&st18;" transform="matrix(&st17;  135.09  208.65 )">I128</text>
	<text style="&st18;" transform="matrix(&st17;  115.28  370.77 )">BR</text>
	<text style="&st18;" transform="matrix(&st17;  115.28  243.53 )">LG</text>
	<text style="&st18;" transform="matrix(&st16;  417.31  312.54 )">BLK1</text>
	<text style="&st18;" transform="matrix(&st16;  366.32  312.54 )">BLK4</text>
	<text style="&st18;" transform="matrix(&st17;  421.23  368.8 )">L</text>
	<text style="&st18;" transform="matrix(&st17;  115.28  150.04 )">LG</text>
	<text style="&st18;" transform="matrix(&st16;  165.46  312.54 )">SIL</text>
	<text style="&st18;" transform="matrix(&st16;  165.46  502.34 )">SIL</text>
	<text ewd:textID="6" style="&st18;" transform="matrix(&st16;  209.06  264.09 )">Telephone Transceiver <tspan dy="6.0" x="0 ">Assembly</tspan></text>
	<text style="&st18;" transform="matrix(&st16;  209.05  256.99 )">I70</text>
	<text style="&st18;" transform="matrix(&st17;  191.77  147.83 )">L</text>
	<text style="&st18;" transform="matrix(&st16;  238.84  312.54 )">BLK2</text>
	<text style="&st18;" transform="matrix(&st16;  289.83  312.54 )">BLK3</text>
	<text style="&st18;" transform="matrix(&st16;  211.89  56.17 )">5A <tspan dy="6.0" x="0 ">MAYDAY</tspan></text>
	<text style="&st18;" transform="matrix(&st16;  193.67  101.49 )">1</text>
	<text style="&st18;" transform="matrix(&st16;  189.28  86.47 )">2</text>
	<text style="&st18;" transform="matrix(&st16;  187.42  32.08 )">(BAT)</text>
	<text style="&st18;" transform="matrix(&st16;  135.4  53.34 )">7.5A <tspan dy="6.0" x="0 ">ECU-IG2 </tspan><tspan dy="6.0" x="0 ">NO.2</tspan></text>
	<text style="&st18;" transform="matrix(&st16;  115.12  101.49 )">3A</text>
	<text style="&st18;" transform="matrix(&st16;  105.37  101.49 )">50</text>
	<text style="&st18;" transform="matrix(&st16;  113.77  32.08 )">(IG)</text>
	<text style="&st18;" transform="matrix(&st16;  109.69  185.06 )">16</text>
	<text style="&st18;" transform="matrix(&st16;  109.69  213.94 )">17</text>
	<text style="&st18;" transform="matrix(&st17;  191.77  241.71 )">G</text>
	<text style="&st18;" transform="matrix(&st16;  284.82  407.44 )">5</text>
	<text style="&st18;" transform="matrix(&st16;  233.83  407.44 )">4</text>
	<text style="&st18;" transform="matrix(&st17;  293.75  369.18 )">G</text>
	<text style="&st18;" transform="matrix(&st16;  116.87  312.54 )">E</text>
	<text style="&st18;" transform="matrix(&st16;  112.8  324.43 )">9</text>
	<text style="&st18;" transform="matrix(&st16;  291.27  324.43 )">8</text>
	<text style="&st18;" transform="matrix(&st16;  240.27  324.43 )">7</text>
	<text style="&st18;" transform="matrix(&st17;  242.76  368.84 )">R</text>
	<text style="&st18;" transform="matrix(&st17;  293.75  445.4 )">Y</text>
	<text style="&st18;" transform="matrix(&st17;  242.76  445.67 )">G</text>
	<text style="&st18;" transform="matrix(&st16;  179.73  194.97 )">10</text>
	<text style="&st18;" transform="matrix(&st16;  163.79  324.43 )">3</text>
	<text style="&st18;" transform="matrix(&st16;  367.75  324.43 )">2</text>
	<text style="&st18;" transform="matrix(&st16;  418.74  324.43 )">1</text>
	<text style="&st18;" transform="matrix(&st17;  166.28  371.05 )">GR</text>
	<text style="&st18;" transform="matrix(&st16;  163.79  491.01 )">7</text>
	<text style="&st18;" transform="matrix(&st17;  370.24  368.91 )">Y</text>
	<text style="&st18;" transform="matrix(&st16;  112.8  86.47 )">2</text>
	<text style="&st18;" transform="matrix(&st16;  141.07  551.91 )">DLC3</text>
	<text style="&st18;" transform="matrix(&st16;  141.06  544.81 )">I39</text>
	<text style="&st18;" transform="matrix(&st16;  114.08  281.37 )">IG2</text>
	<text style="&st18;" transform="matrix(&st16;  191.73  281.37 )">+B</text>
	<text style="&st18;" transform="matrix(&st16;  112.8  270.05 )">6</text>
	<text style="&st18;" transform="matrix(&st16;  186.18  270.05 )">12</text>
	<text style="&st18;" transform="matrix(&st16;  295.15  492.14 )">A</text>
	<text style="&st18;" transform="matrix(&st16;  285.65  492.14 )">31</text>
	<text style="&st18;" transform="matrix(&st16;  244.15  492.14 )">A</text>
	<text style="&st18;" transform="matrix(&st16;  234.66  492.14 )">30</text>
	<text style="&st18;" transform="matrix(&st16;  292.94  502.34 )">IMI</text>
	<text style="&st18;" transform="matrix(&st16;  240.47  502.34 )">IMO</text>
	<text style="&st18;" transform="matrix(&st16;  226.06  551.91 )">ECM</text>
	<text style="&st18;" transform="matrix(&st16;  226.05  544.81 )">A25(A)</text>
	<text style="&st18;" transform="matrix(&st16;  353.53  544.81 )">A43(A)</text>
	<text ewd:textID="1" style="&st18;" transform="matrix(&st16;  353.53  551.91 )">Certification ECU</text>
	<text style="&st18;" transform="matrix(&st16;  419.17  502.34 )">EFII</text>
	<text style="&st18;" transform="matrix(&st16;  366.71  502.34 )">EFIO</text>
	<text style="&st18;" transform="matrix(&st16;  412.3  407.44 )">9</text>
	<text style="&st18;" transform="matrix(&st16;  358.2  407.44 )">17</text>
	<text style="&st18;" transform="matrix(&st17;  421.23  445.67 )">G</text>
	<text style="&st18;" transform="matrix(&st17;  370.24  445.4 )">Y</text>
	<text style="&st18;" transform="matrix(&st16;  362.14  492.14 )">13</text>
	<text style="&st18;" transform="matrix(&st16;  371.63  492.14 )">A</text>
	<text style="&st18;" transform="matrix(&st16;  413.13  492.14 )">14</text>
	<text style="&st18;" transform="matrix(&st16;  422.62  492.14 )">A</text>
	<text ewd:textID="4" style="&st18;" transform="matrix(&st16;  334.74  196.12 )">Navigation <tspan dy="6.0" x="0 ">Antenna</tspan></text>
	<text ewd:textID="5" style="&st18;" transform="matrix(&st16;  394.38  196.12 )">Telephone <tspan dy="6.0" x="0 ">Antenna</tspan></text>
	<text ewd:textID="2" style="&st18;" transform="matrix(&st16;  341.49  176.29 )">Instrument Panel Integration <tspan dy="6.0" x="0 ">Antenna Assembly</tspan></text>
	<a ewd:code="IA3" ewd:figID="10" ewd:figtype="w2w" ewd:pinNo="5" style="cursor:pointer;">
		<path d=" M   305.95,   401.22  L   288.95,   401.22  L   288.95,   409.72  L   305.95,   409.72  L   305.95,   401.22 " style="&st2;"/>
		<text style="&st8;" transform="matrix(&st16;  293.09  407.59 )"><tspan style="&st18;" x="0" y="0">IA3</tspan></text>
	</a>
	<a ewd:code="IA3" ewd:figID="11" ewd:figtype="w2w" ewd:pinNo="4" style="cursor:pointer;">
		<path d=" M   254.96,   401.22  L   237.96,   401.22  L   237.96,   409.72  L   254.96,   409.72  L   254.96,   401.22 " style="&st2;"/>
		<text style="&st8;" transform="matrix(&st16;  242.09  407.59 )"><tspan style="&st18;" x="0" y="0">IA3</tspan></text>
	</a>
	<a ewd:code="IA4" ewd:figID="12" ewd:figtype="w2w" ewd:pinNo="10" style="cursor:pointer;">
		<path d=" M   203.97,   188.75  L   186.97,   188.75  L   186.97,   197.25  L   203.97,   197.25  L   203.97,   188.75 " style="&st2;"/>
		<text style="&st8;" transform="matrix(&st16;  191.1  195.12 )"><tspan style="&st18;" x="0" y="0">IA4</tspan></text>
	</a>
	<a ewd:code="IA8" ewd:figID="13" ewd:figtype="w2w" ewd:pinNo="17" style="cursor:pointer;">
		<path d=" M   382.44,   401.22  L   365.44,   401.22  L   365.44,   409.72  L   382.44,   409.72  L   382.44,   401.22 " style="&st2;"/>
		<text style="&st8;" transform="matrix(&st16;  369.57  407.59 )"><tspan style="&st18;" x="0" y="0">IA8</tspan></text>
	</a>
	<a ewd:code="IA8" ewd:figID="14" ewd:figtype="w2w" ewd:pinNo="9" style="cursor:pointer;">
		<path d=" M   433.43,   401.22  L   416.43,   401.22  L   416.43,   409.72  L   433.43,   409.72  L   433.43,   401.22 " style="&st2;"/>
		<text style="&st8;" transform="matrix(&st16;  420.56  407.59 )"><tspan style="&st18;" x="0" y="0">IA8</tspan></text>
	</a>
	<a ewd:code="I3" ewd:figID="15" ewd:figtype="gp" style="cursor:pointer;">
		<path d=" M   108.36,   681.67  L   129.60,   681.67  L   118.98,   697.25  L   108.36,   681.67 " style="&st2;"/>
		<text style="&st8;" transform="matrix(&st16;  116.61  689.46 )"><tspan style="&st18;" x="0" y="0">I3</tspan></text>
	</a>
</g>
</svg>