﻿<?xml version="1.0" encoding="UTF-8"?>
<!DOCTYPE svg PUBLIC "-//W3C//DTD SVG 1.0//EN" "http://www.w3.org/TR/2001/REC-SVG-20010904/DTD/svg10.dtd"[
	<!ENTITY ns_flows "http://ns.adobe.com/Flows/1.0/">
	<!ENTITY ns_svg "http://www.w3.org/2000/svg">
	<!ENTITY ns_xlink "http://www.w3.org/1999/xlink">
	<!ENTITY st0 "font-size:7px;font-family:'MS-PGothic';adobe-font-script:japanese;">
	<!ENTITY st1 "font-size:6px;font-family:'ArialMT';">
	<!-- White fill  -->
	<!ENTITY st2 "fill:#FFFFFF;stroke:#000000; stroke-width:1.41;stroke-linecap:round;stroke-linejoin:round;">
	<!-- Yellow fill  -->
	<!ENTITY st3 "fill:#FFFFCC;stroke:#FFFFCC; stroke-width:0.1;stroke-linecap:round;stroke-linejoin:round;">
	<!-- Gray fill  -->
	<!ENTITY st4 "fill:#CCCCCC;stroke:#CCCCCC; stroke-width:0.1;stroke-linecap:round;stroke-linejoin:round;">
	<!-- Light-blue fill -->
	<!ENTITY st5 "fill:#CCECF4;stroke:#000000; stroke-width:1.133;stroke-linecap:round;stroke-linejoin:round;">
	<!ENTITY st6 "fill:none;stroke-linecap:butt; stroke-linejoin:round;">
	<!ENTITY st7 "fill:none;stroke:#000000;stroke-linecap:round;stroke-linejoin:round;">
	<!ENTITY st8 "enable-background:new    ;">
	<!-- Black fill -->
	<!ENTITY st9 "fill:#000000;stroke:#000000; stroke-linecap:round;stroke-linejoin:round;">
	<!-- SRS note   -->
	<!ENTITY st10 "font-size:9px;font-family:'ArialMT';">
	<!ENTITY st11 "font-size:9px;font-family:'Svg Symbol';">
	<!ENTITY st12 "font-size:6px;font-family:'Svg Symbol';">
	<!ENTITY st13 "fill:none;stroke:#ff0000;stroke-linecap:round;stroke-linejoin:round;">
	<!-- Yellow fill  -->
	<!ENTITY st14 "fill:#FFFF00;stroke:#FFFF00; stroke-width:0.1;stroke-linecap:round;stroke-linejoin:round;">
	<!ENTITY st15 "font-size:6px;font-family:'MS-PGothic';adobe-font-script:japanese;">
	<!ENTITY st16 "1.00 0.00 0.00 1.00">
	<!ENTITY st17 "0.00 -1.00 1.00 0.00">
	<!ENTITY st18 "font-size:6px;font-family:'Arial';">
	<!ENTITY st19 "font-size:9px;font-family:'Arial';">
	<!ENTITY st20 "font-size:6px;font-family:'MS-PGothic','MS PGothic';adobe-font-script:japanese;">
	<!ENTITY st21 "font-size:7px;font-family:'MS-PGothic','MS PGothic';adobe-font-script:japanese;">
	<!ATTLIST svg
		xmlns:ewd CDATA #FIXED "http://shcl.co.jp/ewd"
		xmlns:a CDATA #FIXED "http://ns.adobe.com/AdobeSVGViewerExtensions/3.0/"
		ewd:ver CDATA #IMPLIED
	>
	<!ATTLIST a
		ewd:lineID CDATA #IMPLIED
		ewd:groupID CDATA #IMPLIED
		ewd:figtype CDATA #IMPLIED
		ewd:code CDATA #IMPLIED
		ewd:figID CDATA #IMPLIED
		ewd:pinNo CDATA #IMPLIED
		ewd:comment CDATA #IMPLIED >
	<!ATTLIST g
		ewd:lineID CDATA #IMPLIED
		ewd:groupID CDATA #IMPLIED
		ewd:figtype CDATA #IMPLIED
		ewd:code CDATA #IMPLIED
		ewd:figID CDATA #IMPLIED
		ewd:pinNo CDATA #IMPLIED
		ewd:comment CDATA #IMPLIED >
	<!ATTLIST text
		ewd:textID CDATA #IMPLIED >
	<!ATTLIST title
		ewd:textID CDATA #IMPLIED >
]>
<!-- Generator: Shintec Hozumi YS   -->
<svg onload="call_execInitLoadProc_svg('system')" style="overflow:visible;  enable-background:new 0 0 317.168 710.000" viewBox="0 0 317.168 710.000" height="710.000" width="317.168" xml:space="preserve" ewd:ver="L2.1.2.9" xmlns="&ns_svg;" xmlns:a="http://ns.adobe.com/AdobeSVGViewerExtensions/3.0/" xmlns:ewd="http://shcl.co.jp/ewd" xmlns:xlink="&ns_xlink;">
	<script type="text/javascript" xlink:href="../../../../../system/js/ewd/fig/svgfig.js"/>
<g id="ewd_top">
	<a ewd:code="I51" ewd:figID="1" ewd:figtype="conn" style="cursor:pointer;">
		<path d=" M   229.46,   375.72  L   229.46,   392.72  L   263.46,   392.72  L   263.46,   388.47  L   280.45,   392.72  L   280.45,   375.72  L   263.46,   379.97  L   263.46,   375.72  L   229.46,   375.72 " style="fill:#CCECF4;stroke:#000000; stroke-width:1.133; stroke-linecap:round;stroke-linejoin:round; "/>
		<title ewd:textID="1">Cigarette Lighter Assembly</title>
	</a>
	<a ewd:code="3" ewd:figID="2" ewd:figtype="jb" style="cursor:pointer;">
		<path d=" M   237.96,   103.77  L   314.45,   103.77  L   314.45,    35.78  L   237.96,    35.78  L   237.96,   103.77  " style="&st4; "/>
	</a>
	<a ewd:code="FUSE78" ewd:figID="3" ewd:figtype="fuse" style="cursor:pointer;">
		<path d=" M   242.21,    35.78  L   242.21,    78.27  L   267.71,    78.27  L   267.71,    35.78  L   242.21,    35.78 " style="&st7; stroke-width:0;"/>
	</a>
	<a ewd:lineID="1" style="cursor:pointer;">
		<path d=" M   254.96,   392.72  L   254.96,   681.67  " style="stroke:#000000;stroke-width: 5.10 ;&st6;"/>
		<path d=" M   254.96,   392.72  L   254.96,   681.67  " style="stroke:#FFFFFF;stroke-width: 4.53 ;&st6;"/>
		<path d=" M   254.96,   392.72  L   254.96,   681.67  " style="stroke:#000000;stroke-width: 1.13 ;&st6;"/>
	</a>
	<a ewd:lineID="2" style="cursor:pointer;">
		<path d=" M   254.96,   103.77  L   254.96,   375.72  " style="stroke:#FF0000;stroke-width: 5.10 ;&st6;"/>
	</a>
	<path d=" M   254.96,    69.77  L   254.96,    95.27  " style="stroke-width: 0.85 ;&st7;  "/>
	<path d=" M   257.08,    95.27  L   252.83,    95.27  " style="stroke-width: 1.42 ;&st7;  "/>
	<path d=" M   257.08,   103.77  L   252.83,   103.77  " style="stroke-width: 1.42 ;&st7;  "/>
	<path d=" M   254.96,    90.37  L   252.12,    87.54  L   252.12,    91.79  L   254.96,    94.62  L   257.79,    91.79  L   257.79,    87.54  L   254.96,    90.37  " style="stroke-width: 0.28 ;&st9;  "/>
	<path d=" M   242.21,    35.78  L   242.21,    78.27  L   267.71,    78.27  L   267.71,    35.78  L   242.21,    35.78  " style="stroke-width: 1.42 ;&st7;  "/>
	<path d=" M   250.71,   704.33  L   259.21,   704.33  " style="stroke-width: 0.85 ;&st7;  "/>
	<path d=" M   254.96,   697.25  L   254.96,   701.50  " style="stroke-width: 0.85 ;&st7;  "/>
	<path d=" M   246.46,   701.50  L   263.46,   701.50  " style="stroke-width: 0.85 ;&st7;  "/>
	<path d=" M   253.54,   710.00  L   256.37,   710.00  " style="stroke-width: 0.85 ;&st7;  "/>
	<path d=" M   252.12,   707.17  L   257.79,   707.17  " style="stroke-width: 0.85 ;&st7;  "/>
	<path d=" M   229.46,   375.72  L   229.46,   392.72  L   263.46,   392.72  L   263.46,   388.47  L   280.45,   392.72  L   280.45,   375.72  L   263.46,   379.97  L   263.46,   375.72  L   229.46,   375.72  " style="stroke-width: 1.42 ;&st7;  "/>
	<path d=" M   263.46,   379.97  L   263.46,   388.47  " style="stroke-width: 1.42 ;&st7;  "/>
	<path d=" M   254.96,    47.11  C   252.22     48.72    251.31     52.25    252.92     54.99  " style="stroke-width: 1.42 ;&st7;   "/>
	<path d=" M   252.92,    54.99  C   253.44     55.87    254.08     56.51    254.96     57.03  " style="stroke-width: 1.42 ;&st7;   "/>
	<path d=" M   254.96,    66.94  C   257.70     65.33    258.61     61.80    256.99     59.06  " style="stroke-width: 1.42 ;&st7;   "/>
	<path d=" M   256.99,    59.06  C   256.47     58.18    255.84     57.55    254.96     57.03  " style="stroke-width: 1.42 ;&st7;   "/>
	<path d=" M   256.37,    45.69  C   256.37     44.91    255.74     44.28    254.96     44.28  " style="stroke-width: 0.85 ;&st7;   "/>
	<path d=" M   254.96,    44.28  C   254.18     44.28    253.54     44.91    253.54     45.69  " style="stroke-width: 0.85 ;&st7;   "/>
	<path d=" M   253.54,    45.69  C   253.54     46.48    254.18     47.11    254.96     47.11  " style="stroke-width: 0.85 ;&st7;   "/>
	<path d=" M   254.96,    47.11  C   255.74     47.11    256.37     46.48    256.37     45.69  " style="stroke-width: 0.85 ;&st7;   "/>
	<path d=" M   256.37,    68.36  C   256.37     67.57    255.74     66.94    254.96     66.94  " style="stroke-width: 0.85 ;&st7;   "/>
	<path d=" M   254.96,    66.94  C   254.18     66.94    253.54     67.57    253.54     68.36  " style="stroke-width: 0.85 ;&st7;   "/>
	<path d=" M   253.54,    68.36  C   253.54     69.14    254.18     69.77    254.96     69.77  " style="stroke-width: 0.85 ;&st7;   "/>
	<path d=" M   254.96,    69.77  C   255.74     69.77    256.37     69.14    256.37     68.36  " style="stroke-width: 0.85 ;&st7;   "/>
	<path d=" M   252.83,    95.27  C   250.49     95.27    248.58     97.17    248.58     99.52  " style="stroke-width: 1.42 ;&st7;   "/>
	<path d=" M   248.58,    99.52  C   248.58    101.87    250.49    103.77    252.83    103.77  " style="stroke-width: 1.42 ;&st7;   "/>
	<path d=" M   257.08,   103.77  C   259.43    103.77    261.33    101.87    261.33     99.52  " style="stroke-width: 1.42 ;&st7;   "/>
	<path d=" M   261.33,    99.52  C   261.33     97.17    259.43     95.27    257.08     95.27  " style="stroke-width: 1.42 ;&st7;   "/>
	<text style="&st18;" transform="matrix(&st16;  271.38  53.34 )">15A <tspan dy="6.0" x="0 ">CIG&amp; </tspan><tspan dy="6.0" x="0 ">P/OUTLET</tspan></text>
	<text style="&st18;" transform="matrix(&st16;  251.1  101.49 )">3A</text>
	<text style="&st18;" transform="matrix(&st16;  244.45  101.49 )">4</text>
	<text style="&st18;" transform="matrix(&st16;  246.45  32.08 )">(ACC)</text>
	<text ewd:textID="1" style="&st18;" transform="matrix(&st17;  295.17  412.62 )">Cigarette Lighter Assembly</text>
	<text style="&st18;" transform="matrix(&st17;  251.26  483.66 )">W-B</text>
	<text style="&st18;" transform="matrix(&st17;  288.06  412.62 )">I51</text>
	<text style="&st18;" transform="matrix(&st17;  251.26  292.35 )">R</text>
	<text style="&st18;" transform="matrix(&st16;  248.77  86.47 )">2</text>
	<text style="&st18;" transform="matrix(&st16;  248.77  400.91 )">3</text>
	<text style="&st18;" transform="matrix(&st16;  248.77  372.03 )">1</text>
	<a ewd:code="I3" ewd:figID="4" ewd:figtype="gp" style="cursor:pointer;">
		<path d=" M   244.33,   681.67  L   265.58,   681.67  L   254.96,   697.25  L   244.33,   681.67 " style="&st2;"/>
		<text style="&st8;" transform="matrix(&st16;  252.59  689.46 )"><tspan style="&st18;" x="0" y="0">I3</tspan></text>
	</a>
</g>
</svg>