﻿<?xml version="1.0" encoding="utf-8"?>
<!DOCTYPE svg PUBLIC "-//W3C//DTD SVG 1.0//EN" "http://www.w3.org/TR/2001/REC-SVG-20010904/DTD/svg10.dtd"[
	<!ENTITY ns_flows "http://ns.adobe.com/Flows/1.0/">
	<!ENTITY ns_svg "http://www.w3.org/2000/svg">
	<!ENTITY ns_xlink "http://www.w3.org/1999/xlink">
	<!ENTITY st0 "font-size:7px;font-family:'MS-PGothic';adobe-font-script:japanese;">
	<!ENTITY st1 "font-size:6px;font-family:'ArialMT';">
	<!-- White fill  -->
	<!ENTITY st2 "fill:#FFFFFF;stroke:#000000; stroke-width:1.41;stroke-linecap:round;stroke-linejoin:round;">
	<!-- Yellow fill  -->
	<!ENTITY st3 "fill:#FFFFCC;stroke:#FFFFCC; stroke-width:0.1;stroke-linecap:round;stroke-linejoin:round;">
	<!-- Gray fill  -->
	<!ENTITY st4 "fill:#CCCCCC;stroke:#CCCCCC; stroke-width:0.1;stroke-linecap:round;stroke-linejoin:round;">
	<!-- Light-blue fill -->
	<!ENTITY st5 "fill:#CCECF4;stroke:#000000; stroke-width:1.133;stroke-linecap:round;stroke-linejoin:round;">
	<!ENTITY st6 "fill:none;stroke-linecap:butt; stroke-linejoin:round;">
	<!ENTITY st7 "fill:none;stroke:#000000;stroke-linecap:round;stroke-linejoin:round;">
	<!ENTITY st8 "enable-background:new    ;">
	<!-- Black fill -->
	<!ENTITY st9 "fill:#000000;stroke:#000000; stroke-linecap:round;stroke-linejoin:round;">
	<!-- SRS note   -->
	<!ENTITY st10 "font-size:9px;font-family:'ArialMT';">
	<!ENTITY st11 "font-size:9px;font-family:'Svg Symbol';">
	<!ENTITY st12 "font-size:6px;font-family:'Svg Symbol';">
	<!ENTITY st13 "fill:none;stroke:#ff0000;stroke-linecap:round;stroke-linejoin:round;">
	<!-- Yellow fill  -->
	<!ENTITY st14 "fill:#FFFF00;stroke:#FFFF00; stroke-width:0.1;stroke-linecap:round;stroke-linejoin:round;">
	<!ENTITY st15 "font-size:6px;font-family:'MS-PGothic';adobe-font-script:japanese;">
	<!ENTITY st16 "1.00 0.00 0.00 1.00">
	<!ENTITY st17 "0.00 -1.00 1.00 0.00">
	<!ENTITY st18 "font-size:6px;font-family:'Arial';">
	<!ENTITY st19 "font-size:9px;font-family:'Arial';">
	<!ENTITY st20 "font-size:6px;font-family:'MS-PGothic','MS PGothic';adobe-font-script:japanese;">
	<!ENTITY st21 "font-size:7px;font-family:'MS-PGothic','MS PGothic';adobe-font-script:japanese;">
	<!ATTLIST svg
		xmlns:ewd CDATA #FIXED "http://shcl.co.jp/ewd"
		xmlns:a CDATA #FIXED "http://ns.adobe.com/AdobeSVGViewerExtensions/3.0/"
		ewd:ver CDATA #IMPLIED
	>
	<!ATTLIST a
		ewd:lineID CDATA #IMPLIED
		ewd:groupID CDATA #IMPLIED
		ewd:figtype CDATA #IMPLIED
		ewd:code CDATA #IMPLIED
		ewd:figID CDATA #IMPLIED
		ewd:pinNo CDATA #IMPLIED
		ewd:comment CDATA #IMPLIED >
	<!ATTLIST g
		ewd:lineID CDATA #IMPLIED
		ewd:groupID CDATA #IMPLIED
		ewd:figtype CDATA #IMPLIED
		ewd:code CDATA #IMPLIED
		ewd:figID CDATA #IMPLIED
		ewd:pinNo CDATA #IMPLIED
		ewd:comment CDATA #IMPLIED >
	<!ATTLIST text
		ewd:textID CDATA #IMPLIED >
	<!ATTLIST title
		ewd:textID CDATA #IMPLIED >
]>
<!-- Generator: Shintec Hozumi YS   -->
<svg onload="call_execInitLoadProc_svg('system')" style="overflow:visible;  enable-background:new 0 0 5179.340 710.000" viewBox="0 0 5179.340 710.000" height="710.000" width="5179.340" xml:space="preserve" ewd:ver="L2.1.2.9" xmlns="&ns_svg;" xmlns:a="http://ns.adobe.com/AdobeSVGViewerExtensions/3.0/" xmlns:ewd="http://shcl.co.jp/ewd" xmlns:xlink="&ns_xlink;"><script type="text/javascript" xlink:href="../../../../../system/js/ewd/fig/svgfig.js" xmlns:xlink="http://www.w3.org/1999/xlink" />
<g id="ewd_top"><a ewd:code="I125" ewd:figID="1" ewd:figtype="conn" style="cursor:pointer;"><path d=" M    25.50,    69.77  L    42.49,    69.77  L    42.49,    86.77  L    25.50,    86.77  L    25.50,    69.77 " style="fill:#CCECF4;stroke:#000000; stroke-width:1.133; stroke-linecap:round;stroke-linejoin:round; " /><title ewd:textID="61">Junction Connector</title></a><a ewd:code="O10" ewd:figID="2" ewd:figtype="conn" style="cursor:pointer;"><path d=" M  5107.65,   605.18  L  5107.65,   571.19  L  5090.65,   571.19  L  5090.65,   605.18  L  5107.65,   605.18 " style="fill:#CCECF4;stroke:#000000; stroke-width:1.133; stroke-linecap:round;stroke-linejoin:round; " /><title ewd:textID="50">Front Door Courtesy Light Switch Assembly RH</title></a><a ewd:code="A75" ewd:figID="3" ewd:figtype="conn" style="cursor:pointer;"><path d=" M  1623.23,   511.70  L  1623.23,   545.69  L  1682.72,   545.69  L  1682.72,   511.70  L  1623.23,   511.70 " style="fill:#CCECF4;stroke:#000000; stroke-width:1.133; stroke-linecap:round;stroke-linejoin:round; " /><title ewd:textID="63">Level Warning Switch Assembly (Windshield Washer Motor and Pump Assembly)</title></a><a ewd:code="E104" ewd:figID="4" ewd:figtype="conn" style="cursor:pointer;"><path d=" M  1181.30,   605.18  L  1181.30,   571.19  L  1164.31,   571.19  L  1164.31,   605.18  L  1181.30,   605.18 " style="fill:#CCECF4;stroke:#000000; stroke-width:1.133; stroke-linecap:round;stroke-linejoin:round; " /><title ewd:textID="45">Engine Oil Level Sensor</title></a><a ewd:code="FUSE12" ewd:figID="5" ewd:figtype="rb" style="cursor:pointer;"><path d=" M   114.73,    35.78  L   114.73,    78.27  L   140.23,    78.27  L   140.23,    35.78  L   114.73,    35.78 " style="fill:#CCECF4;stroke:#000000; stroke-width:0; stroke-linecap:round;stroke-linejoin:round; " /></a><a ewd:code="A85" ewd:figID="6" ewd:figtype="conn" style="cursor:pointer;"><path d=" M  1461.76,   545.69  L  1529.74,   545.69  L  1529.74,   511.70  L  1461.76,   511.70  L  1461.76,   545.69 " style="fill:#CCECF4;stroke:#000000; stroke-width:1.133; stroke-linecap:round;stroke-linejoin:round; " /><title ewd:textID="88">Vacuum Warning Switch Assembly</title></a><a ewd:code="I12,I13" ewd:figID="7" ewd:figtype="conn" style="cursor:pointer;"><path d=" M  4699.71,   316.23  L  4699.71,   358.73  L  5150.14,   358.73  L  5150.14,   316.23  L  4699.71,   316.23 " style="fill:#CCECF4;stroke:#000000; stroke-width:1.133; stroke-linecap:round;stroke-linejoin:round; " /><title ewd:textID="64">Main Body ECU</title></a><a ewd:code="I17,I18" ewd:figID="8" ewd:figtype="conn" style="cursor:pointer;"><path d=" M    17.00,   469.21  L  2031.16,   469.21  L  2031.16,   154.76  L    17.00,   154.76  L    17.00,   469.21 " style="fill:#CCECF4;stroke:#000000; stroke-width:1.133; stroke-linecap:round;stroke-linejoin:round; " /><title ewd:textID="37">Combination Meter Assembly</title></a><a ewd:code="FUSE2" ewd:figID="9" ewd:figtype="rb" style="cursor:pointer;"><path d=" M   284.70,    35.78  L   284.70,    78.27  L   310.20,    78.27  L   310.20,    35.78  L   284.70,    35.78 " style="fill:#CCECF4;stroke:#000000; stroke-width:0; stroke-linecap:round;stroke-linejoin:round; " /></a><a ewd:code="N7" ewd:figID="10" ewd:figtype="conn" style="cursor:pointer;"><path d=" M  4767.70,   605.18  L  4767.70,   571.19  L  4750.71,   571.19  L  4750.71,   605.18  L  4767.70,   605.18 " style="fill:#CCECF4;stroke:#000000; stroke-width:1.133; stroke-linecap:round;stroke-linejoin:round; " /><title ewd:textID="49">Front Door Courtesy Light Switch Assembly LH</title></a><a ewd:code="I101,I105,I94" ewd:figID="11" ewd:figtype="conn" style="cursor:pointer;"><path d=" M  2728.04,   163.26  L  2881.02,   163.26  L  2881.02,   137.76  L  2728.04,   137.76  L  2728.04,   163.26 " style="fill:#CCECF4;stroke:#000000; stroke-width:1.133; stroke-linecap:round;stroke-linejoin:round; " /><title ewd:textID="61">Junction Connector</title></a><a ewd:code="E29" ewd:figID="12" ewd:figtype="conn" style="cursor:pointer;"><path d=" M  3858.36,   333.23  L  3858.36,   299.24  L  3841.36,   299.24  L  3841.36,   333.23  L  3858.36,   333.23 " style="fill:#CCECF4;stroke:#000000; stroke-width:1.133; stroke-linecap:round;stroke-linejoin:round; " /><title ewd:textID="54">Fuel Injector Assembly No. 1</title></a><a ewd:code="E64" ewd:figID="13" ewd:figtype="conn" style="cursor:pointer;"><path d=" M  1232.29,   605.18  L  1232.29,   571.19  L  1215.30,   571.19  L  1215.30,   605.18  L  1232.29,   605.18 " style="fill:#CCECF4;stroke:#000000; stroke-width:1.133; stroke-linecap:round;stroke-linejoin:round; " /><title ewd:textID="46">Engine Oil Pressure Switch Assembly</title></a><a ewd:code="A25,A74,A84,E26,E83,E96" ewd:figID="14" ewd:figtype="conn" style="cursor:pointer;"><path d=" M  3416.43,   401.22  L  3416.43,   435.21  L  4521.24,   435.21  L  4521.24,   401.22  L  3416.43,   401.22 " style="fill:#CCECF4;stroke:#000000; stroke-width:1.133; stroke-linecap:round;stroke-linejoin:round; " /><title>ECM</title></a><a ewd:code="I128" ewd:figID="15" ewd:figtype="conn" style="cursor:pointer;"><path d=" M  3178.47,   341.73  L  3195.47,   341.73  L  3195.47,   358.73  L  3178.47,   358.73  L  3178.47,   341.73 " style="fill:#CCECF4;stroke:#000000; stroke-width:1.133; stroke-linecap:round;stroke-linejoin:round; " /><title ewd:textID="61">Junction Connector</title></a><a ewd:code="I214" ewd:figID="16" ewd:figtype="conn" style="cursor:pointer;"><path d=" M  3246.46,   460.71  L  3263.45,   460.71  L  3263.45,   435.21  L  3246.46,   435.21  L  3246.46,   460.71 " style="fill:#CCECF4;stroke:#000000; stroke-width:1.133; stroke-linecap:round;stroke-linejoin:round; " /><title ewd:textID="41">Diode (A/T Shift)</title></a><a ewd:code="A73" ewd:figID="17" ewd:figtype="conn" style="cursor:pointer;"><path d=" M  1351.27,   656.18  L  1351.27,   673.17  L  1368.27,   673.17  L  1368.27,   656.18  L  1351.27,   656.18 " style="fill:#CCECF4;stroke:#000000; stroke-width:1.133; stroke-linecap:round;stroke-linejoin:round; " /><title ewd:textID="61">Junction Connector</title></a><a ewd:code="E76" ewd:figID="18" ewd:figtype="conn" style="cursor:pointer;"><path d=" M  3951.84,   579.69  L  3951.84,   596.69  L  3968.84,   596.69  L  3968.84,   579.69  L  3951.84,   579.69 " style="fill:#CCECF4;stroke:#000000; stroke-width:1.133; stroke-linecap:round;stroke-linejoin:round; " /><title ewd:textID="61">Junction Connector</title></a><a ewd:code="N15" ewd:figID="19" ewd:figtype="conn" style="cursor:pointer;"><path d=" M  5022.66,   605.18  L  5022.66,   571.19  L  5005.66,   571.19  L  5005.66,   605.18  L  5022.66,   605.18 " style="fill:#CCECF4;stroke:#000000; stroke-width:1.133; stroke-linecap:round;stroke-linejoin:round; " /><title ewd:textID="76">Rear Door Courtesy Light Switch Assembly LH</title></a><a ewd:code="E30" ewd:figID="20" ewd:figtype="conn" style="cursor:pointer;"><path d=" M  3926.34,   333.23  L  3926.34,   299.24  L  3909.35,   299.24  L  3909.35,   333.23  L  3926.34,   333.23 " style="fill:#CCECF4;stroke:#000000; stroke-width:1.133; stroke-linecap:round;stroke-linejoin:round; " /><title ewd:textID="54">Fuel Injector Assembly No. 1</title></a><a ewd:code="H1" ewd:figID="21" ewd:figtype="conn" style="cursor:pointer;"><path d=" M  3815.86,   333.23  L  3815.86,   299.24  L  3798.87,   299.24  L  3798.87,   333.23  L  3815.86,   333.23 " style="fill:#CCECF4;stroke:#000000; stroke-width:1.133; stroke-linecap:round;stroke-linejoin:round; " /><title ewd:textID="53">Fuel Injector Assembly No. 1 (for Port Injection)</title></a><a ewd:code="z3" ewd:figID="22" ewd:figtype="conn" style="cursor:pointer;"><path d=" M  2422.10,   333.23  L  2422.10,   392.15  L  2532.58,   392.15  L  2532.58,   333.23  L  2422.10,   333.23 " style="fill:#CCECF4;stroke:#000000; stroke-width:1.133; stroke-linecap:round;stroke-linejoin:round; " /><title ewd:textID="80">Spiral Cable Sub-Assembly , Steering Pad Switch Assembly</title></a><a ewd:code="E47,E97" ewd:figID="23" ewd:figtype="conn" style="cursor:pointer;"><path d=" M  3679.89,   656.18  L  3679.89,   596.69  L  3722.38,   596.69  L  3722.38,   656.18  L  3679.89,   656.18 " style="fill:#CCECF4;stroke:#000000; stroke-width:1.133; stroke-linecap:round;stroke-linejoin:round; " /><title ewd:textID="44">E.F.I. Engine Coolant Temperature Sensor</title></a><a ewd:code="A42" ewd:figID="24" ewd:figtype="conn" style="cursor:pointer;"><path d=" M  4835.69,   571.19  L  4835.69,   605.18  L  4818.69,   605.18  L  4818.69,   571.19  L  4835.69,   571.19 " style="fill:#CCECF4;stroke:#000000; stroke-width:1.133; stroke-linecap:round;stroke-linejoin:round; " /><title ewd:textID="71">Parking Brake Switch Assembly</title></a><a ewd:code="I104,I93,I95" ewd:figID="25" ewd:figtype="conn" style="cursor:pointer;"><path d=" M  4444.76,   180.26  L  4580.73,   180.26  L  4580.73,   154.76  L  4444.76,   154.76  L  4444.76,   180.26 " style="fill:#CCECF4;stroke:#000000; stroke-width:1.133; stroke-linecap:round;stroke-linejoin:round; " /><title ewd:textID="61">Junction Connector</title></a><a ewd:code="A36" ewd:figID="26" ewd:figtype="conn" style="cursor:pointer;"><path d=" M  4240.79,   571.19  L  4240.79,   647.68  L  4512.75,   647.68  L  4512.75,   571.19  L  4240.79,   571.19 " style="fill:#CCECF4;stroke:#000000; stroke-width:1.133; stroke-linecap:round;stroke-linejoin:round; " /><title ewd:textID="30">Accelerator Pedal Sensor Assembly</title></a><a ewd:code="I217" ewd:figID="27" ewd:figtype="conn" style="cursor:pointer;"><path d=" M  3288.95,   460.71  L  3305.95,   460.71  L  3305.95,   435.21  L  3288.95,   435.21  L  3288.95,   460.71 " style="fill:#CCECF4;stroke:#000000; stroke-width:1.133; stroke-linecap:round;stroke-linejoin:round; " /><title ewd:textID="41">Diode (A/T Shift)</title></a><a ewd:code="I28,z3" ewd:figID="28" ewd:figtype="conn" style="cursor:pointer;"><path d=" M  2422.10,   426.71  L  2422.10,   401.22  L  2532.58,   401.22  L  2532.58,   426.71  L  2422.10,   426.71 " style="fill:#CCECF4;stroke:#000000; stroke-width:1.133; stroke-linecap:round;stroke-linejoin:round; " /><title ewd:textID="80">Spiral Cable Sub-Assembly , Steering Pad Switch Assembly</title></a><a ewd:code="A49" ewd:figID="29" ewd:figtype="conn" style="cursor:pointer;"><path d=" M  2719.55,   384.22  L  3025.49,   384.22  L  3025.49,   333.23  L  2719.55,   333.23  L  2719.55,   384.22 " style="fill:#CCECF4;stroke:#000000; stroke-width:1.133; stroke-linecap:round;stroke-linejoin:round; " /><title ewd:textID="32">Brake Actuator Assembly</title></a><a ewd:code="I28,z3" ewd:figID="30" ewd:figtype="conn" style="cursor:pointer;"><path d=" M  2218.13,   418.22  L  2371.10,   418.22  L  2371.10,   392.72  L  2218.13,   392.72  L  2218.13,   418.22 " style="fill:#CCECF4;stroke:#000000; stroke-width:1.133; stroke-linecap:round;stroke-linejoin:round; " /><title ewd:textID="80">Spiral Cable Sub-Assembly , Steering Pad Switch Assembly</title></a><a ewd:code="I198,I93,I94,I95" ewd:figID="31" ewd:figtype="conn" style="cursor:pointer;"><path d=" M  4708.21,   171.76  L  4844.19,   171.76  L  4844.19,   146.26  L  4708.21,   146.26  L  4708.21,   171.76 " style="fill:#CCECF4;stroke:#000000; stroke-width:1.133; stroke-linecap:round;stroke-linejoin:round; " /><title ewd:textID="61">Junction Connector</title></a><a ewd:code="O16" ewd:figID="32" ewd:figtype="conn" style="cursor:pointer;"><path d=" M  4937.67,   605.18  L  4937.67,   571.19  L  4920.68,   571.19  L  4920.68,   605.18  L  4937.67,   605.18 " style="fill:#CCECF4;stroke:#000000; stroke-width:1.133; stroke-linecap:round;stroke-linejoin:round; " /><title ewd:textID="77">Rear Door Courtesy Light Switch Assembly RH</title></a><a ewd:code="I124" ewd:figID="33" ewd:figtype="conn" style="cursor:pointer;"><path d=" M   271.95,   596.69  L   484.42,   596.69  L   484.42,   579.69  L   271.95,   579.69  L   271.95,   596.69 " style="fill:#CCECF4;stroke:#000000; stroke-width:1.133; stroke-linecap:round;stroke-linejoin:round; " /><title ewd:textID="61">Junction Connector</title></a><a ewd:code="A30" ewd:figID="34" ewd:figtype="conn" style="cursor:pointer;"><path d=" M  1308.78,   545.69  L  1376.77,   545.69  L  1376.77,   511.70  L  1308.78,   511.70  L  1308.78,   545.69 " style="fill:#CCECF4;stroke:#000000; stroke-width:1.133; stroke-linecap:round;stroke-linejoin:round; " /><title ewd:textID="33">Brake Fluid Level Warning Switch (Brake Master Cylinder Reservoir Sub-Assembly)</title></a><a ewd:code="E100" ewd:figID="35" ewd:figtype="conn" style="cursor:pointer;"><path d=" M  3824.36,   486.20  L  3824.36,   520.20  L  3909.35,   520.20  L  3909.35,   486.20  L  3824.36,   486.20 " style="fill:#CCECF4;stroke:#000000; stroke-width:1.133; stroke-linecap:round;stroke-linejoin:round; " /><title ewd:textID="39">Crankshaft Position Sensor</title></a><a ewd:code="I101,I104,I105" ewd:figID="36" ewd:figtype="conn" style="cursor:pointer;"><path d=" M  3943.34,   163.26  L  4087.82,   163.26  L  4087.82,   137.76  L  3943.34,   137.76  L  3943.34,   163.26 " style="fill:#CCECF4;stroke:#000000; stroke-width:1.133; stroke-linecap:round;stroke-linejoin:round; " /><title ewd:textID="61">Junction Connector</title></a><a ewd:code="N11" ewd:figID="37" ewd:figtype="conn" style="cursor:pointer;"><path d=" M   824.36,   605.18  L   909.35,   605.18  L   909.35,   562.69  L   824.36,   562.69  L   824.36,   605.18 " style="fill:#CCECF4;stroke:#000000; stroke-width:1.133; stroke-linecap:round;stroke-linejoin:round; " /><title ewd:textID="55">Fuel Suction Tube Assembly with Pump &amp; Gage</title></a><a ewd:code="I216" ewd:figID="38" ewd:figtype="conn" style="cursor:pointer;"><path d=" M  3135.98,   460.71  L  3152.97,   460.71  L  3152.97,   435.21  L  3135.98,   435.21  L  3135.98,   460.71 " style="fill:#CCECF4;stroke:#000000; stroke-width:1.133; stroke-linecap:round;stroke-linejoin:round; " /><title ewd:textID="41">Diode (A/T Shift)</title></a><a ewd:code="I124" ewd:figID="39" ewd:figtype="conn" style="cursor:pointer;"><path d=" M  1937.68,   605.18  L  1937.68,   622.18  L  1954.67,   622.18  L  1954.67,   605.18  L  1937.68,   605.18 " style="fill:#CCECF4;stroke:#000000; stroke-width:1.133; stroke-linecap:round;stroke-linejoin:round; " /><title ewd:textID="61">Junction Connector</title></a><a ewd:code="I213" ewd:figID="40" ewd:figtype="conn" style="cursor:pointer;"><path d=" M  3178.47,   460.71  L  3195.47,   460.71  L  3195.47,   435.21  L  3178.47,   435.21  L  3178.47,   460.71 " style="fill:#CCECF4;stroke:#000000; stroke-width:1.133; stroke-linecap:round;stroke-linejoin:round; " /><title ewd:textID="41">Diode (A/T Shift)</title></a><a ewd:code="FUSE25" ewd:figID="41" ewd:figtype="rb" style="cursor:pointer;"><path d=" M   769.12,    35.78  L   769.12,    78.27  L   794.62,    78.27  L   794.62,    35.78  L   769.12,    35.78 " style="fill:#CCECF4;stroke:#000000; stroke-width:0; stroke-linecap:round;stroke-linejoin:round; " /></a><a ewd:code="FUSE12" ewd:figID="42" ewd:figtype="rb" style="cursor:pointer;"><path d=" M  5120.00,    35.78  L  5120.00,    78.27  L  5145.49,    78.27  L  5145.49,    35.78  L  5120.00,    35.78 " style="fill:#CCECF4;stroke:#000000; stroke-width:0; stroke-linecap:round;stroke-linejoin:round; " /></a><a ewd:code="E72,E84" ewd:figID="43" ewd:figtype="conn" style="cursor:pointer;"><path d=" M  4019.83,   622.18  L  4019.83,   622.18  C  4019.83    622.18   4019.83    622.18   4019.83    622.18  L  4019.83,   622.18  C  4019.83    617.49   4023.63    613.68   4028.33    613.68  L  4028.33,   613.68  C  4033.02    613.68   4036.83    617.49   4036.83    622.18  L  4036.83,   622.18  L  4036.83,   639.18  C  4036.83    639.18   4036.83    639.18   4036.83    639.18  L  4036.83,   639.18  C  4036.82    643.87   4033.02    647.68   4028.32    647.68  L  4028.32,   647.68  C  4023.63    647.68   4019.83    643.87   4019.83    639.18  L  4019.83,   639.18 " style="fill:#CCECF4;stroke:#000000; stroke-width:1.133; stroke-linecap:round;stroke-linejoin:round; " /><title ewd:textID="38">Crank Position Sensor</title></a><a ewd:code="I174" ewd:figID="44" ewd:figtype="conn" style="cursor:pointer;"><path d=" M  5133.14,   426.71  L  5150.14,   426.71  L  5150.14,   443.71  L  5133.14,   443.71  L  5133.14,   426.71 " style="fill:#CCECF4;stroke:#000000; stroke-width:1.133; stroke-linecap:round;stroke-linejoin:round; " /><title ewd:textID="61">Junction Connector</title></a><a ewd:code="E4,E85" ewd:figID="45" ewd:figtype="conn" style="cursor:pointer;"><path d=" M  3352.69,   588.19  L  3539.66,   588.19  L  3539.66,   656.18  L  3352.69,   656.18  L  3352.69,   588.19 " style="fill:#CCECF4;stroke:#000000; stroke-width:1.133; stroke-linecap:round;stroke-linejoin:round; " /><title ewd:textID="70">Park/Neutral Position Switch Assembly</title></a><a ewd:code="I124" ewd:figID="46" ewd:figtype="conn" style="cursor:pointer;"><path d=" M  3246.46,   341.73  L  3263.45,   341.73  L  3263.45,   358.73  L  3246.46,   358.73  L  3246.46,   341.73 " style="fill:#CCECF4;stroke:#000000; stroke-width:1.133; stroke-linecap:round;stroke-linejoin:round; " /><title ewd:textID="61">Junction Connector</title></a><a ewd:code="z3" ewd:figID="47" ewd:figtype="conn" style="cursor:pointer;"><path d=" M  2218.13,   427.28  L  2218.13,   614.25  L  2371.10,   614.25  L  2371.10,   427.28  L  2218.13,   427.28 " style="fill:#CCECF4;stroke:#000000; stroke-width:1.133; stroke-linecap:round;stroke-linejoin:round; " /><title ewd:textID="80">Spiral Cable Sub-Assembly , Steering Pad Switch Assembly</title></a><a ewd:code="3" ewd:figID="48" ewd:figtype="jb" style="cursor:pointer;"><path d=" M    76.49,    95.27  L   101.98,    95.27  L   101.98,    44.28  L    76.49,    44.28  L    76.49,    95.27  " style="&st4; " /></a><a ewd:code="3" ewd:figID="49" ewd:figtype="jb" style="cursor:pointer;"><path d=" M  4699.71,   562.69  L  4725.21,   562.69  L  4725.21,   511.70  L  4699.71,   511.70  L  4699.71,   562.69  " style="&st4; " /></a><a ewd:code="3" ewd:figID="50" ewd:figtype="jb" style="cursor:pointer;"><path d=" M  4895.18,   316.23  L  5141.64,   316.23  L  5141.64,   273.74  L  5107.65,   273.74  L  5107.65,    35.78  L  4895.18,    35.78  L  4895.18,   316.23  " style="&st4; " /></a><a ewd:code="3" ewd:figID="51" ewd:figtype="jb" style="cursor:pointer;"><path d=" M  3365.44,   231.25  L  3365.44,   299.24  L  3441.92,   299.24  L  3441.92,   231.25  L  3365.44,   231.25  " style="&st4; " /></a><a ewd:code="3" ewd:figID="52" ewd:figtype="jb" style="cursor:pointer;"><path d=" M  3237.96,   231.25  L  3237.96,   299.24  L  3305.95,   299.24  L  3305.95,   231.25  L  3237.96,   231.25  " style="&st4; " /></a><a ewd:code="3" ewd:figID="53" ewd:figtype="jb" style="cursor:pointer;"><path d=" M  4742.21,   358.73  L  4742.21,   401.22  L  4895.18,   401.22  L  4895.18,   358.73  L  4742.21,   358.73  " style="&st4; " /></a><a ewd:code="3" ewd:figID="54" ewd:figtype="jb" style="cursor:pointer;"><path d=" M  3165.72,   231.25  L  3165.72,   299.24  L  3233.71,   299.24  L  3233.71,   231.25  L  3165.72,   231.25  " style="&st4; " /></a><a ewd:code="1" ewd:figID="55" ewd:figtype="jb" style="cursor:pointer;"><path d=" M  3662.89,   290.74  L  3722.38,   290.74  L  3722.38,   222.75  L  3662.89,   222.75  L  3662.89,   290.74  " style="&st4; " /></a><a ewd:code="FUSE2" ewd:figID="56" ewd:figtype="fuse" style="cursor:pointer;"><path d=" M   284.70,    35.78  L   284.70,    78.27  L   310.20,    78.27  L   310.20,    35.78  L   284.70,    35.78 " style="&st7; stroke-width:0;" /></a><a ewd:code="FUSE80" ewd:figID="57" ewd:figtype="fuse" style="cursor:pointer;"><path d=" M  4975.52,    35.78  L  4975.52,    78.27  L  5001.02,    78.27  L  5001.02,    35.78  L  4975.52,    35.78 " style="&st7; stroke-width:0;" /></a><a ewd:code="FUSE61" ewd:figID="58" ewd:figtype="fuse" style="cursor:pointer;"><path d=" M  4899.03,    35.78  L  4899.03,    78.27  L  4924.53,    78.27  L  4924.53,    35.78  L  4899.03,    35.78 " style="&st7; stroke-width:0;" /></a><a ewd:code="FUSE10" ewd:figID="59" ewd:figtype="fuse" style="cursor:pointer;"><path d=" M  3667.14,   222.75  L  3667.14,   265.24  L  3692.63,   265.24  L  3692.63,   222.75  L  3667.14,   222.75 " style="&st7; stroke-width:0;" /></a><a ewd:code="FUSE60" ewd:figID="60" ewd:figtype="fuse" style="cursor:pointer;"><path d=" M  3378.19,   231.25  L  3378.19,   273.74  L  3403.68,   273.74  L  3403.68,   231.25  L  3378.19,   231.25 " style="&st7; stroke-width:0;" /></a><a ewd:code="FUSE70" ewd:figID="61" ewd:figtype="fuse" style="cursor:pointer;"><path d=" M  3242.21,   231.25  L  3242.21,   273.74  L  3267.70,   273.74  L  3267.70,   231.25  L  3242.21,   231.25 " style="&st7; stroke-width:0;" /></a><a ewd:code="FUSE61" ewd:figID="62" ewd:figtype="fuse" style="cursor:pointer;"><path d=" M  3174.22,   231.25  L  3174.22,   273.74  L  3199.72,   273.74  L  3199.72,   231.25  L  3174.22,   231.25 " style="&st7; stroke-width:0;" /></a><a ewd:code="FUSE12" ewd:figID="63" ewd:figtype="fuse" style="cursor:pointer;"><path d=" M  5120.00,    35.78  L  5120.00,    78.27  L  5145.49,    78.27  L  5145.49,    35.78  L  5120.00,    35.78 " style="&st7; stroke-width:0;" /></a><a ewd:code="FUSE71" ewd:figID="64" ewd:figtype="fuse" style="cursor:pointer;"><path d=" M  5043.51,    35.78  L  5043.51,    78.27  L  5069.01,    78.27  L  5069.01,    35.78  L  5043.51,    35.78 " style="&st7; stroke-width:0;" /></a><a ewd:code="FUSE25" ewd:figID="65" ewd:figtype="fuse" style="cursor:pointer;"><path d=" M   769.12,    35.78  L   769.12,    78.27  L   794.62,    78.27  L   794.62,    35.78  L   769.12,    35.78 " style="&st7; stroke-width:0;" /></a><a ewd:code="FUSE12" ewd:figID="66" ewd:figtype="fuse" style="cursor:pointer;"><path d=" M   114.73,    35.78  L   114.73,    78.27  L   140.23,    78.27  L   140.23,    35.78  L   114.73,    35.78 " style="&st7; stroke-width:0;" /></a><a ewd:lineID="1" style="cursor:pointer;"> d=" M    33.99,   145.69  L    33.99,    86.77 
	
		<path d=" M    33.99,   145.69  L    33.99,    86.77  " style="stroke:#000000;stroke-width: 5.10 ;&st6;" /><path d=" M    33.99,   145.69  L    33.99,    86.77  " style="stroke:#FFFFFF;stroke-width: 4.53 ;&st6;" /></a><a ewd:lineID="2" style="cursor:pointer;"> d=" M    33.99,    69.77  L    33.99,    27.28  L    93.48,    27.28  L    93.48,    44.28 
	
		<path d=" M    33.99,    69.77  L    33.99,    27.28  L    93.48,    27.28  L    93.48,    44.28  " style="stroke:#000000;stroke-width: 5.10 ;&st6;" /><path d=" M    33.99,    69.77  L    33.99,    27.28  L    93.48,    27.28  L    93.48,    44.28  " style="stroke:#FFFFFF;stroke-width: 4.53 ;&st6;" /></a><a ewd:lineID="3" style="cursor:pointer;"><path d=" M    93.48,    95.27  L    93.48,   120.77  L   127.48,   120.77  L   127.48,   103.77  " style="stroke:#56077D;stroke-width: 5.10 ;&st6;" /></a><a ewd:lineID="4" style="cursor:pointer;"><path d=" M   178.47,   681.67  L   178.47,   487.34  " style="stroke:#992903;stroke-width: 5.10 ;&st6;" /></a><a ewd:lineID="5" style="cursor:pointer;"><path d=" M   178.47,    86.77  L   178.47,   145.69  " style="stroke:#00A0C6;stroke-width: 5.10 ;&st6;" /></a><a ewd:lineID="6" style="cursor:pointer;"><path d=" M   212.46,    93.00  L   212.46,   129.26  L   186.97,   129.26  L   178.47,   137.76  L   178.47,   145.69  " style="stroke:#00A0C6;stroke-width: 5.10 ;&st6;" /></a><a ewd:lineID="7" style="cursor:pointer;"><path d=" M   178.47,    72.04  L   178.47,    35.78  L   263.46,    35.78  L   263.46,   120.77  L   288.95,   120.77  L   297.45,   112.27  L   297.45,   103.77  " style="stroke:#F668B2;stroke-width: 5.10 ;&st6;" /></a><a ewd:lineID="8" style="cursor:pointer;"><path d=" M   297.45,   103.77  L   297.45,   137.76  L   246.46,   137.76  L   246.46,    61.28  L   212.46,    61.28  L   212.46,    78.27  " style="stroke:#F668B2;stroke-width: 5.10 ;&st6;" /></a><a ewd:lineID="9" style="cursor:pointer;"><path d=" M   280.45,   596.69  L   280.45,   647.68  " style="stroke:#56077D;stroke-width: 5.10 ;&st6;" /></a><a ewd:lineID="10" style="cursor:pointer;"><path d=" M   280.45,   511.70  L   280.45,   579.69  " style="stroke:#56077D;stroke-width: 5.10 ;&st6;" /></a><a ewd:lineID="11" style="cursor:pointer;"><path d=" M   331.44,   596.69  L   331.44,   647.68  " style="stroke:#56077D;stroke-width: 5.10 ;&st6;" /></a><a ewd:lineID="12" style="cursor:pointer;"><path d=" M   365.44,   487.34  L   365.44,   579.69  " style="stroke:#56077D;stroke-width: 5.10 ;&st6;" /></a><a ewd:lineID="13" style="cursor:pointer;"> d=" M   365.44,   145.69  L   365.44,    86.77 
	
		<path d=" M   365.44,   145.69  L   365.44,    86.77  " style="stroke:#000000;stroke-width: 5.10 ;&st6;" /><path d=" M   365.44,   145.69  L   365.44,    86.77  " style="stroke:#FFFFFF;stroke-width: 4.53 ;&st6;" /></a><a ewd:lineID="14" style="cursor:pointer;"><path d=" M   407.93,   596.69  L   407.93,   647.68  " style="stroke:#56077D;stroke-width: 5.10 ;&st6;" /></a><a ewd:lineID="15" style="cursor:pointer;"><path d=" M   407.93,   487.34  L   407.93,   537.20  " style="stroke:#FF0000;stroke-width: 5.10 ;&st6;" /></a><a ewd:lineID="16" style="cursor:pointer;"><path d=" M   407.93,   136.63  L   407.93,    86.77  " style="stroke:#F668B2;stroke-width: 5.10 ;&st6;" /></a><a ewd:lineID="17" style="cursor:pointer;"><path d=" M   441.93,   136.63  L   441.93,    86.77  " style="stroke:#00A0C6;stroke-width: 5.10 ;&st6;" /></a><a ewd:lineID="18" style="cursor:pointer;"><path d=" M   475.92,   596.69  L   475.92,   664.67  L   569.40,   664.67  L   569.40,   636.91  " style="stroke:#00A0C6;stroke-width: 5.10 ;&st6;" /></a><a ewd:lineID="19" style="cursor:pointer;"><path d=" M   475.92,   596.69  L   475.92,   605.18  L   458.92,   622.18  L   441.93,   622.18  L   441.93,   690.17  L   654.39,   690.17  L   654.39,   673.17  " style="stroke:#00A0C6;stroke-width: 5.10 ;&st6;" /></a><a ewd:lineID="20" style="cursor:pointer;"><path d=" M   475.92,   511.70  L   475.92,   579.69  " style="stroke:#56077D;stroke-width: 5.10 ;&st6;" /></a><a ewd:lineID="21" style="cursor:pointer;"><path d=" M   475.92,   136.63  L   475.92,    86.77  " style="stroke:#008837;stroke-width: 5.10 ;&st6;" /></a><a ewd:lineID="22" style="cursor:pointer;"><path d=" M   569.40,   622.18  L   569.40,   511.70  " style="stroke:#00A0C6;stroke-width: 5.10 ;&st6;" /></a><a ewd:lineID="23" style="cursor:pointer;"><path d=" M   645.89,   605.18  L   577.90,   605.18  L   569.40,   613.68  L   569.40,   622.18  " style="stroke:#00A0C6;stroke-width: 5.10 ;&st6;" /></a><a ewd:lineID="24" style="cursor:pointer;"><path d=" M   577.90,   145.69  L   577.90,   112.27  " style="stroke:#FF0000;stroke-width: 5.10 ;&st6;" /></a><a ewd:lineID="25" style="cursor:pointer;"><path d=" M   611.90,   145.69  L   611.90,   112.27  " style="stroke:#008837;stroke-width: 5.10 ;&st6;" /></a><a ewd:lineID="26" style="cursor:pointer;"><path d=" M   628.89,   511.70  L   628.89,   647.68  L   645.89,   647.68  L   654.39,   656.18  L   654.39,   658.44  " style="stroke:#00A0C6;stroke-width: 5.10 ;&st6;" /></a><a ewd:lineID="27" style="cursor:pointer;"><path d=" M   679.89,   145.69  L   679.89,   137.76  L   671.39,   129.26  L   645.89,   129.26  L   645.89,    86.77  " style="stroke:#FF0000;stroke-width: 5.10 ;&st6;" /></a><a ewd:lineID="28" style="cursor:pointer;"><path d=" M   645.89,    72.04  L   645.89,    35.78  L   739.38,    35.78  L   739.38,   120.77  L   773.37,   120.77  L   781.87,   112.27  L   781.87,   103.77  " style="stroke:#FF0000;stroke-width: 5.10 ;&st6;" /></a><a ewd:lineID="29" style="cursor:pointer;"><path d=" M   654.39,   658.44  L   654.39,   613.68  " style="stroke:#00A0C6;stroke-width: 5.10 ;&st6;" /></a><a ewd:lineID="30" style="cursor:pointer;"><path d=" M   654.39,   596.69  L   654.39,   511.70  " style="stroke:#00A0C6;stroke-width: 5.10 ;&st6;" /></a><a ewd:lineID="31" style="cursor:pointer;"><path d=" M   705.38,   511.70  L   705.38,   588.19  L   671.39,   588.19  L   660.40,   599.17  " style="stroke:#F668B2;stroke-width: 5.10 ;&st6;" /></a><a ewd:lineID="32" style="cursor:pointer;"><path d=" M   662.89,   605.18  L   722.38,   605.18  L   722.38,   615.95  " style="stroke:#00A0C6;stroke-width: 5.10 ;&st6;" /></a><a ewd:lineID="33" style="cursor:pointer;"><path d=" M   679.89,   145.69  L   679.89,    93.00  " style="stroke:#FF0000;stroke-width: 5.10 ;&st6;" /></a><a ewd:lineID="34" style="cursor:pointer;"><path d=" M   781.87,   103.77  L   781.87,   137.76  L   713.88,   137.76  L   713.88,    61.28  L   679.89,    61.28  L   679.89,    78.27  " style="stroke:#FF0000;stroke-width: 5.10 ;&st6;" /></a><a ewd:lineID="35" style="cursor:pointer;"><path d=" M   722.38,   630.68  L   722.38,   664.67  " style="stroke:#008837;stroke-width: 5.10 ;&st6;" /></a><a ewd:lineID="36" style="cursor:pointer;"><path d=" M   764.87,   534.93  L   764.87,   639.18  L  2736.54,   639.18  L  2736.54,   384.22  " style="stroke:#7FC97F;stroke-width: 5.10 ;&st6;" /></a><a ewd:lineID="37" style="cursor:pointer;"><path d=" M   764.87,   487.34  L   764.87,   511.70  " style="stroke:#F668B2;stroke-width: 5.10 ;&st6;" /></a><a ewd:lineID="38" style="cursor:pointer;"><path d=" M   841.36,   526.43  L   841.36,   562.69  " style="stroke:#56077D;stroke-width: 5.10 ;&st6;" /></a><a ewd:lineID="39" style="cursor:pointer;"><path d=" M   841.36,   487.34  L   841.36,   511.70  " style="stroke:#56077D;stroke-width: 5.10 ;&st6;" /></a><a ewd:lineID="40" style="cursor:pointer;"><path d=" M   892.35,   562.69  L   892.35,   526.43  " style="stroke:#999999;stroke-width: 5.10 ;&st6;" /></a><a ewd:lineID="41" style="cursor:pointer;"><path d=" M   892.35,   511.70  L   892.35,   487.34  " style="stroke:#999999;stroke-width: 5.10 ;&st6;" /></a><a ewd:lineID="42" style="cursor:pointer;"><path d=" M   943.34,   562.69  L   943.34,   622.18  L  1138.81,   622.18  L  1138.81,   562.69  L  1121.81,   545.69  L  1121.81,   543.43  " style="stroke:#000000;stroke-width: 5.10 ;&st6;" /></a><a ewd:lineID="43" style="cursor:pointer;"><path d=" M   943.34,   487.34  L   943.34,   547.96  " style="stroke:#000000;stroke-width: 5.10 ;&st6;" /></a><a ewd:lineID="44" style="cursor:pointer;"><path d=" M   977.34,   554.19  L   977.34,   503.20  L   951.84,   503.20  L   943.34,   494.70  L   943.34,   487.34  " style="stroke:#000000;stroke-width: 5.10 ;&st6;" /></a><a ewd:lineID="45" style="cursor:pointer;"><path d=" M   977.34,   568.92  L   977.34,   605.18  L  1121.81,   605.18  L  1121.81,   543.43  " style="stroke:#000000;stroke-width: 5.10 ;&st6;" /></a><a ewd:lineID="46" style="cursor:pointer;"><path d=" M  1121.81,   543.43  L  1121.81,   545.69  L  1104.82,   562.69  L  1104.82,   588.19  L  1079.32,   588.19  L  1079.32,   543.43  " style="stroke:#000000;stroke-width: 5.10 ;&st6;" /></a><a ewd:lineID="47" style="cursor:pointer;"><path d=" M  1079.32,   528.70  L  1079.32,   478.27  " style="stroke:#000000;stroke-width: 5.10 ;&st6;" /></a><a ewd:lineID="48" style="cursor:pointer;"><path d=" M  1121.81,   528.70  L  1121.81,   520.20  L  1138.81,   503.20  L  1172.80,   503.20  L  1172.80,   571.19  " style="stroke:#000000;stroke-width: 5.10 ;&st6;" /></a><a ewd:lineID="49" style="cursor:pointer;"><path d=" M  1121.81,   528.70  L  1121.81,   486.20  L  1223.80,   486.20  L  1223.80,   571.19  " style="stroke:#000000;stroke-width: 5.10 ;&st6;" /></a><a ewd:lineID="50" style="cursor:pointer;"><path d=" M  1274.79,   568.92  L  1274.79,   596.69  L  1325.78,   596.69  L  1325.78,   545.69  " style="stroke:#C3AF96;stroke-width: 5.10 ;&st6;" /></a><a ewd:lineID="51" style="cursor:pointer;"><path d=" M  1274.79,   487.34  L  1274.79,   545.69  " style="stroke:#000000;stroke-width: 5.10 ;&st6;" /></a><a ewd:lineID="52" style="cursor:pointer;"><path d=" M  2804.53,   128.70  L  2804.53,    61.28  L  1317.28,    61.28  L  1317.28,   120.77  L  1300.28,   120.77  L  1291.78,   129.26  L  1291.78,   136.63  " style="stroke:#FF0000;stroke-width: 5.10 ;&st6;" /></a><a ewd:lineID="53" style="cursor:pointer;"><path d=" M  4835.69,   128.13  L  4835.69,    27.28  L  1291.78,    27.28  L  1291.78,   136.63  " style="stroke:#FF0000;stroke-width: 5.10 ;&st6;" /></a><a ewd:lineID="54" style="cursor:pointer;"> d=" M  2736.54,   128.70  L  2736.54,    78.27  L  1368.27,    78.27  L  1368.27,   120.77  L  1351.27,   120.77  L  1342.78,   129.26  L  1342.78,   136.63 
	
		<path d=" M  2736.54,   128.70  L  2736.54,    78.27  L  1368.27,    78.27  L  1368.27,   120.77  L  1351.27,   120.77  L  1342.78,   129.26  L  1342.78,   136.63  " style="stroke:#000000;stroke-width: 5.10 ;&st6;" /><path d=" M  2736.54,   128.70  L  2736.54,    78.27  L  1368.27,    78.27  L  1368.27,   120.77  L  1351.27,   120.77  L  1342.78,   129.26  L  1342.78,   136.63  " style="stroke:#FFFFFF;stroke-width: 4.53 ;&st6;" /></a><a ewd:lineID="55" style="cursor:pointer;"> d=" M  4784.70,   128.13  L  4784.70,    44.28  L  1342.78,    44.28  L  1342.78,   136.63 
	
		<path d=" M  4784.70,   128.13  L  4784.70,    44.28  L  1342.78,    44.28  L  1342.78,   136.63  " style="stroke:#000000;stroke-width: 5.10 ;&st6;" /><path d=" M  4784.70,   128.13  L  4784.70,    44.28  L  1342.78,    44.28  L  1342.78,   136.63  " style="stroke:#FFFFFF;stroke-width: 4.53 ;&st6;" /></a><a ewd:lineID="56" style="cursor:pointer;"><path d=" M  1359.77,   656.18  L  1359.77,   596.69  " style="stroke:#00A0C6;stroke-width: 5.10 ;&st6;" /></a><a ewd:lineID="57" style="cursor:pointer;"><path d=" M  1359.77,   545.69  L  1359.77,   579.69  " style="stroke:#00A0C6;stroke-width: 5.10 ;&st6;" /></a><a ewd:lineID="58" style="cursor:pointer;"><path d=" M  1512.75,   545.69  L  1512.75,   588.19  L  1368.27,   588.19  " style="stroke:#00A0C6;stroke-width: 5.10 ;&st6;" /></a><a ewd:lineID="59" style="cursor:pointer;"><path d=" M  1478.75,   545.69  L  1478.75,   562.69  L  1427.76,   562.69  L  1427.76,   526.43  " style="stroke:#008837;stroke-width: 5.10 ;&st6;" /></a><a ewd:lineID="60" style="cursor:pointer;"><path d=" M  1427.76,   511.70  L  1427.76,   478.27  " style="stroke:#008837;stroke-width: 5.10 ;&st6;" /></a><a ewd:lineID="61" style="cursor:pointer;"><path d=" M  1597.73,   577.42  L  1597.73,   596.69  L  1640.23,   596.69  L  1640.23,   545.69  " style="stroke:#FFE600;stroke-width: 5.10 ;&st6;" /></a><a ewd:lineID="62" style="cursor:pointer;"><path d=" M  1597.73,   478.27  L  1597.73,   554.19  " style="stroke:#7FC97F;stroke-width: 5.10 ;&st6;" /></a><a ewd:lineID="63" style="cursor:pointer;"><path d=" M  1665.72,   613.68  L  1665.72,   681.67  " style="stroke:#000000;stroke-width: 5.10 ;&st6;" /><path d=" M  1665.72,   613.68  L  1665.72,   681.67  " style="stroke:#FFFFFF;stroke-width: 4.53 ;&st6;" /><path d=" M  1665.72,   613.68  L  1665.72,   681.67  " style="stroke:#000000;stroke-width: 1.13 ;&st6;" /></a><a ewd:lineID="64" style="cursor:pointer;"><path d=" M  1665.72,   545.69  L  1665.72,   596.69  " style="stroke:#992903;stroke-width: 5.10 ;&st6;" /></a><a ewd:lineID="65" style="cursor:pointer;"><path d=" M  1733.71,   478.27  L  1733.71,   545.69  " style="stroke:#7FC97F;stroke-width: 5.10 ;&st6;" /></a><a ewd:lineID="66" style="cursor:pointer;"><path d=" M  1767.70,   487.34  L  1767.70,   545.69  " style="stroke:#F668B2;stroke-width: 5.10 ;&st6;" /></a><a ewd:lineID="67" style="cursor:pointer;"><path d=" M  1801.70,   487.34  L  1801.70,   545.69  " style="stroke:#99D9E8;stroke-width: 5.10 ;&st6;" /></a><a ewd:lineID="68" style="cursor:pointer;"><path d=" M  1835.69,   545.69  L  1835.69,   487.34  " style="stroke:#999999;stroke-width: 5.10 ;&st6;" /></a><a ewd:lineID="69" style="cursor:pointer;"> d=" M  1869.69,   545.69  L  1869.69,   487.34 
	
		<path d=" M  1869.69,   545.69  L  1869.69,   487.34  " style="stroke:#000000;stroke-width: 5.10 ;&st6;" /><path d=" M  1869.69,   545.69  L  1869.69,   487.34  " style="stroke:#FFFFFF;stroke-width: 4.53 ;&st6;" /></a><a ewd:lineID="70" style="cursor:pointer;"><path d=" M  1912.18,   487.34  L  1912.18,   579.69  L  2167.14,   579.69  L  2167.14,   350.23  L  2277.62,   350.23  L  2277.62,   383.65  " style="stroke:#56077D;stroke-width: 5.10 ;&st6;" /></a><a ewd:lineID="71" style="cursor:pointer;"><path d=" M  1946.17,   622.18  L  1946.17,   681.67  " style="stroke:#000000;stroke-width: 5.10 ;&st6;" /></a><a ewd:lineID="72" style="cursor:pointer;"><path d=" M  1971.67,   487.34  L  1971.67,   494.70  L  1954.67,   511.70  L  1946.17,   511.70  L  1946.17,   605.18  " style="stroke:#000000;stroke-width: 5.10 ;&st6;" /></a><a ewd:lineID="73" style="cursor:pointer;"><path d=" M  1954.67,   613.68  L  2192.63,   613.68  L  2192.63,   367.22  L  2243.63,   367.22  L  2243.63,   383.65  " style="stroke:#000000;stroke-width: 5.10 ;&st6;" /></a><a ewd:lineID="74" style="cursor:pointer;"><path d=" M  1971.67,   487.34  L  1971.67,   656.18  L  2447.59,   656.18  L  2447.59,   435.78  " style="stroke:#00A0C6;stroke-width: 5.10 ;&st6;" /></a><a ewd:lineID="75" style="cursor:pointer;"><path d=" M  2014.16,   487.34  L  2014.16,   545.69  L  2141.64,   545.69  L  2141.64,   333.23  L  2345.61,   333.23  L  2345.61,   383.65  " style="stroke:#00A0C6;stroke-width: 5.10 ;&st6;" /></a><a ewd:lineID="76" style="cursor:pointer;"><path d=" M  2515.58,   681.67  L  2515.58,   520.20  " style="stroke:#000000;stroke-width: 5.10 ;&st6;" /><path d=" M  2515.58,   681.67  L  2515.58,   520.20  " style="stroke:#FFFFFF;stroke-width: 4.53 ;&st6;" /><path d=" M  2515.58,   681.67  L  2515.58,   520.20  " style="stroke:#000000;stroke-width: 1.13 ;&st6;" /></a><a ewd:lineID="77" style="cursor:pointer;"><path d=" M  2515.58,   435.78  L  2515.58,   503.20  " style="stroke:#000000;stroke-width: 5.10 ;&st6;" /><path d=" M  2515.58,   435.78  L  2515.58,   503.20  " style="stroke:#FFFFFF;stroke-width: 4.53 ;&st6;" /><path d=" M  2515.58,   435.78  L  2515.58,   503.20  " style="stroke:#000000;stroke-width: 1.13 ;&st6;" /></a><a ewd:lineID="78" style="cursor:pointer;"><path d=" M  2558.41,   681.67  L  2558.41,   511.70  L  2524.08,   511.70  " style="stroke:#000000;stroke-width: 5.10 ;&st6;" /><path d=" M  2558.41,   681.67  L  2558.41,   511.70  L  2524.08,   511.70  " style="stroke:#FFFFFF;stroke-width: 4.53 ;&st6;" /><path d=" M  2558.41,   681.67  L  2558.41,   511.70  L  2524.08,   511.70  " style="stroke:#000000;stroke-width: 1.13 ;&st6;" /></a><a ewd:lineID="79" style="cursor:pointer;"> d=" M  2736.54,   263.26  L  2736.54,   333.23 
	
		<path d=" M  2736.54,   263.26  L  2736.54,   333.23  " style="stroke:#000000;stroke-width: 5.10 ;&st6;" /><path d=" M  2736.54,   263.26  L  2736.54,   333.23  " style="stroke:#FFFFFF;stroke-width: 4.53 ;&st6;" /></a><a ewd:lineID="80" style="cursor:pointer;"> d=" M  2770.54,   263.26  L  2770.54,   316.23  L  2745.04,   316.23  L  2736.54,   324.73  L  2736.54,   333.23 
	
		<path d=" M  2770.54,   263.26  L  2770.54,   316.23  L  2745.04,   316.23  L  2736.54,   324.73  L  2736.54,   333.23  " style="stroke:#000000;stroke-width: 5.10 ;&st6;" /><path d=" M  2770.54,   263.26  L  2770.54,   316.23  L  2745.04,   316.23  L  2736.54,   324.73  L  2736.54,   333.23  " style="stroke:#FFFFFF;stroke-width: 4.53 ;&st6;" /></a><a ewd:lineID="81" style="cursor:pointer;"> d=" M  2736.54,   172.32  L  2736.54,   248.24 
	
		<path d=" M  2736.54,   172.32  L  2736.54,   248.24  " style="stroke:#000000;stroke-width: 5.10 ;&st6;" /><path d=" M  2736.54,   172.32  L  2736.54,   248.24  " style="stroke:#FFFFFF;stroke-width: 4.53 ;&st6;" /></a><a ewd:lineID="82" style="cursor:pointer;"><path d=" M  2770.54,   384.22  L  2770.54,   435.21  " style="stroke:#008837;stroke-width: 5.10 ;&st6;" /></a><a ewd:lineID="83" style="cursor:pointer;"> d=" M  2770.54,   248.24  L  2770.54,   188.75  L  3951.84,   188.75  L  3951.84,   172.32 
	
		<path d=" M  2770.54,   248.24  L  2770.54,   188.75  L  3951.84,   188.75  L  3951.84,   172.32  " style="stroke:#000000;stroke-width: 5.10 ;&st6;" /><path d=" M  2770.54,   248.24  L  2770.54,   188.75  L  3951.84,   188.75  L  3951.84,   172.32  " style="stroke:#FFFFFF;stroke-width: 4.53 ;&st6;" /></a><a ewd:lineID="84" style="cursor:pointer;"><path d=" M  2804.53,   384.22  L  2804.53,   435.21  " style="stroke:#FF0000;stroke-width: 5.10 ;&st6;" /></a><a ewd:lineID="85" style="cursor:pointer;"><path d=" M  2804.53,   262.97  L  2804.53,   333.23  " style="stroke:#999999;stroke-width: 5.10 ;&st6;" /></a><a ewd:lineID="86" style="cursor:pointer;"><path d=" M  2838.53,   262.97  L  2838.53,   316.23  L  2813.03,   316.23  L  2804.53,   324.73  L  2804.53,   333.23  " style="stroke:#999999;stroke-width: 5.10 ;&st6;" /></a><a ewd:lineID="87" style="cursor:pointer;"><path d=" M  2804.53,   172.32  L  2804.53,   248.24  " style="stroke:#FFE600;stroke-width: 5.10 ;&st6;" /></a><a ewd:lineID="88" style="cursor:pointer;"> d=" M  2838.53,   384.22  L  2838.53,   435.21 
	
		<path d=" M  2838.53,   384.22  L  2838.53,   435.21  " style="stroke:#000000;stroke-width: 5.10 ;&st6;" /><path d=" M  2838.53,   384.22  L  2838.53,   435.21  " style="stroke:#FFFFFF;stroke-width: 4.53 ;&st6;" /></a><a ewd:lineID="89" style="cursor:pointer;"><path d=" M  2838.53,   248.24  L  2838.53,   205.75  L  3985.83,   205.75  L  3985.83,   172.32  " style="stroke:#FFE600;stroke-width: 5.10 ;&st6;" /></a><a ewd:lineID="90" style="cursor:pointer;"><path d=" M  4487.25,   145.69  L  4487.25,    95.27  L  2838.53,    95.27  L  2838.53,   128.70  " style="stroke:#000000;stroke-width: 5.10 ;&st6;" /></a><a ewd:lineID="91" style="cursor:pointer;"><path d=" M  2872.52,   384.22  L  2872.52,   435.21  " style="stroke:#000000;stroke-width: 5.10 ;&st6;" /></a><a ewd:lineID="92" style="cursor:pointer;"> d=" M  4453.26,   145.69  L  4453.26,   112.27  L  2872.52,   112.27  L  2872.52,   128.70 
	
		<path d=" M  4453.26,   145.69  L  4453.26,   112.27  L  2872.52,   112.27  L  2872.52,   128.70  " style="stroke:#000000;stroke-width: 5.10 ;&st6;" /><path d=" M  4453.26,   145.69  L  4453.26,   112.27  L  2872.52,   112.27  L  2872.52,   128.70  " style="stroke:#FFFFFF;stroke-width: 4.53 ;&st6;" /></a><a ewd:lineID="93" style="cursor:pointer;"> d=" M  2906.51,   384.22  L  2906.51,   435.21 
	
		<path d=" M  2906.51,   384.22  L  2906.51,   435.21  " style="stroke:#000000;stroke-width: 5.10 ;&st6;" /><path d=" M  2906.51,   384.22  L  2906.51,   435.21  " style="stroke:#FFFFFF;stroke-width: 4.53 ;&st6;" /></a><a ewd:lineID="94" style="cursor:pointer;"><path d=" M  2940.51,   384.22  L  2940.51,   435.21  " style="stroke:#000000;stroke-width: 5.10 ;&st6;" /></a><a ewd:lineID="95" style="cursor:pointer;"><path d=" M  2974.50,   384.22  L  2974.50,   435.21  " style="stroke:#00A0C6;stroke-width: 5.10 ;&st6;" /></a><a ewd:lineID="96" style="cursor:pointer;"><path d=" M  3008.50,   384.22  L  3008.50,   435.21  " style="stroke:#008837;stroke-width: 5.10 ;&st6;" /></a><a ewd:lineID="97" style="cursor:pointer;"><path d=" M  3144.47,   460.71  L  3144.47,   528.70  L  3246.46,   528.70  " style="stroke:#008837;stroke-width: 5.10 ;&st6;" /></a><a ewd:lineID="98" style="cursor:pointer;"><path d=" M  3144.47,   435.21  L  3144.47,   375.72  L  3178.47,   375.72  L  3186.97,   367.22  L  3186.97,   358.73  " style="stroke:#999999;stroke-width: 5.10 ;&st6;" /></a><a ewd:lineID="99" style="cursor:pointer;"><path d=" M  3186.97,   460.71  L  3186.97,   511.70  L  3237.96,   511.70  L  3248.94,   522.68  " style="stroke:#008837;stroke-width: 5.10 ;&st6;" /></a><a ewd:lineID="100" style="cursor:pointer;"><path d=" M  3186.97,   358.73  L  3186.97,   435.21  " style="stroke:#999999;stroke-width: 5.10 ;&st6;" /></a><a ewd:lineID="101" style="cursor:pointer;"><path d=" M  3186.97,   299.24  L  3186.97,   341.73  " style="stroke:#999999;stroke-width: 5.10 ;&st6;" /></a><a ewd:lineID="102" style="cursor:pointer;"><path d=" M  3212.46,   605.18  L  3212.46,   656.18  L  3246.46,   656.18  L  3254.96,   664.67  L  3254.96,   666.94  " style="stroke:#008837;stroke-width: 5.10 ;&st6;" /></a><a ewd:lineID="103" style="cursor:pointer;"><path d=" M  3212.46,   590.45  L  3212.46,   545.69  L  3237.96,   545.69  L  3248.94,   534.71  " style="stroke:#008837;stroke-width: 5.10 ;&st6;" /></a><a ewd:lineID="104" style="cursor:pointer;"><path d=" M  3254.96,   681.67  L  3254.96,   698.67  L  3314.45,   698.67  L  3314.45,   537.20  L  3382.43,   537.20  L  3390.93,   545.69  L  3390.93,   551.93  " style="stroke:#999999;stroke-width: 5.10 ;&st6;" /></a><a ewd:lineID="105" style="cursor:pointer;"><path d=" M  3254.96,   611.42  L  3254.96,   666.94  " style="stroke:#008837;stroke-width: 5.10 ;&st6;" /></a><a ewd:lineID="106" style="cursor:pointer;"><path d=" M  3254.96,   537.20  L  3254.96,   596.69  " style="stroke:#008837;stroke-width: 5.10 ;&st6;" /></a><a ewd:lineID="107" style="cursor:pointer;"><path d=" M  3254.96,   460.71  L  3254.96,   520.20  " style="stroke:#008837;stroke-width: 5.10 ;&st6;" /></a><a ewd:lineID="108" style="cursor:pointer;"><path d=" M  3254.96,   358.73  L  3254.96,   435.21  " style="stroke:#000000;stroke-width: 5.10 ;&st6;" /></a><a ewd:lineID="109" style="cursor:pointer;"><path d=" M  3297.45,   435.21  L  3297.45,   375.72  L  3263.45,   375.72  L  3254.96,   367.22  L  3254.96,   358.73  " style="stroke:#000000;stroke-width: 5.10 ;&st6;" /></a><a ewd:lineID="110" style="cursor:pointer;"><path d=" M  3254.96,   299.24  L  3254.96,   341.73  " style="stroke:#000000;stroke-width: 5.10 ;&st6;" /></a><a ewd:lineID="111" style="cursor:pointer;"><path d=" M  3297.45,   460.71  L  3297.45,   528.70  L  3263.45,   528.70  " style="stroke:#008837;stroke-width: 5.10 ;&st6;" /></a><a ewd:lineID="112" style="cursor:pointer;"><path d=" M  3390.93,   367.22  L  3390.93,   551.93  " style="stroke:#FF0000;stroke-width: 5.10 ;&st6;" /></a><a ewd:lineID="113" style="cursor:pointer;"><path d=" M  3390.93,   299.24  L  3390.93,   352.49  " style="stroke:#008837;stroke-width: 5.10 ;&st6;" /></a><a ewd:lineID="114" style="cursor:pointer;"><path d=" M  3433.43,   471.47  L  3433.43,   551.93  " style="stroke:#000000;stroke-width: 5.10 ;&st6;" /></a><a ewd:lineID="115" style="cursor:pointer;"><path d=" M  3433.43,   551.93  L  3433.43,   545.69  L  3441.92,   537.20  L  3450.42,   537.20  L  3450.42,   486.77  L  3441.92,   486.77  L  3433.43,   478.27  L  3433.43,   471.47  " style="stroke:#999999;stroke-width: 5.10 ;&st6;" /></a><a ewd:lineID="116" style="cursor:pointer;"><path d=" M  3475.92,   471.47  L  3475.92,   551.93  " style="stroke:#00A0C6;stroke-width: 5.10 ;&st6;" /></a><a ewd:lineID="117" style="cursor:pointer;"><path d=" M  3475.92,   551.93  L  3475.92,   545.69  L  3484.42,   537.20  L  3492.92,   537.20  L  3492.92,   486.77  L  3484.42,   486.77  L  3475.92,   478.27  L  3475.92,   471.47  " style="stroke:#99D9E8;stroke-width: 5.10 ;&st6;" /></a><a ewd:lineID="118" style="cursor:pointer;"><path d=" M  3518.41,   471.47  L  3518.41,   551.93  " style="stroke:#008837;stroke-width: 5.10 ;&st6;" /></a><a ewd:lineID="119" style="cursor:pointer;"> d=" M  3679.89,   290.74  L  3679.89,   299.24  L  3688.38,   307.73  L  3722.38,   307.73 
	
		<path d=" M  3679.89,   290.74  L  3679.89,   299.24  L  3688.38,   307.73  L  3722.38,   307.73  " style="stroke:#000000;stroke-width: 5.10 ;&st6;" /><path d=" M  3679.89,   290.74  L  3679.89,   299.24  L  3688.38,   307.73  L  3722.38,   307.73  " style="stroke:#FFFFFF;stroke-width: 4.53 ;&st6;" /></a><a ewd:lineID="120" style="cursor:pointer;"> d=" M  3679.89,   290.74  L  3679.89,   384.22  L  3756.37,   384.22 
	
		<path d=" M  3679.89,   290.74  L  3679.89,   384.22  L  3756.37,   384.22  " style="stroke:#000000;stroke-width: 5.10 ;&st6;" /><path d=" M  3679.89,   290.74  L  3679.89,   384.22  L  3756.37,   384.22  " style="stroke:#FFFFFF;stroke-width: 4.53 ;&st6;" /></a><a ewd:lineID="121" style="cursor:pointer;"><path d=" M  3764.87,   471.47  L  3764.87,   690.17  L  3696.88,   690.17  L  3696.88,   674.31  " style="stroke:#F668B2;stroke-width: 5.10 ;&st6;" /></a><a ewd:lineID="122" style="cursor:pointer;"><path d=" M  3696.88,   578.56  L  3696.88,   471.47  " style="stroke:#000000;stroke-width: 5.10 ;&st6;" /></a><a ewd:lineID="123" style="cursor:pointer;"> d=" M  3696.88,   471.47  L  3696.88,   477.71  L  3705.38,   486.20  L  3730.88,   486.20  L  3730.88,   562.69  L  3705.38,   562.69  L  3696.88,   571.19  L  3696.88,   578.56 
	
		<path d=" M  3696.88,   471.47  L  3696.88,   477.71  L  3705.38,   486.20  L  3730.88,   486.20  L  3730.88,   562.69  L  3705.38,   562.69  L  3696.88,   571.19  L  3696.88,   578.56  " style="stroke:#000000;stroke-width: 5.10 ;&st6;" /><path d=" M  3696.88,   471.47  L  3696.88,   477.71  L  3705.38,   486.20  L  3730.88,   486.20  L  3730.88,   562.69  L  3705.38,   562.69  L  3696.88,   571.19  L  3696.88,   578.56  " style="stroke:#FFFFFF;stroke-width: 4.53 ;&st6;" /></a><a ewd:lineID="124" style="cursor:pointer;"> d=" M  3745.89,   307.73  L  3764.87,   307.73  L  3764.87,   341.73 
	
		<path d=" M  3745.89,   307.73  L  3764.87,   307.73  L  3764.87,   341.73  " style="stroke:#000000;stroke-width: 5.10 ;&st6;" /><path d=" M  3745.89,   307.73  L  3764.87,   307.73  L  3764.87,   341.73  " style="stroke:#FFFFFF;stroke-width: 4.53 ;&st6;" /></a><a ewd:lineID="125" style="cursor:pointer;"> d=" M  3849.86,   333.23  L  3849.86,   367.22  L  3764.87,   367.22  L  3764.87,   375.72 
	
		<path d=" M  3849.86,   333.23  L  3849.86,   367.22  L  3764.87,   367.22  L  3764.87,   375.72  " style="stroke:#000000;stroke-width: 5.10 ;&st6;" /><path d=" M  3849.86,   333.23  L  3849.86,   367.22  L  3764.87,   367.22  L  3764.87,   375.72  " style="stroke:#FFFFFF;stroke-width: 4.53 ;&st6;" /></a><a ewd:lineID="126" style="cursor:pointer;"> d=" M  3917.85,   351.36  L  3917.85,   384.22  L  3773.37,   384.22 
	
		<path d=" M  3917.85,   351.36  L  3917.85,   384.22  L  3773.37,   384.22  " style="stroke:#000000;stroke-width: 5.10 ;&st6;" /><path d=" M  3917.85,   351.36  L  3917.85,   384.22  L  3773.37,   384.22  " style="stroke:#FFFFFF;stroke-width: 4.53 ;&st6;" /></a><a ewd:lineID="127" style="cursor:pointer;"> d=" M  3807.36,   333.23  L  3807.36,   350.23  L  3773.37,   350.23 
	
		<path d=" M  3807.36,   333.23  L  3807.36,   350.23  L  3773.37,   350.23  " style="stroke:#000000;stroke-width: 5.10 ;&st6;" /><path d=" M  3807.36,   333.23  L  3807.36,   350.23  L  3773.37,   350.23  " style="stroke:#FFFFFF;stroke-width: 4.53 ;&st6;" /></a><a ewd:lineID="128" style="cursor:pointer;"><path d=" M  3807.36,   254.48  L  3807.36,   299.24  " style="stroke:#000000;stroke-width: 5.10 ;&st6;" /></a><a ewd:lineID="129" style="cursor:pointer;"><path d=" M  3985.83,   364.96  L  3985.83,   358.73  L  3994.33,   350.23  L  4011.33,   350.23  L  4011.33,   222.75  L  3807.36,   222.75  L  3807.36,   239.75  " style="stroke:#00A0C6;stroke-width: 5.10 ;&st6;" /></a><a ewd:lineID="130" style="cursor:pointer;"><path d=" M  3832.86,   444.28  L  3832.86,   486.20  " style="stroke:#000000;stroke-width: 5.10 ;&st6;" /></a><a ewd:lineID="131" style="cursor:pointer;"><path d=" M  3849.86,   299.24  L  3849.86,   239.75  L  3985.83,   239.75  L  3985.83,   364.96  " style="stroke:#000000;stroke-width: 5.10 ;&st6;" /></a><a ewd:lineID="132" style="cursor:pointer;"><path d=" M  3866.85,   444.28  L  3866.85,   486.20  " style="stroke:#FF0000;stroke-width: 5.10 ;&st6;" /></a><a ewd:lineID="133" style="cursor:pointer;"> d=" M  3900.85,   444.28  L  3900.85,   486.20 
	
		<path d=" M  3900.85,   444.28  L  3900.85,   486.20  " style="stroke:#000000;stroke-width: 5.10 ;&st6;" /><path d=" M  3900.85,   444.28  L  3900.85,   486.20  " style="stroke:#FFFFFF;stroke-width: 4.53 ;&st6;" /></a><a ewd:lineID="134" style="cursor:pointer;"><path d=" M  3985.83,   364.96  L  3985.83,   358.73  L  3977.34,   350.23  L  3960.34,   350.23  L  3960.34,   256.74  L  3917.85,   256.74  L  3917.85,   281.10  " style="stroke:#000000;stroke-width: 5.10 ;&st6;" /></a><a ewd:lineID="135" style="cursor:pointer;"><path d=" M  3926.34,   681.67  L  3926.34,   622.18  L  3951.84,   622.18  L  3960.34,   613.68  L  3960.34,   605.75  " style="stroke:#992903;stroke-width: 5.10 ;&st6;" /></a><a ewd:lineID="136" style="cursor:pointer;"><path d=" M  3960.34,   681.67  L  3960.34,   605.75  " style="stroke:#992903;stroke-width: 5.10 ;&st6;" /></a><a ewd:lineID="137" style="cursor:pointer;"><path d=" M  3960.34,   570.62  L  3960.34,   511.70  " style="stroke:#992903;stroke-width: 5.10 ;&st6;" /></a><a ewd:lineID="138" style="cursor:pointer;"><path d=" M  4028.33,   665.81  L  4028.33,   698.67  L  4113.31,   698.67  L  4113.31,   469.21  L  4096.32,   469.21  L  4087.82,   460.71  L  4087.82,   453.34  " style="stroke:#FF0000;stroke-width: 5.10 ;&st6;" /></a><a ewd:lineID="139" style="cursor:pointer;"> d=" M  4087.82,   453.34  L  4087.82,   681.67  L  4036.83,   681.67  L  4028.33,   673.17  L  4028.33,   665.81 
	
		<path d=" M  4087.82,   453.34  L  4087.82,   681.67  L  4036.83,   681.67  L  4028.33,   673.17  L  4028.33,   665.81  " style="stroke:#000000;stroke-width: 5.10 ;&st6;" /><path d=" M  4087.82,   453.34  L  4087.82,   681.67  L  4036.83,   681.67  L  4028.33,   673.17  L  4028.33,   665.81  " style="stroke:#FFFFFF;stroke-width: 4.53 ;&st6;" /></a><a ewd:lineID="140" style="cursor:pointer;"><path d=" M  4028.33,   595.55  L  4028.33,   453.34  " style="stroke:#000000;stroke-width: 5.10 ;&st6;" /></a><a ewd:lineID="141" style="cursor:pointer;"><path d=" M  4028.33,   595.55  L  4028.33,   588.19  L  4036.83,   579.69  L  4053.82,   579.69  L  4053.82,   469.21  L  4036.83,   469.21  L  4028.33,   460.71  L  4028.33,   453.34  " style="stroke:#008837;stroke-width: 5.10 ;&st6;" /></a><a ewd:lineID="142" style="cursor:pointer;"> d=" M  4045.32,   254.76  L  4045.32,   341.73  L  4436.26,   341.73  L  4436.26,   349.66  L  4453.26,   366.66  L  4453.26,   374.02 
	
		<path d=" M  4045.32,   254.76  L  4045.32,   341.73  L  4436.26,   341.73  L  4436.26,   349.66  L  4453.26,   366.66  L  4453.26,   374.02  " style="stroke:#000000;stroke-width: 5.10 ;&st6;" /><path d=" M  4045.32,   254.76  L  4045.32,   341.73  L  4436.26,   341.73  L  4436.26,   349.66  L  4453.26,   366.66  L  4453.26,   374.02  " style="stroke:#FFFFFF;stroke-width: 4.53 ;&st6;" /></a><a ewd:lineID="143" style="cursor:pointer;"> d=" M  4045.32,   172.32  L  4045.32,   239.75 
	
		<path d=" M  4045.32,   172.32  L  4045.32,   239.75  " style="stroke:#000000;stroke-width: 5.10 ;&st6;" /><path d=" M  4045.32,   172.32  L  4045.32,   239.75  " style="stroke:#FFFFFF;stroke-width: 4.53 ;&st6;" /></a><a ewd:lineID="144" style="cursor:pointer;"> d=" M  4750.71,   128.13  L  4750.71,    61.28  L  4045.32,    61.28  L  4045.32,   128.70 
	
		<path d=" M  4750.71,   128.13  L  4750.71,    61.28  L  4045.32,    61.28  L  4045.32,   128.70  " style="stroke:#000000;stroke-width: 5.10 ;&st6;" /><path d=" M  4750.71,   128.13  L  4750.71,    61.28  L  4045.32,    61.28  L  4045.32,   128.70  " style="stroke:#FFFFFF;stroke-width: 4.53 ;&st6;" /></a><a ewd:lineID="145" style="cursor:pointer;"><path d=" M  4079.32,   254.48  L  4079.32,   324.73  L  4470.25,   324.73  L  4470.25,   349.66  L  4487.25,   366.66  L  4487.25,   374.02  " style="stroke:#000000;stroke-width: 5.10 ;&st6;" /></a><a ewd:lineID="146" style="cursor:pointer;"><path d=" M  4079.32,   172.32  L  4079.32,   239.75  " style="stroke:#F668B2;stroke-width: 5.10 ;&st6;" /></a><a ewd:lineID="147" style="cursor:pointer;"><path d=" M  4716.71,   128.13  L  4716.71,    78.27  L  4079.32,    78.27  L  4079.32,   128.70  " style="stroke:#000000;stroke-width: 5.10 ;&st6;" /></a><a ewd:lineID="148" style="cursor:pointer;"><path d=" M  4266.29,   471.47  L  4266.29,   571.19  " style="stroke:#008837;stroke-width: 5.10 ;&st6;" /></a><a ewd:lineID="149" style="cursor:pointer;"><path d=" M  4308.78,   471.47  L  4308.78,   571.19  " style="stroke:#FFE600;stroke-width: 5.10 ;&st6;" /></a><a ewd:lineID="150" style="cursor:pointer;"><path d=" M  4351.27,   471.47  L  4351.27,   571.19  " style="stroke:#F668B2;stroke-width: 5.10 ;&st6;" /></a><a ewd:lineID="151" style="cursor:pointer;"><path d=" M  4402.26,   471.47  L  4402.26,   571.19  " style="stroke:#FF0000;stroke-width: 5.10 ;&st6;" /></a><a ewd:lineID="152" style="cursor:pointer;"><path d=" M  4444.76,   471.47  L  4444.76,   571.19  " style="stroke:#C3AF96;stroke-width: 5.10 ;&st6;" /></a><a ewd:lineID="153" style="cursor:pointer;"> d=" M  4453.26,   265.24  L  4453.26,   374.02 
	
		<path d=" M  4453.26,   265.24  L  4453.26,   374.02  " style="stroke:#000000;stroke-width: 5.10 ;&st6;" /><path d=" M  4453.26,   265.24  L  4453.26,   374.02  " style="stroke:#FFFFFF;stroke-width: 4.53 ;&st6;" /></a><a ewd:lineID="154" style="cursor:pointer;"> d=" M  4453.26,   189.32  L  4453.26,   250.23 
	
		<path d=" M  4453.26,   189.32  L  4453.26,   250.23  " style="stroke:#000000;stroke-width: 5.10 ;&st6;" /><path d=" M  4453.26,   189.32  L  4453.26,   250.23  " style="stroke:#FFFFFF;stroke-width: 4.53 ;&st6;" /></a><a ewd:lineID="155" style="cursor:pointer;"><path d=" M  4487.25,   471.47  L  4487.25,   571.19  " style="stroke:#00A0C6;stroke-width: 5.10 ;&st6;" /></a><a ewd:lineID="156" style="cursor:pointer;"><path d=" M  4487.25,   265.24  L  4487.25,   374.02  " style="stroke:#000000;stroke-width: 5.10 ;&st6;" /></a><a ewd:lineID="157" style="cursor:pointer;"><path d=" M  4487.25,   189.32  L  4487.25,   250.51  " style="stroke:#008837;stroke-width: 5.10 ;&st6;" /></a><a ewd:lineID="158" style="cursor:pointer;"> d=" M  4521.24,   189.32  L  4521.24,   239.75  L  4759.20,   239.75  L  4759.20,   290.74  L  4776.20,   290.74  L  4784.70,   299.24  L  4784.70,   307.17 
	
		<path d=" M  4521.24,   189.32  L  4521.24,   239.75  L  4759.20,   239.75  L  4759.20,   290.74  L  4776.20,   290.74  L  4784.70,   299.24  L  4784.70,   307.17  " style="stroke:#000000;stroke-width: 5.10 ;&st6;" /><path d=" M  4521.24,   189.32  L  4521.24,   239.75  L  4759.20,   239.75  L  4759.20,   290.74  L  4776.20,   290.74  L  4784.70,   299.24  L  4784.70,   307.17  " style="stroke:#FFFFFF;stroke-width: 4.53 ;&st6;" /></a><a ewd:lineID="159" style="cursor:pointer;"><path d=" M  4572.24,   189.32  L  4572.24,   214.25  L  4810.20,   214.25  L  4810.20,   290.74  L  4827.19,   290.74  L  4835.69,   299.24  L  4835.69,   307.17  " style="stroke:#F668B2;stroke-width: 5.10 ;&st6;" /></a><a ewd:lineID="160" style="cursor:pointer;"><path d=" M  4716.71,   562.69  L  4716.71,   681.67  " style="stroke:#000000;stroke-width: 5.10 ;&st6;" /><path d=" M  4716.71,   562.69  L  4716.71,   681.67  " style="stroke:#FFFFFF;stroke-width: 4.53 ;&st6;" /><path d=" M  4716.71,   562.69  L  4716.71,   681.67  " style="stroke:#000000;stroke-width: 1.13 ;&st6;" /></a><a ewd:lineID="161" style="cursor:pointer;"><path d=" M  4716.71,   367.79  L  4716.71,   511.70  " style="stroke:#000000;stroke-width: 5.10 ;&st6;" /><path d=" M  4716.71,   367.79  L  4716.71,   511.70  " style="stroke:#FFFFFF;stroke-width: 4.53 ;&st6;" /><path d=" M  4716.71,   367.79  L  4716.71,   511.70  " style="stroke:#000000;stroke-width: 1.13 ;&st6;" /></a><a ewd:lineID="162" style="cursor:pointer;"><path d=" M  4759.20,   571.19  L  4759.20,   401.22  " style="stroke:#00A0C6;stroke-width: 5.10 ;&st6;" /></a><a ewd:lineID="163" style="cursor:pointer;"> d=" M  4784.70,   189.89  L  4784.70,   307.17 
	
		<path d=" M  4784.70,   189.89  L  4784.70,   307.17  " style="stroke:#000000;stroke-width: 5.10 ;&st6;" /><path d=" M  4784.70,   189.89  L  4784.70,   307.17  " style="stroke:#FFFFFF;stroke-width: 4.53 ;&st6;" /></a><a ewd:lineID="164" style="cursor:pointer;"><path d=" M  4827.19,   401.22  L  4827.19,   571.19  " style="stroke:#FFE600;stroke-width: 5.10 ;&st6;" /></a><a ewd:lineID="165" style="cursor:pointer;"><path d=" M  4835.69,   189.89  L  4835.69,   307.17  " style="stroke:#F668B2;stroke-width: 5.10 ;&st6;" /></a><a ewd:lineID="166" style="cursor:pointer;"><path d=" M  4886.68,   401.22  L  4886.68,   681.67  " style="stroke:#000000;stroke-width: 5.10 ;&st6;" /><path d=" M  4886.68,   401.22  L  4886.68,   681.67  " style="stroke:#FFFFFF;stroke-width: 4.53 ;&st6;" /><path d=" M  4886.68,   401.22  L  4886.68,   681.67  " style="stroke:#000000;stroke-width: 1.13 ;&st6;" /></a><a ewd:lineID="167" style="cursor:pointer;"><path d=" M  4929.18,   526.43  L  4929.18,   571.19  " style="stroke:#000000;stroke-width: 5.10 ;&st6;" /></a><a ewd:lineID="168" style="cursor:pointer;"><path d=" M  4929.18,   367.79  L  4929.18,   511.70  " style="stroke:#000000;stroke-width: 5.10 ;&st6;" /></a><a ewd:lineID="169" style="cursor:pointer;"><path d=" M  5014.16,   526.43  L  5014.16,   571.19  " style="stroke:#7FC97F;stroke-width: 5.10 ;&st6;" /></a><a ewd:lineID="170" style="cursor:pointer;"><path d=" M  5014.16,   367.79  L  5014.16,   511.70  " style="stroke:#F668B2;stroke-width: 5.10 ;&st6;" /></a><a ewd:lineID="171" style="cursor:pointer;"><path d=" M  5099.15,   571.19  L  5099.15,   526.43  " style="stroke:#FFE600;stroke-width: 5.10 ;&st6;" /></a><a ewd:lineID="172" style="cursor:pointer;"><path d=" M  5099.15,   447.68  L  5099.15,   511.70  " style="stroke:#FFE600;stroke-width: 5.10 ;&st6;" /></a><a ewd:lineID="173" style="cursor:pointer;"><path d=" M  5141.64,   443.71  L  5141.64,   494.70  L  5107.65,   494.70  L  5099.15,   503.20  L  5099.15,   511.70  " style="stroke:#99D9E8;stroke-width: 5.10 ;&st6;" /></a><a ewd:lineID="174" style="cursor:pointer;"><path d=" M  5099.15,   367.79  L  5099.15,   430.68  " style="stroke:#FFE600;stroke-width: 5.10 ;&st6;" /></a><a ewd:lineID="175" style="cursor:pointer;"><path d=" M  5099.15,   367.79  L  5099.15,   375.72  L  5107.65,   384.22  L  5141.64,   384.22  L  5141.64,   426.71  " style="stroke:#99D9E8;stroke-width: 5.10 ;&st6;" /></a><a ewd:lineID="176" style="cursor:pointer;"><path d=" M  5132.75,   103.77  L  5132.75,   273.74  " style="stroke:#56077D;stroke-width: 5.10 ;&st6;" /></a><a ewd:code="AI1" ewd:figID="67" ewd:figtype="w2w" ewd:pinNo="16" style="cursor:pointer;"><path d=" M   951.84,   554.19  L   934.84,   554.19  L   934.84,   562.69  L   951.84,   562.69  L   951.84,   554.19 " style="&st2;" /><text style="&st8;" transform="matrix(&st16;  938.98  560.56 )"><tspan style="&st18;" x="0" y="0">AI1</tspan></text></a><a ewd:code="IA3" ewd:figID="68" ewd:figtype="w2w" ewd:pinNo="24" style="cursor:pointer;"><path d=" M   985.84,   554.19  L   968.84,   554.19  L   968.84,   562.69  L   985.84,   562.69  L   985.84,   554.19 " style="&st2;" /><text style="&st8;" transform="matrix(&st16;  972.97  560.56 )"><tspan style="&st18;" x="0" y="0">IA3</tspan></text></a><a ewd:code="EA2" ewd:figID="69" ewd:figtype="w2w" ewd:pinNo="1" style="cursor:pointer;"><path d=" M  3263.45,   673.17  L  3246.46,   673.17  L  3246.46,   681.67  L  3263.45,   681.67  L  3263.45,   673.17 " style="&st2;" /><text style="&st8;" transform="matrix(&st16;  3249.65  679.54 )"><tspan style="&st18;" x="0" y="0">EA2</tspan></text></a><a ewd:code="AI2" ewd:figID="70" ewd:figtype="w2w" ewd:pinNo="1" style="cursor:pointer;"><path d=" M  3220.96,   596.69  L  3203.96,   596.69  L  3203.96,   605.18  L  3220.96,   605.18  L  3220.96,   596.69 " style="&st2;" /><text style="&st8;" transform="matrix(&st16;  3208.1  603.06 )"><tspan style="&st18;" x="0" y="0">AI2</tspan></text></a><a ewd:code="IA4" ewd:figID="71" ewd:figtype="w2w" ewd:pinNo="12" style="cursor:pointer;"><path d=" M  3263.45,   596.69  L  3246.46,   596.69  L  3246.46,   605.18  L  3263.45,   605.18  L  3263.45,   596.69 " style="&st2;" /><text style="&st8;" transform="matrix(&st16;  3250.59  603.06 )"><tspan style="&st18;" x="0" y="0">IA4</tspan></text></a><a ewd:code="EH1" ewd:figID="72" ewd:figtype="w2w" ewd:pinNo="3" style="cursor:pointer;"><path d=" M  3739.38,   303.48  L  3722.38,   303.48  L  3722.38,   311.98  L  3739.38,   311.98  L  3739.38,   303.48 " style="&st2;" /><text style="&st8;" transform="matrix(&st16;  3725.38  309.85 )"><tspan style="&st18;" x="0" y="0">EH1</tspan></text></a><a ewd:code="EH1" ewd:figID="73" ewd:figtype="w2w" ewd:pinNo="1" style="cursor:pointer;"><path d=" M  3815.86,   239.75  L  3798.87,   239.75  L  3798.87,   248.24  L  3815.86,   248.24  L  3815.86,   239.75 " style="&st2;" /><text style="&st8;" transform="matrix(&st16;  3801.87  246.11 )"><tspan style="&st18;" x="0" y="0">EH1</tspan></text></a><a ewd:code="IA4" ewd:figID="74" ewd:figtype="w2w" ewd:pinNo="17" style="cursor:pointer;"><path d=" M  1436.26,   511.70  L  1419.26,   511.70  L  1419.26,   520.20  L  1436.26,   520.20  L  1436.26,   511.70 " style="&st2;" /><text style="&st8;" transform="matrix(&st16;  1423.4  518.07 )"><tspan style="&st18;" x="0" y="0">IA4</tspan></text></a><a ewd:code="EA2" ewd:figID="75" ewd:figtype="w2w" ewd:pinNo="10" style="cursor:pointer;"><path d=" M  1130.31,   528.70  L  1113.31,   528.70  L  1113.31,   537.20  L  1130.31,   537.20  L  1130.31,   528.70 " style="&st2;" /><text style="&st8;" transform="matrix(&st16;  1116.51  535.07 )"><tspan style="&st18;" x="0" y="0">EA2</tspan></text></a><a ewd:code="IA7" ewd:figID="76" ewd:figtype="w2w" ewd:pinNo="3" style="cursor:pointer;"><path d=" M  1606.23,   562.69  L  1589.23,   562.69  L  1589.23,   571.19  L  1606.23,   571.19  L  1606.23,   562.69 " style="&st2;" /><text style="&st8;" transform="matrix(&st16;  1593.37  569.06 )"><tspan style="&st18;" x="0" y="0">IA7</tspan></text></a><a ewd:code="IA7" ewd:figID="77" ewd:figtype="w2w" ewd:pinNo="5" style="cursor:pointer;"><path d=" M  1606.23,   554.19  L  1589.23,   554.19  L  1589.23,   562.69  L  1606.23,   562.69  L  1606.23,   554.19 " style="&st2;" /><text style="&st8;" transform="matrix(&st16;  1593.37  560.56 )"><tspan style="&st18;" x="0" y="0">IA7</tspan></text></a><a ewd:code="IA3" ewd:figID="78" ewd:figtype="w2w" ewd:pinNo="16" style="cursor:pointer;"><path d=" M  1087.82,   528.70  L  1070.82,   528.70  L  1070.82,   537.20  L  1087.82,   537.20  L  1087.82,   528.70 " style="&st2;" /><text style="&st8;" transform="matrix(&st16;  1074.96  535.07 )"><tspan style="&st18;" x="0" y="0">IA3</tspan></text></a><a ewd:code="IN1" ewd:figID="79" ewd:figtype="w2w" ewd:pinNo="13" style="cursor:pointer;"><path d=" M   900.85,   511.70  L   883.85,   511.70  L   883.85,   520.20  L   900.85,   520.20  L   900.85,   511.70 " style="&st2;" /><text style="&st8;" transform="matrix(&st16;  887.99  518.07 )"><tspan style="&st18;" x="0" y="0">IN1</tspan></text></a><a ewd:code="IN1" ewd:figID="80" ewd:figtype="w2w" ewd:pinNo="14" style="cursor:pointer;"><path d=" M   849.86,   511.70  L   832.86,   511.70  L   832.86,   520.20  L   849.86,   520.20  L   849.86,   511.70 " style="&st2;" /><text style="&st8;" transform="matrix(&st16;  837.0  518.07 )"><tspan style="&st18;" x="0" y="0">IN1</tspan></text></a><a ewd:code="AI1" ewd:figID="81" ewd:figtype="w2w" ewd:pinNo="2" style="cursor:pointer;"><path d=" M   220.96,    78.27  L   203.97,    78.27  L   203.97,    86.77  L   220.96,    86.77  L   220.96,    78.27 " style="&st2;" /><text style="&st8;" transform="matrix(&st16;  208.1  84.64 )"><tspan style="&st18;" x="0" y="0">AI1</tspan></text></a><a ewd:code="IA8" ewd:figID="82" ewd:figtype="w2w" ewd:pinNo="16" style="cursor:pointer;"><path d=" M   773.37,   511.70  L   756.37,   511.70  L   756.37,   520.20  L   773.37,   520.20  L   773.37,   511.70 " style="&st2;" /><text style="&st8;" transform="matrix(&st16;  760.51  518.07 )"><tspan style="&st18;" x="0" y="0">IA8</tspan></text></a><a ewd:code="IA7" ewd:figID="83" ewd:figtype="w2w" ewd:pinNo="9" style="cursor:pointer;"><path d=" M   773.37,   520.20  L   756.37,   520.20  L   756.37,   528.70  L   773.37,   528.70  L   773.37,   520.20 " style="&st2;" /><text style="&st8;" transform="matrix(&st16;  760.51  526.57 )"><tspan style="&st18;" x="0" y="0">IA7</tspan></text></a><a ewd:code="IA3" ewd:figID="84" ewd:figtype="w2w" ewd:pinNo="2" style="cursor:pointer;"><path d=" M   186.97,    78.27  L   169.97,    78.27  L   169.97,    86.77  L   186.97,    86.77  L   186.97,    78.27 " style="&st2;" /><text style="&st8;" transform="matrix(&st16;  174.11  84.64 )"><tspan style="&st18;" x="0" y="0">IA3</tspan></text></a><a ewd:code="AI1" ewd:figID="85" ewd:figtype="w2w" ewd:pinNo="15" style="cursor:pointer;"><path d=" M   688.38,    78.27  L   671.39,    78.27  L   671.39,    86.77  L   688.38,    86.77  L   688.38,    78.27 " style="&st2;" /><text style="&st8;" transform="matrix(&st16;  675.52  84.64 )"><tspan style="&st18;" x="0" y="0">AI1</tspan></text></a><a ewd:code="IA3" ewd:figID="86" ewd:figtype="w2w" ewd:pinNo="26" style="cursor:pointer;"><path d=" M   654.39,    78.27  L   637.39,    78.27  L   637.39,    86.77  L   654.39,    86.77  L   654.39,    78.27 " style="&st2;" /><text style="&st8;" transform="matrix(&st16;  641.53  84.64 )"><tspan style="&st18;" x="0" y="0">IA3</tspan></text></a><a ewd:code="IA3" ewd:figID="87" ewd:figtype="w2w" ewd:pinNo="6" style="cursor:pointer;"><path d=" M  1283.29,   545.69  L  1266.29,   545.69  L  1266.29,   554.19  L  1283.29,   554.19  L  1283.29,   545.69 " style="&st2;" /><text style="&st8;" transform="matrix(&st16;  1270.42  552.06 )"><tspan style="&st18;" x="0" y="0">IA3</tspan></text></a><a ewd:code="IA7" ewd:figID="88" ewd:figtype="w2w" ewd:pinNo="7" style="cursor:pointer;"><path d=" M  1283.29,   554.19  L  1266.29,   554.19  L  1266.29,   562.69  L  1283.29,   562.69  L  1283.29,   554.19 " style="&st2;" /><text style="&st8;" transform="matrix(&st16;  1270.42  560.56 )"><tspan style="&st18;" x="0" y="0">IA7</tspan></text></a><a ewd:code="AI2" ewd:figID="89" ewd:figtype="w2w" ewd:pinNo="5" style="cursor:pointer;"><path d=" M   577.90,   622.18  L   560.91,   622.18  L   560.91,   630.68  L   577.90,   630.68  L   577.90,   622.18 " style="&st2;" /><text style="&st8;" transform="matrix(&st16;  565.04  628.55 )"><tspan style="&st18;" x="0" y="0">AI2</tspan></text></a><a ewd:code="IA3" ewd:figID="90" ewd:figtype="w2w" ewd:pinNo="21" style="cursor:pointer;"><path d=" M   662.89,   664.67  L   645.89,   664.67  L   645.89,   673.17  L   662.89,   673.17  L   662.89,   664.67 " style="&st2;" /><text style="&st8;" transform="matrix(&st16;  650.03  671.04 )"><tspan style="&st18;" x="0" y="0">IA3</tspan></text></a><a ewd:code="IA8" ewd:figID="91" ewd:figtype="w2w" ewd:pinNo="8" style="cursor:pointer;"><path d=" M  2779.04,   248.24  L  2762.04,   248.24  L  2762.04,   256.74  L  2779.04,   256.74  L  2779.04,   248.24 " style="&st2;" /><text style="&st8;" transform="matrix(&st16;  2766.17  254.61 )"><tspan style="&st18;" x="0" y="0">IA8</tspan></text></a><a ewd:code="IA8" ewd:figID="92" ewd:figtype="w2w" ewd:pinNo="7" style="cursor:pointer;"><path d=" M  2847.02,   248.24  L  2830.03,   248.24  L  2830.03,   256.74  L  2847.02,   256.74  L  2847.02,   248.24 " style="&st2;" /><text style="&st8;" transform="matrix(&st16;  2834.16  254.61 )"><tspan style="&st18;" x="0" y="0">IA8</tspan></text></a><a ewd:code="IA8" ewd:figID="93" ewd:figtype="w2w" ewd:pinNo="14" style="cursor:pointer;"><path d=" M  4053.82,   239.75  L  4036.83,   239.75  L  4036.83,   248.24  L  4053.82,   248.24  L  4053.82,   239.75 " style="&st2;" /><text style="&st8;" transform="matrix(&st16;  4040.96  246.11 )"><tspan style="&st18;" x="0" y="0">IA8</tspan></text></a><a ewd:code="IA8" ewd:figID="94" ewd:figtype="w2w" ewd:pinNo="15" style="cursor:pointer;"><path d=" M  4087.82,   239.75  L  4070.82,   239.75  L  4070.82,   248.24  L  4087.82,   248.24  L  4087.82,   239.75 " style="&st2;" /><text style="&st8;" transform="matrix(&st16;  4074.95  246.11 )"><tspan style="&st18;" x="0" y="0">IA8</tspan></text></a><a ewd:code="AI1" ewd:figID="95" ewd:figtype="w2w" ewd:pinNo="19" style="cursor:pointer;"><path d=" M  4461.75,   256.74  L  4444.76,   256.74  L  4444.76,   265.24  L  4461.75,   265.24  L  4461.75,   256.74 " style="&st2;" /><text style="&st8;" transform="matrix(&st16;  4448.89  263.11 )"><tspan style="&st18;" x="0" y="0">AI1</tspan></text></a><a ewd:code="IA7" ewd:figID="96" ewd:figtype="w2w" ewd:pinNo="4" style="cursor:pointer;"><path d=" M  2813.03,   248.24  L  2796.03,   248.24  L  2796.03,   256.74  L  2813.03,   256.74  L  2813.03,   248.24 " style="&st2;" /><text style="&st8;" transform="matrix(&st16;  2800.17  254.61 )"><tspan style="&st18;" x="0" y="0">IA7</tspan></text></a><a ewd:code="IA7" ewd:figID="97" ewd:figtype="w2w" ewd:pinNo="5" style="cursor:pointer;"><path d=" M  2745.04,   248.24  L  2728.04,   248.24  L  2728.04,   256.74  L  2745.04,   256.74  L  2745.04,   248.24 " style="&st2;" /><text style="&st8;" transform="matrix(&st16;  2732.18  254.61 )"><tspan style="&st18;" x="0" y="0">IA7</tspan></text></a><a ewd:code="AI1" ewd:figID="98" ewd:figtype="w2w" ewd:pinNo="18" style="cursor:pointer;"><path d=" M  4495.75,   256.74  L  4478.75,   256.74  L  4478.75,   265.24  L  4495.75,   265.24  L  4495.75,   256.74 " style="&st2;" /><text style="&st8;" transform="matrix(&st16;  4482.89  263.11 )"><tspan style="&st18;" x="0" y="0">AI1</tspan></text></a><a ewd:code="EA2" ewd:figID="99" ewd:figtype="w2w" ewd:pinNo="15" style="cursor:pointer;"><path d=" M   730.88,   622.18  L   713.88,   622.18  L   713.88,   630.68  L   730.88,   630.68  L   730.88,   622.18 " style="&st2;" /><text style="&st8;" transform="matrix(&st16;  717.07  628.55 )"><tspan style="&st18;" x="0" y="0">EA2</tspan></text></a><a ewd:code="EA2" ewd:figID="100" ewd:figtype="w2w" ewd:pinNo="4" style="cursor:pointer;"><path d=" M  3399.43,   358.73  L  3382.43,   358.73  L  3382.43,   367.22  L  3399.43,   367.22  L  3399.43,   358.73 " style="&st2;" /><text style="&st8;" transform="matrix(&st16;  3385.63  365.09 )"><tspan style="&st18;" x="0" y="0">EA2</tspan></text></a><a ewd:code="IO1" ewd:figID="101" ewd:figtype="w2w" ewd:pinNo="10" style="cursor:pointer;"><path d=" M  4937.67,   511.70  L  4920.68,   511.70  L  4920.68,   520.20  L  4937.67,   520.20  L  4937.67,   511.70 " style="&st2;" /><text style="&st8;" transform="matrix(&st16;  4924.51  518.07 )"><tspan style="&st18;" x="0" y="0">IO1</tspan></text></a><a ewd:code="IN1" ewd:figID="102" ewd:figtype="w2w" ewd:pinNo="15" style="cursor:pointer;"><path d=" M  5022.66,   511.70  L  5005.66,   511.70  L  5005.66,   520.20  L  5022.66,   520.20  L  5022.66,   511.70 " style="&st2;" /><text style="&st8;" transform="matrix(&st16;  5009.8  518.07 )"><tspan style="&st18;" x="0" y="0">IN1</tspan></text></a><a ewd:code="IO1" ewd:figID="103" ewd:figtype="w2w" ewd:pinNo="11" style="cursor:pointer;"><path d=" M  5107.65,   511.70  L  5090.65,   511.70  L  5090.65,   520.20  L  5107.65,   520.20  L  5107.65,   511.70 " style="&st2;" /><text style="&st8;" transform="matrix(&st16;  5094.48  518.07 )"><tspan style="&st18;" x="0" y="0">IO1</tspan></text></a><a ewd:code="A3" ewd:figID="104" ewd:figtype="gp" style="cursor:pointer;"><path d=" M  1655.10,   681.67  L  1676.34,   681.67  L  1665.72,   697.25  L  1655.10,   681.67 " style="&st2;" /><text style="&st8;" transform="matrix(&st16;  1662.22  689.46 )"><tspan style="&st18;" x="0" y="0">A3</tspan></text></a><a ewd:code="I3" ewd:figID="105" ewd:figtype="gp" style="cursor:pointer;"><path d=" M  2547.79,   681.67  L  2569.04,   681.67  L  2558.41,   697.25  L  2547.79,   681.67 " style="&st2;" /><text style="&st8;" transform="matrix(&st16;  2556.04  689.46 )"><tspan style="&st18;" x="0" y="0">I3</tspan></text></a><a ewd:code="I3" ewd:figID="106" ewd:figtype="gp" style="cursor:pointer;"><path d=" M  4876.06,   681.67  L  4897.31,   681.67  L  4886.68,   697.25  L  4876.06,   681.67 " style="&st2;" /><text style="&st8;" transform="matrix(&st16;  4884.31  689.46 )"><tspan style="&st18;" x="0" y="0">I3</tspan></text></a><a ewd:code="I1" ewd:figID="107" ewd:figtype="gp" style="cursor:pointer;"><path d=" M   167.85,   681.67  L   189.09,   681.67  L   178.47,   697.25  L   167.85,   681.67 " style="&st2;" /><text style="&st8;" transform="matrix(&st16;  176.1  689.46 )"><tspan style="&st18;" x="0" y="0">I1</tspan></text></a><a ewd:code="E3" ewd:figID="108" ewd:figtype="gp" style="cursor:pointer;"><path d=" M  3915.72,   681.67  L  3936.97,   681.67  L  3926.34,   697.25  L  3915.72,   681.67 " style="&st2;" /><text style="&st8;" transform="matrix(&st16;  3923.03  689.46 )"><tspan style="&st18;" x="0" y="0">E3</tspan></text></a><a ewd:code="I5" ewd:figID="109" ewd:figtype="gp" style="cursor:pointer;"><path d=" M  2504.96,   681.67  L  2526.20,   681.67  L  2515.58,   697.25  L  2504.96,   681.67 " style="&st2;" /><text style="&st8;" transform="matrix(&st16;  2513.21  689.46 )"><tspan style="&st18;" x="0" y="0">I5</tspan></text></a><a ewd:code="A2" ewd:figID="110" ewd:figtype="gp" style="cursor:pointer;"><path d=" M  1349.15,   681.67  L  1370.40,   681.67  L  1359.77,   697.25  L  1349.15,   681.67 " style="&st2;" /><text style="&st8;" transform="matrix(&st16;  1356.27  689.46 )"><tspan style="&st18;" x="0" y="0">A2</tspan></text></a><a ewd:code="I3" ewd:figID="111" ewd:figtype="gp" style="cursor:pointer;"><path d=" M  1935.55,   681.67  L  1956.80,   681.67  L  1946.17,   697.25  L  1935.55,   681.67 " style="&st2;" /><text style="&st8;" transform="matrix(&st16;  1943.8  689.46 )"><tspan style="&st18;" x="0" y="0">I3</tspan></text></a><a ewd:code="E1" ewd:figID="112" ewd:figtype="gp" style="cursor:pointer;"><path d=" M  3949.72,   681.67  L  3970.96,   681.67  L  3960.34,   697.25  L  3949.72,   681.67 " style="&st2;" /><text style="&st8;" transform="matrix(&st16;  3957.03  689.46 )"><tspan style="&st18;" x="0" y="0">E1</tspan></text></a><a ewd:code="I1" ewd:figID="113" ewd:figtype="gp" style="cursor:pointer;"><path d=" M  4706.09,   681.67  L  4727.34,   681.67  L  4716.71,   697.25  L  4706.09,   681.67 " style="&st2;" /><text style="&st8;" transform="matrix(&st16;  4714.34  689.46 )"><tspan style="&st18;" x="0" y="0">I1</tspan></text></a><a ewd:code="24433" ewd:figID="114" ewd:figtype="sp" style="cursor:pointer;"><path d=" M  1661.47,   596.69  L  1669.97,   596.69  L  1674.22,   600.93  L  1674.22,   609.43  L  1669.97,   613.68  L  1661.47,   613.68  L  1657.22,   609.43  L  1657.22,   600.93  L  1661.47,   596.69 " style="&st2;" /></a><a ewd:code="7129" ewd:figID="115" ewd:figtype="sp" style="cursor:pointer;"><path d=" M   650.14,   596.69  L   658.64,   596.69  L   662.89,   600.93  L   662.89,   609.43  L   658.64,   613.68  L   650.14,   613.68  L   645.89,   609.43  L   645.89,   600.93  L   650.14,   596.69 " style="&st2;" /></a><a ewd:code="19741" ewd:figID="116" ewd:figtype="sp" style="cursor:pointer;"><path d=" M  5094.90,   430.68  L  5103.40,   430.68  L  5107.65,   434.93  L  5107.65,   443.43  L  5103.40,   447.68  L  5094.90,   447.68  L  5090.65,   443.43  L  5090.65,   434.93  L  5094.90,   430.68 " style="&st2;" /></a><a ewd:code="31045" ewd:figID="117" ewd:figtype="sp" style="cursor:pointer;"><path d=" M  3760.62,   341.73  L  3769.12,   341.73  L  3773.37,   345.98  L  3773.37,   354.48  L  3769.12,   358.73  L  3760.62,   358.73  L  3756.37,   354.48  L  3756.37,   345.98  L  3760.62,   341.73 " style="&st2;" /></a><a ewd:code="15085" ewd:figID="118" ewd:figtype="sp" style="cursor:pointer;"><path d=" M  3760.62,   375.72  L  3769.12,   375.72  L  3773.37,   379.97  L  3773.37,   388.47  L  3769.12,   392.72  L  3760.62,   392.72  L  3756.37,   388.47  L  3756.37,   379.97  L  3760.62,   375.72 " style="&st2;" /></a><a ewd:code="21433" ewd:figID="119" ewd:figtype="sp" style="cursor:pointer;"><path d=" M  2511.33,   503.20  L  2519.83,   503.20  L  2524.08,   507.45  L  2524.08,   515.95  L  2519.83,   520.20  L  2511.33,   520.20  L  2507.08,   515.95  L  2507.08,   507.45  L  2511.33,   503.20 " style="&st2;" /></a><a ewd:code="3313" ewd:figID="120" ewd:figtype="sp" style="cursor:pointer;"><path d=" M  1355.52,   579.69  L  1364.02,   579.69  L  1368.27,   583.94  L  1368.27,   592.44  L  1364.02,   596.69  L  1355.52,   596.69  L  1351.27,   592.44  L  1351.27,   583.94  L  1355.52,   579.69 " style="&st2;" /></a><a ewd:code="32665" ewd:figID="121" ewd:figtype="sp" style="cursor:pointer;"><path d=" M  3250.71,   520.20  L  3259.21,   520.20  L  3263.45,   524.45  L  3263.45,   532.95  L  3259.21,   537.20  L  3250.71,   537.20  L  3246.46,   532.95  L  3246.46,   524.45  L  3250.71,   520.20 " style="&st2;" /></a><a ewd:code="15373" ewd:figID="122" ewd:figtype="sp" style="cursor:pointer;"><path d=" M  3956.09,   494.70  L  3964.59,   494.70  L  3968.84,   498.95  L  3968.84,   507.45  L  3964.59,   511.70  L  3956.09,   511.70  L  3951.84,   507.45  L  3951.84,   498.95  L  3956.09,   494.70 " style="&st2;" /></a></g></svg>