﻿<?xml version="1.0" encoding="utf-8"?>
<!DOCTYPE svg PUBLIC "-//W3C//DTD SVG 1.0//EN" "http://www.w3.org/TR/2001/REC-SVG-20010904/DTD/svg10.dtd"[
	<!ENTITY ns_flows "http://ns.adobe.com/Flows/1.0/">
	<!ENTITY ns_svg "http://www.w3.org/2000/svg">
	<!ENTITY ns_xlink "http://www.w3.org/1999/xlink">
	<!ENTITY st0 "font-size:7px;font-family:'MS-PGothic';adobe-font-script:japanese;">
	<!ENTITY st1 "font-size:6px;font-family:'ArialMT';">
	<!-- White fill  -->
	<!ENTITY st2 "fill:#FFFFFF;stroke:#000000; stroke-width:1.41;stroke-linecap:round;stroke-linejoin:round;">
	<!-- Yellow fill  -->
	<!ENTITY st3 "fill:#FFFFCC;stroke:#FFFFCC; stroke-width:0.1;stroke-linecap:round;stroke-linejoin:round;">
	<!-- Gray fill  -->
	<!ENTITY st4 "fill:#CCCCCC;stroke:#CCCCCC; stroke-width:0.1;stroke-linecap:round;stroke-linejoin:round;">
	<!-- Light-blue fill -->
	<!ENTITY st5 "fill:#CCECF4;stroke:#000000; stroke-width:1.133;stroke-linecap:round;stroke-linejoin:round;">
	<!ENTITY st6 "fill:none;stroke-linecap:butt; stroke-linejoin:round;">
	<!ENTITY st7 "fill:none;stroke:#000000;stroke-linecap:round;stroke-linejoin:round;">
	<!ENTITY st8 "enable-background:new    ;">
	<!-- Black fill -->
	<!ENTITY st9 "fill:#000000;stroke:#000000; stroke-linecap:round;stroke-linejoin:round;">
	<!-- SRS note   -->
	<!ENTITY st10 "font-size:9px;font-family:'ArialMT';">
	<!ENTITY st11 "font-size:9px;font-family:'Svg Symbol';">
	<!ENTITY st12 "font-size:6px;font-family:'Svg Symbol';">
	<!ENTITY st13 "fill:none;stroke:#ff0000;stroke-linecap:round;stroke-linejoin:round;">
	<!-- Yellow fill  -->
	<!ENTITY st14 "fill:#FFFF00;stroke:#FFFF00; stroke-width:0.1;stroke-linecap:round;stroke-linejoin:round;">
	<!ENTITY st15 "font-size:6px;font-family:'MS-PGothic';adobe-font-script:japanese;">
	<!ENTITY st16 "1.00 0.00 0.00 1.00">
	<!ENTITY st17 "0.00 -1.00 1.00 0.00">
	<!ENTITY st18 "font-size:6px;font-family:'Arial';">
	<!ENTITY st19 "font-size:9px;font-family:'Arial';">
	<!ENTITY st20 "font-size:6px;font-family:'MS-PGothic','MS PGothic';adobe-font-script:japanese;">
	<!ENTITY st21 "font-size:7px;font-family:'MS-PGothic','MS PGothic';adobe-font-script:japanese;">
	<!ATTLIST svg
		xmlns:ewd CDATA #FIXED "http://shcl.co.jp/ewd"
		xmlns:a CDATA #FIXED "http://ns.adobe.com/AdobeSVGViewerExtensions/3.0/"
		ewd:ver CDATA #IMPLIED
	>
	<!ATTLIST a
		ewd:lineID CDATA #IMPLIED
		ewd:groupID CDATA #IMPLIED
		ewd:figtype CDATA #IMPLIED
		ewd:code CDATA #IMPLIED
		ewd:figID CDATA #IMPLIED
		ewd:pinNo CDATA #IMPLIED
		ewd:comment CDATA #IMPLIED >
	<!ATTLIST g
		ewd:lineID CDATA #IMPLIED
		ewd:groupID CDATA #IMPLIED
		ewd:figtype CDATA #IMPLIED
		ewd:code CDATA #IMPLIED
		ewd:figID CDATA #IMPLIED
		ewd:pinNo CDATA #IMPLIED
		ewd:comment CDATA #IMPLIED >
	<!ATTLIST text
		ewd:textID CDATA #IMPLIED >
	<!ATTLIST title
		ewd:textID CDATA #IMPLIED >
]>
<!-- Generator: Shintec Hozumi YS   -->
<svg onload="call_execInitLoadProc_svg('system')" style="overflow:visible;  enable-background:new 0 0 12425.632 710.000" viewBox="0 0 12425.632 710.000" height="710.000" width="12425.632" xml:space="preserve" ewd:ver="L2.1.2.9" xmlns="&ns_svg;" xmlns:a="http://ns.adobe.com/AdobeSVGViewerExtensions/3.0/" xmlns:ewd="http://shcl.co.jp/ewd" xmlns:xlink="&ns_xlink;">
<path d=" M  6764.87,   180.26  L  6858.35,   180.26  L  6858.35,   214.25  L  6764.87,   214.25  L  6764.87,   180.26  " style="stroke:#000000;stroke-width: 0.85;stroke-dasharray:3, 1.5;&st6;" /><path d=" M  6917.84,   392.72  L  6917.84,   382.10  " style="stroke-width: 0.85 ;&st7;  " /><path d=" M  6917.84,   377.85  L  6917.84,   367.22  " style="stroke-width: 0.85 ;&st7;  " /><path d=" M  6922.09,   377.85  L  6913.59,   377.85  " style="stroke-width: 1.42 ;&st7;  " /><path d=" M  6922.09,   382.10  L  6913.59,   382.10  " style="stroke-width: 1.42 ;&st7;  " /><path d=" M  6934.84,   392.72  L  6934.84,   382.10  " style="stroke-width: 0.85 ;&st7;  " /><path d=" M  6934.84,   377.85  L  6934.84,   367.22  " style="stroke-width: 0.85 ;&st7;  " /><path d=" M  6939.09,   377.85  L  6930.59,   377.85  " style="stroke-width: 1.42 ;&st7;  " /><path d=" M  6939.09,   382.10  L  6930.59,   382.10  " style="stroke-width: 1.42 ;&st7;  " /><path d=" M  6996.46,   341.73  L  6977.33,   341.73  " style="stroke-width: 0.85 ;&st7;  " /><path d=" M  6996.46,   337.48  L  6996.46,   345.98  " style="stroke-width: 1.42 ;&st7;  " /><path d=" M  6996.46,   324.73  L  6875.35,   324.73  " style="stroke-width: 0.85 ;&st7;  " /><path d=" M  6996.46,   320.48  L  6996.46,   328.98  " style="stroke-width: 1.42 ;&st7;  " /><path d=" M  6827.19,   337.48  L  6827.19,   328.98  " style="stroke-width: 1.42 ;&st7;  " /><path d=" M  6823.23,   337.48  L  6827.19,   337.48  " style="stroke-width: 1.42 ;&st7;  " /><path d=" M  6827.19,   328.98  L  6823.23,   328.98  " style="stroke-width: 1.42 ;&st7;  " /><path d=" M  6804.53,   337.48  L  6804.53,   328.98  " style="stroke-width: 1.42 ;&st7;  " /><path d=" M  6808.50,   337.48  L  6804.53,   337.48  " style="stroke-width: 1.42 ;&st7;  " /><path d=" M  6804.53,   328.98  L  6808.50,   328.98  " style="stroke-width: 1.42 ;&st7;  " /><path d=" M  6773.37,   142.73  L  6768.40,   137.76  " style="stroke-width: 1.42 ;&st7;  " /><path d=" M  6756.37,   149.79  L  6761.34,   154.76  " style="stroke-width: 1.42 ;&st7;  " /><path d=" M  6768.40,   154.76  L  6773.37,   149.79  " style="stroke-width: 1.42 ;&st7;  " /><path d=" M  6761.34,   137.76  L  6756.37,   142.73  " style="stroke-width: 1.42 ;&st7;  " /><path d=" M  6875.35,   299.24  L  6875.35,   358.73  L  6883.85,   358.73  " style="stroke-width: 0.85 ;&st7;  " /><path d=" M  6925.15,   357.72  L  6924.88,   358.19  L  6924.78,   358.73  L  6924.88,   359.26  L  6925.15,   359.73  L  6925.56,   360.07  L  6926.07,   360.26  L  6926.61,   360.26  L  6927.12,   360.07  L  6927.53,   359.73  L  6927.80,   359.26  L  6927.90,   358.73  L  6927.80,   358.19  L  6927.53,   357.72  L  6927.12,   357.38  L  6926.61,   357.19  L  6926.07,   357.19  L  6925.56,   357.38  L  6925.15,   357.72  L  6925.54,   358.43  L  6925.54,   359.02  L  6925.91,   359.46  L  6926.49,   359.56  L  6926.99,   359.27  L  6927.19,   358.73  L  6926.99,   358.18  L  6926.49,   357.89  L  6925.91,   357.99  L  6926.34,   358.73  " style="stroke-width: 0.85 ;&st7;  " /><path d=" M  6926.34,   299.24  L  6926.34,   358.73  " style="stroke-width: 0.85 ;&st7;  " /><path d=" M  6874.16,   323.73  L  6873.88,   324.20  L  6873.79,   324.73  L  6873.88,   325.26  L  6874.16,   325.73  L  6874.57,   326.08  L  6875.08,   326.27  L  6875.62,   326.27  L  6876.13,   326.08  L  6876.54,   325.73  L  6876.81,   325.26  L  6876.91,   324.73  L  6876.81,   324.20  L  6876.54,   323.73  L  6876.13,   323.38  L  6875.62,   323.20  L  6875.08,   323.20  L  6874.57,   323.38  L  6874.16,   323.73  L  6874.55,   324.44  L  6874.55,   325.02  L  6874.92,   325.47  L  6875.50,   325.57  L  6876.00,   325.28  L  6876.20,   324.73  L  6876.00,   324.18  L  6875.50,   323.90  L  6874.92,   323.99  L  6875.35,   324.73  " style="stroke-width: 0.85 ;&st7;  " /><path d=" M  6976.14,   340.73  L  6975.87,   341.20  L  6975.77,   341.73  L  6975.87,   342.26  L  6976.14,   342.73  L  6976.55,   343.08  L  6977.06,   343.26  L  6977.60,   343.26  L  6978.11,   343.08  L  6978.52,   342.73  L  6978.80,   342.26  L  6978.89,   341.73  L  6978.80,   341.20  L  6978.52,   340.73  L  6978.11,   340.38  L  6977.60,   340.19  L  6977.06,   340.19  L  6976.55,   340.38  L  6976.14,   340.73  L  6976.53,   341.44  L  6976.53,   342.02  L  6976.91,   342.46  L  6977.48,   342.56  L  6977.98,   342.28  L  6978.18,   341.73  L  6977.98,   341.18  L  6977.48,   340.89  L  6976.91,   340.99  L  6977.33,   341.73  " style="stroke-width: 0.85 ;&st7;  " /><path d=" M  6956.08,   367.22  L  6956.08,   392.72  " style="stroke-width: 0.85 ;&st7;  " /><path d=" M  6954.89,   391.72  L  6954.62,   392.19  L  6954.53,   392.72  L  6954.62,   393.25  L  6954.89,   393.72  L  6955.31,   394.07  L  6955.82,   394.26  L  6956.35,   394.26  L  6956.86,   394.07  L  6957.28,   393.72  L  6957.55,   393.25  L  6957.64,   392.72  L  6957.55,   392.19  L  6957.28,   391.72  L  6956.86,   391.37  L  6956.35,   391.18  L  6955.82,   391.18  L  6955.31,   391.37  L  6954.89,   391.72  L  6955.29,   392.43  L  6955.29,   393.01  L  6955.66,   393.46  L  6956.23,   393.56  L  6956.74,   393.27  L  6956.93,   392.72  L  6956.74,   392.17  L  6956.23,   391.88  L  6955.66,   391.98  L  6956.08,   392.72  " style="stroke-width: 0.85 ;&st7;  " /><path d=" M  6933.65,   391.72  L  6933.37,   392.19  L  6933.28,   392.72  L  6933.37,   393.25  L  6933.65,   393.72  L  6934.06,   394.07  L  6934.57,   394.26  L  6935.11,   394.26  L  6935.62,   394.07  L  6936.03,   393.72  L  6936.30,   393.25  L  6936.40,   392.72  L  6936.30,   392.19  L  6936.03,   391.72  L  6935.62,   391.37  L  6935.11,   391.18  L  6934.57,   391.18  L  6934.06,   391.37  L  6933.65,   391.72  L  6934.04,   392.43  L  6934.04,   393.01  L  6934.41,   393.46  L  6934.99,   393.56  L  6935.49,   393.27  L  6935.69,   392.72  L  6935.49,   392.17  L  6934.99,   391.88  L  6934.41,   391.98  L  6934.84,   392.72  " style="stroke-width: 0.85 ;&st7;  " /><path d=" M  6560.90,   697.25  L  6560.90,   701.50  " style="stroke-width: 0.85 ;&st7;  " /><path d=" M  6552.40,   701.50  L  6569.40,   701.50  " style="stroke-width: 0.85 ;&st7;  " /><path d=" M  6556.65,   704.33  L  6565.15,   704.33  " style="stroke-width: 0.85 ;&st7;  " /><path d=" M  6558.07,   707.17  L  6563.73,   707.17  " style="stroke-width: 0.85 ;&st7;  " /><path d=" M  6559.48,   710.00  L  6562.32,   710.00  " style="stroke-width: 0.85 ;&st7;  " /><path d=" M  6686.96,   710.00  L  6689.80,   710.00  " style="stroke-width: 0.85 ;&st7;  " /><path d=" M  6685.55,   707.17  L  6691.21,   707.17  " style="stroke-width: 0.85 ;&st7;  " /><path d=" M  6684.13,   704.33  L  6692.63,   704.33  " style="stroke-width: 0.85 ;&st7;  " /><path d=" M  6679.88,   701.50  L  6696.88,   701.50  " style="stroke-width: 0.85 ;&st7;  " /><path d=" M  6688.38,   697.25  L  6688.38,   701.50  " style="stroke-width: 0.85 ;&st7;  " /><path d=" M  6916.65,   391.72  L  6916.38,   392.19  L  6916.28,   392.72  L  6916.38,   393.25  L  6916.65,   393.72  L  6917.06,   394.07  L  6917.57,   394.26  L  6918.11,   394.26  L  6918.62,   394.07  L  6919.03,   393.72  L  6919.31,   393.25  L  6919.40,   392.72  L  6919.31,   392.19  L  6919.03,   391.72  L  6918.62,   391.37  L  6918.11,   391.18  L  6917.57,   391.18  L  6917.06,   391.37  L  6916.65,   391.72  L  6917.04,   392.43  L  6917.04,   393.01  L  6917.42,   393.46  L  6917.99,   393.56  L  6918.49,   393.27  L  6918.69,   392.72  L  6918.49,   392.17  L  6917.99,   391.88  L  6917.42,   391.98  L  6917.84,   392.72  " style="stroke-width: 0.85 ;&st7;  " /><path d=" M  6896.59,   367.22  L  6896.59,   392.72  L  7011.33,   392.72  L  7011.33,   299.24  " style="stroke-width: 0.85 ;&st7;  " /><path d=" M  6977.33,   299.24  L  6977.33,   358.73  L  6968.83,   358.73  " style="stroke-width: 0.85 ;&st7;  " /><path d=" M  6933.65,   357.72  L  6933.37,   358.19  L  6933.28,   358.73  L  6933.37,   359.26  L  6933.65,   359.73  L  6934.06,   360.07  L  6934.57,   360.26  L  6935.11,   360.26  L  6935.62,   360.07  L  6936.03,   359.73  L  6936.30,   359.26  L  6936.40,   358.73  L  6936.30,   358.19  L  6936.03,   357.72  L  6935.62,   357.38  L  6935.11,   357.19  L  6934.57,   357.19  L  6934.06,   357.38  L  6933.65,   357.72  L  6934.04,   358.43  L  6934.04,   359.02  L  6934.41,   359.46  L  6934.99,   359.56  L  6935.49,   359.27  L  6935.69,   358.73  L  6935.49,   358.18  L  6934.99,   357.89  L  6934.41,   357.99  L  6934.84,   358.73  " style="stroke-width: 0.85 ;&st7;  " /><path d=" M  6916.65,   357.72  L  6916.38,   358.19  L  6916.28,   358.73  L  6916.38,   359.26  L  6916.65,   359.73  L  6917.06,   360.07  L  6917.57,   360.26  L  6918.11,   360.26  L  6918.62,   360.07  L  6919.03,   359.73  L  6919.31,   359.26  L  6919.40,   358.73  L  6919.31,   358.19  L  6919.03,   357.72  L  6918.62,   357.38  L  6918.11,   357.19  L  6917.57,   357.19  L  6917.06,   357.38  L  6916.65,   357.72  L  6917.04,   358.43  L  6917.04,   359.02  L  6917.42,   359.46  L  6917.99,   359.56  L  6918.49,   359.27  L  6918.69,   358.73  L  6918.49,   358.18  L  6917.99,   357.89  L  6917.42,   357.99  L  6917.84,   358.73  " style="stroke-width: 0.85 ;&st7;  " /><path d=" M  6934.84,   358.73  L  6934.84,   367.22  " style="stroke-width: 0.85 ;&st7;  " /><path d=" M  6917.84,   358.73  L  6917.84,   367.22  " style="stroke-width: 0.85 ;&st7;  " /><path d=" M  6943.34,   350.23  L  6943.34,   367.22  L  6968.83,   367.22  L  6968.83,   350.23  L  6943.34,   350.23  " style="stroke-width: 1.42 ;&st7;  " /><path d=" M  6909.34,   358.73  L  6943.34,   358.73  " style="stroke-width: 0.85 ;&st7;  " /><path d=" M  6883.85,   350.23  L  6883.85,   367.22  L  6909.34,   367.22  L  6909.34,   350.23  L  6883.85,   350.23  " style="stroke-width: 1.42 ;&st7;  " /><path d=" M  6841.35,   299.24  L  6841.35,   333.23  L  6827.19,   333.23  " style="stroke-width: 0.85 ;&st7;  " /><path d=" M  6790.36,   299.24  L  6790.36,   333.23  L  6804.53,   333.23  " style="stroke-width: 0.85 ;&st7;  " /><path d=" M  6773.37,   299.24  L  6773.37,   409.72  L  7028.32,   409.72  L  7028.32,   299.24  L  6773.37,   299.24  " style="stroke-width: 1.42 ;&st7;  " /><path d=" M  6763.67,   179.25  L  6763.40,   179.72  L  6763.31,   180.26  L  6763.40,   180.79  L  6763.67,   181.26  L  6764.09,   181.60  L  6764.60,   181.79  L  6765.14,   181.79  L  6765.65,   181.60  L  6766.06,   181.26  L  6766.33,   180.79  L  6766.42,   180.26  L  6766.33,   179.72  L  6766.06,   179.25  L  6765.65,   178.91  L  6765.14,   178.72  L  6764.60,   178.72  L  6764.09,   178.91  L  6763.67,   179.25  L  6764.07,   179.96  L  6764.07,   180.55  L  6764.44,   180.99  L  6765.01,   181.09  L  6765.52,   180.80  L  6765.72,   180.26  L  6765.52,   179.71  L  6765.01,   179.42  L  6764.44,   179.52  L  6764.87,   180.26  " style="stroke-width: 0.85 ;&st7;  " /><path d=" M  6764.87,   180.26  L  6764.87,   154.76  " style="stroke-width: 0.85 ;&st7; stroke-dasharray:3, 1.5;" /><path d=" M  6607.93,    91.30  C  6607.93     88.80   6605.90     86.77   6603.40     86.77  " style="stroke-width: 1.42 ;&st7;   " /><path d=" M  6603.40,    86.77  C  6600.89     86.77   6598.86     88.80   6598.86     91.30  " style="stroke-width: 1.42 ;&st7;   " /><path d=" M  6598.86,    91.30  C  6598.86     93.81   6600.89     95.84   6603.40     95.84  " style="stroke-width: 1.42 ;&st7;   " /><path d=" M  6603.40,    95.84  C  6605.90     95.84   6607.93     93.81   6607.93     91.30  " style="stroke-width: 1.42 ;&st7;   " /><path d=" M  6692.92,    91.30  C  6692.92     88.80   6690.89     86.77   6688.38     86.77  " style="stroke-width: 1.42 ;&st7;   " /><path d=" M  6688.38,    86.77  C  6685.88     86.77   6683.85     88.80   6683.85     91.30  " style="stroke-width: 1.42 ;&st7;   " /><path d=" M  6683.85,    91.30  C  6683.85     93.81   6685.88     95.84   6688.38     95.84  " style="stroke-width: 1.42 ;&st7;   " /><path d=" M  6688.38,    95.84  C  6690.89     95.84   6692.92     93.81   6692.92     91.30  " style="stroke-width: 1.42 ;&st7;   " /><path d=" M  6565.44,    91.30  C  6565.44     88.80   6563.41     86.77   6560.90     86.77  " style="stroke-width: 1.42 ;&st7;   " /><path d=" M  6560.90,    86.77  C  6558.40     86.77   6556.37     88.80   6556.37     91.30  " style="stroke-width: 1.42 ;&st7;   " /><path d=" M  6556.37,    91.30  C  6556.37     93.81   6558.40     95.84   6560.90     95.84  " style="stroke-width: 1.42 ;&st7;   " /><path d=" M  6560.90,    95.84  C  6563.41     95.84   6565.44     93.81   6565.44     91.30  " style="stroke-width: 1.42 ;&st7;   " /><path d=" M  6650.42,    91.30  C  6650.42     88.80   6648.39     86.77   6645.89     86.77  " style="stroke-width: 1.42 ;&st7;   " /><path d=" M  6645.89,    86.77  C  6643.39     86.77   6641.36     88.80   6641.36     91.30  " style="stroke-width: 1.42 ;&st7;   " /><path d=" M  6641.36,    91.30  C  6641.36     93.81   6643.39     95.84   6645.89     95.84  " style="stroke-width: 1.42 ;&st7;   " /><path d=" M  6645.89,    95.84  C  6648.39     95.84   6650.42     93.81   6650.42     91.30  " style="stroke-width: 1.42 ;&st7;   " /><path d=" M  6845.89,    91.30  C  6845.89     88.80   6843.86     86.77   6841.36     86.77  " style="stroke-width: 1.42 ;&st7;   " /><path d=" M  6841.36,    86.77  C  6838.85     86.77   6836.82     88.80   6836.82     91.30  " style="stroke-width: 1.42 ;&st7;   " /><path d=" M  6836.82,    91.30  C  6836.82     93.81   6838.85     95.84   6841.36     95.84  " style="stroke-width: 1.42 ;&st7;   " /><path d=" M  6841.36,    95.84  C  6843.86     95.84   6845.89     93.81   6845.89     91.30  " style="stroke-width: 1.42 ;&st7;   " /><path d=" M  6769.40,    91.30  C  6769.40     88.80   6767.37     86.77   6764.87     86.77  " style="stroke-width: 1.42 ;&st7;   " /><path d=" M  6764.87,    86.77  C  6762.37     86.77   6760.34     88.80   6760.34     91.30  " style="stroke-width: 1.42 ;&st7;   " /><path d=" M  6760.34,    91.30  C  6760.34     93.81   6762.37     95.84   6764.87     95.84  " style="stroke-width: 1.42 ;&st7;   " /><path d=" M  6764.87,    95.84  C  6767.37     95.84   6769.40     93.81   6769.40     91.30  " style="stroke-width: 1.42 ;&st7;   " /><path d=" M  6794.90,    91.30  C  6794.90     88.80   6792.87     86.77   6790.37     86.77  " style="stroke-width: 1.42 ;&st7;   " /><path d=" M  6790.37,    86.77  C  6787.86     86.77   6785.83     88.80   6785.83     91.30  " style="stroke-width: 1.42 ;&st7;   " /><path d=" M  6785.83,    91.30  C  6785.83     93.81   6787.86     95.84   6790.37     95.84  " style="stroke-width: 1.42 ;&st7;   " /><path d=" M  6790.37,    95.84  C  6792.87     95.84   6794.90     93.81   6794.90     91.30  " style="stroke-width: 1.42 ;&st7;   " /><path d=" M  6879.88,    91.30  C  6879.88     88.80   6877.85     86.77   6875.35     86.77  " style="stroke-width: 1.42 ;&st7;   " /><path d=" M  6875.35,    86.77  C  6872.85     86.77   6870.82     88.80   6870.82     91.30  " style="stroke-width: 1.42 ;&st7;   " /><path d=" M  6870.82,    91.30  C  6870.82     93.81   6872.85     95.84   6875.35     95.84  " style="stroke-width: 1.42 ;&st7;   " /><path d=" M  6875.35,    95.84  C  6877.85     95.84   6879.88     93.81   6879.88     91.30  " style="stroke-width: 1.42 ;&st7;   " /><path d=" M  6981.87,    91.30  C  6981.87     88.80   6979.84     86.77   6977.33     86.77  " style="stroke-width: 1.42 ;&st7;   " /><path d=" M  6977.33,    86.77  C  6974.83     86.77   6972.80     88.80   6972.80     91.30  " style="stroke-width: 1.42 ;&st7;   " /><path d=" M  6972.80,    91.30  C  6972.80     93.81   6974.83     95.84   6977.33     95.84  " style="stroke-width: 1.42 ;&st7;   " /><path d=" M  6977.33,    95.84  C  6979.84     95.84   6981.87     93.81   6981.87     91.30  " style="stroke-width: 1.42 ;&st7;   " /><path d=" M  6930.88,    91.30  C  6930.88     88.80   6928.85     86.77   6926.34     86.77  " style="stroke-width: 1.42 ;&st7;   " /><path d=" M  6926.34,    86.77  C  6923.84     86.77   6921.81     88.80   6921.81     91.30  " style="stroke-width: 1.42 ;&st7;   " /><path d=" M  6921.81,    91.30  C  6921.81     93.81   6923.84     95.84   6926.34     95.84  " style="stroke-width: 1.42 ;&st7;   " /><path d=" M  6926.34,    95.84  C  6928.85     95.84   6930.88     93.81   6930.88     91.30  " style="stroke-width: 1.42 ;&st7;   " /><path d=" M  6815.86,   341.73  C  6820.55    341.73   6824.36    337.92   6824.36    333.23  " style="stroke-width: 1.42 ;&st7;   " /><path d=" M  6824.36,   333.23  C  6824.36    328.54   6820.55    324.73   6815.86    324.73  " style="stroke-width: 1.42 ;&st7;   " /><path d=" M  6815.86,   324.73  C  6811.17    324.73   6807.36    328.54   6807.36    333.23  " style="stroke-width: 1.42 ;&st7;   " /><path d=" M  6807.36,   333.23  C  6807.36    337.92   6811.17    341.73   6815.86    341.73  " style="stroke-width: 1.42 ;&st7;   " /><text style="&st18;" transform="matrix(&st16;  6558.72  93.27 )">B</text><text style="&st18;" transform="matrix(&st16;  6591.6  93.27 )">49</text><text style="&st18;" transform="matrix(&st16;  6686.19  93.27 )">B</text><text style="&st18;" transform="matrix(&st16;  6676.59  93.27 )">58</text><text style="&st18;" transform="matrix(&st16;  6634.09  93.27 )">50</text><text style="&st18;" transform="matrix(&st16;  6643.7  93.27 )">B</text><text style="&st18;" transform="matrix(&st16;  6549.11  93.27 )">16</text><text style="&st18;" transform="matrix(&st16;  6601.21  93.27 )">B</text><text style="&st18;" transform="matrix(&st16;  6557.24  83.07 )">E1</text><text style="&st18;" transform="matrix(&st17;  6557.21  132.81 )">BR</text><text style="&st18;" transform="matrix(&st16;  6608.48  24.98 )">A25(A),E26(B)</text><text style="&st18;" transform="matrix(&st17;  6684.69  135.22 )">W-B</text><text style="&st18;" transform="matrix(&st16;  6680.69  83.07 )">ME01</text><text style="&st18;" transform="matrix(&st17;  6642.19  135.22 )">W-B</text><text style="&st18;" transform="matrix(&st17;  6599.7  135.22 )">W-B</text><text style="&st18;" transform="matrix(&st16;  6640.68  83.07 )">E01</text><text style="&st18;" transform="matrix(&st16;  6598.18  83.07 )">E02</text><text style="&st18;" transform="matrix(&st16;  6608.49  32.08 )">ECM</text><text style="&st18;" transform="matrix(&st16;  6711.77  575.99 )">R</text><text style="&st18;" transform="matrix(&st16;  6762.76  575.99 )">R</text><text style="&st18;" transform="matrix(&st16;  6708.67  587.32 )">(*2)</text><text style="&st18;" transform="matrix(&st16;  6759.66  587.32 )">(*2)</text><text style="&st18;" transform="matrix(&st16;  6829.56  93.27 )">60</text><text style="&st18;" transform="matrix(&st16;  6839.17  93.27 )">B</text><text style="&st18;" transform="matrix(&st16;  6753.07  93.27 )">59</text><text ewd:textID="1" style="&st18;" transform="matrix(&st17;  6761.18  209.49 )">(Shielded)</text><text style="&st18;" transform="matrix(&st16;  6996.43  93.27 )">126</text><text style="&st18;" transform="matrix(&st16;  6778.57  93.27 )">30</text><text style="&st18;" transform="matrix(&st16;  6788.18  93.27 )">B</text><text ewd:textID="77" style="&st18;" transform="matrix(&st16;  6778.46  424.43 )">Throttle Body Assembly with Motor</text><text style="&st18;" transform="matrix(&st16;  6867.5  83.07 )">VTA1</text><text style="&st18;" transform="matrix(&st17;  6871.66  198.94 )">Y</text><text style="&st18;" transform="matrix(&st16;  6969.48  83.07 )">VTA2</text><text style="&st18;" transform="matrix(&st16;  6757.45  83.07 )">GE01</text><text style="&st18;" transform="matrix(&st17;  6973.64  199.72 )">W</text><text style="&st18;" transform="matrix(&st17;  6922.65  198.94 )">B</text><text style="&st18;" transform="matrix(&st16;  6917.87  83.07 )">VCTA</text><text style="&st18;" transform="matrix(&st17;  6837.66  199.72 )">W</text><text style="&st18;" transform="matrix(&st17;  6786.67  198.94 )">B</text><text style="&st18;" transform="matrix(&st16;  6837.07  83.07 )">M+</text><text style="&st18;" transform="matrix(&st16;  6786.08  83.07 )">M-</text><text style="&st18;" transform="matrix(&st16;  6762.68  93.27 )">B</text><text style="&st18;" transform="matrix(&st17;  6761.17  118.48 )">G</text><text style="&st18;" transform="matrix(&st16;  6873.16  93.27 )">B</text><text style="&st18;" transform="matrix(&st16;  6860.45  93.27 )">127</text><text style="&st18;" transform="matrix(&st16;  6975.15  93.27 )">B</text><text style="&st18;" transform="matrix(&st16;  6962.44  93.27 )">128</text><text style="&st18;" transform="matrix(&st16;  6924.15  93.27 )">B</text><text style="&st18;" transform="matrix(&st16;  6911.44  93.27 )">125</text><text style="&st18;" transform="matrix(&st16;  6784.18  295.55 )">1</text><text style="&st18;" transform="matrix(&st16;  6835.17  295.55 )">2</text><text style="&st18;" transform="matrix(&st16;  6920.16  295.55 )">5</text><text style="&st18;" transform="matrix(&st16;  6971.15  295.55 )">4</text><text style="&st18;" transform="matrix(&st16;  6869.17  295.55 )">6</text><text style="&st18;" transform="matrix(&st16;  6778.45  417.33 )">E16</text><text style="&st18;" transform="matrix(&st16;  6891.73  360.69 )">IC1</text><text style="&st18;" transform="matrix(&st16;  6951.22  360.69 )">IC2</text><text style="&st18;" transform="matrix(&st16;  6877.93  307.43 )">VTA</text><text style="&st18;" transform="matrix(&st16;  6928.93  307.43 )">VC</text><text style="&st18;" transform="matrix(&st16;  6979.92  307.43 )">VTA2</text><text style="&st18;" transform="matrix(&st16;  6813.13  335.2 )">M</text><text style="&st18;" transform="matrix(&st16;  6792.95  307.43 )">M-</text><text style="&st18;" transform="matrix(&st16;  6843.94  307.43 )">M+</text><text style="&st18;" transform="matrix(&st16;  6703.08  638.31 )">(*2 *10)</text><text style="&st18;" transform="matrix(&st16;  6710.14  626.98 )">SB</text><text style="&st18;" transform="matrix(&st16;  6703.08  612.82 )">(*2 *10)</text><text style="&st18;" transform="matrix(&st16;  6711.69  601.49 )">Y</text><text style="&st18;" transform="matrix(&st16;  6761.13  626.98 )">SB</text><text style="&st18;" transform="matrix(&st16;  6754.07  638.31 )">(*2 *10)</text><text style="&st18;" transform="matrix(&st16;  6762.68  601.49 )">Y</text><text style="&st18;" transform="matrix(&st16;  6754.07  612.82 )">(*2 *10)</text></svg>