﻿<?xml version="1.0" encoding="utf-8"?>
<!DOCTYPE svg PUBLIC "-//W3C//DTD SVG 1.0//EN" "http://www.w3.org/TR/2001/REC-SVG-20010904/DTD/svg10.dtd"[
	<!ENTITY ns_flows "http://ns.adobe.com/Flows/1.0/">
	<!ENTITY ns_svg "http://www.w3.org/2000/svg">
	<!ENTITY ns_xlink "http://www.w3.org/1999/xlink">
	<!ENTITY st0 "font-size:7px;font-family:'MS-PGothic';adobe-font-script:japanese;">
	<!ENTITY st1 "font-size:6px;font-family:'ArialMT';">
	<!-- White fill  -->
	<!ENTITY st2 "fill:#FFFFFF;stroke:#000000; stroke-width:1.41;stroke-linecap:round;stroke-linejoin:round;">
	<!-- Yellow fill  -->
	<!ENTITY st3 "fill:#FFFFCC;stroke:#FFFFCC; stroke-width:0.1;stroke-linecap:round;stroke-linejoin:round;">
	<!-- Gray fill  -->
	<!ENTITY st4 "fill:#CCCCCC;stroke:#CCCCCC; stroke-width:0.1;stroke-linecap:round;stroke-linejoin:round;">
	<!-- Light-blue fill -->
	<!ENTITY st5 "fill:#CCECF4;stroke:#000000; stroke-width:1.133;stroke-linecap:round;stroke-linejoin:round;">
	<!ENTITY st6 "fill:none;stroke-linecap:butt; stroke-linejoin:round;">
	<!ENTITY st7 "fill:none;stroke:#000000;stroke-linecap:round;stroke-linejoin:round;">
	<!ENTITY st8 "enable-background:new    ;">
	<!-- Black fill -->
	<!ENTITY st9 "fill:#000000;stroke:#000000; stroke-linecap:round;stroke-linejoin:round;">
	<!-- SRS note   -->
	<!ENTITY st10 "font-size:9px;font-family:'ArialMT';">
	<!ENTITY st11 "font-size:9px;font-family:'Svg Symbol';">
	<!ENTITY st12 "font-size:6px;font-family:'Svg Symbol';">
	<!ENTITY st13 "fill:none;stroke:#ff0000;stroke-linecap:round;stroke-linejoin:round;">
	<!-- Yellow fill  -->
	<!ENTITY st14 "fill:#FFFF00;stroke:#FFFF00; stroke-width:0.1;stroke-linecap:round;stroke-linejoin:round;">
	<!ENTITY st15 "font-size:6px;font-family:'MS-PGothic';adobe-font-script:japanese;">
	<!ENTITY st16 "1.00 0.00 0.00 1.00">
	<!ENTITY st17 "0.00 -1.00 1.00 0.00">
	<!ENTITY st18 "font-size:6px;font-family:'Arial';">
	<!ENTITY st19 "font-size:9px;font-family:'Arial';">
	<!ENTITY st20 "font-size:6px;font-family:'MS-PGothic','MS PGothic';adobe-font-script:japanese;">
	<!ENTITY st21 "font-size:7px;font-family:'MS-PGothic','MS PGothic';adobe-font-script:japanese;">
	<!ATTLIST svg
		xmlns:ewd CDATA #FIXED "http://shcl.co.jp/ewd"
		xmlns:a CDATA #FIXED "http://ns.adobe.com/AdobeSVGViewerExtensions/3.0/"
		ewd:ver CDATA #IMPLIED
	>
	<!ATTLIST a
		ewd:lineID CDATA #IMPLIED
		ewd:groupID CDATA #IMPLIED
		ewd:figtype CDATA #IMPLIED
		ewd:code CDATA #IMPLIED
		ewd:figID CDATA #IMPLIED
		ewd:pinNo CDATA #IMPLIED
		ewd:comment CDATA #IMPLIED >
	<!ATTLIST g
		ewd:lineID CDATA #IMPLIED
		ewd:groupID CDATA #IMPLIED
		ewd:figtype CDATA #IMPLIED
		ewd:code CDATA #IMPLIED
		ewd:figID CDATA #IMPLIED
		ewd:pinNo CDATA #IMPLIED
		ewd:comment CDATA #IMPLIED >
	<!ATTLIST text
		ewd:textID CDATA #IMPLIED >
	<!ATTLIST title
		ewd:textID CDATA #IMPLIED >
]>
<!-- Generator: Shintec Hozumi YS   -->
<svg onload="call_execInitLoadProc_svg('system')" style="overflow:visible;  enable-background:new 0 0 13462.459 710.000" viewBox="0 0 13462.459 710.000" height="710.000" width="13462.459" xml:space="preserve" ewd:ver="L2.1.2.9" xmlns="&ns_svg;" xmlns:a="http://ns.adobe.com/AdobeSVGViewerExtensions/3.0/" xmlns:ewd="http://shcl.co.jp/ewd" xmlns:xlink="&ns_xlink;">
<path d=" M 10708.21,   426.71  L 10708.21,   401.22  " style="stroke:#FFE600;stroke-width: 5.10 ;&st6;" /><path d=" M 10580.73,   426.71  L 10580.73,   401.22  " style="stroke:#999999;stroke-width: 5.10 ;&st6;" /><path d=" M 10580.73,   460.71  L 10580.73,   477.71  L 10606.23,   477.71  L 10606.23,   401.22  " style="stroke:#000000;stroke-width: 5.10 ;&st6;" /><path d=" M 10529.74,   426.71  L 10529.74,   401.22  " style="stroke:#000000;stroke-width: 5.10 ;&st6;" /><path d=" M 10529.74,   426.71  L 10529.74,   401.22  " style="stroke:#FFFFFF;stroke-width: 4.53 ;&st6;" /><path d=" M 10529.74,   460.71  L 10529.74,   477.71  L 10555.24,   477.71  L 10555.24,   401.22  " style="stroke:#000000;stroke-width: 5.10 ;&st6;" /><path d=" M 10640.22,   426.71  L 10640.22,   401.22  " style="stroke:#000000;stroke-width: 5.10 ;&st6;" /><path d=" M 10640.22,   426.71  L 10640.22,   401.22  " style="stroke:#FFFFFF;stroke-width: 4.53 ;&st6;" /><path d=" M 10657.22,   426.71  L 10657.22,   401.22  " style="stroke:#999999;stroke-width: 5.10 ;&st6;" /><path d=" M 10674.22,   426.71  L 10674.22,   401.22  " style="stroke:#FF7F00;stroke-width: 5.10 ;&st6;" /><path d=" M 10691.21,   426.71  L 10691.21,   401.22  " style="stroke:#992903;stroke-width: 5.10 ;&st6;" /><path d=" M 10529.74,   426.71  L 10529.74,   435.21  " style="stroke-width: 0.85 ;&st7;  " /><path d=" M 10529.74,   452.21  L 10529.74,   460.71  " style="stroke-width: 0.85 ;&st7;  " /><path d=" M 10580.73,   426.71  L 10580.73,   435.21  " style="stroke-width: 0.85 ;&st7;  " /><path d=" M 10580.73,   452.21  L 10580.73,   460.71  " style="stroke-width: 0.85 ;&st7;  " /><path d=" M 10538.23,   460.71  L 10538.23,   426.71  L 10521.24,   426.71  L 10521.24,   460.71  L 10538.23,   460.71  " style="stroke-width: 1.42 ;&st7;  " /><path d=" M 10589.23,   460.71  L 10589.23,   426.71  L 10572.23,   426.71  L 10572.23,   460.71  L 10589.23,   460.71  " style="stroke-width: 1.42 ;&st7;  " /><path d=" M 10631.72,   435.21  L 10631.72,   469.21  L 10716.70,   469.21  L 10716.70,   435.21  L 10631.72,   435.21  " style="stroke-width: 1.42 ;&st7;  " /><path d=" M 10640.22,   435.21  L 10640.22,   426.71  " style="stroke-width: 0.85 ;&st7;  " /><path d=" M 10657.21,   435.21  L 10657.21,   426.71  " style="stroke-width: 0.85 ;&st7;  " /><path d=" M 10674.21,   435.21  L 10674.21,   426.71  " style="stroke-width: 0.85 ;&st7;  " /><path d=" M 10691.21,   435.21  L 10691.21,   426.71  " style="stroke-width: 0.85 ;&st7;  " /><path d=" M 10742.20,   435.21  L 10742.20,   469.21  L 10861.18,   469.21  L 10861.18,   435.21  L 10742.20,   435.21  " style="stroke-width: 1.42 ;&st7;  " /><path d=" M 10750.70,   443.71  L 10750.70,   460.71  L 10793.19,   460.71  L 10793.19,   443.71  L 10750.70,   443.71  " style="stroke-width: 1.42 ;&st7;  " /><path d=" M 10810.19,   443.71  L 10810.19,   460.71  L 10852.68,   460.71  L 10852.68,   443.71  L 10810.19,   443.71  " style="stroke-width: 1.42 ;&st7;  " /><path d=" M 10623.22,   426.71  L 10623.22,   477.71  L 10725.20,   477.71  L 10725.20,   426.71  L 10623.22,   426.71  " style="stroke-width: 1.42 ;&st7;  " /><path d=" M 10759.20,   443.71  L 10759.20,   401.22  " style="stroke-width: 0.85 ;&st7;  " /><path d=" M 10784.69,   443.71  L 10784.69,   401.22  " style="stroke-width: 0.85 ;&st7;  " /><path d=" M 10818.69,   443.71  L 10818.69,   401.22  " style="stroke-width: 0.85 ;&st7;  " /><path d=" M 10844.18,   443.71  L 10844.18,   401.22  " style="stroke-width: 0.85 ;&st7;  " /><path d=" M 10708.21,   435.21  L 10708.21,   426.71  " style="stroke-width: 0.85 ;&st7;  " /><path d=" M 10527.21,   441.23  C 10528.58    442.63  10530.82    442.65  10532.22    441.28  " style="stroke-width: 0.85 ;&st7;   " /><path d=" M 10532.22,   441.28  C 10533.62    439.91  10533.64    437.67  10532.27    436.27  " style="stroke-width: 0.85 ;&st7;   " /><path d=" M 10532.27,   436.27  C 10531.58    435.57  10530.73    435.21  10529.74    435.21  " style="stroke-width: 0.85 ;&st7;   " /><path d=" M 10527.21,   446.19  C 10528.58    447.59  10530.82    447.61  10532.22    446.24  " style="stroke-width: 0.85 ;&st7;   " /><path d=" M 10532.22,   446.24  C 10533.62    444.87  10533.64    442.63  10532.27    441.23  " style="stroke-width: 0.85 ;&st7;   " /><path d=" M 10532.27,   441.23  C 10530.90    439.84  10528.66    439.81  10527.26    441.18  " style="stroke-width: 0.85 ;&st7;   " /><path d=" M 10527.26,   441.18  C 10527.24    441.20  10527.23    441.21  10527.21    441.23  " style="stroke-width: 0.85 ;&st7;   " /><path d=" M 10529.74,   452.21  C 10531.70    452.21  10533.28    450.62  10533.28    448.67  " style="stroke-width: 0.85 ;&st7;   " /><path d=" M 10533.28,   448.67  C 10533.28    446.71  10531.70    445.13  10529.74    445.13  " style="stroke-width: 0.85 ;&st7;   " /><path d=" M 10529.74,   445.13  C 10528.75    445.13  10527.90    445.48  10527.21    446.19  " style="stroke-width: 0.85 ;&st7;   " /><path d=" M 10578.20,   441.23  C 10579.57    442.63  10581.81    442.65  10583.21    441.28  " style="stroke-width: 0.85 ;&st7;   " /><path d=" M 10583.21,   441.28  C 10584.61    439.91  10584.63    437.67  10583.26    436.27  " style="stroke-width: 0.85 ;&st7;   " /><path d=" M 10583.26,   436.27  C 10582.57    435.57  10581.72    435.21  10580.73    435.21  " style="stroke-width: 0.85 ;&st7;   " /><path d=" M 10578.20,   446.19  C 10579.57    447.59  10581.81    447.61  10583.21    446.24  " style="stroke-width: 0.85 ;&st7;   " /><path d=" M 10583.21,   446.24  C 10584.61    444.87  10584.63    442.63  10583.26    441.23  " style="stroke-width: 0.85 ;&st7;   " /><path d=" M 10583.26,   441.23  C 10581.89    439.84  10579.65    439.81  10578.25    441.18  " style="stroke-width: 0.85 ;&st7;   " /><path d=" M 10578.25,   441.18  C 10578.24    441.20  10578.22    441.21  10578.20    441.23  " style="stroke-width: 0.85 ;&st7;   " /><path d=" M 10580.73,   452.21  C 10582.69    452.21  10584.27    450.62  10584.27    448.67  " style="stroke-width: 0.85 ;&st7;   " /><path d=" M 10584.27,   448.67  C 10584.27    446.71  10582.69    445.13  10580.73    445.13  " style="stroke-width: 0.85 ;&st7;   " /><path d=" M 10580.73,   445.13  C 10579.74    445.13  10578.90    445.48  10578.20    446.19  " style="stroke-width: 0.85 ;&st7;   " /><text style="&st18;" transform="matrix(&st16;  10500.83  24.98 )">A25(A),E26(B)</text><text style="&st18;" transform="matrix(&st16;  10500.84  32.08 )">ECM</text><text ewd:textID="62" style="&st18;" transform="matrix(&st16;  10648.14  449.94 )">Oil Pressure Switch <tspan dy="6.0" x="0 ">Temperature Sensor</tspan></text><text ewd:textID="49" style="&st18;" transform="matrix(&st16;  10762.59  454.18 )">Hall IC</text><text ewd:textID="49" style="&st18;" transform="matrix(&st16;  10822.08  454.18 )">Hall IC</text><text ewd:textID="76" style="&st18;" transform="matrix(&st16;  10509.34  355.03 )">Transmission Control ECU Assembly</text><text style="&st18;" transform="matrix(&st16;  10509.33  347.92 )">E7</text><text style="&st18;" transform="matrix(&st16;  10910.1  635.48 )">L</text><text style="&st18;" transform="matrix(&st16;  10859.11  635.48 )">L</text><text ewd:textID="6" style="&st18;" transform="matrix(&st16;  10925.77  114.24 )">* 7 :Before Jan. 2012 Production</text><text ewd:textID="9" style="&st18;" transform="matrix(&st16;  10925.77  131.23 )">*11 :From Jan. 2012 Production <tspan dy="8.5" x="14.16">until Sep. 2013 Production</tspan></text><text style="&st18;" transform="matrix(&st17;  10500.55  415.66 )">B</text><text style="&st18;" transform="matrix(&st17;  10526.04  416.43 )">W</text><text style="&st18;" transform="matrix(&st17;  10551.54  415.66 )">B</text><text style="&st18;" transform="matrix(&st17;  10577.04  417.79 )">GR</text><text style="&st18;" transform="matrix(&st17;  10602.53  415.66 )">B</text><text style="&st18;" transform="matrix(&st17;  10636.53  416.43 )">W</text><text style="&st18;" transform="matrix(&st17;  10653.52  417.79 )">GR</text><text style="&st18;" transform="matrix(&st17;  10670.52  416.08 )">O</text><text style="&st18;" transform="matrix(&st17;  10687.52  417.52 )">BR</text><text style="&st18;" transform="matrix(&st17;  10704.51  415.66 )">Y</text><text ewd:textID="8" style="&st18;" transform="matrix(&st16;  10925.77  122.73 )">*10 :From Sep. 2013 Production</text></svg>