﻿<?xml version="1.0" encoding="utf-8"?>
<!DOCTYPE svg PUBLIC "-//W3C//DTD SVG 1.0//EN" "http://www.w3.org/TR/2001/REC-SVG-20010904/DTD/svg10.dtd"[
	<!ENTITY ns_flows "http://ns.adobe.com/Flows/1.0/">
	<!ENTITY ns_svg "http://www.w3.org/2000/svg">
	<!ENTITY ns_xlink "http://www.w3.org/1999/xlink">
	<!ENTITY st0 "font-size:7px;font-family:'MS-PGothic';adobe-font-script:japanese;">
	<!ENTITY st1 "font-size:6px;font-family:'ArialMT';">
	<!-- White fill  -->
	<!ENTITY st2 "fill:#FFFFFF;stroke:#000000; stroke-width:1.41;stroke-linecap:round;stroke-linejoin:round;">
	<!-- Yellow fill  -->
	<!ENTITY st3 "fill:#FFFFCC;stroke:#FFFFCC; stroke-width:0.1;stroke-linecap:round;stroke-linejoin:round;">
	<!-- Gray fill  -->
	<!ENTITY st4 "fill:#CCCCCC;stroke:#CCCCCC; stroke-width:0.1;stroke-linecap:round;stroke-linejoin:round;">
	<!-- Light-blue fill -->
	<!ENTITY st5 "fill:#CCECF4;stroke:#000000; stroke-width:1.133;stroke-linecap:round;stroke-linejoin:round;">
	<!ENTITY st6 "fill:none;stroke-linecap:butt; stroke-linejoin:round;">
	<!ENTITY st7 "fill:none;stroke:#000000;stroke-linecap:round;stroke-linejoin:round;">
	<!ENTITY st8 "enable-background:new    ;">
	<!-- Black fill -->
	<!ENTITY st9 "fill:#000000;stroke:#000000; stroke-linecap:round;stroke-linejoin:round;">
	<!-- SRS note   -->
	<!ENTITY st10 "font-size:9px;font-family:'ArialMT';">
	<!ENTITY st11 "font-size:9px;font-family:'Svg Symbol';">
	<!ENTITY st12 "font-size:6px;font-family:'Svg Symbol';">
	<!ENTITY st13 "fill:none;stroke:#ff0000;stroke-linecap:round;stroke-linejoin:round;">
	<!-- Yellow fill  -->
	<!ENTITY st14 "fill:#FFFF00;stroke:#FFFF00; stroke-width:0.1;stroke-linecap:round;stroke-linejoin:round;">
	<!ENTITY st15 "font-size:6px;font-family:'MS-PGothic';adobe-font-script:japanese;">
	<!ENTITY st16 "1.00 0.00 0.00 1.00">
	<!ENTITY st17 "0.00 -1.00 1.00 0.00">
	<!ENTITY st18 "font-size:6px;font-family:'Arial';">
	<!ENTITY st19 "font-size:9px;font-family:'Arial';">
	<!ENTITY st20 "font-size:6px;font-family:'MS-PGothic','MS PGothic';adobe-font-script:japanese;">
	<!ENTITY st21 "font-size:7px;font-family:'MS-PGothic','MS PGothic';adobe-font-script:japanese;">
	<!ATTLIST svg
		xmlns:ewd CDATA #FIXED "http://shcl.co.jp/ewd"
		xmlns:a CDATA #FIXED "http://ns.adobe.com/AdobeSVGViewerExtensions/3.0/"
		ewd:ver CDATA #IMPLIED
	>
	<!ATTLIST a
		ewd:lineID CDATA #IMPLIED
		ewd:groupID CDATA #IMPLIED
		ewd:figtype CDATA #IMPLIED
		ewd:code CDATA #IMPLIED
		ewd:figID CDATA #IMPLIED
		ewd:pinNo CDATA #IMPLIED
		ewd:comment CDATA #IMPLIED >
	<!ATTLIST g
		ewd:lineID CDATA #IMPLIED
		ewd:groupID CDATA #IMPLIED
		ewd:figtype CDATA #IMPLIED
		ewd:code CDATA #IMPLIED
		ewd:figID CDATA #IMPLIED
		ewd:pinNo CDATA #IMPLIED
		ewd:comment CDATA #IMPLIED >
	<!ATTLIST text
		ewd:textID CDATA #IMPLIED >
	<!ATTLIST title
		ewd:textID CDATA #IMPLIED >
]>
<!-- Generator: Shintec Hozumi YS   -->
<svg onload="call_execInitLoadProc_svg('system')" style="overflow:visible;  enable-background:new 0 0 12425.632 710.000" viewBox="0 0 12425.632 710.000" height="710.000" width="12425.632" xml:space="preserve" ewd:ver="L2.1.2.9" xmlns="&ns_svg;" xmlns:a="http://ns.adobe.com/AdobeSVGViewerExtensions/3.0/" xmlns:ewd="http://shcl.co.jp/ewd" xmlns:xlink="&ns_xlink;">
<path d=" M 11893.76,   418.22  L 11885.26,   418.22  " style="stroke-width: 0.85 ;&st7;  " /><path d=" M 11647.30,   197.25  L 11638.81,   197.25  " style="stroke-width: 0.85 ;&st7;  " /><path d=" M 11706.79,   197.25  L 11698.30,   197.25  " style="stroke-width: 0.85 ;&st7;  " /><path d=" M 11859.77,   316.23  L 11851.27,   316.23  " style="stroke-width: 0.85 ;&st7;  " /><path d=" M 11868.25,   306.57  L 11860.89,   310.82  " style="stroke-width: 0.85 ;&st7;  " /><path d=" M 11862.90,   314.29  L 11870.26,   310.04  " style="stroke-width: 0.85 ;&st7;  " /><path d=" M 11762.03,   316.23  L 11762.03,   333.23  " style="stroke-width: 1.42 ;&st7;  " /><path d=" M 11762.03,   324.73  L 11753.54,   324.73  " style="stroke-width: 0.85 ;&st7;  " /><path d=" M 11770.53,   333.23  L 11762.03,   327.56  " style="stroke-width: 0.85 ;&st7;  " /><path d=" M 11762.03,   375.72  L 11762.03,   358.73  " style="stroke-width: 1.42 ;&st7;  " /><path d=" M 11762.03,   367.22  L 11770.53,   367.22  " style="stroke-width: 0.85 ;&st7;  " /><path d=" M 11753.54,   358.73  L 11762.03,   364.39  " style="stroke-width: 0.85 ;&st7;  " /><path d=" M 11736.54,    69.77  L 11736.54,    78.27  " style="stroke-width: 0.85 ;&st7;  " /><path d=" M 11738.66,    95.27  L 11734.41,    95.27  " style="stroke-width: 1.42 ;&st7;  " /><path d=" M 11738.66,   103.77  L 11734.41,   103.77  " style="stroke-width: 1.42 ;&st7;  " /><path d=" M 11509.20,    44.28  L 11504.95,    44.28  " style="stroke-width: 1.42 ;&st7;  " /><path d=" M 11509.20,    52.78  L 11504.95,    52.78  " style="stroke-width: 1.42 ;&st7;  " /><path d=" M 11509.20,    86.77  L 11504.95,    86.77  " style="stroke-width: 1.42 ;&st7;  " /><path d=" M 11509.20,    95.27  L 11504.95,    95.27  " style="stroke-width: 1.42 ;&st7;  " /><path d=" M 11549.57,    69.77  L 11549.57,    78.27  " style="stroke-width: 0.85 ;&st7;  " /><path d=" M 11551.69,    95.27  L 11547.45,    95.27  " style="stroke-width: 1.42 ;&st7;  " /><path d=" M 11551.69,   103.77  L 11547.45,   103.77  " style="stroke-width: 1.42 ;&st7;  " /><path d=" M 11651.55,    86.77  L 11643.05,    86.77  " style="stroke-width: 1.42 ;&st7;  " /><path d=" M 11770.53,   520.20  L 11762.03,   520.20  " style="stroke-width: 1.42 ;&st7;  " /><path d=" M 11600.56,    78.27  L 11609.06,    78.27  " style="stroke-width: 1.42 ;&st7;  " /><path d=" M 11549.57,    78.27  L 11549.57,    95.27  " style="stroke-width: 0.85 ;&st7;  " /><path d=" M 11736.54,    78.27  L 11736.54,    95.27  " style="stroke-width: 0.85 ;&st7;  " /><path d=" M 11613.30,    72.61  L 11609.06,    76.86  L 11604.81,    72.61  " style="stroke-width: 1.42 ;&st7;  " /><path d=" M 11604.81,    69.21  L 11609.06,    73.46  L 11613.30,    69.21  " style="stroke-width: 1.42 ;&st7;  " /><path d=" M 11766.28,   529.26  L 11762.03,   525.01  L 11757.78,   529.26  " style="stroke-width: 1.42 ;&st7;  " /><path d=" M 11766.28,   525.86  L 11762.03,   521.61  L 11757.78,   525.86  " style="stroke-width: 1.42 ;&st7;  " /><path d=" M 11647.30,    92.44  L 11643.05,    88.19  L 11638.80,    92.44  " style="stroke-width: 1.42 ;&st7;  " /><path d=" M 11647.30,    95.84  L 11643.05,    91.59  L 11638.80,    95.84  " style="stroke-width: 1.42 ;&st7;  " /><path d=" M 11536.82,    35.78  L 11536.82,    78.27  L 11562.31,    78.27  L 11562.31,    35.78  L 11536.82,    35.78  " style="stroke-width: 1.42 ;&st7;  " /><path d=" M 11549.57,    90.37  L 11546.73,    87.54  L 11546.73,    91.79  L 11549.57,    94.62  L 11552.40,    91.79  L 11552.40,    87.54  L 11549.57,    90.37  " style="stroke-width: 0.28 ;&st9;  " /><path d=" M 11507.07,    86.77  L 11507.07,    52.78  " style="stroke-width: 0.85 ;&st7;  " /><path d=" M 11507.07,    81.88  L 11504.24,    79.04  L 11504.24,    83.29  L 11507.07,    86.13  L 11509.91,    83.29  L 11509.91,    79.04  L 11507.07,    81.88  " style="stroke-width: 0.28 ;&st9;  " /><path d=" M 11507.07,    57.67  L 11509.91,    60.50  L 11509.91,    56.26  L 11507.07,    53.42  L 11504.24,    56.26  L 11504.24,    60.50  L 11507.07,    57.67  " style="stroke-width: 0.28 ;&st9;  " /><path d=" M 11723.79,    35.78  L 11723.79,    78.27  L 11749.28,    78.27  L 11749.28,    35.78  L 11723.79,    35.78  " style="stroke-width: 1.42 ;&st7;  " /><path d=" M 11736.53,    90.37  L 11733.70,    87.54  L 11733.70,    91.79  L 11736.53,    94.62  L 11739.37,    91.79  L 11739.37,    87.54  L 11736.53,    90.37  " style="stroke-width: 0.28 ;&st9;  " /><path d=" M 11640.22,   707.17  L 11645.88,   707.17  " style="stroke-width: 0.85 ;&st7;  " /><path d=" M 11641.63,   710.00  L 11644.47,   710.00  " style="stroke-width: 0.85 ;&st7;  " /><path d=" M 11638.80,   704.33  L 11647.30,   704.33  " style="stroke-width: 0.85 ;&st7;  " /><path d=" M 11643.05,   697.25  L 11643.05,   701.50  " style="stroke-width: 0.85 ;&st7;  " /><path d=" M 11634.55,   701.50  L 11651.55,   701.50  " style="stroke-width: 0.85 ;&st7;  " /><path d=" M 11701.35,   272.74  L 11701.08,   273.21  L 11700.98,   273.74  L 11701.08,   274.27  L 11701.35,   274.74  L 11701.76,   275.09  L 11702.27,   275.28  L 11702.81,   275.28  L 11703.32,   275.09  L 11703.73,   274.74  L 11704.00,   274.27  L 11704.10,   273.74  L 11704.00,   273.21  L 11703.73,   272.74  L 11703.32,   272.39  L 11702.81,   272.20  L 11702.27,   272.20  L 11701.76,   272.39  L 11701.35,   272.74  L 11701.74,   273.45  L 11701.74,   274.03  L 11702.11,   274.48  L 11702.69,   274.58  L 11703.19,   274.29  L 11703.39,   273.74  L 11703.19,   273.19  L 11702.69,   272.90  L 11702.11,   273.00  L 11702.54,   273.74  " style="stroke-width: 0.85 ;&st7;  " /><path d=" M 11641.86,   213.25  L 11641.59,   213.72  L 11641.49,   214.25  L 11641.59,   214.78  L 11641.86,   215.25  L 11642.27,   215.60  L 11642.78,   215.79  L 11643.32,   215.79  L 11643.83,   215.60  L 11644.24,   215.25  L 11644.51,   214.78  L 11644.61,   214.25  L 11644.51,   213.72  L 11644.24,   213.25  L 11643.83,   212.90  L 11643.32,   212.71  L 11642.78,   212.71  L 11642.27,   212.90  L 11641.86,   213.25  L 11642.25,   213.96  L 11642.25,   214.54  L 11642.62,   214.99  L 11643.20,   215.09  L 11643.70,   214.80  L 11643.90,   214.25  L 11643.70,   213.70  L 11643.20,   213.41  L 11642.62,   213.51  L 11643.05,   214.25  " style="stroke-width: 0.85 ;&st7;  " /><path d=" M 11641.86,   451.21  L 11641.59,   451.68  L 11641.49,   452.21  L 11641.59,   452.74  L 11641.86,   453.21  L 11642.27,   453.56  L 11642.78,   453.75  L 11643.32,   453.75  L 11643.83,   453.56  L 11644.24,   453.21  L 11644.51,   452.74  L 11644.61,   452.21  L 11644.51,   451.68  L 11644.24,   451.21  L 11643.83,   450.86  L 11643.32,   450.67  L 11642.78,   450.67  L 11642.27,   450.86  L 11641.86,   451.21  L 11642.25,   451.92  L 11642.25,   452.50  L 11642.62,   452.95  L 11643.20,   453.05  L 11643.70,   452.76  L 11643.90,   452.21  L 11643.70,   451.66  L 11643.20,   451.37  L 11642.62,   451.47  L 11643.05,   452.21  " style="stroke-width: 0.85 ;&st7;  " /><path d=" M 11677.04,   469.21  L 11677.04,   256.74  L 11770.53,   256.74  L 11770.53,   290.74  L 11773.36,   292.15  L 11767.70,   294.99  L 11773.36,   297.82  L 11767.70,   300.65  L 11773.36,   303.48  L 11767.70,   306.32  L 11770.53,   307.73  L 11770.53,   316.23  " style="stroke-width: 0.85 ;&st7;  " /><path d=" M 12186.96,   452.21  L 11643.05,   452.21  " style="stroke-width: 0.85 ;&st7;  " /><path d=" M 11643.05,   248.24  L 11643.05,   469.21  " style="stroke-width: 0.85 ;&st7;  " /><path d=" M 11752.34,   323.73  L 11752.07,   324.20  L 11751.97,   324.73  L 11752.07,   325.26  L 11752.34,   325.73  L 11752.75,   326.08  L 11753.26,   326.27  L 11753.80,   326.27  L 11754.31,   326.08  L 11754.72,   325.73  L 11755.00,   325.26  L 11755.09,   324.73  L 11755.00,   324.20  L 11754.72,   323.73  L 11754.31,   323.38  L 11753.80,   323.20  L 11753.26,   323.20  L 11752.75,   323.38  L 11752.34,   323.73  L 11752.73,   324.44  L 11752.73,   325.02  L 11753.11,   325.47  L 11753.68,   325.57  L 11754.18,   325.28  L 11754.38,   324.73  L 11754.18,   324.18  L 11753.68,   323.90  L 11753.11,   323.99  L 11753.53,   324.73  " style="stroke-width: 0.85 ;&st7;  " /><path d=" M 11786.33,   366.22  L 11786.06,   366.69  L 11785.97,   367.22  L 11786.06,   367.76  L 11786.33,   368.23  L 11786.75,   368.57  L 11787.25,   368.76  L 11787.80,   368.76  L 11788.30,   368.57  L 11788.72,   368.23  L 11788.99,   367.76  L 11789.08,   367.22  L 11788.99,   366.69  L 11788.72,   366.22  L 11788.30,   365.88  L 11787.80,   365.69  L 11787.25,   365.69  L 11786.75,   365.88  L 11786.33,   366.22  L 11786.73,   366.93  L 11786.73,   367.52  L 11787.10,   367.96  L 11787.67,   368.06  L 11788.18,   367.77  L 11788.38,   367.22  L 11788.18,   366.68  L 11787.67,   366.39  L 11787.10,   366.49  L 11787.53,   367.22  " style="stroke-width: 0.85 ;&st7;  " /><path d=" M 11753.53,   401.22  L 11753.53,   375.72  " style="stroke-width: 0.85 ;&st7;  " /><path d=" M 11770.53,   333.23  L 11770.53,   350.23  L 11838.52,   350.23  L 11838.52,   401.22  " style="stroke-width: 0.85 ;&st7;  " /><path d=" M 11837.10,   418.22  L 11839.93,   418.22  " style="stroke-width: 0.85 ;&st7;  " /><path d=" M 11835.68,   415.38  L 11841.35,   415.38  " style="stroke-width: 0.85 ;&st7;  " /><path d=" M 11834.27,   412.55  L 11842.77,   412.55  " style="stroke-width: 0.85 ;&st7;  " /><path d=" M 11830.02,   409.72  L 11847.02,   409.72  " style="stroke-width: 0.85 ;&st7;  " /><path d=" M 11838.52,   401.22  L 11838.52,   409.72  " style="stroke-width: 0.85 ;&st7;  " /><path d=" M 11762.03,   435.21  L 11762.03,   469.21  " style="stroke-width: 0.85 ;&st7;  " /><path d=" M 11760.84,   434.21  L 11760.57,   434.68  L 11760.47,   435.21  L 11760.57,   435.75  L 11760.84,   436.22  L 11761.25,   436.56  L 11761.76,   436.75  L 11762.30,   436.75  L 11762.81,   436.56  L 11763.22,   436.22  L 11763.49,   435.75  L 11763.59,   435.21  L 11763.49,   434.68  L 11763.22,   434.21  L 11762.81,   433.86  L 11762.30,   433.68  L 11761.76,   433.68  L 11761.25,   433.86  L 11760.84,   434.21  L 11761.23,   434.92  L 11761.23,   435.50  L 11761.60,   435.95  L 11762.18,   436.05  L 11762.68,   435.76  L 11762.88,   435.21  L 11762.68,   434.67  L 11762.18,   434.38  L 11761.60,   434.48  L 11762.03,   435.21  " style="stroke-width: 0.85 ;&st7;  " /><path d=" M 11701.35,   170.75  L 11701.08,   171.22  L 11700.98,   171.76  L 11701.08,   172.29  L 11701.35,   172.76  L 11701.76,   173.11  L 11702.27,   173.29  L 11702.81,   173.29  L 11703.32,   173.11  L 11703.73,   172.76  L 11704.00,   172.29  L 11704.10,   171.76  L 11704.00,   171.22  L 11703.73,   170.75  L 11703.32,   170.41  L 11702.81,   170.22  L 11702.27,   170.22  L 11701.76,   170.41  L 11701.35,   170.75  L 11701.74,   171.47  L 11701.74,   172.05  L 11702.11,   172.49  L 11702.69,   172.59  L 11703.19,   172.30  L 11703.39,   171.76  L 11703.19,   171.21  L 11702.69,   170.92  L 11702.11,   171.02  L 11702.54,   171.76  " style="stroke-width: 0.85 ;&st7;  " /><path d=" M 11719.54,   435.21  L 11702.54,   435.21  L 11702.54,   171.76  " style="stroke-width: 0.85 ;&st7;  " /><path d=" M 11753.53,   435.21  L 11770.53,   435.21  " style="stroke-width: 0.85 ;&st7;  " /><path d=" M 11804.52,   435.21  L 11813.02,   435.21  L 11813.02,   401.22  " style="stroke-width: 0.85 ;&st7;  " /><path d=" M 11719.54,   435.21  L 11728.04,   435.21  L 11729.45,   432.38  L 11732.28,   438.05  L 11735.12,   432.38  L 11737.95,   438.05  L 11740.78,   432.38  L 11743.62,   438.05  L 11745.03,   435.21  L 11753.53,   435.21  " style="stroke-width: 0.85 ;&st7;  " /><path d=" M 11770.53,   435.21  L 11779.03,   435.21  L 11780.44,   432.38  L 11783.28,   438.05  L 11786.11,   432.38  L 11788.94,   438.05  L 11791.77,   432.38  L 11794.61,   438.05  L 11796.02,   435.21  L 11804.52,   435.21  " style="stroke-width: 0.85 ;&st7;  " /><path d=" M 11752.11,   418.22  L 11754.95,   418.22  " style="stroke-width: 0.85 ;&st7;  " /><path d=" M 11750.70,   415.38  L 11756.36,   415.38  " style="stroke-width: 0.85 ;&st7;  " /><path d=" M 11749.28,   412.55  L 11757.78,   412.55  " style="stroke-width: 0.85 ;&st7;  " /><path d=" M 11745.03,   409.72  L 11762.03,   409.72  " style="stroke-width: 0.85 ;&st7;  " /><path d=" M 11753.53,   401.22  L 11753.53,   409.72  " style="stroke-width: 0.85 ;&st7;  " /><path d=" M 11786.11,   418.22  L 11788.94,   418.22  " style="stroke-width: 0.85 ;&st7;  " /><path d=" M 11784.69,   415.38  L 11790.36,   415.38  " style="stroke-width: 0.85 ;&st7;  " /><path d=" M 11783.28,   412.55  L 11791.77,   412.55  " style="stroke-width: 0.85 ;&st7;  " /><path d=" M 11779.03,   409.72  L 11796.02,   409.72  " style="stroke-width: 0.85 ;&st7;  " /><path d=" M 11787.53,   401.22  L 11787.53,   409.72  " style="stroke-width: 0.85 ;&st7;  " /><path d=" M 11813.02,   401.22  L 11813.02,   392.72  L 11810.19,   391.30  L 11815.85,   388.47  L 11810.19,   385.64  L 11815.85,   382.80  L 11810.19,   379.97  L 11815.85,   377.14  L 11813.02,   375.72  L 11813.02,   367.22  L 11770.53,   367.22  " style="stroke-width: 0.85 ;&st7;  " /><path d=" M 11787.53,   401.22  L 11787.53,   392.72  L 11784.69,   391.30  L 11790.36,   388.47  L 11784.69,   385.64  L 11790.36,   382.80  L 11784.69,   379.97  L 11790.36,   377.14  L 11787.53,   375.72  L 11787.53,   367.22  " style="stroke-width: 0.85 ;&st7;  " /><path d=" M 11753.53,   375.72  L 11755.66,   372.54  L 11757.29,   374.98  L 11753.53,   375.72  L 11754.76,   374.90  L 11755.66,   373.56  L 11756.35,   374.59  L 11754.76,   374.90  L 11755.38,   374.49  L 11755.66,   374.07  L 11755.88,   374.39  L 11755.38,   374.49  " style="stroke-width: 0.85 ;&st7;  " /><path d=" M 11753.53,   375.72  L 11762.03,   370.06  " style="stroke-width: 0.85 ;&st7;  " /><path d=" M 11770.53,   333.23  L 11768.40,   330.05  L 11766.77,   332.49  L 11770.53,   333.23  L 11769.30,   332.41  L 11768.40,   331.07  L 11767.71,   332.09  L 11769.30,   332.41  L 11768.68,   332.00  L 11768.40,   331.58  L 11768.18,   331.90  L 11768.68,   332.00  " style="stroke-width: 0.85 ;&st7;  " /><path d=" M 11770.53,   316.23  L 11762.03,   321.90  " style="stroke-width: 0.85 ;&st7;  " /><path d=" M 11702.54,   273.74  L 11753.53,   273.74  L 11753.53,   290.74  L 11756.36,   292.15  L 11750.70,   294.99  L 11756.36,   297.82  L 11750.70,   300.65  L 11756.36,   303.48  L 11750.70,   306.32  L 11753.53,   307.73  L 11753.53,   358.73  " style="stroke-width: 0.85 ;&st7;  " /><path d=" M 11854.32,   434.21  L 11854.05,   434.68  L 11853.96,   435.21  L 11854.05,   435.75  L 11854.32,   436.22  L 11854.74,   436.56  L 11855.24,   436.75  L 11855.79,   436.75  L 11856.29,   436.56  L 11856.71,   436.22  L 11856.98,   435.75  L 11857.07,   435.21  L 11856.98,   434.68  L 11856.71,   434.21  L 11856.29,   433.86  L 11855.79,   433.68  L 11855.24,   433.68  L 11854.74,   433.86  L 11854.32,   434.21  L 11854.72,   434.92  L 11854.72,   435.50  L 11855.09,   435.95  L 11855.66,   436.05  L 11856.17,   435.76  L 11856.36,   435.21  L 11856.17,   434.67  L 11855.66,   434.38  L 11855.09,   434.48  L 11855.51,   435.21  " style="stroke-width: 0.85 ;&st7;  " /><path d=" M 11888.32,   391.72  L 11888.04,   392.19  L 11887.95,   392.72  L 11888.04,   393.25  L 11888.32,   393.72  L 11888.73,   394.07  L 11889.24,   394.26  L 11889.78,   394.26  L 11890.29,   394.07  L 11890.70,   393.72  L 11890.97,   393.25  L 11891.07,   392.72  L 11890.97,   392.19  L 11890.70,   391.72  L 11890.29,   391.37  L 11889.78,   391.18  L 11889.24,   391.18  L 11888.73,   391.37  L 11888.32,   391.72  L 11888.71,   392.43  L 11888.71,   393.01  L 11889.08,   393.46  L 11889.66,   393.56  L 11890.16,   393.27  L 11890.36,   392.72  L 11890.16,   392.17  L 11889.66,   391.88  L 11889.08,   391.98  L 11889.51,   392.72  " style="stroke-width: 0.85 ;&st7;  " /><path d=" M 11854.32,   289.73  L 11854.05,   290.20  L 11853.96,   290.74  L 11854.05,   291.27  L 11854.32,   291.74  L 11854.74,   292.09  L 11855.24,   292.27  L 11855.79,   292.27  L 11856.29,   292.09  L 11856.71,   291.74  L 11856.98,   291.27  L 11857.07,   290.74  L 11856.98,   290.20  L 11856.71,   289.73  L 11856.29,   289.39  L 11855.79,   289.20  L 11855.24,   289.20  L 11854.74,   289.39  L 11854.32,   289.73  L 11854.72,   290.45  L 11854.72,   291.03  L 11855.09,   291.47  L 11855.66,   291.57  L 11856.17,   291.28  L 11856.36,   290.74  L 11856.17,   290.19  L 11855.66,   289.90  L 11855.09,   290.00  L 11855.51,   290.74  " style="stroke-width: 0.85 ;&st7;  " /><path d=" M 11641.86,   170.75  L 11641.59,   171.22  L 11641.49,   171.76  L 11641.59,   172.29  L 11641.86,   172.76  L 11642.27,   173.11  L 11642.78,   173.29  L 11643.32,   173.29  L 11643.83,   173.11  L 11644.24,   172.76  L 11644.51,   172.29  L 11644.61,   171.76  L 11644.51,   171.22  L 11644.24,   170.75  L 11643.83,   170.41  L 11643.32,   170.22  L 11642.78,   170.22  L 11642.27,   170.41  L 11641.86,   170.75  L 11642.25,   171.47  L 11642.25,   172.05  L 11642.62,   172.49  L 11643.20,   172.59  L 11643.70,   172.30  L 11643.90,   171.76  L 11643.70,   171.21  L 11643.20,   170.92  L 11642.62,   171.02  L 11643.05,   171.76  " style="stroke-width: 0.85 ;&st7;  " /><path d=" M 11854.32,   170.75  L 11854.05,   171.22  L 11853.96,   171.76  L 11854.05,   172.29  L 11854.32,   172.76  L 11854.74,   173.11  L 11855.24,   173.29  L 11855.79,   173.29  L 11856.29,   173.11  L 11856.71,   172.76  L 11856.98,   172.29  L 11857.07,   171.76  L 11856.98,   171.22  L 11856.71,   170.75  L 11856.29,   170.41  L 11855.79,   170.22  L 11855.24,   170.22  L 11854.74,   170.41  L 11854.32,   170.75  L 11854.72,   171.47  L 11854.72,   172.05  L 11855.09,   172.49  L 11855.66,   172.59  L 11856.17,   172.30  L 11856.36,   171.76  L 11856.17,   171.21  L 11855.66,   170.92  L 11855.09,   171.02  L 11855.51,   171.76  " style="stroke-width: 0.85 ;&st7;  " /><path d=" M 11855.51,   469.21  L 11855.51,   375.72  L 11852.68,   374.31  L 11858.35,   371.47  L 11852.68,   368.64  L 11858.35,   365.81  L 11852.68,   362.97  L 11858.35,   360.14  L 11855.51,   358.73  L 11855.51,   171.76  " style="stroke-width: 0.85 ;&st7;  " /><path d=" M 11855.51,   435.21  L 11889.51,   435.21  L 11889.51,   375.72  L 11886.68,   374.31  L 11892.34,   371.47  L 11886.68,   368.64  L 11892.34,   365.81  L 11886.68,   362.97  L 11892.34,   360.14  L 11889.51,   358.73  L 11889.51,   290.74  L 11855.51,   290.74  " style="stroke-width: 0.85 ;&st7;  " /><path d=" M 11870.25,   310.04  L 11867.92,   313.08  L 11866.45,   310.54  L 11870.25,   310.04  L 11868.97,   310.78  L 11867.98,   312.06  L 11867.36,   310.99  L 11868.97,   310.78  L 11868.33,   311.15  L 11868.02,   311.55  L 11867.82,   311.22  L 11868.33,   311.15  " style="stroke-width: 0.85 ;&st7;  " /><path d=" M 11868.25,   306.57  L 11865.91,   309.61  L 11864.45,   307.07  L 11868.25,   306.57  L 11866.96,   307.31  L 11865.98,   308.59  L 11865.36,   307.52  L 11866.96,   307.31  L 11866.32,   307.68  L 11866.01,   308.08  L 11865.82,   307.75  L 11866.32,   307.68  " style="stroke-width: 0.85 ;&st7;  " /><path d=" M 11855.51,   316.23  L 11849.85,   307.73  L 11861.18,   307.73  L 11855.51,   316.23  " style="stroke-width: 0.28 ;&st9;  " /><path d=" M 11889.51,   418.22  L 11883.84,   409.72  L 11895.17,   409.72  L 11889.51,   418.22  " style="stroke-width: 0.28 ;&st9;  " /><path d=" M 12152.96,   358.73  L 12152.96,   392.72  L 11889.51,   392.72  " style="stroke-width: 0.85 ;&st7;  " /><path d=" M 12084.98,   256.74  L 12084.98,   171.76  L 11643.05,   171.76  " style="stroke-width: 0.85 ;&st7;  " /><path d=" M 11643.05,   231.25  L 11643.05,   154.76  " style="stroke-width: 0.85 ;&st7;  " /><path d=" M 11702.54,   197.25  L 11696.87,   188.75  L 11708.21,   188.75  L 11702.54,   197.25  " style="stroke-width: 0.28 ;&st9;  " /><path d=" M 11643.05,   197.25  L 11637.38,   188.75  L 11648.72,   188.75  L 11643.05,   197.25  " style="stroke-width: 0.28 ;&st9;  " /><path d=" M 12059.48,   256.74  L 12059.48,   214.25  L 11643.05,   214.25  " style="stroke-width: 0.85 ;&st7;  " /><path d=" M 11626.05,   248.24  L 11660.05,   248.24  L 11660.05,   231.25  L 11626.05,   231.25  L 11626.05,   248.24  " style="stroke-width: 1.42 ;&st7;  " /><path d=" M 11685.54,   473.74  L 11749.28,   473.74  " style="stroke-width: 0.85 ;&st7; stroke-dasharray:3, 1.5;" /><path d=" M 12237.95,   418.22  L 12025.49,   418.22  L 12025.49,   239.75  L 11660.05,   239.75  " style="stroke-width: 0.85 ;&st7;  " /><path d=" M 11651.55,   473.74  L 11664.30,   473.74  " style="stroke-width: 0.85 ;&st7; stroke-dasharray:3, 1.5;" /><path d=" M 11651.55,   482.80  L 11664.30,   482.80  " style="stroke-width: 0.85 ;&st7; stroke-dasharray:3, 1.5;" /><path d=" M 11685.54,   482.80  L 11749.28,   482.80  " style="stroke-width: 0.85 ;&st7; stroke-dasharray:3, 1.5;" /><path d=" M 11770.53,   473.74  L 11838.52,   473.74  " style="stroke-width: 0.85 ;&st7; stroke-dasharray:3, 1.5;" /><path d=" M 11770.53,   482.80  L 11838.52,   482.80  " style="stroke-width: 0.85 ;&st7; stroke-dasharray:3, 1.5;" /><path d=" M 11742.91,    99.52  C 11742.91     97.17  11741.01     95.27  11738.66     95.27  " style="stroke-width: 1.42 ;&st7;   " /><path d=" M 11504.95,    44.28  C 11502.61     44.28  11500.70     46.18  11500.70     48.53  " style="stroke-width: 1.42 ;&st7;   " /><path d=" M 11500.70,    48.53  C 11500.70     50.87  11502.61     52.78  11504.95     52.78  " style="stroke-width: 1.42 ;&st7;   " /><path d=" M 11509.20,    52.78  C 11511.55     52.78  11513.45     50.87  11513.45     48.53  " style="stroke-width: 1.42 ;&st7;   " /><path d=" M 11513.45,    48.53  C 11513.45     46.18  11511.55     44.28  11509.20     44.28  " style="stroke-width: 1.42 ;&st7;   " /><path d=" M 11504.95,    86.77  C 11502.61     86.77  11500.70     88.67  11500.70     91.02  " style="stroke-width: 1.42 ;&st7;   " /><path d=" M 11500.70,    91.02  C 11500.70     93.37  11502.61     95.27  11504.95     95.27  " style="stroke-width: 1.42 ;&st7;   " /><path d=" M 11509.20,    95.27  C 11511.55     95.27  11513.45     93.37  11513.45     91.02  " style="stroke-width: 1.42 ;&st7;   " /><path d=" M 11513.45,    91.02  C 11513.45     88.67  11511.55     86.77  11509.20     86.77  " style="stroke-width: 1.42 ;&st7;   " /><path d=" M 11549.57,    47.11  C 11546.83     48.72  11545.92     52.25  11547.53     54.99  " style="stroke-width: 1.42 ;&st7;   " /><path d=" M 11547.53,    54.99  C 11548.05     55.87  11548.69     56.51  11549.57     57.03  " style="stroke-width: 1.42 ;&st7;   " /><path d=" M 11549.57,    66.94  C 11552.31     65.33  11553.22     61.80  11551.61     59.06  " style="stroke-width: 1.42 ;&st7;   " /><path d=" M 11551.61,    59.06  C 11551.09     58.18  11550.45     57.55  11549.57     57.03  " style="stroke-width: 1.42 ;&st7;   " /><path d=" M 11550.99,    45.69  C 11550.99     44.91  11550.35     44.28  11549.57     44.28  " style="stroke-width: 0.85 ;&st7;   " /><path d=" M 11549.57,    44.28  C 11548.79     44.28  11548.15     44.91  11548.15     45.69  " style="stroke-width: 0.85 ;&st7;   " /><path d=" M 11548.15,    45.69  C 11548.15     46.48  11548.79     47.11  11549.57     47.11  " style="stroke-width: 0.85 ;&st7;   " /><path d=" M 11549.57,    47.11  C 11550.35     47.11  11550.99     46.48  11550.99     45.69  " style="stroke-width: 0.85 ;&st7;   " /><path d=" M 11550.99,    68.36  C 11550.99     67.57  11550.35     66.94  11549.57     66.94  " style="stroke-width: 0.85 ;&st7;   " /><path d=" M 11549.57,    66.94  C 11548.79     66.94  11548.15     67.57  11548.15     68.36  " style="stroke-width: 0.85 ;&st7;   " /><path d=" M 11548.15,    68.36  C 11548.15     69.14  11548.79     69.77  11549.57     69.77  " style="stroke-width: 0.85 ;&st7;   " /><path d=" M 11549.57,    69.77  C 11550.35     69.77  11550.99     69.14  11550.99     68.36  " style="stroke-width: 0.85 ;&st7;   " /><path d=" M 11547.45,    95.27  C 11545.10     95.27  11543.20     97.17  11543.20     99.52  " style="stroke-width: 1.42 ;&st7;   " /><path d=" M 11543.20,    99.52  C 11543.20    101.87  11545.10    103.77  11547.45    103.77  " style="stroke-width: 1.42 ;&st7;   " /><path d=" M 11551.69,   103.77  C 11554.04    103.77  11555.94    101.87  11555.94     99.52  " style="stroke-width: 1.42 ;&st7;   " /><path d=" M 11555.94,    99.52  C 11555.94     97.17  11554.04     95.27  11551.69     95.27  " style="stroke-width: 1.42 ;&st7;   " /><path d=" M 11647.59,   150.23  C 11647.59    147.72  11645.56    145.69  11643.05    145.69  " style="stroke-width: 1.42 ;&st7;   " /><path d=" M 11643.05,   145.69  C 11640.55    145.69  11638.52    147.72  11638.52    150.23  " style="stroke-width: 1.42 ;&st7;   " /><path d=" M 11638.52,   150.23  C 11638.52    152.73  11640.55    154.76  11643.05    154.76  " style="stroke-width: 1.42 ;&st7;   " /><path d=" M 11643.05,   154.76  C 11645.56    154.76  11647.59    152.73  11647.59    150.23  " style="stroke-width: 1.42 ;&st7;   " /><path d=" M 11736.54,    47.11  C 11733.80     48.72  11732.89     52.25  11734.50     54.99  " style="stroke-width: 1.42 ;&st7;   " /><path d=" M 11734.50,    54.99  C 11735.02     55.87  11735.66     56.51  11736.54     57.03  " style="stroke-width: 1.42 ;&st7;   " /><path d=" M 11736.54,    66.94  C 11739.28     65.33  11740.19     61.80  11738.58     59.06  " style="stroke-width: 1.42 ;&st7;   " /><path d=" M 11738.58,    59.06  C 11738.06     58.18  11737.42     57.55  11736.54     57.03  " style="stroke-width: 1.42 ;&st7;   " /><path d=" M 11737.96,    45.69  C 11737.96     44.91  11737.32     44.28  11736.54     44.28  " style="stroke-width: 0.85 ;&st7;   " /><path d=" M 11736.54,    44.28  C 11735.76     44.28  11735.12     44.91  11735.12     45.69  " style="stroke-width: 0.85 ;&st7;   " /><path d=" M 11735.12,    45.69  C 11735.12     46.48  11735.76     47.11  11736.54     47.11  " style="stroke-width: 0.85 ;&st7;   " /><path d=" M 11736.54,    47.11  C 11737.32     47.11  11737.96     46.48  11737.96     45.69  " style="stroke-width: 0.85 ;&st7;   " /><path d=" M 11737.96,    68.36  C 11737.96     67.57  11737.32     66.94  11736.54     66.94  " style="stroke-width: 0.85 ;&st7;   " /><path d=" M 11736.54,    66.94  C 11735.76     66.94  11735.12     67.57  11735.12     68.36  " style="stroke-width: 0.85 ;&st7;   " /><path d=" M 11735.12,    68.36  C 11735.12     69.14  11735.76     69.77  11736.54     69.77  " style="stroke-width: 0.85 ;&st7;   " /><path d=" M 11736.54,    69.77  C 11737.32     69.77  11737.96     69.14  11737.96     68.36  " style="stroke-width: 0.85 ;&st7;   " /><path d=" M 11734.41,    95.27  C 11732.07     95.27  11730.17     97.17  11730.17     99.52  " style="stroke-width: 1.42 ;&st7;   " /><path d=" M 11730.17,    99.52  C 11730.17    101.87  11732.07    103.77  11734.41    103.77  " style="stroke-width: 1.42 ;&st7;   " /><path d=" M 11738.66,   103.77  C 11741.01    103.77  11742.91    101.87  11742.91     99.52  " style="stroke-width: 1.42 ;&st7;   " /><path d=" M 11647.59,   482.80  C 11647.59    480.30  11645.56    478.27  11643.05    478.27  " style="stroke-width: 1.42 ;&st7;   " /><path d=" M 11643.05,   478.27  C 11640.55    478.27  11638.52    480.30  11638.52    482.80  " style="stroke-width: 1.42 ;&st7;   " /><path d=" M 11638.52,   482.80  C 11638.52    485.31  11640.55    487.34  11643.05    487.34  " style="stroke-width: 1.42 ;&st7;   " /><path d=" M 11643.05,   487.34  C 11645.56    487.34  11647.59    485.31  11647.59    482.80  " style="stroke-width: 1.42 ;&st7;   " /><path d=" M 11647.59,   473.74  C 11647.59    471.24  11645.56    469.21  11643.05    469.21  " style="stroke-width: 1.42 ;&st7;   " /><path d=" M 11643.05,   469.21  C 11640.55    469.21  11638.52    471.24  11638.52    473.74  " style="stroke-width: 1.42 ;&st7;   " /><path d=" M 11638.52,   473.74  C 11638.52    476.24  11640.55    478.27  11643.05    478.27  " style="stroke-width: 1.42 ;&st7;   " /><path d=" M 11643.05,   478.27  C 11645.56    478.27  11647.59    476.24  11647.59    473.74  " style="stroke-width: 1.42 ;&st7;   " /><path d=" M 11681.58,   482.80  C 11681.58    480.30  11679.55    478.27  11677.05    478.27  " style="stroke-width: 1.42 ;&st7;   " /><path d=" M 11677.05,   478.27  C 11674.55    478.27  11672.52    480.30  11672.52    482.80  " style="stroke-width: 1.42 ;&st7;   " /><path d=" M 11672.52,   482.80  C 11672.52    485.31  11674.55    487.34  11677.05    487.34  " style="stroke-width: 1.42 ;&st7;   " /><path d=" M 11677.05,   487.34  C 11679.55    487.34  11681.58    485.31  11681.58    482.80  " style="stroke-width: 1.42 ;&st7;   " /><path d=" M 11681.58,   473.74  C 11681.58    471.24  11679.55    469.21  11677.05    469.21  " style="stroke-width: 1.42 ;&st7;   " /><path d=" M 11677.05,   469.21  C 11674.55    469.21  11672.52    471.24  11672.52    473.74  " style="stroke-width: 1.42 ;&st7;   " /><path d=" M 11672.52,   473.74  C 11672.52    476.24  11674.55    478.27  11677.05    478.27  " style="stroke-width: 1.42 ;&st7;   " /><path d=" M 11677.05,   478.27  C 11679.55    478.27  11681.58    476.24  11681.58    473.74  " style="stroke-width: 1.42 ;&st7;   " /><path d=" M 11766.57,   482.80  C 11766.57    480.30  11764.54    478.27  11762.03    478.27  " style="stroke-width: 1.42 ;&st7;   " /><path d=" M 11762.03,   478.27  C 11759.53    478.27  11757.50    480.30  11757.50    482.80  " style="stroke-width: 1.42 ;&st7;   " /><path d=" M 11757.50,   482.80  C 11757.50    485.31  11759.53    487.34  11762.03    487.34  " style="stroke-width: 1.42 ;&st7;   " /><path d=" M 11762.03,   487.34  C 11764.54    487.34  11766.57    485.31  11766.57    482.80  " style="stroke-width: 1.42 ;&st7;   " /><path d=" M 11766.57,   473.74  C 11766.57    471.24  11764.54    469.21  11762.03    469.21  " style="stroke-width: 1.42 ;&st7;   " /><path d=" M 11762.03,   469.21  C 11759.53    469.21  11757.50    471.24  11757.50    473.74  " style="stroke-width: 1.42 ;&st7;   " /><path d=" M 11757.50,   473.74  C 11757.50    476.24  11759.53    478.27  11762.03    478.27  " style="stroke-width: 1.42 ;&st7;   " /><path d=" M 11762.03,   478.27  C 11764.54    478.27  11766.57    476.24  11766.57    473.74  " style="stroke-width: 1.42 ;&st7;   " /><path d=" M 11860.05,   482.80  C 11860.05    480.30  11858.02    478.27  11855.52    478.27  " style="stroke-width: 1.42 ;&st7;   " /><path d=" M 11855.52,   478.27  C 11853.02    478.27  11850.99    480.30  11850.99    482.80  " style="stroke-width: 1.42 ;&st7;   " /><path d=" M 11850.99,   482.80  C 11850.99    485.31  11853.02    487.34  11855.52    487.34  " style="stroke-width: 1.42 ;&st7;   " /><path d=" M 11855.52,   487.34  C 11858.02    487.34  11860.05    485.31  11860.05    482.80  " style="stroke-width: 1.42 ;&st7;   " /><path d=" M 11860.05,   473.74  C 11860.05    471.24  11858.02    469.21  11855.52    469.21  " style="stroke-width: 1.42 ;&st7;   " /><path d=" M 11855.52,   469.21  C 11853.02    469.21  11850.99    471.24  11850.99    473.74  " style="stroke-width: 1.42 ;&st7;   " /><path d=" M 11850.99,   473.74  C 11850.99    476.24  11853.02    478.27  11855.52    478.27  " style="stroke-width: 1.42 ;&st7;   " /><path d=" M 11855.52,   478.27  C 11858.02    478.27  11860.05    476.24  11860.05    473.74  " style="stroke-width: 1.42 ;&st7;   " /><text ewd:textID="34" style="&st18;" transform="matrix(&st16;  11741.63  151.06 )">Combination Meter Assembly</text><text style="&st18;" transform="matrix(&st16;  11635.21  241.71 )">5V IC</text><text ewd:textID="33" style="&st18;" transform="matrix(&st17;  11847.58  329.45 )">Check Engine</text><text style="&st18;" transform="matrix(&st16;  11858.1  465.52 )">CHK</text><text style="&st18;" transform="matrix(&st16;  11764.62  465.52 )">SI</text><text style="&st18;" transform="matrix(&st16;  11645.64  465.52 )">ES</text><text style="&st18;" transform="matrix(&st16;  11645.64  162.95 )">IG+</text><text style="&st18;" transform="matrix(&st16;  11752.96  56.17 )">5A <tspan dy="6.0" x="0 ">METER-IG2</tspan></text><text style="&st18;" transform="matrix(&st16;  11734.74  101.49 )">1</text><text style="&st18;" transform="matrix(&st16;  11730.35  86.47 )">2</text><text style="&st18;" transform="matrix(&st16;  11731.33  32.08 )">(IG)</text><text style="&st18;" transform="matrix(&st17;  11605.36  113.84 )">L</text><text style="&st18;" transform="matrix(&st17;  11639.36  113.84 )">L</text><text style="&st18;" transform="matrix(&st16;  11503.34  50.5 )">3B</text><text style="&st18;" transform="matrix(&st16;  11503.14  92.99 )">3D</text><text style="&st18;" transform="matrix(&st16;  11565.99  53.34 )">10A <tspan dy="6.0" x="0 ">ECU-B </tspan><tspan dy="6.0" x="0 ">NO.1</tspan></text><text style="&st18;" transform="matrix(&st16;  11547.77  101.49 )">1</text><text style="&st18;" transform="matrix(&st16;  11543.39  86.47 )">2</text><text style="&st18;" transform="matrix(&st16;  11541.53  32.08 )">(BAT)</text><text style="&st18;" transform="matrix(&st16;  11521.77  117.07 )">V</text><text style="&st18;" transform="matrix(&st16;  11630.42  84.49 )">2</text><text style="&st18;" transform="matrix(&st16;  11631.26  152.2 )">13</text><text style="&st18;" transform="matrix(&st16;  11640.87  152.2 )">B</text><text style="&st18;" transform="matrix(&st16;  11771.07  517.92 )">(RHD)</text><text style="&st18;" transform="matrix(&st16;  11771.07  509.42 )">(LHD)</text><text style="&st18;" transform="matrix(&st16;  11746.3  509.42 )">16</text><text style="&st18;" transform="matrix(&st16;  11749.4  517.92 )">9</text><text style="&st18;" transform="matrix(&st17;  11758.34  496.2 )">P</text><text style="&st18;" transform="matrix(&st17;  11758.34  549.48 )">LG</text><text style="&st18;" transform="matrix(&st17;  11639.36  506.75 )">BR</text><text style="&st18;" transform="matrix(&st17;  11616.7  120.08 )">(LHD)</text><text style="&st18;" transform="matrix(&st17;  11650.69  120.12 )">(RHD)</text><text style="&st18;" transform="matrix(&st16;  11658.06  57.58 )">P</text><text style="&st18;" transform="matrix(&st16;  11651.7  68.91 )">(RHD)</text><text style="&st18;" transform="matrix(&st16;  11658.06  32.08 )">P</text><text style="&st18;" transform="matrix(&st16;  11651.74  43.41 )">(LHD)</text><text style="&st18;" transform="matrix(&st16;  11596.43  84.49 )">2</text><text style="&st18;" transform="matrix(&st16;  11741.62  143.96 )">I17(A),I18(B)</text><text style="&st18;" transform="matrix(&st17;  11673.35  505.01 )">V</text><text style="&st18;" transform="matrix(&st16;  11679.63  465.52 )">+S</text><text style="&st18;" transform="matrix(&st16;  11937.94  626.98 )">W(RHD)</text><text style="&st18;" transform="matrix(&st16;  11938.83  643.98 )">R(LHD)</text><text style="&st18;" transform="matrix(&st16;  11937.97  660.98 )">W(LHD)</text><text style="&st18;" transform="matrix(&st16;  11886.98  660.98 )">W(LHD)</text><text style="&st18;" transform="matrix(&st16;  11887.84  643.98 )">R(LHD)</text><text style="&st18;" transform="matrix(&st16;  11886.94  626.98 )">W(RHD)</text><text style="&st18;" transform="matrix(&st16;  11887.8  609.99 )">R(RHD)</text><text style="&st18;" transform="matrix(&st16;  11938.79  609.99 )">R(RHD)</text><text style="&st18;" transform="matrix(&st17;  11826.33  521.81 )">R</text><text style="&st18;" transform="matrix(&st17;  11837.66  528.01 )">(LHD)</text><text style="&st18;" transform="matrix(&st17;  11851.82  521.81 )">R</text><text style="&st18;" transform="matrix(&st17;  11863.16  528.05 )">(RHD)</text><text style="&st18;" transform="matrix(&st16;  11640.87  484.77 )">B</text><text style="&st18;" transform="matrix(&st16;  11631.26  484.77 )">20</text><text style="&st18;" transform="matrix(&st16;  11640.87  475.71 )">B</text><text style="&st18;" transform="matrix(&st16;  11634.36  475.71 )">7</text><text style="&st18;" transform="matrix(&st16;  11674.86  484.77 )">B</text><text style="&st18;" transform="matrix(&st16;  11668.36  484.77 )">3</text><text style="&st18;" transform="matrix(&st16;  11674.86  475.71 )">B</text><text style="&st18;" transform="matrix(&st16;  11668.36  475.71 )">9</text><text style="&st18;" transform="matrix(&st16;  11759.85  484.77 )">B</text><text style="&st18;" transform="matrix(&st16;  11753.34  484.77 )">4</text><text style="&st18;" transform="matrix(&st16;  11759.85  475.71 )">B</text><text style="&st18;" transform="matrix(&st16;  11753.34  475.71 )">8</text><text style="&st18;" transform="matrix(&st16;  11860.61  484.77 )">(*20)</text><text style="&st18;" transform="matrix(&st16;  11853.21  484.77 )">A</text><text style="&st18;" transform="matrix(&st16;  11843.72  484.77 )">12</text><text style="&st18;" transform="matrix(&st16;  11860.61  475.71 )">(*19)</text><text style="&st18;" transform="matrix(&st16;  11853.33  475.71 )">B</text><text style="&st18;" transform="matrix(&st16;  11843.72  475.71 )">22</text></svg>