﻿<?xml version="1.0" encoding="utf-8"?>
<!DOCTYPE svg PUBLIC "-//W3C//DTD SVG 1.0//EN" "http://www.w3.org/TR/2001/REC-SVG-20010904/DTD/svg10.dtd"[
	<!ENTITY ns_flows "http://ns.adobe.com/Flows/1.0/">
	<!ENTITY ns_svg "http://www.w3.org/2000/svg">
	<!ENTITY ns_xlink "http://www.w3.org/1999/xlink">
	<!ENTITY st0 "font-size:7px;font-family:'MS-PGothic';adobe-font-script:japanese;">
	<!ENTITY st1 "font-size:6px;font-family:'ArialMT';">
	<!-- White fill  -->
	<!ENTITY st2 "fill:#FFFFFF;stroke:#000000; stroke-width:1.41;stroke-linecap:round;stroke-linejoin:round;">
	<!-- Yellow fill  -->
	<!ENTITY st3 "fill:#FFFFCC;stroke:#FFFFCC; stroke-width:0.1;stroke-linecap:round;stroke-linejoin:round;">
	<!-- Gray fill  -->
	<!ENTITY st4 "fill:#CCCCCC;stroke:#CCCCCC; stroke-width:0.1;stroke-linecap:round;stroke-linejoin:round;">
	<!-- Light-blue fill -->
	<!ENTITY st5 "fill:#CCECF4;stroke:#000000; stroke-width:1.133;stroke-linecap:round;stroke-linejoin:round;">
	<!ENTITY st6 "fill:none;stroke-linecap:butt; stroke-linejoin:round;">
	<!ENTITY st7 "fill:none;stroke:#000000;stroke-linecap:round;stroke-linejoin:round;">
	<!ENTITY st8 "enable-background:new    ;">
	<!-- Black fill -->
	<!ENTITY st9 "fill:#000000;stroke:#000000; stroke-linecap:round;stroke-linejoin:round;">
	<!-- SRS note   -->
	<!ENTITY st10 "font-size:9px;font-family:'ArialMT';">
	<!ENTITY st11 "font-size:9px;font-family:'Svg Symbol';">
	<!ENTITY st12 "font-size:6px;font-family:'Svg Symbol';">
	<!ENTITY st13 "fill:none;stroke:#ff0000;stroke-linecap:round;stroke-linejoin:round;">
	<!-- Yellow fill  -->
	<!ENTITY st14 "fill:#FFFF00;stroke:#FFFF00; stroke-width:0.1;stroke-linecap:round;stroke-linejoin:round;">
	<!ENTITY st15 "font-size:6px;font-family:'MS-PGothic';adobe-font-script:japanese;">
	<!ENTITY st16 "1.00 0.00 0.00 1.00">
	<!ENTITY st17 "0.00 -1.00 1.00 0.00">
	<!ENTITY st18 "font-size:6px;font-family:'Arial';">
	<!ENTITY st19 "font-size:9px;font-family:'Arial';">
	<!ENTITY st20 "font-size:6px;font-family:'MS-PGothic','MS PGothic';adobe-font-script:japanese;">
	<!ENTITY st21 "font-size:7px;font-family:'MS-PGothic','MS PGothic';adobe-font-script:japanese;">
	<!ATTLIST svg
		xmlns:ewd CDATA #FIXED "http://shcl.co.jp/ewd"
		xmlns:a CDATA #FIXED "http://ns.adobe.com/AdobeSVGViewerExtensions/3.0/"
		ewd:ver CDATA #IMPLIED
	>
	<!ATTLIST a
		ewd:lineID CDATA #IMPLIED
		ewd:groupID CDATA #IMPLIED
		ewd:figtype CDATA #IMPLIED
		ewd:code CDATA #IMPLIED
		ewd:figID CDATA #IMPLIED
		ewd:pinNo CDATA #IMPLIED
		ewd:comment CDATA #IMPLIED >
	<!ATTLIST g
		ewd:lineID CDATA #IMPLIED
		ewd:groupID CDATA #IMPLIED
		ewd:figtype CDATA #IMPLIED
		ewd:code CDATA #IMPLIED
		ewd:figID CDATA #IMPLIED
		ewd:pinNo CDATA #IMPLIED
		ewd:comment CDATA #IMPLIED >
	<!ATTLIST text
		ewd:textID CDATA #IMPLIED >
	<!ATTLIST title
		ewd:textID CDATA #IMPLIED >
]>
<!-- Generator: Shintec Hozumi YS   -->
<svg onload="call_execInitLoadProc_svg('system')" style="overflow:visible;  enable-background:new 0 0 13980.872 710.000" viewBox="0 0 13980.872 710.000" height="710.000" width="13980.872" xml:space="preserve" ewd:ver="L2.1.2.9" xmlns="&ns_svg;" xmlns:a="http://ns.adobe.com/AdobeSVGViewerExtensions/3.0/" xmlns:ewd="http://shcl.co.jp/ewd" xmlns:xlink="&ns_xlink;">
<path d=" M 13449.00,   418.22  L 13440.50,   418.22  " style="stroke-width: 0.85 ;&st7;  " /><path d=" M 13202.54,   197.25  L 13194.05,   197.25  " style="stroke-width: 0.85 ;&st7;  " /><path d=" M 13262.03,   197.25  L 13253.54,   197.25  " style="stroke-width: 0.85 ;&st7;  " /><path d=" M 13415.01,   316.23  L 13406.51,   316.23  " style="stroke-width: 0.85 ;&st7;  " /><path d=" M 13423.49,   306.57  L 13416.13,   310.82  " style="stroke-width: 0.85 ;&st7;  " /><path d=" M 13418.14,   314.29  L 13425.50,   310.04  " style="stroke-width: 0.85 ;&st7;  " /><path d=" M 13317.27,   316.23  L 13317.27,   333.23  " style="stroke-width: 1.42 ;&st7;  " /><path d=" M 13317.27,   324.73  L 13308.78,   324.73  " style="stroke-width: 0.85 ;&st7;  " /><path d=" M 13325.77,   333.23  L 13317.27,   327.56  " style="stroke-width: 0.85 ;&st7;  " /><path d=" M 13317.27,   375.72  L 13317.27,   358.73  " style="stroke-width: 1.42 ;&st7;  " /><path d=" M 13317.27,   367.22  L 13325.77,   367.22  " style="stroke-width: 0.85 ;&st7;  " /><path d=" M 13308.78,   358.73  L 13317.27,   364.39  " style="stroke-width: 0.85 ;&st7;  " /><path d=" M 13291.78,    69.77  L 13291.78,    78.27  " style="stroke-width: 0.85 ;&st7;  " /><path d=" M 13293.90,    95.27  L 13289.65,    95.27  " style="stroke-width: 1.42 ;&st7;  " /><path d=" M 13293.90,   103.77  L 13289.65,   103.77  " style="stroke-width: 1.42 ;&st7;  " /><path d=" M 13064.44,    44.28  L 13060.19,    44.28  " style="stroke-width: 1.42 ;&st7;  " /><path d=" M 13064.44,    52.78  L 13060.19,    52.78  " style="stroke-width: 1.42 ;&st7;  " /><path d=" M 13064.44,    86.77  L 13060.19,    86.77  " style="stroke-width: 1.42 ;&st7;  " /><path d=" M 13064.44,    95.27  L 13060.19,    95.27  " style="stroke-width: 1.42 ;&st7;  " /><path d=" M 13104.81,    69.77  L 13104.81,    78.27  " style="stroke-width: 0.85 ;&st7;  " /><path d=" M 13106.94,    95.27  L 13102.69,    95.27  " style="stroke-width: 1.42 ;&st7;  " /><path d=" M 13106.94,   103.77  L 13102.69,   103.77  " style="stroke-width: 1.42 ;&st7;  " /><path d=" M 13325.77,   520.20  L 13317.27,   520.20  " style="stroke-width: 1.42 ;&st7;  " /><path d=" M 13189.80,    86.77  L 13198.29,    86.77  " style="stroke-width: 1.42 ;&st7;  " /><path d=" M 13291.78,    78.27  L 13291.78,    95.27  " style="stroke-width: 0.85 ;&st7;  " /><path d=" M 13104.81,    78.27  L 13104.81,    95.27  " style="stroke-width: 0.85 ;&st7;  " /><path d=" M 13194.04,    77.71  L 13198.29,    81.96  L 13202.54,    77.71  " style="stroke-width: 1.42 ;&st7;  " /><path d=" M 13321.52,   525.86  L 13317.27,   521.61  L 13313.02,   525.86  " style="stroke-width: 1.42 ;&st7;  " /><path d=" M 13092.06,    35.78  L 13092.06,    78.27  L 13117.55,    78.27  L 13117.55,    35.78  L 13092.06,    35.78  " style="stroke-width: 1.42 ;&st7;  " /><path d=" M 13104.80,    90.37  L 13101.97,    87.54  L 13101.97,    91.79  L 13104.80,    94.62  L 13107.64,    91.79  L 13107.64,    87.54  L 13104.80,    90.37  " style="stroke-width: 0.28 ;&st9;  " /><path d=" M 13062.31,    86.77  L 13062.31,    52.78  " style="stroke-width: 0.85 ;&st7;  " /><path d=" M 13062.31,    81.88  L 13059.48,    79.04  L 13059.48,    83.29  L 13062.31,    86.13  L 13065.14,    83.29  L 13065.14,    79.04  L 13062.31,    81.88  " style="stroke-width: 0.28 ;&st9;  " /><path d=" M 13062.31,    57.67  L 13065.14,    60.50  L 13065.14,    56.26  L 13062.31,    53.42  L 13059.48,    56.26  L 13059.48,    60.50  L 13062.31,    57.67  " style="stroke-width: 0.28 ;&st9;  " /><path d=" M 13002.82,    69.77  L 13002.82,    86.77  " style="stroke-width: 0.85 ;&st7;  " /><path d=" M 13279.03,    35.78  L 13279.03,    78.27  L 13304.52,    78.27  L 13304.52,    35.78  L 13279.03,    35.78  " style="stroke-width: 1.42 ;&st7;  " /><path d=" M 13291.77,    90.37  L 13288.94,    87.54  L 13288.94,    91.79  L 13291.77,    94.62  L 13294.61,    91.79  L 13294.61,    87.54  L 13291.77,    90.37  " style="stroke-width: 0.28 ;&st9;  " /><path d=" M 13195.46,   707.17  L 13201.12,   707.17  " style="stroke-width: 0.85 ;&st7;  " /><path d=" M 13196.87,   710.00  L 13199.71,   710.00  " style="stroke-width: 0.85 ;&st7;  " /><path d=" M 13194.04,   704.33  L 13202.54,   704.33  " style="stroke-width: 0.85 ;&st7;  " /><path d=" M 13198.29,   697.25  L 13198.29,   701.50  " style="stroke-width: 0.85 ;&st7;  " /><path d=" M 13189.79,   701.50  L 13206.79,   701.50  " style="stroke-width: 0.85 ;&st7;  " /><path d=" M 13256.59,   272.74  L 13256.31,   273.21  L 13256.22,   273.74  L 13256.31,   274.27  L 13256.59,   274.74  L 13257.00,   275.09  L 13257.51,   275.28  L 13258.05,   275.28  L 13258.56,   275.09  L 13258.97,   274.74  L 13259.24,   274.27  L 13259.34,   273.74  L 13259.24,   273.21  L 13258.97,   272.74  L 13258.56,   272.39  L 13258.05,   272.20  L 13257.51,   272.20  L 13257.00,   272.39  L 13256.59,   272.74  L 13256.98,   273.45  L 13256.98,   274.03  L 13257.35,   274.48  L 13257.93,   274.58  L 13258.43,   274.29  L 13258.63,   273.74  L 13258.43,   273.19  L 13257.93,   272.90  L 13257.35,   273.00  L 13257.78,   273.74  " style="stroke-width: 0.85 ;&st7;  " /><path d=" M 13197.10,   213.25  L 13196.82,   213.72  L 13196.73,   214.25  L 13196.82,   214.78  L 13197.10,   215.25  L 13197.51,   215.60  L 13198.02,   215.79  L 13198.56,   215.79  L 13199.07,   215.60  L 13199.48,   215.25  L 13199.75,   214.78  L 13199.85,   214.25  L 13199.75,   213.72  L 13199.48,   213.25  L 13199.07,   212.90  L 13198.56,   212.71  L 13198.02,   212.71  L 13197.51,   212.90  L 13197.10,   213.25  L 13197.49,   213.96  L 13197.49,   214.54  L 13197.86,   214.99  L 13198.44,   215.09  L 13198.94,   214.80  L 13199.14,   214.25  L 13198.94,   213.70  L 13198.44,   213.41  L 13197.86,   213.51  L 13198.29,   214.25  " style="stroke-width: 0.85 ;&st7;  " /><path d=" M 13197.10,   451.21  L 13196.82,   451.68  L 13196.73,   452.21  L 13196.82,   452.74  L 13197.10,   453.21  L 13197.51,   453.56  L 13198.02,   453.75  L 13198.56,   453.75  L 13199.07,   453.56  L 13199.48,   453.21  L 13199.75,   452.74  L 13199.85,   452.21  L 13199.75,   451.68  L 13199.48,   451.21  L 13199.07,   450.86  L 13198.56,   450.67  L 13198.02,   450.67  L 13197.51,   450.86  L 13197.10,   451.21  L 13197.49,   451.92  L 13197.49,   452.50  L 13197.86,   452.95  L 13198.44,   453.05  L 13198.94,   452.76  L 13199.14,   452.21  L 13198.94,   451.66  L 13198.44,   451.37  L 13197.86,   451.47  L 13198.29,   452.21  " style="stroke-width: 0.85 ;&st7;  " /><path d=" M 13232.28,   469.21  L 13232.28,   256.74  L 13325.77,   256.74  L 13325.77,   290.74  L 13328.60,   292.15  L 13322.93,   294.99  L 13328.60,   297.82  L 13322.93,   300.65  L 13328.60,   303.48  L 13322.93,   306.32  L 13325.77,   307.73  L 13325.77,   316.23  " style="stroke-width: 0.85 ;&st7;  " /><path d=" M 13742.20,   452.21  L 13198.29,   452.21  " style="stroke-width: 0.85 ;&st7;  " /><path d=" M 13198.29,   248.24  L 13198.29,   469.21  " style="stroke-width: 0.85 ;&st7;  " /><path d=" M 13307.58,   323.73  L 13307.31,   324.20  L 13307.21,   324.73  L 13307.31,   325.26  L 13307.58,   325.73  L 13307.99,   326.08  L 13308.50,   326.27  L 13309.04,   326.27  L 13309.55,   326.08  L 13309.96,   325.73  L 13310.24,   325.26  L 13310.33,   324.73  L 13310.24,   324.20  L 13309.96,   323.73  L 13309.55,   323.38  L 13309.04,   323.20  L 13308.50,   323.20  L 13307.99,   323.38  L 13307.58,   323.73  L 13307.97,   324.44  L 13307.97,   325.02  L 13308.35,   325.47  L 13308.92,   325.57  L 13309.42,   325.28  L 13309.62,   324.73  L 13309.42,   324.18  L 13308.92,   323.90  L 13308.35,   323.99  L 13308.77,   324.73  " style="stroke-width: 0.85 ;&st7;  " /><path d=" M 13341.57,   366.22  L 13341.30,   366.69  L 13341.21,   367.22  L 13341.30,   367.76  L 13341.57,   368.23  L 13341.99,   368.57  L 13342.49,   368.76  L 13343.04,   368.76  L 13343.54,   368.57  L 13343.96,   368.23  L 13344.23,   367.76  L 13344.32,   367.22  L 13344.23,   366.69  L 13343.96,   366.22  L 13343.54,   365.88  L 13343.04,   365.69  L 13342.49,   365.69  L 13341.99,   365.88  L 13341.57,   366.22  L 13341.97,   366.93  L 13341.97,   367.52  L 13342.34,   367.96  L 13342.91,   368.06  L 13343.42,   367.77  L 13343.61,   367.22  L 13343.42,   366.68  L 13342.91,   366.39  L 13342.34,   366.49  L 13342.76,   367.22  " style="stroke-width: 0.85 ;&st7;  " /><path d=" M 13308.77,   401.22  L 13308.77,   375.72  " style="stroke-width: 0.85 ;&st7;  " /><path d=" M 13325.77,   333.23  L 13325.77,   350.23  L 13393.76,   350.23  L 13393.76,   401.22  " style="stroke-width: 0.85 ;&st7;  " /><path d=" M 13392.34,   418.22  L 13395.17,   418.22  " style="stroke-width: 0.85 ;&st7;  " /><path d=" M 13390.92,   415.38  L 13396.59,   415.38  " style="stroke-width: 0.85 ;&st7;  " /><path d=" M 13389.51,   412.55  L 13398.01,   412.55  " style="stroke-width: 0.85 ;&st7;  " /><path d=" M 13385.26,   409.72  L 13402.26,   409.72  " style="stroke-width: 0.85 ;&st7;  " /><path d=" M 13393.76,   401.22  L 13393.76,   409.72  " style="stroke-width: 0.85 ;&st7;  " /><path d=" M 13317.27,   435.21  L 13317.27,   469.21  " style="stroke-width: 0.85 ;&st7;  " /><path d=" M 13316.08,   434.21  L 13315.80,   434.68  L 13315.71,   435.21  L 13315.80,   435.75  L 13316.08,   436.22  L 13316.49,   436.56  L 13317.00,   436.75  L 13317.54,   436.75  L 13318.05,   436.56  L 13318.46,   436.22  L 13318.73,   435.75  L 13318.83,   435.21  L 13318.73,   434.68  L 13318.46,   434.21  L 13318.05,   433.86  L 13317.54,   433.68  L 13317.00,   433.68  L 13316.49,   433.86  L 13316.08,   434.21  L 13316.47,   434.92  L 13316.47,   435.50  L 13316.84,   435.95  L 13317.42,   436.05  L 13317.92,   435.76  L 13318.12,   435.21  L 13317.92,   434.67  L 13317.42,   434.38  L 13316.84,   434.48  L 13317.27,   435.21  " style="stroke-width: 0.85 ;&st7;  " /><path d=" M 13256.59,   170.75  L 13256.31,   171.22  L 13256.22,   171.76  L 13256.31,   172.29  L 13256.59,   172.76  L 13257.00,   173.11  L 13257.51,   173.29  L 13258.05,   173.29  L 13258.56,   173.11  L 13258.97,   172.76  L 13259.24,   172.29  L 13259.34,   171.76  L 13259.24,   171.22  L 13258.97,   170.75  L 13258.56,   170.41  L 13258.05,   170.22  L 13257.51,   170.22  L 13257.00,   170.41  L 13256.59,   170.75  L 13256.98,   171.47  L 13256.98,   172.05  L 13257.35,   172.49  L 13257.93,   172.59  L 13258.43,   172.30  L 13258.63,   171.76  L 13258.43,   171.21  L 13257.93,   170.92  L 13257.35,   171.02  L 13257.78,   171.76  " style="stroke-width: 0.85 ;&st7;  " /><path d=" M 13274.78,   435.21  L 13257.78,   435.21  L 13257.78,   171.76  " style="stroke-width: 0.85 ;&st7;  " /><path d=" M 13308.77,   435.21  L 13325.77,   435.21  " style="stroke-width: 0.85 ;&st7;  " /><path d=" M 13359.76,   435.21  L 13368.26,   435.21  L 13368.26,   401.22  " style="stroke-width: 0.85 ;&st7;  " /><path d=" M 13274.78,   435.21  L 13283.27,   435.21  L 13284.69,   432.38  L 13287.52,   438.05  L 13290.36,   432.38  L 13293.19,   438.05  L 13296.02,   432.38  L 13298.86,   438.05  L 13300.27,   435.21  L 13308.77,   435.21  " style="stroke-width: 0.85 ;&st7;  " /><path d=" M 13325.77,   435.21  L 13334.27,   435.21  L 13335.68,   432.38  L 13338.52,   438.05  L 13341.35,   432.38  L 13344.18,   438.05  L 13347.01,   432.38  L 13349.85,   438.05  L 13351.26,   435.21  L 13359.76,   435.21  " style="stroke-width: 0.85 ;&st7;  " /><path d=" M 13307.35,   418.22  L 13310.19,   418.22  " style="stroke-width: 0.85 ;&st7;  " /><path d=" M 13305.94,   415.38  L 13311.60,   415.38  " style="stroke-width: 0.85 ;&st7;  " /><path d=" M 13304.52,   412.55  L 13313.02,   412.55  " style="stroke-width: 0.85 ;&st7;  " /><path d=" M 13300.27,   409.72  L 13317.27,   409.72  " style="stroke-width: 0.85 ;&st7;  " /><path d=" M 13308.77,   401.22  L 13308.77,   409.72  " style="stroke-width: 0.85 ;&st7;  " /><path d=" M 13341.35,   418.22  L 13344.18,   418.22  " style="stroke-width: 0.85 ;&st7;  " /><path d=" M 13339.93,   415.38  L 13345.60,   415.38  " style="stroke-width: 0.85 ;&st7;  " /><path d=" M 13338.52,   412.55  L 13347.01,   412.55  " style="stroke-width: 0.85 ;&st7;  " /><path d=" M 13334.27,   409.72  L 13351.26,   409.72  " style="stroke-width: 0.85 ;&st7;  " /><path d=" M 13342.76,   401.22  L 13342.76,   409.72  " style="stroke-width: 0.85 ;&st7;  " /><path d=" M 13368.26,   401.22  L 13368.26,   392.72  L 13365.43,   391.30  L 13371.09,   388.47  L 13365.43,   385.64  L 13371.09,   382.80  L 13365.43,   379.97  L 13371.09,   377.14  L 13368.26,   375.72  L 13368.26,   367.22  L 13325.77,   367.22  " style="stroke-width: 0.85 ;&st7;  " /><path d=" M 13342.76,   401.22  L 13342.76,   392.72  L 13339.93,   391.30  L 13345.60,   388.47  L 13339.93,   385.64  L 13345.60,   382.80  L 13339.93,   379.97  L 13345.60,   377.14  L 13342.76,   375.72  L 13342.76,   367.22  " style="stroke-width: 0.85 ;&st7;  " /><path d=" M 13308.77,   375.72  L 13310.90,   372.54  L 13312.53,   374.98  L 13308.77,   375.72  L 13310.00,   374.90  L 13310.90,   373.56  L 13311.59,   374.59  L 13310.00,   374.90  L 13310.62,   374.49  L 13310.90,   374.07  L 13311.12,   374.39  L 13310.62,   374.49  " style="stroke-width: 0.85 ;&st7;  " /><path d=" M 13308.77,   375.72  L 13317.27,   370.06  " style="stroke-width: 0.85 ;&st7;  " /><path d=" M 13325.77,   333.23  L 13323.63,   330.05  L 13322.01,   332.49  L 13325.77,   333.23  L 13324.54,   332.41  L 13323.64,   331.07  L 13322.95,   332.09  L 13324.54,   332.41  L 13323.92,   332.00  L 13323.64,   331.58  L 13323.42,   331.90  L 13323.92,   332.00  " style="stroke-width: 0.85 ;&st7;  " /><path d=" M 13325.77,   316.23  L 13317.27,   321.90  " style="stroke-width: 0.85 ;&st7;  " /><path d=" M 13257.78,   273.74  L 13308.77,   273.74  L 13308.77,   290.74  L 13311.60,   292.15  L 13305.94,   294.99  L 13311.60,   297.82  L 13305.94,   300.65  L 13311.60,   303.48  L 13305.94,   306.32  L 13308.77,   307.73  L 13308.77,   358.73  " style="stroke-width: 0.85 ;&st7;  " /><path d=" M 13409.56,   434.21  L 13409.29,   434.68  L 13409.20,   435.21  L 13409.29,   435.75  L 13409.56,   436.22  L 13409.97,   436.56  L 13410.48,   436.75  L 13411.03,   436.75  L 13411.53,   436.56  L 13411.95,   436.22  L 13412.22,   435.75  L 13412.31,   435.21  L 13412.22,   434.68  L 13411.95,   434.21  L 13411.53,   433.86  L 13411.03,   433.68  L 13410.48,   433.68  L 13409.97,   433.86  L 13409.56,   434.21  L 13409.95,   434.92  L 13409.95,   435.50  L 13410.33,   435.95  L 13410.90,   436.05  L 13411.41,   435.76  L 13411.60,   435.21  L 13411.41,   434.67  L 13410.90,   434.38  L 13410.33,   434.48  L 13410.75,   435.21  " style="stroke-width: 0.85 ;&st7;  " /><path d=" M 13443.56,   391.72  L 13443.28,   392.19  L 13443.19,   392.72  L 13443.28,   393.25  L 13443.56,   393.72  L 13443.97,   394.07  L 13444.48,   394.26  L 13445.02,   394.26  L 13445.53,   394.07  L 13445.94,   393.72  L 13446.21,   393.25  L 13446.31,   392.72  L 13446.21,   392.19  L 13445.94,   391.72  L 13445.53,   391.37  L 13445.02,   391.18  L 13444.48,   391.18  L 13443.97,   391.37  L 13443.56,   391.72  L 13443.95,   392.43  L 13443.95,   393.01  L 13444.32,   393.46  L 13444.90,   393.56  L 13445.40,   393.27  L 13445.60,   392.72  L 13445.40,   392.17  L 13444.90,   391.88  L 13444.32,   391.98  L 13444.75,   392.72  " style="stroke-width: 0.85 ;&st7;  " /><path d=" M 13409.56,   289.73  L 13409.29,   290.20  L 13409.20,   290.74  L 13409.29,   291.27  L 13409.56,   291.74  L 13409.97,   292.09  L 13410.48,   292.27  L 13411.03,   292.27  L 13411.53,   292.09  L 13411.95,   291.74  L 13412.22,   291.27  L 13412.31,   290.74  L 13412.22,   290.20  L 13411.95,   289.73  L 13411.53,   289.39  L 13411.03,   289.20  L 13410.48,   289.20  L 13409.97,   289.39  L 13409.56,   289.73  L 13409.95,   290.45  L 13409.95,   291.03  L 13410.33,   291.47  L 13410.90,   291.57  L 13411.41,   291.28  L 13411.60,   290.74  L 13411.41,   290.19  L 13410.90,   289.90  L 13410.33,   290.00  L 13410.75,   290.74  " style="stroke-width: 0.85 ;&st7;  " /><path d=" M 13197.10,   170.75  L 13196.82,   171.22  L 13196.73,   171.76  L 13196.82,   172.29  L 13197.10,   172.76  L 13197.51,   173.11  L 13198.02,   173.29  L 13198.56,   173.29  L 13199.07,   173.11  L 13199.48,   172.76  L 13199.75,   172.29  L 13199.85,   171.76  L 13199.75,   171.22  L 13199.48,   170.75  L 13199.07,   170.41  L 13198.56,   170.22  L 13198.02,   170.22  L 13197.51,   170.41  L 13197.10,   170.75  L 13197.49,   171.47  L 13197.49,   172.05  L 13197.86,   172.49  L 13198.44,   172.59  L 13198.94,   172.30  L 13199.14,   171.76  L 13198.94,   171.21  L 13198.44,   170.92  L 13197.86,   171.02  L 13198.29,   171.76  " style="stroke-width: 0.85 ;&st7;  " /><path d=" M 13409.56,   170.75  L 13409.29,   171.22  L 13409.20,   171.76  L 13409.29,   172.29  L 13409.56,   172.76  L 13409.97,   173.11  L 13410.48,   173.29  L 13411.03,   173.29  L 13411.53,   173.11  L 13411.95,   172.76  L 13412.22,   172.29  L 13412.31,   171.76  L 13412.22,   171.22  L 13411.95,   170.75  L 13411.53,   170.41  L 13411.03,   170.22  L 13410.48,   170.22  L 13409.97,   170.41  L 13409.56,   170.75  L 13409.95,   171.47  L 13409.95,   172.05  L 13410.33,   172.49  L 13410.90,   172.59  L 13411.41,   172.30  L 13411.60,   171.76  L 13411.41,   171.21  L 13410.90,   170.92  L 13410.33,   171.02  L 13410.75,   171.76  " style="stroke-width: 0.85 ;&st7;  " /><path d=" M 13410.75,   469.21  L 13410.75,   375.72  L 13407.92,   374.31  L 13413.59,   371.47  L 13407.92,   368.64  L 13413.59,   365.81  L 13407.92,   362.97  L 13413.59,   360.14  L 13410.75,   358.73  L 13410.75,   171.76  " style="stroke-width: 0.85 ;&st7;  " /><path d=" M 13410.75,   435.21  L 13444.75,   435.21  L 13444.75,   375.72  L 13441.92,   374.31  L 13447.58,   371.47  L 13441.92,   368.64  L 13447.58,   365.81  L 13441.92,   362.97  L 13447.58,   360.14  L 13444.75,   358.73  L 13444.75,   290.74  L 13410.75,   290.74  " style="stroke-width: 0.85 ;&st7;  " /><path d=" M 13425.49,   310.04  L 13423.16,   313.08  L 13421.69,   310.54  L 13425.49,   310.04  L 13424.21,   310.78  L 13423.22,   312.06  L 13422.60,   310.99  L 13424.21,   310.78  L 13423.57,   311.15  L 13423.26,   311.55  L 13423.06,   311.22  L 13423.57,   311.15  " style="stroke-width: 0.85 ;&st7;  " /><path d=" M 13423.49,   306.57  L 13421.15,   309.61  L 13419.69,   307.07  L 13423.49,   306.57  L 13422.20,   307.31  L 13421.22,   308.59  L 13420.60,   307.52  L 13422.20,   307.31  L 13421.56,   307.68  L 13421.25,   308.08  L 13421.06,   307.75  L 13421.56,   307.68  " style="stroke-width: 0.85 ;&st7;  " /><path d=" M 13410.75,   316.23  L 13405.09,   307.73  L 13416.42,   307.73  L 13410.75,   316.23  " style="stroke-width: 0.28 ;&st9;  " /><path d=" M 13444.75,   418.22  L 13439.08,   409.72  L 13450.41,   409.72  L 13444.75,   418.22  " style="stroke-width: 0.28 ;&st9;  " /><path d=" M 13708.20,   358.73  L 13708.20,   392.72  L 13444.75,   392.72  " style="stroke-width: 0.85 ;&st7;  " /><path d=" M 13640.22,   256.74  L 13640.22,   171.76  L 13198.29,   171.76  " style="stroke-width: 0.85 ;&st7;  " /><path d=" M 13198.29,   231.25  L 13198.29,   154.76  " style="stroke-width: 0.85 ;&st7;  " /><path d=" M 13257.78,   197.25  L 13252.11,   188.75  L 13263.44,   188.75  L 13257.78,   197.25  " style="stroke-width: 0.28 ;&st9;  " /><path d=" M 13198.29,   197.25  L 13192.62,   188.75  L 13203.95,   188.75  L 13198.29,   197.25  " style="stroke-width: 0.28 ;&st9;  " /><path d=" M 13002.82,   154.76  L 13002.82,   214.25  L 13198.29,   214.25  " style="stroke-width: 0.85 ;&st7;  " /><path d=" M 13614.72,   256.74  L 13614.72,   214.25  L 13198.29,   214.25  " style="stroke-width: 0.85 ;&st7;  " /><path d=" M 13181.29,   248.24  L 13215.29,   248.24  L 13215.29,   231.25  L 13181.29,   231.25  L 13181.29,   248.24  " style="stroke-width: 1.42 ;&st7;  " /><path d=" M 13321.52,   529.26  L 13317.27,   525.01  L 13313.02,   529.26  " style="stroke-width: 1.42 ;&st7;  " /><path d=" M 13793.19,   418.22  L 13580.73,   418.22  L 13580.73,   239.75  L 13215.29,   239.75  " style="stroke-width: 0.85 ;&st7;  " /><path d=" M 13202.54,    81.11  L 13198.29,    85.35  L 13194.04,    81.11  " style="stroke-width: 1.42 ;&st7;  " /><path d=" M 13289.65,    95.27  C 13287.31     95.27  13285.41     97.17  13285.41     99.52  " style="stroke-width: 1.42 ;&st7;   " /><path d=" M 13285.41,    99.52  C 13285.41    101.87  13287.31    103.77  13289.65    103.77  " style="stroke-width: 1.42 ;&st7;   " /><path d=" M 13293.90,   103.77  C 13296.25    103.77  13298.15    101.87  13298.15     99.52  " style="stroke-width: 1.42 ;&st7;   " /><path d=" M 13298.15,    99.52  C 13298.15     97.17  13296.25     95.27  13293.90     95.27  " style="stroke-width: 1.42 ;&st7;   " /><path d=" M 13060.19,    44.28  C 13057.85     44.28  13055.94     46.18  13055.94     48.53  " style="stroke-width: 1.42 ;&st7;   " /><path d=" M 13055.94,    48.53  C 13055.94     50.87  13057.85     52.78  13060.19     52.78  " style="stroke-width: 1.42 ;&st7;   " /><path d=" M 13064.44,    52.78  C 13066.79     52.78  13068.69     50.87  13068.69     48.53  " style="stroke-width: 1.42 ;&st7;   " /><path d=" M 13068.69,    48.53  C 13068.69     46.18  13066.79     44.28  13064.44     44.28  " style="stroke-width: 1.42 ;&st7;   " /><path d=" M 13060.19,    86.77  C 13057.85     86.77  13055.94     88.67  13055.94     91.02  " style="stroke-width: 1.42 ;&st7;   " /><path d=" M 13055.94,    91.02  C 13055.94     93.37  13057.85     95.27  13060.19     95.27  " style="stroke-width: 1.42 ;&st7;   " /><path d=" M 13064.44,    95.27  C 13066.79     95.27  13068.69     93.37  13068.69     91.02  " style="stroke-width: 1.42 ;&st7;   " /><path d=" M 13068.69,    91.02  C 13068.69     88.67  13066.79     86.77  13064.44     86.77  " style="stroke-width: 1.42 ;&st7;   " /><path d=" M 13104.81,    47.11  C 13102.07     48.72  13101.16     52.25  13102.77     54.99  " style="stroke-width: 1.42 ;&st7;   " /><path d=" M 13102.77,    54.99  C 13103.29     55.87  13103.93     56.51  13104.81     57.03  " style="stroke-width: 1.42 ;&st7;   " /><path d=" M 13104.81,    66.94  C 13107.55     65.33  13108.46     61.80  13106.85     59.06  " style="stroke-width: 1.42 ;&st7;   " /><path d=" M 13106.85,    59.06  C 13106.33     58.18  13105.69     57.55  13104.81     57.03  " style="stroke-width: 1.42 ;&st7;   " /><path d=" M 13106.23,    45.69  C 13106.23     44.91  13105.59     44.28  13104.81     44.28  " style="stroke-width: 0.85 ;&st7;   " /><path d=" M 13104.81,    44.28  C 13104.03     44.28  13103.39     44.91  13103.39     45.69  " style="stroke-width: 0.85 ;&st7;   " /><path d=" M 13103.39,    45.69  C 13103.39     46.48  13104.03     47.11  13104.81     47.11  " style="stroke-width: 0.85 ;&st7;   " /><path d=" M 13104.81,    47.11  C 13105.59     47.11  13106.23     46.48  13106.23     45.69  " style="stroke-width: 0.85 ;&st7;   " /><path d=" M 13106.23,    68.36  C 13106.23     67.57  13105.59     66.94  13104.81     66.94  " style="stroke-width: 0.85 ;&st7;   " /><path d=" M 13104.81,    66.94  C 13104.03     66.94  13103.39     67.57  13103.39     68.36  " style="stroke-width: 0.85 ;&st7;   " /><path d=" M 13103.39,    68.36  C 13103.39     69.14  13104.03     69.77  13104.81     69.77  " style="stroke-width: 0.85 ;&st7;   " /><path d=" M 13104.81,    69.77  C 13105.59     69.77  13106.23     69.14  13106.23     68.36  " style="stroke-width: 0.85 ;&st7;   " /><path d=" M 13102.69,    95.27  C 13100.34     95.27  13098.44     97.17  13098.44     99.52  " style="stroke-width: 1.42 ;&st7;   " /><path d=" M 13098.44,    99.52  C 13098.44    101.87  13100.34    103.77  13102.69    103.77  " style="stroke-width: 1.42 ;&st7;   " /><path d=" M 13106.94,   103.77  C 13109.28    103.77  13111.18    101.87  13111.18     99.52  " style="stroke-width: 1.42 ;&st7;   " /><path d=" M 13111.18,    99.52  C 13111.18     97.17  13109.28     95.27  13106.94     95.27  " style="stroke-width: 1.42 ;&st7;   " /><path d=" M 13007.36,   150.23  C 13007.36    147.72  13005.33    145.69  13002.83    145.69  " style="stroke-width: 1.42 ;&st7;   " /><path d=" M 13002.83,   145.69  C 13000.32    145.69  12998.29    147.72  12998.29    150.23  " style="stroke-width: 1.42 ;&st7;   " /><path d=" M 13002.83,   154.76  C 13005.33    154.76  13007.36    152.73  13007.36    150.23  " style="stroke-width: 1.42 ;&st7;   " /><path d=" M 13202.83,   150.23  C 13202.83    147.72  13200.80    145.69  13198.29    145.69  " style="stroke-width: 1.42 ;&st7;   " /><path d=" M 13198.29,   145.69  C 13195.79    145.69  13193.76    147.72  13193.76    150.23  " style="stroke-width: 1.42 ;&st7;   " /><path d=" M 13193.76,   150.23  C 13193.76    152.73  13195.79    154.76  13198.29    154.76  " style="stroke-width: 1.42 ;&st7;   " /><path d=" M 13198.29,   154.76  C 13200.80    154.76  13202.83    152.73  13202.83    150.23  " style="stroke-width: 1.42 ;&st7;   " /><path d=" M 13202.83,   473.74  C 13202.83    471.24  13200.80    469.21  13198.29    469.21  " style="stroke-width: 1.42 ;&st7;   " /><path d=" M 13198.29,   469.21  C 13195.79    469.21  13193.76    471.24  13193.76    473.74  " style="stroke-width: 1.42 ;&st7;   " /><path d=" M 13193.76,   473.74  C 13193.76    476.24  13195.79    478.27  13198.29    478.27  " style="stroke-width: 1.42 ;&st7;   " /><path d=" M 13198.29,   478.27  C 13200.80    478.27  13202.83    476.24  13202.83    473.74  " style="stroke-width: 1.42 ;&st7;   " /><path d=" M 13321.81,   473.74  C 13321.81    471.24  13319.78    469.21  13317.27    469.21  " style="stroke-width: 1.42 ;&st7;   " /><path d=" M 13317.27,   469.21  C 13314.77    469.21  13312.74    471.24  13312.74    473.74  " style="stroke-width: 1.42 ;&st7;   " /><path d=" M 13312.74,   473.74  C 13312.74    476.24  13314.77    478.27  13317.27    478.27  " style="stroke-width: 1.42 ;&st7;   " /><path d=" M 13317.27,   478.27  C 13319.78    478.27  13321.81    476.24  13321.81    473.74  " style="stroke-width: 1.42 ;&st7;   " /><path d=" M 13415.29,   473.74  C 13415.29    471.24  13413.26    469.21  13410.76    469.21  " style="stroke-width: 1.42 ;&st7;   " /><path d=" M 13410.76,   469.21  C 13408.26    469.21  13406.23    471.24  13406.23    473.74  " style="stroke-width: 1.42 ;&st7;   " /><path d=" M 13406.23,   473.74  C 13406.23    476.24  13408.26    478.27  13410.76    478.27  " style="stroke-width: 1.42 ;&st7;   " /><path d=" M 13410.76,   478.27  C 13413.26    478.27  13415.29    476.24  13415.29    473.74  " style="stroke-width: 1.42 ;&st7;   " /><path d=" M 13236.82,   473.74  C 13236.82    471.24  13234.79    469.21  13232.29    469.21  " style="stroke-width: 1.42 ;&st7;   " /><path d=" M 13232.29,   469.21  C 13229.79    469.21  13227.76    471.24  13227.76    473.74  " style="stroke-width: 1.42 ;&st7;   " /><path d=" M 13227.76,   473.74  C 13227.76    476.24  13229.79    478.27  13232.29    478.27  " style="stroke-width: 1.42 ;&st7;   " /><path d=" M 13232.29,   478.27  C 13234.79    478.27  13236.82    476.24  13236.82    473.74  " style="stroke-width: 1.42 ;&st7;   " /><path d=" M 13291.78,    47.11  C 13289.04     48.72  13288.13     52.25  13289.74     54.99  " style="stroke-width: 1.42 ;&st7;   " /><path d=" M 13289.74,    54.99  C 13290.26     55.87  13290.90     56.51  13291.78     57.03  " style="stroke-width: 1.42 ;&st7;   " /><path d=" M 13291.78,    66.94  C 13294.52     65.33  13295.43     61.80  13293.82     59.06  " style="stroke-width: 1.42 ;&st7;   " /><path d=" M 13293.82,    59.06  C 13293.30     58.18  13292.66     57.55  13291.78     57.03  " style="stroke-width: 1.42 ;&st7;   " /><path d=" M 13293.20,    45.69  C 13293.20     44.91  13292.56     44.28  13291.78     44.28  " style="stroke-width: 0.85 ;&st7;   " /><path d=" M 13291.78,    44.28  C 13291.00     44.28  13290.36     44.91  13290.36     45.69  " style="stroke-width: 0.85 ;&st7;   " /><path d=" M 13290.36,    45.69  C 13290.36     46.48  13291.00     47.11  13291.78     47.11  " style="stroke-width: 0.85 ;&st7;   " /><path d=" M 13291.78,    47.11  C 13292.56     47.11  13293.20     46.48  13293.20     45.69  " style="stroke-width: 0.85 ;&st7;   " /><path d=" M 13293.20,    68.36  C 13293.20     67.57  13292.56     66.94  13291.78     66.94  " style="stroke-width: 0.85 ;&st7;   " /><path d=" M 13291.78,    66.94  C 13291.00     66.94  13290.36     67.57  13290.36     68.36  " style="stroke-width: 0.85 ;&st7;   " /><path d=" M 13290.36,    68.36  C 13290.36     69.14  13291.00     69.77  13291.78     69.77  " style="stroke-width: 0.85 ;&st7;   " /><path d=" M 13291.78,    69.77  C 13292.56     69.77  13293.20     69.14  13293.20     68.36  " style="stroke-width: 0.85 ;&st7;   " /><text ewd:textID="53" style="&st18;" transform="matrix(&st17;  13026.04  89.68 )">Junction <tspan dy="6.0" x="0 ">Connector</tspan></text><text style="&st18;" transform="matrix(&st17;  13018.94  89.67 )">I125</text><text style="&st18;" transform="matrix(&st16;  13000.64  152.2 )">B</text><text style="&st18;" transform="matrix(&st16;  13186.5  152.2 )">13</text><text style="&st18;" transform="matrix(&st16;  13196.11  152.2 )">B</text><text style="&st18;" transform="matrix(&st16;  13186.5  475.71 )">20</text><text style="&st18;" transform="matrix(&st16;  13196.11  475.71 )">B</text><text style="&st18;" transform="matrix(&st16;  13308.58  475.71 )">4</text><text style="&st18;" transform="matrix(&st16;  13315.09  475.71 )">B</text><text style="&st18;" transform="matrix(&st17;  13313.58  496.2 )">P</text><text style="&st18;" transform="matrix(&st17;  13313.58  549.48 )">LG</text><text style="&st18;" transform="matrix(&st17;  13194.6  506.75 )">BR</text><text style="&st18;" transform="matrix(&st16;  13398.96  475.71 )">12</text><text style="&st18;" transform="matrix(&st16;  13408.45  475.71 )">A</text><text style="&st18;" transform="matrix(&st16;  13213.3  57.58 )">P</text><text style="&st18;" transform="matrix(&st16;  13296.87  143.96 )">I17(A),I18(B)</text><text style="&st18;" transform="matrix(&st17;  13228.59  505.01 )">V</text><text style="&st18;" transform="matrix(&st16;  13230.1  475.71 )">B</text><text style="&st18;" transform="matrix(&st16;  13223.6  475.71 )">3</text><text style="&st18;" transform="matrix(&st16;  13234.87  465.52 )">+S</text><text style="&st18;" transform="matrix(&st16;  13450.29  660.98 )">W</text><text style="&st18;" transform="matrix(&st16;  13451.14  643.98 )">R</text><text style="&st18;" transform="matrix(&st17;  13407.06  504.81 )">R</text><text ewd:textID="15" style="&st18;" transform="matrix(&st16;  13296.87  151.06 )">Combination Meter Assembly</text><text style="&st18;" transform="matrix(&st16;  13190.45  241.71 )">5V IC</text><text ewd:textID="14" style="&st18;" transform="matrix(&st17;  13402.82  329.45 )">Check Engine</text><text style="&st18;" transform="matrix(&st16;  13413.34  465.52 )">CHK</text><text style="&st18;" transform="matrix(&st16;  13319.86  465.52 )">SI</text><text style="&st18;" transform="matrix(&st16;  13200.88  465.52 )">ES</text><text style="&st18;" transform="matrix(&st16;  13200.88  162.95 )">IG+</text><text style="&st18;" transform="matrix(&st16;  13005.41  162.95 )">B</text><text style="&st18;" transform="matrix(&st16;  13308.2  56.17 )">5A <tspan dy="6.0" x="0 ">METER-IG2</tspan></text><text style="&st18;" transform="matrix(&st16;  13289.98  101.49 )">1</text><text style="&st18;" transform="matrix(&st16;  13285.59  86.47 )">2</text><text style="&st18;" transform="matrix(&st16;  13286.57  32.08 )">(IG)</text><text style="&st18;" transform="matrix(&st17;  13194.6  113.84 )">L</text><text style="&st18;" transform="matrix(&st16;  13058.58  50.5 )">3B</text><text style="&st18;" transform="matrix(&st16;  13048.71  50.5 )">26</text><text style="&st18;" transform="matrix(&st16;  13058.38  92.99 )">3D</text><text style="&st18;" transform="matrix(&st16;  13048.71  92.99 )">31</text><text style="&st18;" transform="matrix(&st16;  13121.23  53.34 )">10A <tspan dy="6.0" x="0 ">ECU-B </tspan><tspan dy="6.0" x="0 ">NO.1</tspan></text><text style="&st18;" transform="matrix(&st16;  13103.01  101.49 )">1</text><text style="&st18;" transform="matrix(&st16;  13098.63  86.47 )">2</text><text style="&st18;" transform="matrix(&st16;  13096.77  32.08 )">(BAT)</text><text style="&st18;" transform="matrix(&st16;  13077.01  117.07 )">V</text><text style="&st18;" transform="matrix(&st16;  13025.36  23.58 )">W</text><text style="&st18;" transform="matrix(&st16;  13301.54  517.92 )">16</text><text style="&st18;" transform="matrix(&st16;  13185.66  92.99 )">2</text></svg>