﻿<?xml version="1.0" encoding="utf-8"?>
<!DOCTYPE svg PUBLIC "-//W3C//DTD SVG 1.0//EN" "http://www.w3.org/TR/2001/REC-SVG-20010904/DTD/svg10.dtd"[
	<!ENTITY ns_flows "http://ns.adobe.com/Flows/1.0/">
	<!ENTITY ns_svg "http://www.w3.org/2000/svg">
	<!ENTITY ns_xlink "http://www.w3.org/1999/xlink">
	<!ENTITY st0 "font-size:7px;font-family:'MS-PGothic';adobe-font-script:japanese;">
	<!ENTITY st1 "font-size:6px;font-family:'ArialMT';">
	<!-- White fill  -->
	<!ENTITY st2 "fill:#FFFFFF;stroke:#000000; stroke-width:1.41;stroke-linecap:round;stroke-linejoin:round;">
	<!-- Yellow fill  -->
	<!ENTITY st3 "fill:#FFFFCC;stroke:#FFFFCC; stroke-width:0.1;stroke-linecap:round;stroke-linejoin:round;">
	<!-- Gray fill  -->
	<!ENTITY st4 "fill:#CCCCCC;stroke:#CCCCCC; stroke-width:0.1;stroke-linecap:round;stroke-linejoin:round;">
	<!-- Light-blue fill -->
	<!ENTITY st5 "fill:#CCECF4;stroke:#000000; stroke-width:1.133;stroke-linecap:round;stroke-linejoin:round;">
	<!ENTITY st6 "fill:none;stroke-linecap:butt; stroke-linejoin:round;">
	<!ENTITY st7 "fill:none;stroke:#000000;stroke-linecap:round;stroke-linejoin:round;">
	<!ENTITY st8 "enable-background:new    ;">
	<!-- Black fill -->
	<!ENTITY st9 "fill:#000000;stroke:#000000; stroke-linecap:round;stroke-linejoin:round;">
	<!-- SRS note   -->
	<!ENTITY st10 "font-size:9px;font-family:'ArialMT';">
	<!ENTITY st11 "font-size:9px;font-family:'Svg Symbol';">
	<!ENTITY st12 "font-size:6px;font-family:'Svg Symbol';">
	<!ENTITY st13 "fill:none;stroke:#ff0000;stroke-linecap:round;stroke-linejoin:round;">
	<!-- Yellow fill  -->
	<!ENTITY st14 "fill:#FFFF00;stroke:#FFFF00; stroke-width:0.1;stroke-linecap:round;stroke-linejoin:round;">
	<!ENTITY st15 "font-size:6px;font-family:'MS-PGothic';adobe-font-script:japanese;">
	<!ENTITY st16 "1.00 0.00 0.00 1.00">
	<!ENTITY st17 "0.00 -1.00 1.00 0.00">
	<!ENTITY st18 "font-size:6px;font-family:'Arial';">
	<!ENTITY st19 "font-size:9px;font-family:'Arial';">
	<!ENTITY st20 "font-size:6px;font-family:'MS-PGothic','MS PGothic';adobe-font-script:japanese;">
	<!ENTITY st21 "font-size:7px;font-family:'MS-PGothic','MS PGothic';adobe-font-script:japanese;">
	<!ATTLIST svg
		xmlns:ewd CDATA #FIXED "http://shcl.co.jp/ewd"
		xmlns:a CDATA #FIXED "http://ns.adobe.com/AdobeSVGViewerExtensions/3.0/"
		ewd:ver CDATA #IMPLIED
	>
	<!ATTLIST a
		ewd:lineID CDATA #IMPLIED
		ewd:groupID CDATA #IMPLIED
		ewd:figtype CDATA #IMPLIED
		ewd:code CDATA #IMPLIED
		ewd:figID CDATA #IMPLIED
		ewd:pinNo CDATA #IMPLIED
		ewd:comment CDATA #IMPLIED >
	<!ATTLIST g
		ewd:lineID CDATA #IMPLIED
		ewd:groupID CDATA #IMPLIED
		ewd:figtype CDATA #IMPLIED
		ewd:code CDATA #IMPLIED
		ewd:figID CDATA #IMPLIED
		ewd:pinNo CDATA #IMPLIED
		ewd:comment CDATA #IMPLIED >
	<!ATTLIST text
		ewd:textID CDATA #IMPLIED >
	<!ATTLIST title
		ewd:textID CDATA #IMPLIED >
]>
<!-- Generator: Shintec Hozumi YS   -->
<svg onload="call_execInitLoadProc_svg('system')" style="overflow:visible;  enable-background:new 0 0 1997.875 710.000" viewBox="0 0 1997.875 710.000" height="710.000" width="1997.875" xml:space="preserve" ewd:ver="L2.1.2.9" xmlns="&ns_svg;" xmlns:a="http://ns.adobe.com/AdobeSVGViewerExtensions/3.0/" xmlns:ewd="http://shcl.co.jp/ewd" xmlns:xlink="&ns_xlink;">
<path d=" M  1725.21,   256.74  L  1733.71,   256.74  " style="stroke-width: 1.42 ;&st7;  " /><path d=" M  1667.85,   103.77  L  1663.60,   103.77  " style="stroke-width: 1.42 ;&st7;  " /><path d=" M  1667.85,    95.27  L  1663.60,    95.27  " style="stroke-width: 1.42 ;&st7;  " /><path d=" M  1665.72,    69.77  L  1665.72,    78.27  " style="stroke-width: 0.85 ;&st7;  " /><path d=" M  1667.85,   205.75  L  1663.60,   205.75  " style="stroke-width: 1.42 ;&st7;  " /><path d=" M  1667.85,   197.25  L  1663.60,   197.25  " style="stroke-width: 1.42 ;&st7;  " /><path d=" M  1667.85,   163.26  L  1663.60,   163.26  " style="stroke-width: 1.42 ;&st7;  " /><path d=" M  1667.85,   154.76  L  1663.60,   154.76  " style="stroke-width: 1.42 ;&st7;  " /><path d=" M  1735.83,   103.77  L  1731.59,   103.77  " style="stroke-width: 1.42 ;&st7;  " /><path d=" M  1735.83,    95.27  L  1731.59,    95.27  " style="stroke-width: 1.42 ;&st7;  " /><path d=" M  1733.71,    69.77  L  1733.71,    78.27  " style="stroke-width: 0.85 ;&st7;  " /><path d=" M  1822.95,   367.22  L  1814.45,   367.22  " style="stroke-width: 0.85 ;&st7;  " /><path d=" M  1737.96,   367.22  L  1729.46,   367.22  " style="stroke-width: 0.85 ;&st7;  " /><path d=" M  1669.97,   367.22  L  1661.47,   367.22  " style="stroke-width: 0.85 ;&st7;  " /><path d=" M  1512.75,   236.22  L  1507.78,   231.25  " style="stroke-width: 1.42 ;&st7;  " /><path d=" M  1507.78,   248.24  L  1512.75,   243.27  " style="stroke-width: 1.42 ;&st7;  " /><path d=" M  1665.72,    78.27  L  1665.72,    95.27  " style="stroke-width: 0.85 ;&st7;  " /><path d=" M  1733.71,    78.27  L  1733.71,    95.27  " style="stroke-width: 0.85 ;&st7;  " /><path d=" M  1737.96,   251.08  L  1733.71,   255.33  L  1729.46,   251.08  " style="stroke-width: 1.42 ;&st7;  " /><path d=" M  1729.46,   247.68  L  1733.71,   251.93  L  1737.96,   247.68  " style="stroke-width: 1.42 ;&st7;  " /><path d=" M  1652.97,    35.78  L  1652.97,    78.27  L  1678.47,    78.27  L  1678.47,    35.78  L  1652.97,    35.78  " style="stroke-width: 1.42 ;&st7;  " /><path d=" M  1665.72,    90.37  L  1662.89,    87.54  L  1662.89,    91.79  L  1665.72,    94.62  L  1668.55,    91.79  L  1668.55,    87.54  L  1665.72,    90.37  " style="stroke-width: 0.28 ;&st9;  " /><path d=" M  1665.72,   197.25  L  1665.72,   163.26  " style="stroke-width: 0.85 ;&st7;  " /><path d=" M  1665.72,   192.36  L  1662.89,   189.52  L  1662.89,   193.77  L  1665.72,   196.61  L  1668.55,   193.77  L  1668.55,   189.52  L  1665.72,   192.36  " style="stroke-width: 0.28 ;&st9;  " /><path d=" M  1665.72,   168.15  L  1668.55,   170.99  L  1668.55,   166.74  L  1665.72,   163.90  L  1662.89,   166.74  L  1662.89,   170.99  L  1665.72,   168.15  " style="stroke-width: 0.28 ;&st9;  " /><path d=" M  1657.22,   256.74  L  1674.22,   256.74  L  1674.22,   273.74  L  1657.22,   273.74  L  1657.22,   256.74  " style="stroke-width: 1.42 ;&st7;  " /><path d=" M  1665.72,   256.74  L  1665.72,   273.74  " style="stroke-width: 0.85 ;&st7;  " /><path d=" M  1720.96,    35.78  L  1720.96,    78.27  L  1746.46,    78.27  L  1746.46,    35.78  L  1720.96,    35.78  " style="stroke-width: 1.42 ;&st7;  " /><path d=" M  1733.71,    90.37  L  1730.88,    87.54  L  1730.88,    91.79  L  1733.71,    94.62  L  1736.54,    91.79  L  1736.54,    87.54  L  1733.71,    90.37  " style="stroke-width: 0.28 ;&st9;  " /><path d=" M  1730.88,   707.17  L  1736.54,   707.17  " style="stroke-width: 0.85 ;&st7;  " /><path d=" M  1732.29,   710.00  L  1735.13,   710.00  " style="stroke-width: 0.85 ;&st7;  " /><path d=" M  1729.46,   704.33  L  1737.96,   704.33  " style="stroke-width: 0.85 ;&st7;  " /><path d=" M  1733.71,   697.25  L  1733.71,   701.50  " style="stroke-width: 0.85 ;&st7;  " /><path d=" M  1725.21,   701.50  L  1742.21,   701.50  " style="stroke-width: 0.85 ;&st7;  " /><path d=" M  1732.52,   383.22  L  1732.25,   383.69  L  1732.15,   384.22  L  1732.25,   384.75  L  1732.52,   385.22  L  1732.93,   385.57  L  1733.44,   385.76  L  1733.98,   385.76  L  1734.49,   385.57  L  1734.90,   385.22  L  1735.17,   384.75  L  1735.27,   384.22  L  1735.17,   383.69  L  1734.90,   383.22  L  1734.49,   382.87  L  1733.98,   382.69  L  1733.44,   382.69  L  1732.93,   382.87  L  1732.52,   383.22  L  1732.91,   383.93  L  1732.91,   384.51  L  1733.28,   384.96  L  1733.86,   385.06  L  1734.36,   384.77  L  1734.56,   384.22  L  1734.36,   383.67  L  1733.86,   383.39  L  1733.28,   383.48  L  1733.71,   384.22  " style="stroke-width: 0.85 ;&st7;  " /><path d=" M  1732.52,   553.19  L  1732.25,   553.66  L  1732.15,   554.19  L  1732.25,   554.73  L  1732.52,   555.20  L  1732.93,   555.54  L  1733.44,   555.73  L  1733.98,   555.73  L  1734.49,   555.54  L  1734.90,   555.20  L  1735.17,   554.73  L  1735.27,   554.19  L  1735.17,   553.66  L  1734.90,   553.19  L  1734.49,   552.84  L  1733.98,   552.66  L  1733.44,   552.66  L  1732.93,   552.84  L  1732.52,   553.19  L  1732.91,   553.90  L  1732.91,   554.48  L  1733.28,   554.93  L  1733.86,   555.03  L  1734.36,   554.74  L  1734.56,   554.19  L  1734.36,   553.65  L  1733.86,   553.36  L  1733.28,   553.46  L  1733.71,   554.19  " style="stroke-width: 0.85 ;&st7;  " /><path d=" M  1869.69,   554.19  L  1733.71,   554.19  " style="stroke-width: 0.85 ;&st7;  " /><path d=" M  1869.69,   494.70  L  1869.69,   554.19  " style="stroke-width: 0.85 ;&st7;  " /><path d=" M  1733.71,   418.22  L  1733.71,   571.19  " style="stroke-width: 0.85 ;&st7;  " /><path d=" M  1732.52,   340.73  L  1732.25,   341.20  L  1732.15,   341.73  L  1732.25,   342.26  L  1732.52,   342.73  L  1732.93,   343.08  L  1733.44,   343.26  L  1733.98,   343.26  L  1734.49,   343.08  L  1734.90,   342.73  L  1735.17,   342.26  L  1735.27,   341.73  L  1735.17,   341.20  L  1734.90,   340.73  L  1734.49,   340.38  L  1733.98,   340.19  L  1733.44,   340.19  L  1732.93,   340.38  L  1732.52,   340.73  L  1732.91,   341.44  L  1732.91,   342.02  L  1733.28,   342.46  L  1733.86,   342.56  L  1734.36,   342.28  L  1734.56,   341.73  L  1734.36,   341.18  L  1733.86,   340.89  L  1733.28,   340.99  L  1733.71,   341.73  " style="stroke-width: 0.85 ;&st7;  " /><path d=" M  1818.70,   367.22  L  1813.03,   358.73  L  1824.36,   358.73  L  1818.70,   367.22  " style="stroke-width: 0.28 ;&st9;  " /><path d=" M  1818.70,   426.71  L  1818.70,   341.73  L  1733.71,   341.73  " style="stroke-width: 0.85 ;&st7;  " /><path d=" M  1733.71,   401.22  L  1733.71,   324.73  " style="stroke-width: 0.85 ;&st7;  " /><path d=" M  1733.71,   367.22  L  1728.04,   358.73  L  1739.38,   358.73  L  1733.71,   367.22  " style="stroke-width: 0.28 ;&st9;  " /><path d=" M  1665.72,   367.22  L  1660.06,   358.73  L  1671.39,   358.73  L  1665.72,   367.22  " style="stroke-width: 0.28 ;&st9;  " /><path d=" M  1665.72,   324.73  L  1665.72,   384.22  L  1733.71,   384.22  " style="stroke-width: 0.85 ;&st7;  " /><path d=" M  1852.69,   469.21  L  1861.19,   469.21  " style="stroke-width: 0.85 ;&st7;  " /><path d=" M  1818.70,   460.71  L  1818.70,   443.71  " style="stroke-width: 0.85 ;&st7;  " /><path d=" M  1793.20,   460.71  L  1793.20,   443.71  " style="stroke-width: 0.85 ;&st7;  " /><path d=" M  1844.19,   443.71  L  1844.19,   460.71  " style="stroke-width: 0.85 ;&st7;  " /><path d=" M  1861.19,   477.71  L  1852.69,   477.71  " style="stroke-width: 0.85 ;&st7;  " /><path d=" M  1852.69,   486.20  L  1861.19,   486.20  " style="stroke-width: 0.85 ;&st7;  " /><path d=" M  1784.70,   443.71  L  1852.69,   443.71  L  1852.69,   426.71  L  1784.70,   426.71  L  1784.70,   443.71  " style="stroke-width: 1.42 ;&st7;  " /><path d=" M  1784.70,   494.70  L  1852.69,   494.70  L  1852.69,   460.71  L  1784.70,   460.71  L  1784.70,   494.70  " style="stroke-width: 1.42 ;&st7;  " /><path d=" M  1793.20,   426.71  L  1793.20,   384.22  L  1733.71,   384.22  " style="stroke-width: 0.85 ;&st7;  " /><path d=" M  1716.71,   418.22  L  1750.71,   418.22  L  1750.71,   401.22  L  1716.71,   401.22  L  1716.71,   418.22  " style="stroke-width: 1.42 ;&st7;  " /><path d=" M  1954.67,   375.72  L  1954.67,   358.73  L  1912.18,   358.73  L  1912.18,   391.30  " style="stroke-width: 0.85 ;&st7;  " /><path d=" M  1910.76,   404.05  L  1913.60,   404.05  " style="stroke-width: 0.85 ;&st7;  " /><path d=" M  1909.35,   401.22  L  1915.01,   401.22  " style="stroke-width: 0.85 ;&st7;  " /><path d=" M  1907.93,   398.39  L  1916.43,   398.39  " style="stroke-width: 0.85 ;&st7;  " /><path d=" M  1903.68,   395.55  L  1920.68,   395.55  " style="stroke-width: 0.85 ;&st7;  " /><path d=" M  1912.18,   391.30  L  1912.18,   395.55  " style="stroke-width: 0.85 ;&st7;  " /><path d=" M  1954.67,   426.71  L  1954.67,   409.72  " style="stroke-width: 0.85 ;&st7;  " /><path d=" M  1937.68,   443.71  L  1971.67,   443.71  L  1971.67,   426.71  L  1937.68,   426.71  L  1937.68,   443.71  " style="stroke-width: 1.42 ;&st7;  " /><path d=" M  1954.67,   443.71  L  1954.67,   460.71  " style="stroke-width: 0.85 ;&st7;  " /><path d=" M  1861.19,   494.70  L  1971.67,   494.70  L  1971.67,   460.71  L  1861.19,   460.71  L  1861.19,   494.70  " style="stroke-width: 1.42 ;&st7;  " /><path d=" M  1640.23,   571.19  L  1997.17,   571.19  L  1997.17,   324.73  L  1640.23,   324.73  L  1640.23,   571.19  " style="stroke-width: 1.42 ;&st7;  " /><path d=" M  1920.68,   528.70  L  1971.67,   528.70  L  1971.67,   511.70  L  1920.68,   511.70  L  1920.68,   528.70  " style="stroke-width: 1.42 ;&st7;  " /><path d=" M  1929.18,   494.70  L  1929.18,   511.70  " style="stroke-width: 0.85 ;&st7;  " /><path d=" M  1963.17,   494.70  L  1963.17,   511.70  " style="stroke-width: 0.85 ;&st7;  " /><path d=" M  1929.18,   528.70  L  1929.18,   571.19  " style="stroke-width: 0.85 ;&st7;  " /><path d=" M  1963.17,   528.70  L  1963.17,   571.19  " style="stroke-width: 0.85 ;&st7;  " /><path d=" M  1895.18,   494.70  L  1895.18,   520.20  " style="stroke-width: 0.85 ;&st7;  " /><path d=" M  1893.99,   519.20  L  1893.72,   519.67  L  1893.62,   520.20  L  1893.72,   520.73  L  1893.99,   521.20  L  1894.40,   521.55  L  1894.91,   521.73  L  1895.45,   521.73  L  1895.96,   521.55  L  1896.38,   521.20  L  1896.65,   520.73  L  1896.74,   520.20  L  1896.65,   519.67  L  1896.38,   519.20  L  1895.96,   518.85  L  1895.45,   518.66  L  1894.91,   518.66  L  1894.40,   518.85  L  1893.99,   519.20  L  1894.38,   519.91  L  1894.38,   520.49  L  1894.76,   520.94  L  1895.33,   521.03  L  1895.83,   520.75  L  1896.03,   520.20  L  1895.83,   519.65  L  1895.33,   519.36  L  1894.76,   519.46  L  1895.18,   520.20  " style="stroke-width: 0.85 ;&st7;  " /><path d=" M  1920.68,   520.20  L  1767.70,   520.20  L  1767.70,   409.72  L  1750.71,   409.72  " style="stroke-width: 0.85 ;&st7;  " /><path d=" M  1504.25,   697.25  L  1504.25,   701.50  " style="stroke-width: 0.85 ;&st7;  " /><path d=" M  1500.00,   704.33  L  1508.50,   704.33  " style="stroke-width: 0.85 ;&st7;  " /><path d=" M  1501.42,   707.17  L  1507.08,   707.17  " style="stroke-width: 0.85 ;&st7;  " /><path d=" M  1502.83,   710.00  L  1505.66,   710.00  " style="stroke-width: 0.85 ;&st7;  " /><path d=" M  1504.25,   367.22  L  1504.25,   384.22  " style="stroke-width: 0.85 ;&st7;  " /><path d=" M  1503.06,   170.75  L  1502.78,   171.22  L  1502.69,   171.76  L  1502.78,   172.29  L  1503.06,   172.76  L  1503.47,   173.11  L  1503.98,   173.29  L  1504.52,   173.29  L  1505.03,   173.11  L  1505.44,   172.76  L  1505.71,   172.29  L  1505.81,   171.76  L  1505.71,   171.22  L  1505.44,   170.75  L  1505.03,   170.41  L  1504.52,   170.22  L  1503.98,   170.22  L  1503.47,   170.41  L  1503.06,   170.75  L  1503.45,   171.47  L  1503.45,   172.05  L  1503.82,   172.49  L  1504.40,   172.59  L  1504.90,   172.30  L  1505.10,   171.76  L  1504.90,   171.21  L  1504.40,   170.92  L  1503.82,   171.02  L  1504.25,   171.76  " style="stroke-width: 0.85 ;&st7;  " /><path d=" M  1504.25,   231.25  L  1504.25,   171.76  " style="stroke-width: 0.85 ;&st7; stroke-dasharray:3, 1.5;" /><path d=" M  1738.24,   575.72  C  1738.24    573.22   1736.21    571.19   1733.71    571.19  " style="stroke-width: 1.42 ;&st7;   " /><path d=" M  1733.71,   571.19  C  1731.21    571.19   1729.18    573.22   1729.18    575.72  " style="stroke-width: 1.42 ;&st7;   " /><path d=" M  1729.18,   575.72  C  1729.18    578.23   1731.21    580.26   1733.71    580.26  " style="stroke-width: 1.42 ;&st7;   " /><path d=" M  1733.71,   580.26  C  1736.21    580.26   1738.24    578.23   1738.24    575.72  " style="stroke-width: 1.42 ;&st7;   " /><path d=" M  1738.24,   320.20  C  1738.24    317.70   1736.21    315.67   1733.71    315.67  " style="stroke-width: 1.42 ;&st7;   " /><path d=" M  1733.71,   315.67  C  1731.21    315.67   1729.18    317.70   1729.18    320.20  " style="stroke-width: 1.42 ;&st7;   " /><path d=" M  1729.18,   320.20  C  1729.18    322.70   1731.21    324.73   1733.71    324.73  " style="stroke-width: 1.42 ;&st7;   " /><path d=" M  1733.71,   324.73  C  1736.21    324.73   1738.24    322.70   1738.24    320.20  " style="stroke-width: 1.42 ;&st7;   " /><path d=" M  1670.25,   320.20  C  1670.25    317.70   1668.22    315.67   1665.72    315.67  " style="stroke-width: 1.42 ;&st7;   " /><path d=" M  1665.72,   315.67  C  1663.22    315.67   1661.19    317.70   1661.19    320.20  " style="stroke-width: 1.42 ;&st7;   " /><path d=" M  1661.19,   320.20  C  1661.19    322.70   1663.22    324.73   1665.72    324.73  " style="stroke-width: 1.42 ;&st7;   " /><path d=" M  1665.72,   324.73  C  1668.22    324.73   1670.25    322.70   1670.25    320.20  " style="stroke-width: 1.42 ;&st7;   " /><path d=" M  1672.10,    99.52  C  1672.10     97.17   1670.19     95.27   1667.85     95.27  " style="stroke-width: 1.42 ;&st7;   " /><path d=" M  1667.85,   103.77  C  1670.19    103.77   1672.10    101.87   1672.10     99.52  " style="stroke-width: 1.42 ;&st7;   " /><path d=" M  1659.35,    99.52  C  1659.35    101.87   1661.25    103.77   1663.60    103.77  " style="stroke-width: 1.42 ;&st7;   " /><path d=" M  1663.60,    95.27  C  1661.25     95.27   1659.35     97.17   1659.35     99.52  " style="stroke-width: 1.42 ;&st7;   " /><path d=" M  1667.14,    68.36  C  1667.14     67.57   1666.50     66.94   1665.72     66.94  " style="stroke-width: 0.85 ;&st7;   " /><path d=" M  1665.72,    66.94  C  1664.94     66.94   1664.31     67.57   1664.31     68.36  " style="stroke-width: 0.85 ;&st7;   " /><path d=" M  1664.31,    68.36  C  1664.31     69.14   1664.94     69.77   1665.72     69.77  " style="stroke-width: 0.85 ;&st7;   " /><path d=" M  1665.72,    69.77  C  1666.50     69.77   1667.14     69.14   1667.14     68.36  " style="stroke-width: 0.85 ;&st7;   " /><path d=" M  1667.14,    45.69  C  1667.14     44.91   1666.50     44.28   1665.72     44.28  " style="stroke-width: 0.85 ;&st7;   " /><path d=" M  1665.72,    44.28  C  1664.94     44.28   1664.31     44.91   1664.31     45.69  " style="stroke-width: 0.85 ;&st7;   " /><path d=" M  1664.31,    45.69  C  1664.31     46.48   1664.94     47.11   1665.72     47.11  " style="stroke-width: 0.85 ;&st7;   " /><path d=" M  1665.72,    47.11  C  1666.50     47.11   1667.14     46.48   1667.14     45.69  " style="stroke-width: 0.85 ;&st7;   " /><path d=" M  1665.72,    66.94  C  1668.46     65.33   1669.37     61.80   1667.76     59.06  " style="stroke-width: 1.42 ;&st7;   " /><path d=" M  1667.76,    59.06  C  1667.24     58.18   1666.60     57.55   1665.72     57.03  " style="stroke-width: 1.42 ;&st7;   " /><path d=" M  1665.72,    47.11  C  1662.98     48.72   1662.07     52.25   1663.68     54.99  " style="stroke-width: 1.42 ;&st7;   " /><path d=" M  1663.68,    54.99  C  1664.20     55.87   1664.84     56.51   1665.72     57.03  " style="stroke-width: 1.42 ;&st7;   " /><path d=" M  1672.10,   201.50  C  1672.10    199.15   1670.19    197.25   1667.85    197.25  " style="stroke-width: 1.42 ;&st7;   " /><path d=" M  1667.85,   205.75  C  1670.19    205.75   1672.10    203.85   1672.10    201.50  " style="stroke-width: 1.42 ;&st7;   " /><path d=" M  1659.35,   201.50  C  1659.35    203.85   1661.25    205.75   1663.60    205.75  " style="stroke-width: 1.42 ;&st7;   " /><path d=" M  1663.60,   197.25  C  1661.25    197.25   1659.35    199.15   1659.35    201.50  " style="stroke-width: 1.42 ;&st7;   " /><path d=" M  1672.10,   159.01  C  1672.10    156.66   1670.19    154.76   1667.85    154.76  " style="stroke-width: 1.42 ;&st7;   " /><path d=" M  1667.85,   163.26  C  1670.19    163.26   1672.10    161.36   1672.10    159.01  " style="stroke-width: 1.42 ;&st7;   " /><path d=" M  1659.35,   159.01  C  1659.35    161.36   1661.25    163.26   1663.60    163.26  " style="stroke-width: 1.42 ;&st7;   " /><path d=" M  1663.60,   154.76  C  1661.25    154.76   1659.35    156.66   1659.35    159.01  " style="stroke-width: 1.42 ;&st7;   " /><path d=" M  1740.08,    99.52  C  1740.08     97.17   1738.18     95.27   1735.83     95.27  " style="stroke-width: 1.42 ;&st7;   " /><path d=" M  1735.83,   103.77  C  1738.18    103.77   1740.08    101.87   1740.08     99.52  " style="stroke-width: 1.42 ;&st7;   " /><path d=" M  1727.34,    99.52  C  1727.34    101.87   1729.24    103.77   1731.59    103.77  " style="stroke-width: 1.42 ;&st7;   " /><path d=" M  1731.59,    95.27  C  1729.24     95.27   1727.34     97.17   1727.34     99.52  " style="stroke-width: 1.42 ;&st7;   " /><path d=" M  1735.13,    68.36  C  1735.13     67.57   1734.49     66.94   1733.71     66.94  " style="stroke-width: 0.85 ;&st7;   " /><path d=" M  1733.71,    66.94  C  1732.93     66.94   1732.29     67.57   1732.29     68.36  " style="stroke-width: 0.85 ;&st7;   " /><path d=" M  1732.29,    68.36  C  1732.29     69.14   1732.93     69.77   1733.71     69.77  " style="stroke-width: 0.85 ;&st7;   " /><path d=" M  1733.71,    69.77  C  1734.49     69.77   1735.13     69.14   1735.13     68.36  " style="stroke-width: 0.85 ;&st7;   " /><path d=" M  1735.13,    45.69  C  1735.13     44.91   1734.49     44.28   1733.71     44.28  " style="stroke-width: 0.85 ;&st7;   " /><path d=" M  1733.71,    44.28  C  1732.93     44.28   1732.29     44.91   1732.29     45.69  " style="stroke-width: 0.85 ;&st7;   " /><path d=" M  1732.29,    45.69  C  1732.29     46.48   1732.93     47.11   1733.71     47.11  " style="stroke-width: 0.85 ;&st7;   " /><path d=" M  1733.71,    47.11  C  1734.49     47.11   1735.13     46.48   1735.13     45.69  " style="stroke-width: 0.85 ;&st7;   " /><path d=" M  1733.71,    66.94  C  1736.45     65.33   1737.36     61.80   1735.75     59.06  " style="stroke-width: 1.42 ;&st7;   " /><path d=" M  1735.75,    59.06  C  1735.23     58.18   1734.59     57.55   1733.71     57.03  " style="stroke-width: 1.42 ;&st7;   " /><path d=" M  1733.71,    47.11  C  1730.97     48.72   1730.06     52.25   1731.67     54.99  " style="stroke-width: 1.42 ;&st7;   " /><path d=" M  1731.67,    54.99  C  1732.19     55.87   1732.83     56.51   1733.71     57.03  " style="stroke-width: 1.42 ;&st7;   " /><path d=" M  1971.67,   392.72  C  1971.67    383.33   1964.06    375.72   1954.67    375.72  " style="stroke-width: 1.42 ;&st7;   " /><path d=" M  1954.67,   375.72  C  1945.29    375.72   1937.68    383.33   1937.68    392.72  " style="stroke-width: 1.42 ;&st7;   " /><path d=" M  1937.68,   392.72  C  1937.68    402.11   1945.29    409.72   1954.67    409.72  " style="stroke-width: 1.42 ;&st7;   " /><path d=" M  1954.67,   409.72  C  1964.06    409.72   1971.67    402.11   1971.67    392.72  " style="stroke-width: 1.42 ;&st7;   " /><path d=" M  1933.71,   575.72  C  1933.71    573.22   1931.68    571.19   1929.18    571.19  " style="stroke-width: 1.42 ;&st7;   " /><path d=" M  1929.18,   571.19  C  1926.67    571.19   1924.65    573.22   1924.65    575.72  " style="stroke-width: 1.42 ;&st7;   " /><path d=" M  1924.65,   575.72  C  1924.65    578.23   1926.67    580.26   1929.18    580.26  " style="stroke-width: 1.42 ;&st7;   " /><path d=" M  1929.18,   580.26  C  1931.68    580.26   1933.71    578.23   1933.71    575.72  " style="stroke-width: 1.42 ;&st7;   " /><path d=" M  1967.70,   575.72  C  1967.70    573.22   1965.68    571.19   1963.17    571.19  " style="stroke-width: 1.42 ;&st7;   " /><path d=" M  1963.17,   571.19  C  1960.67    571.19   1958.64    573.22   1958.64    575.72  " style="stroke-width: 1.42 ;&st7;   " /><path d=" M  1958.64,   575.72  C  1958.64    578.23   1960.67    580.26   1963.17    580.26  " style="stroke-width: 1.42 ;&st7;   " /><path d=" M  1963.17,   580.26  C  1965.68    580.26   1967.70    578.23   1967.70    575.72  " style="stroke-width: 1.42 ;&st7;   " /><path d=" M  1508.78,   362.69  C  1508.78    360.19   1506.75    358.16   1504.25    358.16  " style="stroke-width: 1.42 ;&st7;   " /><path d=" M  1504.25,   358.16  C  1501.75    358.16   1499.72    360.19   1499.72    362.69  " style="stroke-width: 1.42 ;&st7;   " /><path d=" M  1504.25,   367.22  C  1506.75    367.22   1508.78    365.19   1508.78    362.69  " style="stroke-width: 1.42 ;&st7;   " /><path d=" M  1508.78,   388.75  C  1508.78    386.25   1506.75    384.22   1504.25    384.22  " style="stroke-width: 1.42 ;&st7;   " /><path d=" M  1504.25,   384.22  C  1501.75    384.22   1499.72    386.25   1499.72    388.75  " style="stroke-width: 1.42 ;&st7;   " /><path d=" M  1504.25,   393.29  C  1506.75    393.29   1508.78    391.26   1508.78    388.75  " style="stroke-width: 1.42 ;&st7;   " /><text style="&st18;" transform="matrix(&st16;  1832.28  313.93 )">I18(B)</text><text style="&st18;" transform="matrix(&st16;  1721.08  262.96 )">2</text><text style="&st18;" transform="matrix(&st17;  1730.01  608.73 )">BR</text><text style="&st18;" transform="matrix(&st16;  1731.52  577.69 )">B</text><text style="&st18;" transform="matrix(&st16;  1721.91  577.69 )">20</text><text style="&st18;" transform="matrix(&st16;  1731.52  322.17 )">B</text><text style="&st18;" transform="matrix(&st16;  1721.91  322.17 )">13</text><text style="&st18;" transform="matrix(&st16;  1663.53  322.17 )">B</text><text style="&st18;" transform="matrix(&st16;  1657.03  322.17 )">1</text><text style="&st18;" transform="matrix(&st17;  1681.83  276.64 )">I125</text><text ewd:textID="10" style="&st18;" transform="matrix(&st17;  1688.94  276.65 )">Junction Connector</text><text style="&st18;" transform="matrix(&st16;  1910.13  479.67 )">CPU</text><text style="&st18;" transform="matrix(&st17;  1662.03  301.7 )">W</text><text style="&st18;" transform="matrix(&st16;  1657.68  32.08 )">(BAT)</text><text style="&st18;" transform="matrix(&st16;  1659.54  86.47 )">2</text><text style="&st18;" transform="matrix(&st16;  1663.92  101.49 )">1</text><text style="&st18;" transform="matrix(&st16;  1682.15  53.34 )">10A <tspan dy="6.0" x="0 ">ECU-B </tspan><tspan dy="6.0" x="0 ">NO.1</tspan></text><text style="&st18;" transform="matrix(&st16;  1652.11  203.47 )">26</text><text style="&st18;" transform="matrix(&st16;  1661.98  203.47 )">3B</text><text style="&st18;" transform="matrix(&st16;  1652.11  160.98 )">31</text><text style="&st18;" transform="matrix(&st16;  1661.79  160.98 )">3D</text><text style="&st18;" transform="matrix(&st16;  1659.54  281.93 )">3</text><text style="&st18;" transform="matrix(&st16;  1659.54  253.05 )">1</text><text style="&st18;" transform="matrix(&st17;  1730.01  292.31 )">L</text><text style="&st18;" transform="matrix(&st16;  1728.5  32.08 )">(IG)</text><text style="&st18;" transform="matrix(&st16;  1727.53  86.47 )">2</text><text style="&st18;" transform="matrix(&st16;  1731.91  101.49 )">1</text><text style="&st18;" transform="matrix(&st16;  1750.13  56.17 )">5A <tspan dy="6.0" x="0 ">METER-IG2</tspan></text><text style="&st18;" transform="matrix(&st16;  1668.31  332.92 )">B</text><text style="&st18;" transform="matrix(&st16;  1736.29  332.92 )">IG+</text><text style="&st18;" transform="matrix(&st16;  1736.29  567.5 )">ES</text><text ewd:textID="15" style="&st18;" transform="matrix(&st16;  1807.59  437.18 )">Telltales</text><text ewd:textID="11" style="&st18;" transform="matrix(&st16;  1810.38  476.85 )">LED <tspan dy="6.0" x="0 ">Driver</tspan></text><text style="&st18;" transform="matrix(&st16;  1725.86  411.69 )">5V IC</text><text style="&st18;" transform="matrix(&st16;  1950.12  437.18 )">I/F</text><text ewd:textID="3" style="&st18;" transform="matrix(&st16;  1945.54  394.69 )">Buzzer</text><text ewd:textID="4" style="&st18;" transform="matrix(&st16;  1832.29  321.03 )">Combination Meter Assembly</text><text style="&st18;" transform="matrix(&st16;  1934.41  522.17 )">CAN I/F</text><text style="&st18;" transform="matrix(&st17;  1662.03  233.71 )">W</text><text style="&st18;" transform="matrix(&st17;  1662.03  131.07 )">V</text><text style="&st18;" transform="matrix(&st16;  1578.63  626.98 )">R</text><text style="&st18;" transform="matrix(&st16;  1577.77  643.98 )">W</text><text style="&st18;" transform="matrix(&st16;  1526.78  643.98 )">W</text><text style="&st18;" transform="matrix(&st16;  1527.63  626.98 )">R</text><text style="&st18;" transform="matrix(&st17;  1925.48  606.8 )">R</text><text style="&st18;" transform="matrix(&st17;  1959.48  607.65 )">W</text><text style="&st18;" transform="matrix(&st16;  1926.99  577.69 )">B</text><text style="&st18;" transform="matrix(&st16;  1917.38  577.69 )">17</text><text style="&st18;" transform="matrix(&st16;  1931.76  567.5 )">CANH</text><text style="&st18;" transform="matrix(&st16;  1960.98  577.69 )">B</text><text style="&st18;" transform="matrix(&st16;  1951.38  577.69 )">16</text><text style="&st18;" transform="matrix(&st16;  1965.76  567.5 )">CANL</text><text style="&st18;" transform="matrix(&st16;  1502.06  364.66 )">B</text><text style="&st18;" transform="matrix(&st16;  1502.06  390.72 )">B</text><text ewd:textID="10" style="&st18;" transform="matrix(&st17;  1527.47  387.13 )">Junction Connector</text><text style="&st18;" transform="matrix(&st17;  1520.36  387.12 )">E76(B)</text><text style="&st18;" transform="matrix(&st17;  1500.55  311.28 )">BR</text><text style="&st18;" transform="matrix(&st17;  1500.55  438.76 )">BR</text><text style="&st18;" transform="matrix(&st17;  1730.01  198.75 )">P</text></svg>