﻿<?xml version="1.0" encoding="utf-8"?>
<!DOCTYPE svg PUBLIC "-//W3C//DTD SVG 1.0//EN" "http://www.w3.org/TR/2001/REC-SVG-20010904/DTD/svg10.dtd"[
	<!ENTITY ns_flows "http://ns.adobe.com/Flows/1.0/">
	<!ENTITY ns_svg "http://www.w3.org/2000/svg">
	<!ENTITY ns_xlink "http://www.w3.org/1999/xlink">
	<!ENTITY st0 "font-size:7px;font-family:'MS-PGothic';adobe-font-script:japanese;">
	<!ENTITY st1 "font-size:6px;font-family:'ArialMT';">
	<!-- White fill  -->
	<!ENTITY st2 "fill:#FFFFFF;stroke:#000000; stroke-width:1.41;stroke-linecap:round;stroke-linejoin:round;">
	<!-- Yellow fill  -->
	<!ENTITY st3 "fill:#FFFFCC;stroke:#FFFFCC; stroke-width:0.1;stroke-linecap:round;stroke-linejoin:round;">
	<!-- Gray fill  -->
	<!ENTITY st4 "fill:#CCCCCC;stroke:#CCCCCC; stroke-width:0.1;stroke-linecap:round;stroke-linejoin:round;">
	<!-- Light-blue fill -->
	<!ENTITY st5 "fill:#CCECF4;stroke:#000000; stroke-width:1.133;stroke-linecap:round;stroke-linejoin:round;">
	<!ENTITY st6 "fill:none;stroke-linecap:butt; stroke-linejoin:round;">
	<!ENTITY st7 "fill:none;stroke:#000000;stroke-linecap:round;stroke-linejoin:round;">
	<!ENTITY st8 "enable-background:new    ;">
	<!-- Black fill -->
	<!ENTITY st9 "fill:#000000;stroke:#000000; stroke-linecap:round;stroke-linejoin:round;">
	<!-- SRS note   -->
	<!ENTITY st10 "font-size:9px;font-family:'ArialMT';">
	<!ENTITY st11 "font-size:9px;font-family:'Svg Symbol';">
	<!ENTITY st12 "font-size:6px;font-family:'Svg Symbol';">
	<!ENTITY st13 "fill:none;stroke:#ff0000;stroke-linecap:round;stroke-linejoin:round;">
	<!-- Yellow fill  -->
	<!ENTITY st14 "fill:#FFFF00;stroke:#FFFF00; stroke-width:0.1;stroke-linecap:round;stroke-linejoin:round;">
	<!ENTITY st15 "font-size:6px;font-family:'MS-PGothic';adobe-font-script:japanese;">
	<!ENTITY st16 "1.00 0.00 0.00 1.00">
	<!ENTITY st17 "0.00 -1.00 1.00 0.00">
	<!ENTITY st18 "font-size:6px;font-family:'Arial';">
	<!ENTITY st19 "font-size:9px;font-family:'Arial';">
	<!ENTITY st20 "font-size:6px;font-family:'MS-PGothic','MS PGothic';adobe-font-script:japanese;">
	<!ENTITY st21 "font-size:7px;font-family:'MS-PGothic','MS PGothic';adobe-font-script:japanese;">
	<!ATTLIST svg
		xmlns:ewd CDATA #FIXED "http://shcl.co.jp/ewd"
		xmlns:a CDATA #FIXED "http://ns.adobe.com/AdobeSVGViewerExtensions/3.0/"
		ewd:ver CDATA #IMPLIED
	>
	<!ATTLIST a
		ewd:lineID CDATA #IMPLIED
		ewd:groupID CDATA #IMPLIED
		ewd:figtype CDATA #IMPLIED
		ewd:code CDATA #IMPLIED
		ewd:figID CDATA #IMPLIED
		ewd:pinNo CDATA #IMPLIED
		ewd:comment CDATA #IMPLIED >
	<!ATTLIST g
		ewd:lineID CDATA #IMPLIED
		ewd:groupID CDATA #IMPLIED
		ewd:figtype CDATA #IMPLIED
		ewd:code CDATA #IMPLIED
		ewd:figID CDATA #IMPLIED
		ewd:pinNo CDATA #IMPLIED
		ewd:comment CDATA #IMPLIED >
	<!ATTLIST text
		ewd:textID CDATA #IMPLIED >
	<!ATTLIST title
		ewd:textID CDATA #IMPLIED >
]>
<!-- Generator: Shintec Hozumi YS   -->
<svg onload="call_execInitLoadProc_svg('system')" style="overflow:visible;  enable-background:new 0 0 2057.365 710.000" viewBox="0 0 2057.365 710.000" height="710.000" width="2057.365" xml:space="preserve" ewd:ver="L2.1.2.9" xmlns="&ns_svg;" xmlns:a="http://ns.adobe.com/AdobeSVGViewerExtensions/3.0/" xmlns:ewd="http://shcl.co.jp/ewd" xmlns:xlink="&ns_xlink;">
<path d=" M  1750.71,    78.27  L  1759.21,    78.27  " style="stroke-width: 1.42 ;&st7;  " /><path d=" M  1801.70,    86.77  L  1793.20,    86.77  " style="stroke-width: 1.42 ;&st7;  " /><path d=" M  1701.84,   103.77  L  1697.59,   103.77  " style="stroke-width: 1.42 ;&st7;  " /><path d=" M  1701.84,    95.27  L  1697.59,    95.27  " style="stroke-width: 1.42 ;&st7;  " /><path d=" M  1699.72,    69.77  L  1699.72,    78.27  " style="stroke-width: 0.85 ;&st7;  " /><path d=" M  1659.35,    95.27  L  1655.10,    95.27  " style="stroke-width: 1.42 ;&st7;  " /><path d=" M  1659.35,    86.77  L  1655.10,    86.77  " style="stroke-width: 1.42 ;&st7;  " /><path d=" M  1659.35,    52.78  L  1655.10,    52.78  " style="stroke-width: 1.42 ;&st7;  " /><path d=" M  1659.35,    44.28  L  1655.10,    44.28  " style="stroke-width: 1.42 ;&st7;  " /><path d=" M  1888.81,   103.77  L  1884.56,   103.77  " style="stroke-width: 1.42 ;&st7;  " /><path d=" M  1888.81,    95.27  L  1884.56,    95.27  " style="stroke-width: 1.42 ;&st7;  " /><path d=" M  1886.68,    69.77  L  1886.68,    78.27  " style="stroke-width: 0.85 ;&st7;  " /><path d=" M  1882.44,   197.25  L  1873.94,   197.25  " style="stroke-width: 0.85 ;&st7;  " /><path d=" M  1797.45,   197.25  L  1788.95,   197.25  " style="stroke-width: 0.85 ;&st7;  " /><path d=" M  1601.98,   197.25  L  1593.48,   197.25  " style="stroke-width: 0.85 ;&st7;  " /><path d=" M  1699.72,    78.27  L  1699.72,    95.27  " style="stroke-width: 0.85 ;&st7;  " /><path d=" M  1886.68,    78.27  L  1886.68,    95.27  " style="stroke-width: 0.85 ;&st7;  " /><path d=" M  1763.45,    72.61  L  1759.21,    76.86  L  1754.96,    72.61  " style="stroke-width: 1.42 ;&st7;  " /><path d=" M  1754.96,    69.21  L  1759.21,    73.46  L  1763.45,    69.21  " style="stroke-width: 1.42 ;&st7;  " /><path d=" M  1797.45,    92.44  L  1793.20,    88.19  L  1788.95,    92.44  " style="stroke-width: 1.42 ;&st7;  " /><path d=" M  1797.45,    95.84  L  1793.20,    91.59  L  1788.95,    95.84  " style="stroke-width: 1.42 ;&st7;  " /><path d=" M  1686.97,    35.78  L  1686.97,    78.27  L  1712.46,    78.27  L  1712.46,    35.78  L  1686.97,    35.78  " style="stroke-width: 1.42 ;&st7;  " /><path d=" M  1699.72,    90.37  L  1696.88,    87.54  L  1696.88,    91.79  L  1699.72,    94.62  L  1702.55,    91.79  L  1702.55,    87.54  L  1699.72,    90.37  " style="stroke-width: 0.28 ;&st9;  " /><path d=" M  1657.22,    86.77  L  1657.22,    52.78  " style="stroke-width: 0.85 ;&st7;  " /><path d=" M  1657.22,    81.88  L  1654.39,    79.04  L  1654.39,    83.29  L  1657.22,    86.13  L  1660.06,    83.29  L  1660.06,    79.04  L  1657.22,    81.88  " style="stroke-width: 0.28 ;&st9;  " /><path d=" M  1657.22,    57.67  L  1660.06,    60.50  L  1660.06,    56.26  L  1657.22,    53.42  L  1654.39,    56.26  L  1654.39,    60.50  L  1657.22,    57.67  " style="stroke-width: 0.28 ;&st9;  " /><path d=" M  1589.23,    69.77  L  1606.23,    69.77  L  1606.23,    86.77  L  1589.23,    86.77  L  1589.23,    69.77  " style="stroke-width: 1.42 ;&st7;  " /><path d=" M  1597.73,    69.77  L  1597.73,    86.77  " style="stroke-width: 0.85 ;&st7;  " /><path d=" M  1873.94,    35.78  L  1873.94,    78.27  L  1899.43,    78.27  L  1899.43,    35.78  L  1873.94,    35.78  " style="stroke-width: 1.42 ;&st7;  " /><path d=" M  1886.68,    90.37  L  1883.85,    87.54  L  1883.85,    91.79  L  1886.68,    94.62  L  1889.52,    91.79  L  1889.52,    87.54  L  1886.68,    90.37  " style="stroke-width: 0.28 ;&st9;  " /><path d=" M  1790.37,   707.17  L  1796.03,   707.17  " style="stroke-width: 0.85 ;&st7;  " /><path d=" M  1791.78,   710.00  L  1794.62,   710.00  " style="stroke-width: 0.85 ;&st7;  " /><path d=" M  1788.95,   704.33  L  1797.45,   704.33  " style="stroke-width: 0.85 ;&st7;  " /><path d=" M  1793.20,   697.25  L  1793.20,   701.50  " style="stroke-width: 0.85 ;&st7;  " /><path d=" M  1784.70,   701.50  L  1801.70,   701.50  " style="stroke-width: 0.85 ;&st7;  " /><path d=" M  1792.01,   213.25  L  1791.74,   213.72  L  1791.64,   214.25  L  1791.74,   214.78  L  1792.01,   215.25  L  1792.42,   215.60  L  1792.93,   215.79  L  1793.47,   215.79  L  1793.98,   215.60  L  1794.39,   215.25  L  1794.66,   214.78  L  1794.76,   214.25  L  1794.66,   213.72  L  1794.39,   213.25  L  1793.98,   212.90  L  1793.47,   212.71  L  1792.93,   212.71  L  1792.42,   212.90  L  1792.01,   213.25  L  1792.40,   213.96  L  1792.40,   214.54  L  1792.77,   214.99  L  1793.35,   215.09  L  1793.85,   214.80  L  1794.05,   214.25  L  1793.85,   213.70  L  1793.35,   213.41  L  1792.77,   213.51  L  1793.20,   214.25  " style="stroke-width: 0.85 ;&st7;  " /><path d=" M  1792.01,   383.22  L  1791.74,   383.69  L  1791.64,   384.22  L  1791.74,   384.75  L  1792.01,   385.22  L  1792.42,   385.57  L  1792.93,   385.76  L  1793.47,   385.76  L  1793.98,   385.57  L  1794.39,   385.22  L  1794.66,   384.75  L  1794.76,   384.22  L  1794.66,   383.69  L  1794.39,   383.22  L  1793.98,   382.87  L  1793.47,   382.69  L  1792.93,   382.69  L  1792.42,   382.87  L  1792.01,   383.22  L  1792.40,   383.93  L  1792.40,   384.51  L  1792.77,   384.96  L  1793.35,   385.06  L  1793.85,   384.77  L  1794.05,   384.22  L  1793.85,   383.67  L  1793.35,   383.39  L  1792.77,   383.48  L  1793.20,   384.22  " style="stroke-width: 0.85 ;&st7;  " /><path d=" M  1929.18,   384.22  L  1793.20,   384.22  " style="stroke-width: 0.85 ;&st7;  " /><path d=" M  1929.18,   324.73  L  1929.18,   384.22  " style="stroke-width: 0.85 ;&st7;  " /><path d=" M  1793.20,   248.24  L  1793.20,   401.22  " style="stroke-width: 0.85 ;&st7;  " /><path d=" M  1792.01,   170.75  L  1791.74,   171.22  L  1791.64,   171.76  L  1791.74,   172.29  L  1792.01,   172.76  L  1792.42,   173.11  L  1792.93,   173.29  L  1793.47,   173.29  L  1793.98,   173.11  L  1794.39,   172.76  L  1794.66,   172.29  L  1794.76,   171.76  L  1794.66,   171.22  L  1794.39,   170.75  L  1793.98,   170.41  L  1793.47,   170.22  L  1792.93,   170.22  L  1792.42,   170.41  L  1792.01,   170.75  L  1792.40,   171.47  L  1792.40,   172.05  L  1792.77,   172.49  L  1793.35,   172.59  L  1793.85,   172.30  L  1794.05,   171.76  L  1793.85,   171.21  L  1793.35,   170.92  L  1792.77,   171.02  L  1793.20,   171.76  " style="stroke-width: 0.85 ;&st7;  " /><path d=" M  1878.19,   197.25  L  1872.52,   188.75  L  1883.85,   188.75  L  1878.19,   197.25  " style="stroke-width: 0.28 ;&st9;  " /><path d=" M  1878.19,   256.74  L  1878.19,   171.76  L  1793.20,   171.76  " style="stroke-width: 0.85 ;&st7;  " /><path d=" M  1793.20,   231.25  L  1793.20,   154.76  " style="stroke-width: 0.85 ;&st7;  " /><path d=" M  1793.20,   197.25  L  1787.53,   188.75  L  1798.87,   188.75  L  1793.20,   197.25  " style="stroke-width: 0.28 ;&st9;  " /><path d=" M  1597.73,   197.25  L  1592.07,   188.75  L  1603.40,   188.75  L  1597.73,   197.25  " style="stroke-width: 0.28 ;&st9;  " /><path d=" M  1597.73,   154.76  L  1597.73,   214.25  L  1793.20,   214.25  " style="stroke-width: 0.85 ;&st7;  " /><path d=" M  1912.18,   299.24  L  1920.68,   299.24  " style="stroke-width: 0.85 ;&st7;  " /><path d=" M  1878.19,   290.74  L  1878.19,   273.74  " style="stroke-width: 0.85 ;&st7;  " /><path d=" M  1852.69,   290.74  L  1852.69,   273.74  " style="stroke-width: 0.85 ;&st7;  " /><path d=" M  1903.68,   273.74  L  1903.68,   290.74  " style="stroke-width: 0.85 ;&st7;  " /><path d=" M  1920.68,   307.73  L  1912.18,   307.73  " style="stroke-width: 0.85 ;&st7;  " /><path d=" M  1912.18,   316.23  L  1920.68,   316.23  " style="stroke-width: 0.85 ;&st7;  " /><path d=" M  1844.19,   273.74  L  1912.18,   273.74  L  1912.18,   256.74  L  1844.19,   256.74  L  1844.19,   273.74  " style="stroke-width: 1.42 ;&st7;  " /><path d=" M  1844.19,   324.73  L  1912.18,   324.73  L  1912.18,   290.74  L  1844.19,   290.74  L  1844.19,   324.73  " style="stroke-width: 1.42 ;&st7;  " /><path d=" M  1852.69,   256.74  L  1852.69,   214.25  L  1793.20,   214.25  " style="stroke-width: 0.85 ;&st7;  " /><path d=" M  1776.20,   248.24  L  1810.20,   248.24  L  1810.20,   231.25  L  1776.20,   231.25  L  1776.20,   248.24  " style="stroke-width: 1.42 ;&st7;  " /><path d=" M  2014.16,   205.75  L  2014.16,   188.75  L  1971.67,   188.75  L  1971.67,   221.33  " style="stroke-width: 0.85 ;&st7;  " /><path d=" M  1970.25,   234.08  L  1973.09,   234.08  " style="stroke-width: 0.85 ;&st7;  " /><path d=" M  1968.84,   231.25  L  1974.50,   231.25  " style="stroke-width: 0.85 ;&st7;  " /><path d=" M  1967.42,   228.41  L  1975.92,   228.41  " style="stroke-width: 0.85 ;&st7;  " /><path d=" M  1963.17,   225.58  L  1980.17,   225.58  " style="stroke-width: 0.85 ;&st7;  " /><path d=" M  1971.67,   221.33  L  1971.67,   225.58  " style="stroke-width: 0.85 ;&st7;  " /><path d=" M  1997.17,   273.74  L  2031.16,   273.74  L  2031.16,   256.74  L  1997.17,   256.74  L  1997.17,   273.74  " style="stroke-width: 1.42 ;&st7;  " /><path d=" M  1920.68,   324.73  L  2031.16,   324.73  L  2031.16,   290.74  L  1920.68,   290.74  L  1920.68,   324.73  " style="stroke-width: 1.42 ;&st7;  " /><path d=" M  1572.24,   401.22  L  2056.66,   401.22  L  2056.66,   154.76  L  1572.24,   154.76  L  1572.24,   401.22  " style="stroke-width: 1.42 ;&st7;  " /><path d=" M  1980.17,   358.73  L  2031.16,   358.73  L  2031.16,   341.73  L  1980.17,   341.73  L  1980.17,   358.73  " style="stroke-width: 1.42 ;&st7;  " /><path d=" M  1988.67,   324.73  L  1988.67,   341.73  " style="stroke-width: 0.85 ;&st7;  " /><path d=" M  1988.67,   358.73  L  1988.67,   401.22  " style="stroke-width: 0.85 ;&st7;  " /><path d=" M  1954.67,   324.73  L  1954.67,   350.23  " style="stroke-width: 0.85 ;&st7;  " /><path d=" M  1953.48,   349.22  L  1953.21,   349.69  L  1953.11,   350.23  L  1953.21,   350.76  L  1953.48,   351.23  L  1953.89,   351.58  L  1954.40,   351.76  L  1954.94,   351.76  L  1955.45,   351.58  L  1955.87,   351.23  L  1956.14,   350.76  L  1956.23,   350.23  L  1956.14,   349.69  L  1955.87,   349.22  L  1955.45,   348.88  L  1954.94,   348.69  L  1954.40,   348.69  L  1953.89,   348.88  L  1953.48,   349.22  L  1953.87,   349.94  L  1953.87,   350.52  L  1954.25,   350.96  L  1954.82,   351.06  L  1955.32,   350.77  L  1955.52,   350.23  L  1955.32,   349.68  L  1954.82,   349.39  L  1954.25,   349.49  L  1954.67,   350.23  " style="stroke-width: 0.85 ;&st7;  " /><path d=" M  1980.17,   350.23  L  1827.19,   350.23  L  1827.19,   239.75  L  1810.20,   239.75  " style="stroke-width: 0.85 ;&st7;  " /><path d=" M  1801.70,   405.75  L  1971.67,   405.75  " style="stroke-width: 0.85 ;&st7; stroke-dasharray:3, 1.5;" /><path d=" M  1997.17,   405.75  L  2005.66,   405.75  " style="stroke-width: 0.85 ;&st7; stroke-dasharray:3, 1.5;" /><path d=" M  1801.70,   414.82  L  1971.67,   414.82  " style="stroke-width: 0.85 ;&st7; stroke-dasharray:3, 1.5;" /><path d=" M  1997.17,   414.82  L  2005.66,   414.82  " style="stroke-width: 0.85 ;&st7; stroke-dasharray:3, 1.5;" /><path d=" M  1797.73,   405.75  C  1797.73    403.25   1795.70    401.22   1793.20    401.22  " style="stroke-width: 1.42 ;&st7;   " /><path d=" M  1793.20,   401.22  C  1790.70    401.22   1788.67    403.25   1788.67    405.75  " style="stroke-width: 1.42 ;&st7;   " /><path d=" M  1788.67,   405.75  C  1788.67    408.25   1790.70    410.28   1793.20    410.28  " style="stroke-width: 1.42 ;&st7;   " /><path d=" M  1793.20,   410.28  C  1795.70    410.28   1797.73    408.25   1797.73    405.75  " style="stroke-width: 1.42 ;&st7;   " /><path d=" M  1797.73,   150.23  C  1797.73    147.72   1795.70    145.69   1793.20    145.69  " style="stroke-width: 1.42 ;&st7;   " /><path d=" M  1793.20,   145.69  C  1790.70    145.69   1788.67    147.72   1788.67    150.23  " style="stroke-width: 1.42 ;&st7;   " /><path d=" M  1788.67,   150.23  C  1788.67    152.73   1790.70    154.76   1793.20    154.76  " style="stroke-width: 1.42 ;&st7;   " /><path d=" M  1793.20,   154.76  C  1795.70    154.76   1797.73    152.73   1797.73    150.23  " style="stroke-width: 1.42 ;&st7;   " /><path d=" M  1602.27,   150.23  C  1602.27    147.72   1600.24    145.69   1597.73    145.69  " style="stroke-width: 1.42 ;&st7;   " /><path d=" M  1597.73,   145.69  C  1595.23    145.69   1593.20    147.72   1593.20    150.23  " style="stroke-width: 1.42 ;&st7;   " /><path d=" M  1593.20,   150.23  C  1593.20    152.73   1595.23    154.76   1597.73    154.76  " style="stroke-width: 1.42 ;&st7;   " /><path d=" M  1597.73,   154.76  C  1600.24    154.76   1602.27    152.73   1602.27    150.23  " style="stroke-width: 1.42 ;&st7;   " /><path d=" M  1706.09,    99.52  C  1706.09     97.17   1704.19     95.27   1701.84     95.27  " style="stroke-width: 1.42 ;&st7;   " /><path d=" M  1701.84,   103.77  C  1704.19    103.77   1706.09    101.87   1706.09     99.52  " style="stroke-width: 1.42 ;&st7;   " /><path d=" M  1693.34,    99.52  C  1693.34    101.87   1695.24    103.77   1697.59    103.77  " style="stroke-width: 1.42 ;&st7;   " /><path d=" M  1697.59,    95.27  C  1695.24     95.27   1693.34     97.17   1693.34     99.52  " style="stroke-width: 1.42 ;&st7;   " /><path d=" M  1701.13,    68.36  C  1701.13     67.57   1700.50     66.94   1699.72     66.94  " style="stroke-width: 0.85 ;&st7;   " /><path d=" M  1699.72,    66.94  C  1698.93     66.94   1698.30     67.57   1698.30     68.36  " style="stroke-width: 0.85 ;&st7;   " /><path d=" M  1698.30,    68.36  C  1698.30     69.14   1698.93     69.77   1699.72     69.77  " style="stroke-width: 0.85 ;&st7;   " /><path d=" M  1699.72,    69.77  C  1700.50     69.77   1701.13     69.14   1701.13     68.36  " style="stroke-width: 0.85 ;&st7;   " /><path d=" M  1701.13,    45.69  C  1701.13     44.91   1700.50     44.28   1699.72     44.28  " style="stroke-width: 0.85 ;&st7;   " /><path d=" M  1699.72,    44.28  C  1698.93     44.28   1698.30     44.91   1698.30     45.69  " style="stroke-width: 0.85 ;&st7;   " /><path d=" M  1698.30,    45.69  C  1698.30     46.48   1698.93     47.11   1699.72     47.11  " style="stroke-width: 0.85 ;&st7;   " /><path d=" M  1699.72,    47.11  C  1700.50     47.11   1701.13     46.48   1701.13     45.69  " style="stroke-width: 0.85 ;&st7;   " /><path d=" M  1699.72,    66.94  C  1702.45     65.33   1703.37     61.80   1701.75     59.06  " style="stroke-width: 1.42 ;&st7;   " /><path d=" M  1701.75,    59.06  C  1701.23     58.18   1700.60     57.55   1699.72     57.03  " style="stroke-width: 1.42 ;&st7;   " /><path d=" M  1699.72,    47.11  C  1696.98     48.72   1696.07     52.25   1697.68     54.99  " style="stroke-width: 1.42 ;&st7;   " /><path d=" M  1697.68,    54.99  C  1698.20     55.87   1698.83     56.51   1699.72     57.03  " style="stroke-width: 1.42 ;&st7;   " /><path d=" M  1663.60,    91.02  C  1663.60     88.67   1661.69     86.77   1659.35     86.77  " style="stroke-width: 1.42 ;&st7;   " /><path d=" M  1659.35,    95.27  C  1661.69     95.27   1663.60     93.37   1663.60     91.02  " style="stroke-width: 1.42 ;&st7;   " /><path d=" M  1650.85,    91.02  C  1650.85     93.37   1652.75     95.27   1655.10     95.27  " style="stroke-width: 1.42 ;&st7;   " /><path d=" M  1655.10,    86.77  C  1652.75     86.77   1650.85     88.67   1650.85     91.02  " style="stroke-width: 1.42 ;&st7;   " /><path d=" M  1663.60,    48.53  C  1663.60     46.18   1661.69     44.28   1659.35     44.28  " style="stroke-width: 1.42 ;&st7;   " /><path d=" M  1659.35,    52.78  C  1661.69     52.78   1663.60     50.87   1663.60     48.53  " style="stroke-width: 1.42 ;&st7;   " /><path d=" M  1650.85,    48.53  C  1650.85     50.87   1652.75     52.78   1655.10     52.78  " style="stroke-width: 1.42 ;&st7;   " /><path d=" M  1655.10,    44.28  C  1652.75     44.28   1650.85     46.18   1650.85     48.53  " style="stroke-width: 1.42 ;&st7;   " /><path d=" M  1893.06,    99.52  C  1893.06     97.17   1891.16     95.27   1888.81     95.27  " style="stroke-width: 1.42 ;&st7;   " /><path d=" M  1888.81,   103.77  C  1891.16    103.77   1893.06    101.87   1893.06     99.52  " style="stroke-width: 1.42 ;&st7;   " /><path d=" M  1880.31,    99.52  C  1880.31    101.87   1882.21    103.77   1884.56    103.77  " style="stroke-width: 1.42 ;&st7;   " /><path d=" M  1884.56,    95.27  C  1882.21     95.27   1880.31     97.17   1880.31     99.52  " style="stroke-width: 1.42 ;&st7;   " /><path d=" M  1888.10,    68.36  C  1888.10     67.57   1887.47     66.94   1886.68     66.94  " style="stroke-width: 0.85 ;&st7;   " /><path d=" M  1886.68,    66.94  C  1885.90     66.94   1885.27     67.57   1885.27     68.36  " style="stroke-width: 0.85 ;&st7;   " /><path d=" M  1885.27,    68.36  C  1885.27     69.14   1885.90     69.77   1886.68     69.77  " style="stroke-width: 0.85 ;&st7;   " /><path d=" M  1886.68,    69.77  C  1887.47     69.77   1888.10     69.14   1888.10     68.36  " style="stroke-width: 0.85 ;&st7;   " /><path d=" M  1888.10,    45.69  C  1888.10     44.91   1887.47     44.28   1886.68     44.28  " style="stroke-width: 0.85 ;&st7;   " /><path d=" M  1886.68,    44.28  C  1885.90     44.28   1885.27     44.91   1885.27     45.69  " style="stroke-width: 0.85 ;&st7;   " /><path d=" M  1885.27,    45.69  C  1885.27     46.48   1885.90     47.11   1886.68     47.11  " style="stroke-width: 0.85 ;&st7;   " /><path d=" M  1886.68,    47.11  C  1887.47     47.11   1888.10     46.48   1888.10     45.69  " style="stroke-width: 0.85 ;&st7;   " /><path d=" M  1886.68,    66.94  C  1889.42     65.33   1890.33     61.80   1888.72     59.06  " style="stroke-width: 1.42 ;&st7;   " /><path d=" M  1888.72,    59.06  C  1888.20     58.18   1887.57     57.55   1886.68     57.03  " style="stroke-width: 1.42 ;&st7;   " /><path d=" M  1886.68,    47.11  C  1883.95     48.72   1883.03     52.25   1884.65     54.99  " style="stroke-width: 1.42 ;&st7;   " /><path d=" M  1884.65,    54.99  C  1885.17     55.87   1885.80     56.51   1886.68     57.03  " style="stroke-width: 1.42 ;&st7;   " /><path d=" M  1997.17,   222.75  C  1997.17    232.14   2004.78    239.75   2014.16    239.75  " style="stroke-width: 1.42 ;&st7;   " /><path d=" M  1993.20,   405.75  C  1993.20    403.25   1991.17    401.22   1988.67    401.22  " style="stroke-width: 1.42 ;&st7;   " /><path d=" M  1988.67,   401.22  C  1986.16    401.22   1984.14    403.25   1984.14    405.75  " style="stroke-width: 1.42 ;&st7;   " /><path d=" M  1984.14,   405.75  C  1984.14    408.25   1986.16    410.28   1988.67    410.28  " style="stroke-width: 1.42 ;&st7;   " /><path d=" M  1988.67,   410.28  C  1991.17    410.28   1993.20    408.25   1993.20    405.75  " style="stroke-width: 1.42 ;&st7;   " /><path d=" M  1797.73,   414.82  C  1797.73    412.31   1795.70    410.28   1793.20    410.28  " style="stroke-width: 1.42 ;&st7;   " /><path d=" M  1793.20,   410.28  C  1790.70    410.28   1788.67    412.31   1788.67    414.82  " style="stroke-width: 1.42 ;&st7;   " /><path d=" M  1788.67,   414.82  C  1788.67    417.32   1790.70    419.35   1793.20    419.35  " style="stroke-width: 1.42 ;&st7;   " /><path d=" M  1793.20,   419.35  C  1795.70    419.35   1797.73    417.32   1797.73    414.82  " style="stroke-width: 1.42 ;&st7;   " /><path d=" M  1993.20,   414.82  C  1993.20    412.31   1991.17    410.28   1988.67    410.28  " style="stroke-width: 1.42 ;&st7;   " /><path d=" M  1988.67,   410.28  C  1986.16    410.28   1984.14    412.31   1984.14    414.82  " style="stroke-width: 1.42 ;&st7;   " /><path d=" M  1984.14,   414.82  C  1984.14    417.32   1986.16    419.35   1988.67    419.35  " style="stroke-width: 1.42 ;&st7;   " /><path d=" M  1988.67,   419.35  C  1991.17    419.35   1993.20    417.32   1993.20    414.82  " style="stroke-width: 1.42 ;&st7;   " /><path d=" M  1517.28,    82.80  C  1517.28     80.30   1515.25     78.27   1512.75     78.27  " style="stroke-width: 1.42 ;&st7;   " /><path d=" M  1512.75,    78.27  C  1510.24     78.27   1508.21     80.30   1508.21     82.80  " style="stroke-width: 1.42 ;&st7;   " /><path d=" M  1508.21,    82.80  C  1508.21     85.31   1510.24     87.34   1512.75     87.34  " style="stroke-width: 1.42 ;&st7;   " /><path d=" M  1512.75,    87.34  C  1515.25     87.34   1517.28     85.31   1517.28     82.80  " style="stroke-width: 1.42 ;&st7;   " /><text style="&st18;" transform="matrix(&st16;  1569.67  626.98 )">W(RHD)</text><text style="&st18;" transform="matrix(&st16;  1891.77  143.96 )">I18(B)</text><text style="&st18;" transform="matrix(&st16;  1746.57  84.49 )">2</text><text style="&st18;" transform="matrix(&st16;  1801.88  43.41 )">(LHD)</text><text style="&st18;" transform="matrix(&st16;  1808.2  32.08 )">P</text><text style="&st18;" transform="matrix(&st16;  1801.84  68.91 )">(RHD)</text><text style="&st18;" transform="matrix(&st16;  1808.2  57.58 )">P</text><text style="&st18;" transform="matrix(&st17;  1800.84  120.12 )">(RHD)</text><text style="&st18;" transform="matrix(&st17;  1766.84  120.08 )">(LHD)</text><text style="&st18;" transform="matrix(&st17;  1789.5  463.69 )">BR</text><text style="&st18;" transform="matrix(&st16;  1791.01  407.72 )">B</text><text style="&st18;" transform="matrix(&st16;  1784.51  407.72 )">7</text><text style="&st18;" transform="matrix(&st16;  1791.01  152.2 )">B</text><text style="&st18;" transform="matrix(&st16;  1781.4  152.2 )">13</text><text style="&st18;" transform="matrix(&st16;  1780.57  84.49 )">2</text><text style="&st18;" transform="matrix(&st16;  1595.54  152.2 )">B</text><text style="&st18;" transform="matrix(&st16;  1589.04  152.2 )">1</text><text style="&st18;" transform="matrix(&st17;  1613.84  89.67 )">I125</text><text ewd:textID="15" style="&st18;" transform="matrix(&st17;  1620.95  89.68 )">Junction <tspan dy="6.0" x="0 ">Connector</tspan></text><text style="&st18;" transform="matrix(&st16;  1969.62  309.7 )">CPU</text><text style="&st18;" transform="matrix(&st17;  1594.04  114.73 )">W</text><text style="&st18;" transform="matrix(&st16;  1620.27  23.58 )">W</text><text style="&st18;" transform="matrix(&st16;  1671.92  117.07 )">V</text><text style="&st18;" transform="matrix(&st16;  1691.67  32.08 )">(BAT)</text><text style="&st18;" transform="matrix(&st16;  1693.53  86.47 )">2</text><text style="&st18;" transform="matrix(&st16;  1697.92  101.49 )">1</text><text style="&st18;" transform="matrix(&st16;  1716.14  53.34 )">10A <tspan dy="6.0" x="0 ">ECU-B </tspan><tspan dy="6.0" x="0 ">NO.1</tspan></text><text style="&st18;" transform="matrix(&st16;  1643.61  92.99 )">31</text><text style="&st18;" transform="matrix(&st16;  1653.29  92.99 )">3D</text><text style="&st18;" transform="matrix(&st16;  1643.61  50.5 )">26</text><text style="&st18;" transform="matrix(&st16;  1653.48  50.5 )">3B</text><text style="&st18;" transform="matrix(&st16;  1591.55  94.96 )">3</text><text style="&st18;" transform="matrix(&st16;  1591.55  66.08 )">1</text><text style="&st18;" transform="matrix(&st17;  1789.5  113.84 )">L</text><text style="&st18;" transform="matrix(&st17;  1755.51  113.84 )">L</text><text style="&st18;" transform="matrix(&st16;  1881.47  32.08 )">(IG)</text><text style="&st18;" transform="matrix(&st16;  1880.5  86.47 )">2</text><text style="&st18;" transform="matrix(&st16;  1884.88  101.49 )">1</text><text style="&st18;" transform="matrix(&st16;  1903.11  56.17 )">5A <tspan dy="6.0" x="0 ">METER-IG2</tspan></text><text style="&st18;" transform="matrix(&st16;  1600.32  162.95 )">B</text><text style="&st18;" transform="matrix(&st16;  1795.78  162.95 )">IG+</text><text style="&st18;" transform="matrix(&st16;  1795.78  397.53 )">ES</text><text ewd:textID="20" style="&st18;" transform="matrix(&st16;  1867.08  267.21 )">Telltales</text><text ewd:textID="16" style="&st18;" transform="matrix(&st16;  1869.87  306.88 )">LED <tspan dy="6.0" x="0 ">Driver</tspan></text><text style="&st18;" transform="matrix(&st16;  1785.35  241.71 )">5V IC</text><text ewd:textID="8" style="&st18;" transform="matrix(&st16;  1891.78  151.06 )">Combination Meter Assembly</text><text style="&st18;" transform="matrix(&st16;  1993.9  352.2 )">CAN I/F</text><text style="&st18;" transform="matrix(&st16;  1570.56  643.98 )">R(LHD)</text><text style="&st18;" transform="matrix(&st16;  1569.71  660.98 )">W(LHD)</text><text style="&st18;" transform="matrix(&st16;  1518.72  660.98 )">W(LHD)</text><text style="&st18;" transform="matrix(&st16;  1519.57  643.98 )">R(LHD)</text><text style="&st18;" transform="matrix(&st16;  1518.68  626.98 )">W(RHD)</text><text style="&st18;" transform="matrix(&st16;  1519.53  609.99 )">R(RHD)</text><text style="&st18;" transform="matrix(&st16;  1570.52  609.99 )">R(RHD)</text><text style="&st18;" transform="matrix(&st17;  1984.97  470.42 )">R(RHD)</text><text style="&st18;" transform="matrix(&st16;  1986.48  407.72 )">B</text><text style="&st18;" transform="matrix(&st16;  1976.87  407.72 )">16</text><text style="&st18;" transform="matrix(&st16;  1991.25  397.53 )">CANH</text><text style="&st18;" transform="matrix(&st16;  1602.83  471.18 )">* 2 :2GR-FE</text><text style="&st18;" transform="matrix(&st16;  1602.83  462.68 )">* 1 :2AR-FE</text><text style="&st18;" transform="matrix(&st16;  1602.83  479.67 )">* 3 :1AZ-FE</text><text ewd:textID="2" style="&st18;" transform="matrix(&st16;  1602.83  488.17 )">* 4 :Before Sep. 2014 Production</text><text ewd:textID="3" style="&st18;" transform="matrix(&st16;  1602.83  496.67 )">* 5 :From Sep. 2014 Production</text><text style="&st18;" transform="matrix(&st16;  1781.4  416.79 )">20</text><text style="&st18;" transform="matrix(&st16;  1791.01  416.79 )">B</text><text style="&st18;" transform="matrix(&st16;  1976.87  416.79 )">17</text><text style="&st18;" transform="matrix(&st16;  1986.48  416.79 )">B</text><text style="&st18;" transform="matrix(&st16;  1510.64  84.77 )">F</text><text style="&st18;" transform="matrix(&st17;  1509.05  106.23 )">W</text><text style="&st18;" transform="matrix(&st17;  1520.38  108.48 )">(*8)</text><text style="&st18;" transform="matrix(&st16;  1504.36  74.58 )">VCNE</text><text style="&st18;" transform="matrix(&st16;  1506.56  134.07 )">1</text><text style="&st18;" transform="matrix(&st16;  1508.27  145.4 )">VC</text><text style="&st18;" transform="matrix(&st16;  1602.83  505.17 )">* 8 :6AR-FSE</text></svg>