﻿<?xml version="1.0" encoding="utf-8"?>
<!DOCTYPE svg PUBLIC "-//W3C//DTD SVG 1.0//EN" "http://www.w3.org/TR/2001/REC-SVG-20010904/DTD/svg10.dtd"[
	<!ENTITY ns_flows "http://ns.adobe.com/Flows/1.0/">
	<!ENTITY ns_svg "http://www.w3.org/2000/svg">
	<!ENTITY ns_xlink "http://www.w3.org/1999/xlink">
	<!ENTITY st0 "font-size:7px;font-family:'MS-PGothic';adobe-font-script:japanese;">
	<!ENTITY st1 "font-size:6px;font-family:'ArialMT';">
	<!-- White fill  -->
	<!ENTITY st2 "fill:#FFFFFF;stroke:#000000; stroke-width:1.41;stroke-linecap:round;stroke-linejoin:round;">
	<!-- Yellow fill  -->
	<!ENTITY st3 "fill:#FFFFCC;stroke:#FFFFCC; stroke-width:0.1;stroke-linecap:round;stroke-linejoin:round;">
	<!-- Gray fill  -->
	<!ENTITY st4 "fill:#CCCCCC;stroke:#CCCCCC; stroke-width:0.1;stroke-linecap:round;stroke-linejoin:round;">
	<!-- Light-blue fill -->
	<!ENTITY st5 "fill:#CCECF4;stroke:#000000; stroke-width:1.133;stroke-linecap:round;stroke-linejoin:round;">
	<!ENTITY st6 "fill:none;stroke-linecap:butt; stroke-linejoin:round;">
	<!ENTITY st7 "fill:none;stroke:#000000;stroke-linecap:round;stroke-linejoin:round;">
	<!ENTITY st8 "enable-background:new    ;">
	<!-- Black fill -->
	<!ENTITY st9 "fill:#000000;stroke:#000000; stroke-linecap:round;stroke-linejoin:round;">
	<!-- SRS note   -->
	<!ENTITY st10 "font-size:9px;font-family:'ArialMT';">
	<!ENTITY st11 "font-size:9px;font-family:'Svg Symbol';">
	<!ENTITY st12 "font-size:6px;font-family:'Svg Symbol';">
	<!ENTITY st13 "fill:none;stroke:#ff0000;stroke-linecap:round;stroke-linejoin:round;">
	<!-- Yellow fill  -->
	<!ENTITY st14 "fill:#FFFF00;stroke:#FFFF00; stroke-width:0.1;stroke-linecap:round;stroke-linejoin:round;">
	<!ENTITY st15 "font-size:6px;font-family:'MS-PGothic';adobe-font-script:japanese;">
	<!ENTITY st16 "1.00 0.00 0.00 1.00">
	<!ENTITY st17 "0.00 -1.00 1.00 0.00">
	<!ENTITY st18 "font-size:6px;font-family:'Arial';">
	<!ENTITY st19 "font-size:9px;font-family:'Arial';">
	<!ENTITY st20 "font-size:6px;font-family:'MS-PGothic','MS PGothic';adobe-font-script:japanese;">
	<!ENTITY st21 "font-size:7px;font-family:'MS-PGothic','MS PGothic';adobe-font-script:japanese;">
	<!ATTLIST svg
		xmlns:ewd CDATA #FIXED "http://shcl.co.jp/ewd"
		xmlns:a CDATA #FIXED "http://ns.adobe.com/AdobeSVGViewerExtensions/3.0/"
		ewd:ver CDATA #IMPLIED
	>
	<!ATTLIST a
		ewd:lineID CDATA #IMPLIED
		ewd:groupID CDATA #IMPLIED
		ewd:figtype CDATA #IMPLIED
		ewd:code CDATA #IMPLIED
		ewd:figID CDATA #IMPLIED
		ewd:pinNo CDATA #IMPLIED
		ewd:comment CDATA #IMPLIED >
	<!ATTLIST g
		ewd:lineID CDATA #IMPLIED
		ewd:groupID CDATA #IMPLIED
		ewd:figtype CDATA #IMPLIED
		ewd:code CDATA #IMPLIED
		ewd:figID CDATA #IMPLIED
		ewd:pinNo CDATA #IMPLIED
		ewd:comment CDATA #IMPLIED >
	<!ATTLIST text
		ewd:textID CDATA #IMPLIED >
	<!ATTLIST title
		ewd:textID CDATA #IMPLIED >
]>
<!-- Generator: Shintec Hozumi YS   -->
<svg onload="call_execInitLoadProc_svg('system')" style="overflow:visible;  enable-background:new 0 0 10358.353 710.000" viewBox="0 0 10358.353 710.000" height="710.000" width="10358.353" xml:space="preserve" ewd:ver="L2.1.2.9" xmlns="&ns_svg;" xmlns:a="http://ns.adobe.com/AdobeSVGViewerExtensions/3.0/" xmlns:ewd="http://shcl.co.jp/ewd" xmlns:xlink="&ns_xlink;">
<path d=" M  1096.32,   299.24  L  1104.82,   299.24  " style="stroke-width: 0.85 ;&st7;  " /><path d=" M  1121.81,   299.24  L  1130.31,   299.24  " style="stroke-width: 0.85 ;&st7;  " /><path d=" M  1172.80,   243.99  L  1172.80,   252.49  " style="stroke-width: 0.85 ;&st7;  " /><path d=" M  1173.97,   235.51  L  1169.72,   242.87  " style="stroke-width: 0.85 ;&st7;  " /><path d=" M  1166.25,   240.87  L  1170.50,   233.51  " style="stroke-width: 0.85 ;&st7;  " /><path d=" M  1198.30,   243.99  L  1198.30,   252.49  " style="stroke-width: 0.85 ;&st7;  " /><path d=" M  1199.46,   235.51  L  1195.21,   242.87  " style="stroke-width: 0.85 ;&st7;  " /><path d=" M  1191.75,   240.87  L  1196.00,   233.51  " style="stroke-width: 0.85 ;&st7;  " /><path d=" M  1504.25,   499.67  L  1499.28,   494.70  " style="stroke-width: 1.42 ;&st7;  " /><path d=" M  1487.25,   506.73  L  1492.22,   511.70  " style="stroke-width: 1.42 ;&st7;  " /><path d=" M  1499.28,   511.70  L  1504.25,   506.73  " style="stroke-width: 1.42 ;&st7;  " /><path d=" M  1492.22,   494.70  L  1487.25,   499.67  " style="stroke-width: 1.42 ;&st7;  " /><path d=" M  1487.25,   290.74  L  1495.75,   290.74  " style="stroke-width: 1.42 ;&st7;  " /><path d=" M  1419.26,   499.67  L  1414.29,   494.70  " style="stroke-width: 1.42 ;&st7;  " /><path d=" M  1402.27,   506.73  L  1407.23,   511.70  " style="stroke-width: 1.42 ;&st7;  " /><path d=" M  1414.29,   511.70  L  1419.26,   506.73  " style="stroke-width: 1.42 ;&st7;  " /><path d=" M  1407.23,   494.70  L  1402.27,   499.67  " style="stroke-width: 1.42 ;&st7;  " /><path d=" M  1495.75,   432.38  L  1490.08,   409.72  " style="stroke-width: 1.42 ;&st7;  " /><path d=" M  1495.75,   443.71  L  1495.75,   435.21  " style="stroke-width: 0.85 ;&st7;  " /><path d=" M  1495.75,   409.72  L  1495.75,   401.22  " style="stroke-width: 0.85 ;&st7;  " /><path d=" M  1223.80,   273.74  L  1223.80,   299.24  L  1364.02,   299.24  L  1364.02,   282.24  " style="stroke-width: 0.85 ;&st7;  " /><path d=" M  1070.82,   222.75  L  1070.82,   273.74  L  1240.79,   273.74  L  1240.79,   222.75  L  1070.82,   222.75  " style="stroke-width: 1.42 ;&st7;  " /><path d=" M  1053.82,   197.25  L  1053.82,   324.73  L  1385.27,   324.73  L  1385.27,   197.25  L  1053.82,   197.25  " style="stroke-width: 1.42 ;&st7;  " /><path d=" M  1300.28,   197.25  L  1300.28,   214.25  L  1313.03,   214.25  L  1313.03,   222.75  " style="stroke-width: 0.85 ;&st7;  " /><path d=" M  1257.79,   222.75  L  1376.77,   222.75  L  1376.77,   282.24  L  1257.79,   282.24  L  1257.79,   222.75  " style="stroke-width: 1.42 ;&st7;  " /><path d=" M  1257.79,   256.74  L  1376.77,   256.74  " style="stroke-width: 0.85 ;&st7;  " /><path d=" M  1300.28,   222.75  L  1300.28,   282.24  " style="stroke-width: 0.85 ;&st7;  " /><path d=" M  1325.78,   222.75  L  1325.78,   282.24  " style="stroke-width: 0.85 ;&st7;  " /><path d=" M  1362.61,   273.74  L  1339.94,   273.74  " style="stroke-width: 0.85 ;&st7;  " /><path d=" M  1314.45,   265.24  L  1362.61,   265.24  " style="stroke-width: 0.85 ;&st7;  " /><path d=" M  1257.79,   239.75  L  1376.77,   239.75  " style="stroke-width: 0.85 ;&st7;  " /><path d=" M  1351.27,   222.75  L  1351.27,   282.24  " style="stroke-width: 0.85 ;&st7;  " /><path d=" M  1223.80,   197.25  L  1223.80,   222.75  " style="stroke-width: 0.85 ;&st7;  " /><path d=" M  1223.80,   222.75  L  1223.80,   273.74  " style="stroke-width: 0.85 ;&st7;  " /><path d=" M  1121.81,   222.75  L  1121.81,   197.25  " style="stroke-width: 0.85 ;&st7;  " /><path d=" M  1087.82,   197.25  L  1087.82,   222.75  " style="stroke-width: 0.85 ;&st7;  " /><path d=" M  1222.60,   247.24  L  1222.33,   247.71  L  1222.24,   248.24  L  1222.33,   248.78  L  1222.60,   249.25  L  1223.02,   249.59  L  1223.52,   249.78  L  1224.07,   249.78  L  1224.57,   249.59  L  1224.99,   249.25  L  1225.26,   248.78  L  1225.35,   248.24  L  1225.26,   247.71  L  1224.99,   247.24  L  1224.57,   246.90  L  1224.07,   246.71  L  1223.52,   246.71  L  1223.02,   246.90  L  1222.60,   247.24  L  1223.00,   247.95  L  1223.00,   248.54  L  1223.37,   248.98  L  1223.94,   249.08  L  1224.45,   248.79  L  1224.64,   248.24  L  1224.45,   247.70  L  1223.94,   247.41  L  1223.37,   247.51  L  1223.80,   248.24  " style="stroke-width: 0.85 ;&st7;  " /><path d=" M  1155.81,   197.25  L  1155.81,   222.75  " style="stroke-width: 0.85 ;&st7;  " /><path d=" M  1189.80,   197.25  L  1189.80,   222.75  " style="stroke-width: 0.85 ;&st7;  " /><path d=" M  1096.32,   307.73  L  1130.31,   307.73  L  1130.31,   290.74  L  1096.32,   290.74  L  1096.32,   307.73  " style="stroke-width: 1.42 ;&st7;  " /><path d=" M  1096.32,   299.24  L  1079.32,   299.24  L  1079.32,   273.74  " style="stroke-width: 0.85 ;&st7;  " /><path d=" M  1130.31,   299.24  L  1147.31,   299.24  L  1147.31,   273.74  " style="stroke-width: 0.85 ;&st7;  " /><path d=" M  1338.53,   222.75  L  1338.53,   214.25  L  1342.78,   214.25  L  1342.78,   197.25  " style="stroke-width: 0.85 ;&st7;  " /><path d=" M  1170.50,   233.51  L  1167.46,   235.84  L  1170.00,   237.31  L  1170.50,   233.51  L  1169.76,   234.79  L  1168.47,   235.78  L  1169.55,   236.39  L  1169.76,   234.79  L  1169.39,   235.43  L  1168.98,   235.74  L  1169.32,   235.94  L  1169.39,   235.43  " style="stroke-width: 0.85 ;&st7;  " /><path d=" M  1173.97,   235.51  L  1170.93,   237.84  L  1173.47,   239.31  L  1173.97,   235.51  L  1173.23,   236.79  L  1171.95,   237.78  L  1173.02,   238.40  L  1173.23,   236.79  L  1172.86,   237.43  L  1172.46,   237.75  L  1172.79,   237.94  L  1172.86,   237.43  " style="stroke-width: 0.85 ;&st7;  " /><path d=" M  1172.80,   248.24  L  1164.30,   253.91  L  1164.30,   242.58  L  1172.80,   248.24  " style="stroke-width: 0.28 ;&st9;  " /><path d=" M  1198.30,   248.24  L  1189.80,   253.91  L  1189.80,   242.58  L  1198.30,   248.24  " style="stroke-width: 0.28 ;&st9;  " /><path d=" M  1199.46,   235.51  L  1196.42,   237.84  L  1198.96,   239.31  L  1199.46,   235.51  L  1198.72,   236.79  L  1197.44,   237.78  L  1198.51,   238.40  L  1198.72,   236.79  L  1198.35,   237.43  L  1197.95,   237.75  L  1198.29,   237.94  L  1198.35,   237.43  " style="stroke-width: 0.85 ;&st7;  " /><path d=" M  1196.00,   233.51  L  1192.95,   235.84  L  1195.49,   237.31  L  1196.00,   233.51  L  1195.25,   234.79  L  1193.97,   235.78  L  1195.04,   236.39  L  1195.25,   234.79  L  1194.89,   235.43  L  1194.48,   235.74  L  1194.82,   235.94  L  1194.89,   235.43  " style="stroke-width: 0.85 ;&st7;  " /><path d=" M  1121.81,   248.24  L  1130.31,   248.24  L  1131.73,   245.41  L  1134.56,   251.08  L  1137.39,   245.41  L  1140.23,   251.08  L  1143.06,   245.41  L  1145.89,   251.08  L  1147.31,   248.24  L  1155.81,   248.24  " style="stroke-width: 0.85 ;&st7;  " /><path d=" M  1223.80,   248.24  L  1155.81,   248.24  " style="stroke-width: 0.85 ;&st7;  " /><path d=" M  1121.81,   248.24  L  1121.81,   222.75  " style="stroke-width: 0.85 ;&st7;  " /><path d=" M  1495.75,   697.25  L  1495.75,   701.50  " style="stroke-width: 0.85 ;&st7;  " /><path d=" M  1487.25,   701.50  L  1504.25,   701.50  " style="stroke-width: 0.85 ;&st7;  " /><path d=" M  1491.50,   704.33  L  1500.00,   704.33  " style="stroke-width: 0.85 ;&st7;  " /><path d=" M  1492.92,   707.17  L  1498.58,   707.17  " style="stroke-width: 0.85 ;&st7;  " /><path d=" M  1494.33,   710.00  L  1497.17,   710.00  " style="stroke-width: 0.85 ;&st7;  " /><path d=" M  1470.25,   443.71  L  1521.25,   443.71  L  1521.25,   401.22  L  1470.25,   401.22  L  1470.25,   443.71  " style="stroke-width: 1.42 ;&st7;  " /><path d=" M  1385.27,   443.71  L  1436.26,   443.71  L  1436.26,   401.22  L  1385.27,   401.22  L  1385.27,   443.71  " style="stroke-width: 1.42 ;&st7;  " /><path d=" M  1491.50,   281.67  L  1495.75,   285.92  L  1500.00,   281.67  " style="stroke-width: 1.42 ;&st7;  " /><path d=" M  1500.00,   285.07  L  1495.75,   289.32  L  1491.50,   285.07  " style="stroke-width: 1.42 ;&st7;  " /><path d=" M  1410.76,   697.25  L  1410.76,   701.50  " style="stroke-width: 0.85 ;&st7;  " /><path d=" M  1402.27,   701.50  L  1419.26,   701.50  " style="stroke-width: 0.85 ;&st7;  " /><path d=" M  1406.51,   704.33  L  1415.01,   704.33  " style="stroke-width: 0.85 ;&st7;  " /><path d=" M  1407.93,   707.17  L  1413.60,   707.17  " style="stroke-width: 0.85 ;&st7;  " /><path d=" M  1409.35,   710.00  L  1412.18,   710.00  " style="stroke-width: 0.85 ;&st7;  " /><path d=" M  1007.37,    82.80  C  1007.37     80.30   1005.34     78.27   1002.83     78.27  " style="stroke-width: 1.42 ;&st7;   " /><path d=" M  1002.83,    78.27  C  1000.33     78.27    998.30     80.30    998.30     82.80  " style="stroke-width: 1.42 ;&st7;   " /><path d=" M  1002.83,    87.34  C  1005.34     87.34   1007.37     85.31   1007.37     82.80  " style="stroke-width: 1.42 ;&st7;   " /><path d=" M  1194.33,    82.80  C  1194.33     80.30   1192.30     78.27   1189.80     78.27  " style="stroke-width: 1.42 ;&st7;   " /><path d=" M  1189.80,    78.27  C  1187.30     78.27   1185.27     80.30   1185.27     82.80  " style="stroke-width: 1.42 ;&st7;   " /><path d=" M  1185.27,    82.80  C  1185.27     85.31   1187.30     87.34   1189.80     87.34  " style="stroke-width: 1.42 ;&st7;   " /><path d=" M  1189.80,    87.34  C  1192.30     87.34   1194.33     85.31   1194.33     82.80  " style="stroke-width: 1.42 ;&st7;   " /><path d=" M  1160.34,    82.80  C  1160.34     80.30   1158.31     78.27   1155.81     78.27  " style="stroke-width: 1.42 ;&st7;   " /><path d=" M  1155.81,    78.27  C  1153.30     78.27   1151.27     80.30   1151.27     82.80  " style="stroke-width: 1.42 ;&st7;   " /><path d=" M  1151.27,    82.80  C  1151.27     85.31   1153.30     87.34   1155.81     87.34  " style="stroke-width: 1.42 ;&st7;   " /><path d=" M  1155.81,    87.34  C  1158.31     87.34   1160.34     85.31   1160.34     82.80  " style="stroke-width: 1.42 ;&st7;   " /><path d=" M  1092.35,    82.80  C  1092.35     80.30   1090.32     78.27   1087.82     78.27  " style="stroke-width: 1.42 ;&st7;   " /><path d=" M  1087.82,    78.27  C  1085.32     78.27   1083.29     80.30   1083.29     82.80  " style="stroke-width: 1.42 ;&st7;   " /><path d=" M  1083.29,    82.80  C  1083.29     85.31   1085.32     87.34   1087.82     87.34  " style="stroke-width: 1.42 ;&st7;   " /><path d=" M  1087.82,    87.34  C  1090.32     87.34   1092.35     85.31   1092.35     82.80  " style="stroke-width: 1.42 ;&st7;   " /><path d=" M  1126.35,    82.80  C  1126.35     80.30   1124.32     78.27   1121.81     78.27  " style="stroke-width: 1.42 ;&st7;   " /><path d=" M  1121.81,    78.27  C  1119.31     78.27   1117.28     80.30   1117.28     82.80  " style="stroke-width: 1.42 ;&st7;   " /><path d=" M  1117.28,    82.80  C  1117.28     85.31   1119.31     87.34   1121.81     87.34  " style="stroke-width: 1.42 ;&st7;   " /><path d=" M  1121.81,    87.34  C  1124.32     87.34   1126.35     85.31   1126.35     82.80  " style="stroke-width: 1.42 ;&st7;   " /><path d=" M  1304.82,    82.80  C  1304.82     80.30   1302.79     78.27   1300.28     78.27  " style="stroke-width: 1.42 ;&st7;   " /><path d=" M  1300.28,    78.27  C  1297.78     78.27   1295.75     80.30   1295.75     82.80  " style="stroke-width: 1.42 ;&st7;   " /><path d=" M  1295.75,    82.80  C  1295.75     85.31   1297.78     87.34   1300.28     87.34  " style="stroke-width: 1.42 ;&st7;   " /><path d=" M  1300.28,    87.34  C  1302.79     87.34   1304.82     85.31   1304.82     82.80  " style="stroke-width: 1.42 ;&st7;   " /><path d=" M  1347.31,    82.80  C  1347.31     80.30   1345.28     78.27   1342.78     78.27  " style="stroke-width: 1.42 ;&st7;   " /><path d=" M  1342.78,    78.27  C  1340.27     78.27   1338.24     80.30   1338.24     82.80  " style="stroke-width: 1.42 ;&st7;   " /><path d=" M  1338.24,    82.80  C  1338.24     85.31   1340.27     87.34   1342.78     87.34  " style="stroke-width: 1.42 ;&st7;   " /><path d=" M  1342.78,    87.34  C  1345.28     87.34   1347.31     85.31   1347.31     82.80  " style="stroke-width: 1.42 ;&st7;   " /><path d=" M  1365.44,   273.74  C  1365.44    272.96   1364.80    272.32   1364.02    272.32  " style="stroke-width: 0.85 ;&st7;   " /><path d=" M  1364.02,   272.32  C  1363.24    272.32   1362.61    272.96   1362.61    273.74  " style="stroke-width: 0.85 ;&st7;   " /><path d=" M  1362.61,   273.74  C  1362.61    274.52   1363.24    275.16   1364.02    275.16  " style="stroke-width: 0.85 ;&st7;   " /><path d=" M  1364.02,   275.16  C  1364.80    275.16   1365.44    274.52   1365.44    273.74  " style="stroke-width: 0.85 ;&st7;   " /><path d=" M  1365.44,   265.24  C  1365.44    264.46   1364.80    263.82   1364.02    263.82  " style="stroke-width: 0.85 ;&st7;   " /><path d=" M  1364.02,   263.82  C  1363.24    263.82   1362.61    264.46   1362.61    265.24  " style="stroke-width: 0.85 ;&st7;   " /><path d=" M  1362.61,   265.24  C  1362.61    266.02   1363.24    266.66   1364.02    266.66  " style="stroke-width: 0.85 ;&st7;   " /><path d=" M  1364.02,   266.66  C  1364.80    266.66   1365.44    266.02   1365.44    265.24  " style="stroke-width: 0.85 ;&st7;   " /><path d=" M  1314.45,   265.24  C  1314.45    264.46   1313.81    263.82   1313.03    263.82  " style="stroke-width: 0.85 ;&st7;   " /><path d=" M  1313.03,   263.82  C  1312.25    263.82   1311.61    264.46   1311.61    265.24  " style="stroke-width: 0.85 ;&st7;   " /><path d=" M  1311.61,   265.24  C  1311.61    266.02   1312.25    266.66   1313.03    266.66  " style="stroke-width: 0.85 ;&st7;   " /><path d=" M  1313.03,   266.66  C  1313.81    266.66   1314.45    266.02   1314.45    265.24  " style="stroke-width: 0.85 ;&st7;   " /><path d=" M  1339.94,   273.74  C  1339.94    272.96   1339.31    272.32   1338.53    272.32  " style="stroke-width: 0.85 ;&st7;   " /><path d=" M  1338.53,   272.32  C  1337.74    272.32   1337.11    272.96   1337.11    273.74  " style="stroke-width: 0.85 ;&st7;   " /><path d=" M  1337.11,   273.74  C  1337.11    274.52   1337.74    275.16   1338.53    275.16  " style="stroke-width: 0.85 ;&st7;   " /><path d=" M  1338.53,   275.16  C  1339.31    275.16   1339.94    274.52   1339.94    273.74  " style="stroke-width: 0.85 ;&st7;   " /><path d=" M  1110.84,   301.77  C  1112.23    300.40   1112.26    298.15   1110.89    296.76  " style="stroke-width: 0.85 ;&st7;   " /><path d=" M  1110.89,   296.76  C  1109.52    295.36   1107.27    295.34   1105.88    296.71  " style="stroke-width: 0.85 ;&st7;   " /><path d=" M  1105.88,   296.71  C  1105.17    297.40   1104.81    298.24   1104.81    299.24  " style="stroke-width: 0.85 ;&st7;   " /><path d=" M  1115.79,   301.77  C  1117.19    300.40   1117.21    298.15   1115.84    296.76  " style="stroke-width: 0.85 ;&st7;   " /><path d=" M  1115.84,   296.76  C  1114.47    295.36   1112.23    295.34   1110.84    296.71  " style="stroke-width: 0.85 ;&st7;   " /><path d=" M  1110.84,   296.71  C  1109.44    298.07   1109.42    300.32   1110.78    301.71  " style="stroke-width: 0.85 ;&st7;   " /><path d=" M  1110.78,   301.71  C  1110.80    301.73   1110.82    301.75   1110.84    301.77  " style="stroke-width: 0.85 ;&st7;   " /><path d=" M  1121.81,   299.24  C  1121.81    297.28   1120.23    295.69   1118.27    295.69  " style="stroke-width: 0.85 ;&st7;   " /><path d=" M  1118.27,   295.69  C  1116.32    295.69   1114.73    297.28   1114.73    299.24  " style="stroke-width: 0.85 ;&st7;   " /><path d=" M  1114.73,   299.24  C  1114.73    300.23   1115.09    301.07   1115.79    301.76  " style="stroke-width: 0.85 ;&st7;   " /><path d=" M  1228.33,    82.80  C  1228.33     80.30   1226.30     78.27   1223.80     78.27  " style="stroke-width: 1.42 ;&st7;   " /><path d=" M  1223.80,    78.27  C  1221.29     78.27   1219.26     80.30   1219.26     82.80  " style="stroke-width: 1.42 ;&st7;   " /><path d=" M  1219.26,    82.80  C  1219.26     85.31   1221.29     87.34   1223.80     87.34  " style="stroke-width: 1.42 ;&st7;   " /><path d=" M  1223.80,    87.34  C  1226.30     87.34   1228.33     85.31   1228.33     82.80  " style="stroke-width: 1.42 ;&st7;   " /><path d=" M  1415.30,    82.80  C  1415.30     80.30   1413.27     78.27   1410.76     78.27  " style="stroke-width: 1.42 ;&st7;   " /><path d=" M  1410.76,    78.27  C  1408.26     78.27   1406.23     80.30   1406.23     82.80  " style="stroke-width: 1.42 ;&st7;   " /><path d=" M  1406.23,    82.80  C  1406.23     85.31   1408.26     87.34   1410.76     87.34  " style="stroke-width: 1.42 ;&st7;   " /><path d=" M  1410.76,    87.34  C  1413.27     87.34   1415.30     85.31   1415.30     82.80  " style="stroke-width: 1.42 ;&st7;   " /><path d=" M  1495.75,    78.27  C  1493.25     78.27   1491.22     80.30   1491.22     82.80  " style="stroke-width: 1.42 ;&st7;   " /><path d=" M  1491.22,    82.80  C  1491.22     85.31   1493.25     87.34   1495.75     87.34  " style="stroke-width: 1.42 ;&st7;   " /><path d=" M  1495.75,    87.34  C  1498.25     87.34   1500.28     85.31   1500.28     82.80  " style="stroke-width: 1.42 ;&st7;   " /><path d=" M  1497.17,   433.80  C  1497.17    433.01   1496.53    432.38   1495.75    432.38  " style="stroke-width: 0.85 ;&st7;   " /><path d=" M  1495.75,   432.38  C  1494.97    432.38   1494.33    433.01   1494.33    433.80  " style="stroke-width: 0.85 ;&st7;   " /><path d=" M  1494.33,   433.80  C  1494.33    434.58   1494.97    435.21   1495.75    435.21  " style="stroke-width: 0.85 ;&st7;   " /><path d=" M  1495.75,   435.21  C  1496.53    435.21   1497.17    434.58   1497.17    433.80  " style="stroke-width: 0.85 ;&st7;   " /><path d=" M  1497.17,   411.13  C  1497.17    410.35   1496.53    409.72   1495.75    409.72  " style="stroke-width: 0.85 ;&st7;   " /><path d=" M  1495.75,   409.72  C  1494.97    409.72   1494.33    410.35   1494.33    411.13  " style="stroke-width: 0.85 ;&st7;   " /><path d=" M  1494.33,   411.13  C  1494.33    411.92   1494.97    412.55   1495.75    412.55  " style="stroke-width: 0.85 ;&st7;   " /><path d=" M  1495.75,   412.55  C  1496.53    412.55   1497.17    411.92   1497.17    411.13  " style="stroke-width: 0.85 ;&st7;   " /><text ewd:textID="2" style="&st18;" transform="matrix(&st16;  1135.4  445.68 )">* 2 :TMMR Made</text><text style="&st18;" transform="matrix(&st17;  1010.47  244.46 )">(*4)</text><text ewd:textID="33" style="&st18;" transform="matrix(&st16;  1092.91  32.08 )">Certification ECU</text><text style="&st18;" transform="matrix(&st16;  1092.9  24.98 )">A43(A),I78(B),O1(C)</text><text style="&st18;" transform="matrix(&st16;  1000.41  84.77 )">C</text><text ewd:textID="1" style="&st18;" transform="matrix(&st16;  1135.4  437.18 )">* 1 :TMC Made</text><text ewd:textID="4" style="&st18;" transform="matrix(&st16;  1135.4  454.18 )">* 4 :w/ ID Code Box</text><text ewd:textID="5" style="&st18;" transform="matrix(&st16;  1135.4  462.68 )">* 5 :w/o ID Code Box</text><text style="&st18;" transform="matrix(&st17;  1118.12  139.26 )">P</text><text style="&st18;" transform="matrix(&st16;  1114.58  74.58 )">SWIL</text><text style="&st18;" transform="matrix(&st17;  1084.12  141.55 )">LG</text><text style="&st18;" transform="matrix(&st16;  1081.79  74.58 )">VC5</text><text ewd:textID="41" style="&st18;" transform="matrix(&st16;  1058.92  339.45 )">Engine Switch</text><text style="&st18;" transform="matrix(&st16;  1058.91  332.34 )">I58</text><text style="&st18;" transform="matrix(&st17;  1152.11  141.58 )">GR</text><text style="&st18;" transform="matrix(&st16;  1147.45  74.58 )">TXCT</text><text style="&st18;" transform="matrix(&st17;  1186.11  141.0 )">SB</text><text style="&st18;" transform="matrix(&st16;  1181.02  74.58 )">CODE</text><text style="&st18;" transform="matrix(&st16;  1181.11  84.77 )">7</text><text style="&st18;" transform="matrix(&st16;  1187.61  84.77 )">B</text><text style="&st18;" transform="matrix(&st16;  1147.11  84.77 )">9</text><text style="&st18;" transform="matrix(&st16;  1153.62  84.77 )">B</text><text style="&st18;" transform="matrix(&st16;  1079.12  84.77 )">1</text><text style="&st18;" transform="matrix(&st16;  1085.63  84.77 )">B</text><text style="&st18;" transform="matrix(&st16;  1110.02  84.77 )">16</text><text style="&st18;" transform="matrix(&st16;  1119.62  84.77 )">B</text><text style="&st18;" transform="matrix(&st16;  1115.63  193.56 )">9</text><text style="&st18;" transform="matrix(&st16;  1078.53  193.56 )">10</text><text style="&st18;" transform="matrix(&st16;  1149.62  193.56 )">7</text><text style="&st18;" transform="matrix(&st16;  1183.62  193.56 )">8</text><text style="&st18;" transform="matrix(&st17;  1296.59  139.57 )">V</text><text style="&st18;" transform="matrix(&st16;  1292.67  74.58 )">SSW2</text><text style="&st18;" transform="matrix(&st16;  1288.49  84.77 )">30</text><text style="&st18;" transform="matrix(&st16;  1298.09  84.77 )">B</text><text style="&st18;" transform="matrix(&st17;  1339.08  139.37 )">R</text><text style="&st18;" transform="matrix(&st16;  1335.16  74.58 )">SSW1</text><text style="&st18;" transform="matrix(&st16;  1330.98  84.77 )">28</text><text style="&st18;" transform="matrix(&st16;  1340.59  84.77 )">B</text><text ewd:textID="43" style="&st18;" transform="matrix(&st16;  1272.85  250.21 )">Free</text><text ewd:textID="51" style="&st18;" transform="matrix(&st16;  1266.88  267.21 )">Full <tspan dy="6.0" x="0 ">Traveling</tspan></text><text style="&st18;" transform="matrix(&st16;  1355.32  233.21 )">AGND</text><text style="&st18;" transform="matrix(&st16;  1308.13  233.21 )">SS2</text><text style="&st18;" transform="matrix(&st16;  1333.62  233.21 )">SS1</text><text style="&st18;" transform="matrix(&st16;  1336.59  193.56 )">5</text><text style="&st18;" transform="matrix(&st16;  1294.1  193.56 )">1</text><text style="&st18;" transform="matrix(&st16;  1302.87  205.45 )">SS2</text><text style="&st18;" transform="matrix(&st16;  1345.36  205.45 )">SS1</text><text style="&st18;" transform="matrix(&st16;  1124.4  205.45 )">SWIL</text><text style="&st18;" transform="matrix(&st16;  1192.38  205.45 )">CODE</text><text style="&st18;" transform="matrix(&st16;  1158.39  205.45 )">TXCT</text><text style="&st18;" transform="matrix(&st16;  1090.4  205.45 )">VC5</text><text ewd:textID="28" style="&st18;" transform="matrix(&st16;  1096.28  315.37 )">Antenna Coil</text><text style="&st18;" transform="matrix(&st16;  1226.38  205.45 )">AGND</text><text style="&st18;" transform="matrix(&st16;  1217.61  193.56 )">6</text><text style="&st18;" transform="matrix(&st16;  1221.61  84.77 )">B</text><text style="&st18;" transform="matrix(&st16;  1212.0  84.77 )">24</text><text style="&st18;" transform="matrix(&st16;  1215.09  74.58 )">AGND</text><text style="&st18;" transform="matrix(&st17;  1220.1  139.72 )">G</text><text style="&st18;" transform="matrix(&st16;  1483.12  296.96 )">7</text><text style="&st18;" transform="matrix(&st16;  1404.12  440.01 )">GND</text><text style="&st18;" transform="matrix(&st17;  1407.07  483.66 )">W-B</text><text ewd:textID="24" style="&st18;" transform="matrix(&st17;  1450.98  446.62 )">A/C Control Assembly</text><text style="&st18;" transform="matrix(&st17;  1443.87  446.61 )">I56</text><text style="&st18;" transform="matrix(&st16;  1404.58  451.9 )">6</text><text style="&st18;" transform="matrix(&st17;  1407.07  534.65 )">W-B</text><text ewd:textID="80" style="&st18;" transform="matrix(&st16;  1399.19  421.61 )">Security <tspan dy="6.0" x="0 ">Indicator</tspan></text><text style="&st18;" transform="matrix(&st16;  1498.33  409.41 )">UL</text><text style="&st18;" transform="matrix(&st16;  1498.33  440.02 )">E</text><text style="&st18;" transform="matrix(&st16;  1487.75  74.58 )">TSW5</text><text style="&st18;" transform="matrix(&st17;  1492.05  352.19 )">G</text><text style="&st18;" transform="matrix(&st17;  1492.05  241.71 )">G</text><text style="&st18;" transform="matrix(&st17;  1492.05  483.66 )">W-B</text><text style="&st18;" transform="matrix(&st16;  1405.44  74.58 )">IND</text><text style="&st18;" transform="matrix(&st16;  1406.95  408.85 )">LP</text><text style="&st18;" transform="matrix(&st17;  1407.07  241.32 )">L</text><text style="&st18;" transform="matrix(&st16;  1398.97  84.77 )">18</text><text style="&st18;" transform="matrix(&st16;  1408.58  84.77 )">B</text><text style="&st18;" transform="matrix(&st16;  1483.95  84.77 )">27</text><text style="&st18;" transform="matrix(&st16;  1493.33  84.77 )">C</text><text style="&st18;" transform="matrix(&st16;  1404.58  397.53 )">1</text><text style="&st18;" transform="matrix(&st16;  1489.57  397.53 )">3</text><text style="&st18;" transform="matrix(&st16;  1489.57  451.9 )">2</text><text style="&st18;" transform="matrix(&st17;  1492.05  534.65 )">W-B</text><text ewd:textID="20" style="&st18;" transform="matrix(&st16;  1135.4  471.18 )">*30 :Before Oct. 2015 Production</text><text ewd:textID="21" style="&st18;" transform="matrix(&st16;  1135.4  479.67 )">*31 :From Oct. 2015 Production</text></svg>