﻿<?xml version="1.0" encoding="utf-8"?>
<!DOCTYPE svg PUBLIC "-//W3C//DTD SVG 1.0//EN" "http://www.w3.org/TR/2001/REC-SVG-20010904/DTD/svg10.dtd"[
	<!ENTITY ns_flows "http://ns.adobe.com/Flows/1.0/">
	<!ENTITY ns_svg "http://www.w3.org/2000/svg">
	<!ENTITY ns_xlink "http://www.w3.org/1999/xlink">
	<!ENTITY st0 "font-size:7px;font-family:'MS-PGothic';adobe-font-script:japanese;">
	<!ENTITY st1 "font-size:6px;font-family:'ArialMT';">
	<!-- White fill  -->
	<!ENTITY st2 "fill:#FFFFFF;stroke:#000000; stroke-width:1.41;stroke-linecap:round;stroke-linejoin:round;">
	<!-- Yellow fill  -->
	<!ENTITY st3 "fill:#FFFFCC;stroke:#FFFFCC; stroke-width:0.1;stroke-linecap:round;stroke-linejoin:round;">
	<!-- Gray fill  -->
	<!ENTITY st4 "fill:#CCCCCC;stroke:#CCCCCC; stroke-width:0.1;stroke-linecap:round;stroke-linejoin:round;">
	<!-- Light-blue fill -->
	<!ENTITY st5 "fill:#CCECF4;stroke:#000000; stroke-width:1.133;stroke-linecap:round;stroke-linejoin:round;">
	<!ENTITY st6 "fill:none;stroke-linecap:butt; stroke-linejoin:round;">
	<!ENTITY st7 "fill:none;stroke:#000000;stroke-linecap:round;stroke-linejoin:round;">
	<!ENTITY st8 "enable-background:new    ;">
	<!-- Black fill -->
	<!ENTITY st9 "fill:#000000;stroke:#000000; stroke-linecap:round;stroke-linejoin:round;">
	<!-- SRS note   -->
	<!ENTITY st10 "font-size:9px;font-family:'ArialMT';">
	<!ENTITY st11 "font-size:9px;font-family:'Svg Symbol';">
	<!ENTITY st12 "font-size:6px;font-family:'Svg Symbol';">
	<!ENTITY st13 "fill:none;stroke:#ff0000;stroke-linecap:round;stroke-linejoin:round;">
	<!-- Yellow fill  -->
	<!ENTITY st14 "fill:#FFFF00;stroke:#FFFF00; stroke-width:0.1;stroke-linecap:round;stroke-linejoin:round;">
	<!ENTITY st15 "font-size:6px;font-family:'MS-PGothic';adobe-font-script:japanese;">
	<!ENTITY st16 "1.00 0.00 0.00 1.00">
	<!ENTITY st17 "0.00 -1.00 1.00 0.00">
	<!ENTITY st18 "font-size:6px;font-family:'Arial';">
	<!ENTITY st19 "font-size:9px;font-family:'Arial';">
	<!ENTITY st20 "font-size:6px;font-family:'MS-PGothic','MS PGothic';adobe-font-script:japanese;">
	<!ENTITY st21 "font-size:7px;font-family:'MS-PGothic','MS PGothic';adobe-font-script:japanese;">
	<!ATTLIST svg
		xmlns:ewd CDATA #FIXED "http://shcl.co.jp/ewd"
		xmlns:a CDATA #FIXED "http://ns.adobe.com/AdobeSVGViewerExtensions/3.0/"
		ewd:ver CDATA #IMPLIED
	>
	<!ATTLIST a
		ewd:lineID CDATA #IMPLIED
		ewd:groupID CDATA #IMPLIED
		ewd:figtype CDATA #IMPLIED
		ewd:code CDATA #IMPLIED
		ewd:figID CDATA #IMPLIED
		ewd:pinNo CDATA #IMPLIED
		ewd:comment CDATA #IMPLIED >
	<!ATTLIST g
		ewd:lineID CDATA #IMPLIED
		ewd:groupID CDATA #IMPLIED
		ewd:figtype CDATA #IMPLIED
		ewd:code CDATA #IMPLIED
		ewd:figID CDATA #IMPLIED
		ewd:pinNo CDATA #IMPLIED
		ewd:comment CDATA #IMPLIED >
	<!ATTLIST text
		ewd:textID CDATA #IMPLIED >
	<!ATTLIST title
		ewd:textID CDATA #IMPLIED >
]>
<!-- Generator: Shintec Hozumi YS   -->
<svg onload="call_execInitLoadProc_svg('system')" style="overflow:visible;  enable-background:new 0 0 10188.381 710.000" viewBox="0 0 10188.381 710.000" height="710.000" width="10188.381" xml:space="preserve" ewd:ver="L2.1.2.9" xmlns="&ns_svg;" xmlns:a="http://ns.adobe.com/AdobeSVGViewerExtensions/3.0/" xmlns:ewd="http://shcl.co.jp/ewd" xmlns:xlink="&ns_xlink;">
<path d=" M  7555.24,   231.25  L  7555.24,   227.00  " style="stroke-width: 0.85 ;&st7;  " /><path d=" M  7555.24,   197.25  L  7555.24,   201.50  " style="stroke-width: 0.85 ;&st7;  " /><path d=" M  7529.74,   197.25  L  7529.74,   205.75  " style="stroke-width: 0.85 ;&st7;  " /><path d=" M  7529.74,   222.75  L  7529.74,   231.25  " style="stroke-width: 0.85 ;&st7;  " /><path d=" M  7648.72,   231.25  L  7648.72,   227.00  " style="stroke-width: 0.85 ;&st7;  " /><path d=" M  7648.72,   197.25  L  7648.72,   201.50  " style="stroke-width: 0.85 ;&st7;  " /><path d=" M  7623.23,   197.25  L  7623.23,   205.75  " style="stroke-width: 0.85 ;&st7;  " /><path d=" M  7623.23,   222.75  L  7623.23,   231.25  " style="stroke-width: 0.85 ;&st7;  " /><path d=" M  7699.71,   222.75  L  7699.71,   231.25  " style="stroke-width: 0.85 ;&st7;  " /><path d=" M  7844.19,   180.26  L  7844.19,   188.75  " style="stroke-width: 0.85 ;&st7;  " /><path d=" M  7844.19,   154.76  L  7844.19,   163.26  " style="stroke-width: 0.85 ;&st7;  " /><path d=" M  7818.69,   154.76  L  7818.69,   159.01  " style="stroke-width: 0.85 ;&st7;  " /><path d=" M  7810.20,   171.76  L  7813.03,   171.76  " style="stroke-width: 0.85 ;&st7;  " /><path d=" M  7818.69,   184.50  L  7818.69,   188.75  " style="stroke-width: 0.85 ;&st7;  " /><path d=" M  7818.69,   161.84  L  7813.03,   184.50  " style="stroke-width: 1.42 ;&st7;  " /><path d=" M  7929.18,   180.26  L  7929.18,   188.75  " style="stroke-width: 0.85 ;&st7;  " /><path d=" M  7929.18,   154.76  L  7929.18,   163.26  " style="stroke-width: 0.85 ;&st7;  " /><path d=" M  7903.68,   154.76  L  7903.68,   159.01  " style="stroke-width: 0.85 ;&st7;  " /><path d=" M  7895.18,   171.76  L  7898.01,   171.76  " style="stroke-width: 0.85 ;&st7;  " /><path d=" M  7903.68,   184.50  L  7903.68,   188.75  " style="stroke-width: 0.85 ;&st7;  " /><path d=" M  7903.68,   161.84  L  7898.01,   184.50  " style="stroke-width: 1.42 ;&st7;  " /><path d=" M  7997.16,   154.76  L  7997.16,   159.01  " style="stroke-width: 0.85 ;&st7;  " /><path d=" M  7988.67,   171.76  L  7991.50,   171.76  " style="stroke-width: 0.85 ;&st7;  " /><path d=" M  7997.16,   184.50  L  7997.16,   188.75  " style="stroke-width: 0.85 ;&st7;  " /><path d=" M  7997.16,   161.84  L  7991.50,   184.50  " style="stroke-width: 1.42 ;&st7;  " /><path d=" M  7648.72,   204.33  L  7654.39,   227.00  " style="stroke-width: 1.42 ;&st7;  " /><path d=" M  7555.24,   204.33  L  7560.90,   227.00  " style="stroke-width: 1.42 ;&st7;  " /><path d=" M  7563.73,   197.25  L  7521.24,   197.25  L  7521.24,   231.25  L  7563.73,   231.25  L  7563.73,   197.25  " style="stroke-width: 1.42 ;&st7;  " /><path d=" M  7657.22,   197.25  L  7614.72,   197.25  L  7614.72,   231.25  L  7657.22,   231.25  L  7657.22,   197.25  " style="stroke-width: 1.42 ;&st7;  " /><path d=" M  7555.23,   231.25  L  7555.23,   299.24  " style="stroke-width: 0.85 ;&st7;  " /><path d=" M  7648.72,   231.25  L  7648.72,   299.24  " style="stroke-width: 0.85 ;&st7;  " /><path d=" M  7554.04,   179.25  L  7553.77,   179.72  L  7553.68,   180.26  L  7553.77,   180.79  L  7554.04,   181.26  L  7554.46,   181.60  L  7554.97,   181.79  L  7555.50,   181.79  L  7556.01,   181.60  L  7556.43,   181.26  L  7556.70,   180.79  L  7556.79,   180.26  L  7556.70,   179.72  L  7556.43,   179.25  L  7556.01,   178.91  L  7555.50,   178.72  L  7554.97,   178.72  L  7554.46,   178.91  L  7554.04,   179.25  L  7554.44,   179.96  L  7554.44,   180.55  L  7554.81,   180.99  L  7555.38,   181.09  L  7555.89,   180.80  L  7556.08,   180.26  L  7555.89,   179.71  L  7555.38,   179.42  L  7554.81,   179.52  L  7555.23,   180.26  " style="stroke-width: 0.85 ;&st7;  " /><path d=" M  7555.23,   180.26  L  7555.23,   197.25  " style="stroke-width: 0.85 ;&st7;  " /><path d=" M  7504.24,   265.24  L  7504.24,   222.75  L  7501.41,   221.33  L  7507.08,   218.50  L  7501.41,   215.67  L  7507.08,   212.83  L  7501.41,   210.00  L  7507.08,   207.17  L  7504.24,   205.75  L  7504.24,   163.26  " style="stroke-width: 0.85 ;&st7;  " /><path d=" M  7596.53,   264.24  L  7596.26,   264.71  L  7596.17,   265.24  L  7596.26,   265.77  L  7596.53,   266.24  L  7596.95,   266.59  L  7597.46,   266.78  L  7598.00,   266.78  L  7598.51,   266.59  L  7598.92,   266.24  L  7599.19,   265.77  L  7599.29,   265.24  L  7599.19,   264.71  L  7598.92,   264.24  L  7598.51,   263.89  L  7598.00,   263.71  L  7597.46,   263.71  L  7596.95,   263.89  L  7596.53,   264.24  L  7596.93,   264.95  L  7596.93,   265.53  L  7597.30,   265.98  L  7597.87,   266.08  L  7598.38,   265.79  L  7598.58,   265.24  L  7598.38,   264.69  L  7597.87,   264.41  L  7597.30,   264.50  L  7597.73,   265.24  " style="stroke-width: 0.85 ;&st7;  " /><path d=" M  7597.73,   265.24  L  7597.73,   222.75  L  7594.89,   221.33  L  7600.56,   218.50  L  7594.89,   215.67  L  7600.56,   212.83  L  7594.89,   210.00  L  7600.56,   207.17  L  7597.73,   205.75  L  7597.73,   163.26  " style="stroke-width: 0.85 ;&st7;  " /><path d=" M  7503.05,   264.24  L  7502.78,   264.71  L  7502.68,   265.24  L  7502.78,   265.77  L  7503.05,   266.24  L  7503.46,   266.59  L  7503.97,   266.78  L  7504.51,   266.78  L  7505.02,   266.59  L  7505.44,   266.24  L  7505.71,   265.77  L  7505.80,   265.24  L  7505.71,   264.71  L  7505.44,   264.24  L  7505.02,   263.89  L  7504.51,   263.71  L  7503.97,   263.71  L  7503.46,   263.89  L  7503.05,   264.24  L  7503.44,   264.95  L  7503.44,   265.53  L  7503.82,   265.98  L  7504.39,   266.08  L  7504.89,   265.79  L  7505.09,   265.24  L  7504.89,   264.69  L  7504.39,   264.41  L  7503.82,   264.50  L  7504.24,   265.24  " style="stroke-width: 0.85 ;&st7;  " /><path d=" M  7596.53,   162.26  L  7596.26,   162.73  L  7596.17,   163.26  L  7596.26,   163.79  L  7596.53,   164.26  L  7596.95,   164.61  L  7597.46,   164.79  L  7598.00,   164.79  L  7598.51,   164.61  L  7598.92,   164.26  L  7599.19,   163.79  L  7599.29,   163.26  L  7599.19,   162.73  L  7598.92,   162.26  L  7598.51,   161.91  L  7598.00,   161.72  L  7597.46,   161.72  L  7596.95,   161.91  L  7596.53,   162.26  L  7596.93,   162.97  L  7596.93,   163.55  L  7597.30,   163.99  L  7597.87,   164.09  L  7598.38,   163.80  L  7598.58,   163.26  L  7598.38,   162.71  L  7597.87,   162.42  L  7597.30,   162.52  L  7597.73,   163.26  " style="stroke-width: 0.85 ;&st7;  " /><path d=" M  7503.05,   162.26  L  7502.78,   162.73  L  7502.68,   163.26  L  7502.78,   163.79  L  7503.05,   164.26  L  7503.46,   164.61  L  7503.97,   164.79  L  7504.51,   164.79  L  7505.02,   164.61  L  7505.44,   164.26  L  7505.71,   163.79  L  7505.80,   163.26  L  7505.71,   162.73  L  7505.44,   162.26  L  7505.02,   161.91  L  7504.51,   161.72  L  7503.97,   161.72  L  7503.46,   161.91  L  7503.05,   162.26  L  7503.44,   162.97  L  7503.44,   163.55  L  7503.82,   163.99  L  7504.39,   164.09  L  7504.89,   163.80  L  7505.09,   163.26  L  7504.89,   162.71  L  7504.39,   162.42  L  7503.82,   162.52  L  7504.24,   163.26  " style="stroke-width: 0.85 ;&st7;  " /><path d=" M  7528.55,   162.26  L  7528.27,   162.73  L  7528.18,   163.26  L  7528.27,   163.79  L  7528.55,   164.26  L  7528.96,   164.61  L  7529.47,   164.79  L  7530.01,   164.79  L  7530.52,   164.61  L  7530.93,   164.26  L  7531.20,   163.79  L  7531.30,   163.26  L  7531.20,   162.73  L  7530.93,   162.26  L  7530.52,   161.91  L  7530.01,   161.72  L  7529.47,   161.72  L  7528.96,   161.91  L  7528.55,   162.26  L  7528.94,   162.97  L  7528.94,   163.55  L  7529.31,   163.99  L  7529.89,   164.09  L  7530.39,   163.80  L  7530.59,   163.26  L  7530.39,   162.71  L  7529.89,   162.42  L  7529.31,   162.52  L  7529.74,   163.26  " style="stroke-width: 0.85 ;&st7;  " /><path d=" M  7529.74,   163.26  L  7529.74,   197.25  " style="stroke-width: 0.85 ;&st7;  " /><path d=" M  7528.55,   264.24  L  7528.27,   264.71  L  7528.18,   265.24  L  7528.27,   265.77  L  7528.55,   266.24  L  7528.96,   266.59  L  7529.47,   266.78  L  7530.01,   266.78  L  7530.52,   266.59  L  7530.93,   266.24  L  7531.20,   265.77  L  7531.30,   265.24  L  7531.20,   264.71  L  7530.93,   264.24  L  7530.52,   263.89  L  7530.01,   263.71  L  7529.47,   263.71  L  7528.96,   263.89  L  7528.55,   264.24  L  7528.94,   264.95  L  7528.94,   265.53  L  7529.31,   265.98  L  7529.89,   266.08  L  7530.39,   265.79  L  7530.59,   265.24  L  7530.39,   264.69  L  7529.89,   264.41  L  7529.31,   264.50  L  7529.74,   265.24  " style="stroke-width: 0.85 ;&st7;  " /><path d=" M  7529.74,   231.25  L  7529.74,   265.24  " style="stroke-width: 0.85 ;&st7;  " /><path d=" M  7970.47,   170.75  L  7970.20,   171.22  L  7970.11,   171.76  L  7970.20,   172.29  L  7970.47,   172.76  L  7970.89,   173.11  L  7971.40,   173.29  L  7971.93,   173.29  L  7972.44,   173.11  L  7972.86,   172.76  L  7973.13,   172.29  L  7973.22,   171.76  L  7973.13,   171.22  L  7972.86,   170.75  L  7972.44,   170.41  L  7971.93,   170.22  L  7971.40,   170.22  L  7970.89,   170.41  L  7970.47,   170.75  L  7970.87,   171.47  L  7970.87,   172.05  L  7971.24,   172.49  L  7971.81,   172.59  L  7972.32,   172.30  L  7972.51,   171.76  L  7972.32,   171.21  L  7971.81,   170.92  L  7971.24,   171.02  L  7971.66,   171.76  " style="stroke-width: 0.85 ;&st7;  " /><path d=" M  7988.66,   171.76  L  7971.66,   171.76  " style="stroke-width: 0.85 ;&st7;  " /><path d=" M  7895.18,   171.76  L  7878.18,   171.76  L  7878.18,   214.25  " style="stroke-width: 0.85 ;&st7;  " /><path d=" M  8473.08,   282.24  L  8473.08,   103.77  L  7818.69,   103.77  L  7818.69,   154.76  " style="stroke-width: 0.85 ;&st7;  " /><path d=" M  8439.09,   282.24  L  8439.09,   120.77  L  7903.68,   120.77  L  7903.68,   154.76  " style="stroke-width: 0.85 ;&st7;  " /><path d=" M  8124.64,   282.24  L  8124.64,   137.76  L  7997.16,   137.76  L  7997.16,   154.76  " style="stroke-width: 0.85 ;&st7;  " /><path d=" M  7699.71,   231.25  L  7699.71,   248.24  L  7750.70,   248.24  " style="stroke-width: 0.85 ;&st7;  " /><path d=" M  7970.47,   213.25  L  7970.20,   213.72  L  7970.11,   214.25  L  7970.20,   214.78  L  7970.47,   215.25  L  7970.89,   215.60  L  7971.40,   215.79  L  7971.93,   215.79  L  7972.44,   215.60  L  7972.86,   215.25  L  7973.13,   214.78  L  7973.22,   214.25  L  7973.13,   213.72  L  7972.86,   213.25  L  7972.44,   212.90  L  7971.93,   212.71  L  7971.40,   212.71  L  7970.89,   212.90  L  7970.47,   213.25  L  7970.87,   213.96  L  7970.87,   214.54  L  7971.24,   214.99  L  7971.81,   215.09  L  7972.32,   214.80  L  7972.51,   214.25  L  7972.32,   213.70  L  7971.81,   213.41  L  7971.24,   213.51  L  7971.66,   214.25  " style="stroke-width: 0.85 ;&st7;  " /><path d=" M  7810.19,   171.76  L  7793.19,   171.76  L  7793.19,   214.25  L  7971.66,   214.25  " style="stroke-width: 0.85 ;&st7;  " /><path d=" M  7876.99,   213.25  L  7876.72,   213.72  L  7876.62,   214.25  L  7876.72,   214.78  L  7876.99,   215.25  L  7877.40,   215.60  L  7877.91,   215.79  L  7878.45,   215.79  L  7878.96,   215.60  L  7879.37,   215.25  L  7879.64,   214.78  L  7879.74,   214.25  L  7879.64,   213.72  L  7879.37,   213.25  L  7878.96,   212.90  L  7878.45,   212.71  L  7877.91,   212.71  L  7877.40,   212.90  L  7876.99,   213.25  L  7877.38,   213.96  L  7877.38,   214.54  L  7877.76,   214.99  L  7878.33,   215.09  L  7878.83,   214.80  L  7879.03,   214.25  L  7878.83,   213.70  L  7878.33,   213.41  L  7877.76,   213.51  L  7878.18,   214.25  " style="stroke-width: 0.85 ;&st7;  " /><path d=" M  7927.98,   247.24  L  7927.71,   247.71  L  7927.61,   248.24  L  7927.71,   248.78  L  7927.98,   249.25  L  7928.39,   249.59  L  7928.90,   249.78  L  7929.44,   249.78  L  7929.95,   249.59  L  7930.36,   249.25  L  7930.64,   248.78  L  7930.73,   248.24  L  7930.64,   247.71  L  7930.36,   247.24  L  7929.95,   246.90  L  7929.44,   246.71  L  7928.90,   246.71  L  7928.39,   246.90  L  7927.98,   247.24  L  7928.37,   247.95  L  7928.37,   248.54  L  7928.75,   248.98  L  7929.32,   249.08  L  7929.82,   248.79  L  7930.02,   248.24  L  7929.82,   247.70  L  7929.32,   247.41  L  7928.75,   247.51  L  7929.17,   248.24  " style="stroke-width: 0.85 ;&st7;  " /><path d=" M  7817.50,   247.24  L  7817.23,   247.71  L  7817.13,   248.24  L  7817.23,   248.78  L  7817.50,   249.25  L  7817.91,   249.59  L  7818.42,   249.78  L  7818.96,   249.78  L  7819.47,   249.59  L  7819.88,   249.25  L  7820.15,   248.78  L  7820.25,   248.24  L  7820.15,   247.71  L  7819.88,   247.24  L  7819.47,   246.90  L  7818.96,   246.71  L  7818.42,   246.71  L  7817.91,   246.90  L  7817.50,   247.24  L  7817.89,   247.95  L  7817.89,   248.54  L  7818.27,   248.98  L  7818.84,   249.08  L  7819.34,   248.79  L  7819.54,   248.24  L  7819.34,   247.70  L  7818.84,   247.41  L  7818.27,   247.51  L  7818.69,   248.24  " style="stroke-width: 0.85 ;&st7;  " /><path d=" M  7842.99,   247.24  L  7842.72,   247.71  L  7842.63,   248.24  L  7842.72,   248.78  L  7842.99,   249.25  L  7843.41,   249.59  L  7843.92,   249.78  L  7844.46,   249.78  L  7844.97,   249.59  L  7845.38,   249.25  L  7845.65,   248.78  L  7845.74,   248.24  L  7845.65,   247.71  L  7845.38,   247.24  L  7844.97,   246.90  L  7844.46,   246.71  L  7843.92,   246.71  L  7843.41,   246.90  L  7842.99,   247.24  L  7843.39,   247.95  L  7843.39,   248.54  L  7843.76,   248.98  L  7844.33,   249.08  L  7844.84,   248.79  L  7845.04,   248.24  L  7844.84,   247.70  L  7844.33,   247.41  L  7843.76,   247.51  L  7844.19,   248.24  " style="stroke-width: 0.85 ;&st7;  " /><path d=" M  7903.68,   188.75  L  7903.68,   248.24  " style="stroke-width: 0.85 ;&st7;  " /><path d=" M  7997.16,   188.75  L  7997.16,   248.24  " style="stroke-width: 0.85 ;&st7;  " /><path d=" M  7818.69,   188.75  L  7818.69,   248.24  " style="stroke-width: 0.85 ;&st7;  " /><path d=" M  7844.19,   248.24  L  7844.19,   188.75  " style="stroke-width: 0.85 ;&st7;  " /><path d=" M  7929.17,   188.75  L  7929.17,   248.24  " style="stroke-width: 0.85 ;&st7;  " /><path d=" M  7929.17,   154.76  L  7929.17,    78.27  " style="stroke-width: 0.85 ;&st7;  " /><path d=" M  7844.19,   154.76  L  7844.19,    78.27  " style="stroke-width: 0.85 ;&st7;  " /><path d=" M  7988.66,   154.76  L  8031.15,   154.76  L  8031.15,   188.75  L  7988.66,   188.75  L  7988.66,   154.76  " style="stroke-width: 1.42 ;&st7;  " /><path d=" M  7895.18,   154.76  L  7937.67,   154.76  L  7937.67,   188.75  L  7895.18,   188.75  L  7895.18,   154.76  " style="stroke-width: 1.42 ;&st7;  " /><path d=" M  7810.19,   154.76  L  7852.68,   154.76  L  7852.68,   188.75  L  7810.19,   188.75  L  7810.19,   154.76  " style="stroke-width: 1.42 ;&st7;  " /><path d=" M  7750.70,    78.27  L  7750.70,   248.24  L  8022.66,   248.24  L  8022.66,   188.75  " style="stroke-width: 0.85 ;&st7;  " /><path d=" M  7686.96,   188.75  L  7686.96,   231.25  L  7712.46,   231.25  L  7712.46,   188.75  L  7686.96,   188.75  " style="stroke-width: 1.42 ;&st7;  " /><path d=" M  7749.51,   247.24  L  7749.24,   247.71  L  7749.14,   248.24  L  7749.24,   248.78  L  7749.51,   249.25  L  7749.92,   249.59  L  7750.43,   249.78  L  7750.97,   249.78  L  7751.48,   249.59  L  7751.89,   249.25  L  7752.17,   248.78  L  7752.26,   248.24  L  7752.17,   247.71  L  7751.89,   247.24  L  7751.48,   246.90  L  7750.97,   246.71  L  7750.43,   246.71  L  7749.92,   246.90  L  7749.51,   247.24  L  7749.90,   247.95  L  7749.90,   248.54  L  7750.28,   248.98  L  7750.85,   249.08  L  7751.35,   248.79  L  7751.55,   248.24  L  7751.35,   247.70  L  7750.85,   247.41  L  7750.28,   247.51  L  7750.70,   248.24  " style="stroke-width: 0.85 ;&st7;  " /><path d=" M  7902.48,   247.24  L  7902.21,   247.71  L  7902.12,   248.24  L  7902.21,   248.78  L  7902.48,   249.25  L  7902.90,   249.59  L  7903.41,   249.78  L  7903.95,   249.78  L  7904.46,   249.59  L  7904.87,   249.25  L  7905.14,   248.78  L  7905.23,   248.24  L  7905.14,   247.71  L  7904.87,   247.24  L  7904.46,   246.90  L  7903.95,   246.71  L  7903.41,   246.71  L  7902.90,   246.90  L  7902.48,   247.24  L  7902.88,   247.95  L  7902.88,   248.54  L  7903.25,   248.98  L  7903.82,   249.08  L  7904.33,   248.79  L  7904.53,   248.24  L  7904.33,   247.70  L  7903.82,   247.41  L  7903.25,   247.51  L  7903.68,   248.24  " style="stroke-width: 0.85 ;&st7;  " /><path d=" M  7995.97,   247.24  L  7995.70,   247.71  L  7995.60,   248.24  L  7995.70,   248.78  L  7995.97,   249.25  L  7996.38,   249.59  L  7996.89,   249.78  L  7997.43,   249.78  L  7997.94,   249.59  L  7998.35,   249.25  L  7998.63,   248.78  L  7998.72,   248.24  L  7998.63,   247.71  L  7998.35,   247.24  L  7997.94,   246.90  L  7997.43,   246.71  L  7996.89,   246.71  L  7996.38,   246.90  L  7995.97,   247.24  L  7996.36,   247.95  L  7996.36,   248.54  L  7996.74,   248.98  L  7997.31,   249.08  L  7997.81,   248.79  L  7998.01,   248.24  L  7997.81,   247.70  L  7997.31,   247.41  L  7996.74,   247.51  L  7997.16,   248.24  " style="stroke-width: 0.85 ;&st7;  " /><path d=" M  7699.71,   188.75  L  7699.71,   197.25  " style="stroke-width: 0.85 ;&st7;  " /><path d=" M  7648.72,   180.26  L  7648.72,   163.26  L  7699.71,   163.26  L  7699.71,   188.75  " style="stroke-width: 0.85 ;&st7;  " /><path d=" M  7647.53,   179.25  L  7647.25,   179.72  L  7647.16,   180.26  L  7647.25,   180.79  L  7647.53,   181.26  L  7647.94,   181.60  L  7648.45,   181.79  L  7648.99,   181.79  L  7649.50,   181.60  L  7649.91,   181.26  L  7650.18,   180.79  L  7650.28,   180.26  L  7650.18,   179.72  L  7649.91,   179.25  L  7649.50,   178.91  L  7648.99,   178.72  L  7648.45,   178.72  L  7647.94,   178.91  L  7647.53,   179.25  L  7647.92,   179.96  L  7647.92,   180.55  L  7648.29,   180.99  L  7648.87,   181.09  L  7649.37,   180.80  L  7649.57,   180.26  L  7649.37,   179.71  L  7648.87,   179.42  L  7648.29,   179.52  L  7648.72,   180.26  " style="stroke-width: 0.85 ;&st7;  " /><path d=" M  7556.65,   225.58  C  7556.65    224.80   7556.02    224.16   7555.24    224.16  " style="stroke-width: 0.85 ;&st7;   " /><path d=" M  7555.24,   224.16  C  7554.46    224.16   7553.82    224.80   7553.82    225.58  " style="stroke-width: 0.85 ;&st7;   " /><path d=" M  7553.82,   225.58  C  7553.82    226.36   7554.46    227.00   7555.24    227.00  " style="stroke-width: 0.85 ;&st7;   " /><path d=" M  7555.24,   227.00  C  7556.02    227.00   7556.65    226.36   7556.65    225.58  " style="stroke-width: 0.85 ;&st7;   " /><path d=" M  7556.65,   202.92  C  7556.65    202.14   7556.02    201.50   7555.24    201.50  " style="stroke-width: 0.85 ;&st7;   " /><path d=" M  7555.24,   201.50  C  7554.46    201.50   7553.82    202.14   7553.82    202.92  " style="stroke-width: 0.85 ;&st7;   " /><path d=" M  7553.82,   202.92  C  7553.82    203.70   7554.46    204.33   7555.24    204.33  " style="stroke-width: 0.85 ;&st7;   " /><path d=" M  7555.24,   204.33  C  7556.02    204.33   7556.65    203.70   7556.65    202.92  " style="stroke-width: 0.85 ;&st7;   " /><path d=" M  7527.21,   211.77  C  7528.58    213.17   7530.82    213.19   7532.22    211.82  " style="stroke-width: 0.85 ;&st7;   " /><path d=" M  7532.22,   211.82  C  7533.62    210.45   7533.64    208.21   7532.27    206.81  " style="stroke-width: 0.85 ;&st7;   " /><path d=" M  7532.27,   206.81  C  7531.58    206.11   7530.73    205.75   7529.74    205.75  " style="stroke-width: 0.85 ;&st7;   " /><path d=" M  7527.21,   216.73  C  7528.58    218.13   7530.82    218.15   7532.22    216.78  " style="stroke-width: 0.85 ;&st7;   " /><path d=" M  7532.22,   216.78  C  7533.62    215.41   7533.64    213.17   7532.27    211.77  " style="stroke-width: 0.85 ;&st7;   " /><path d=" M  7532.27,   211.77  C  7530.90    210.37   7528.66    210.35   7527.26    211.72  " style="stroke-width: 0.85 ;&st7;   " /><path d=" M  7527.26,   211.72  C  7527.25    211.74   7527.23    211.75   7527.21    211.77  " style="stroke-width: 0.85 ;&st7;   " /><path d=" M  7529.74,   222.75  C  7531.70    222.75   7533.28    221.16   7533.28    219.21  " style="stroke-width: 0.85 ;&st7;   " /><path d=" M  7533.28,   219.21  C  7533.28    217.25   7531.70    215.67   7529.74    215.67  " style="stroke-width: 0.85 ;&st7;   " /><path d=" M  7529.74,   215.67  C  7528.75    215.67   7527.91    216.02   7527.21    216.73  " style="stroke-width: 0.85 ;&st7;   " /><path d=" M  7555.24,   299.24  C  7553.03    297.41   7549.89    297.47   7547.75    299.38  " style="stroke-width: 1.42 ;&st7;   " /><path d=" M  7555.24,   299.24  C  7557.45    301.06   7560.58    301.00   7562.72    299.09  " style="stroke-width: 1.42 ;&st7;   " /><path d=" M  7650.14,   225.58  C  7650.14    224.80   7649.50    224.16   7648.72    224.16  " style="stroke-width: 0.85 ;&st7;   " /><path d=" M  7648.72,   224.16  C  7647.94    224.16   7647.31    224.80   7647.31    225.58  " style="stroke-width: 0.85 ;&st7;   " /><path d=" M  7647.31,   225.58  C  7647.31    226.36   7647.94    227.00   7648.72    227.00  " style="stroke-width: 0.85 ;&st7;   " /><path d=" M  7648.72,   227.00  C  7649.50    227.00   7650.14    226.36   7650.14    225.58  " style="stroke-width: 0.85 ;&st7;   " /><path d=" M  7650.14,   202.92  C  7650.14    202.14   7649.50    201.50   7648.72    201.50  " style="stroke-width: 0.85 ;&st7;   " /><path d=" M  7648.72,   201.50  C  7647.94    201.50   7647.31    202.14   7647.31    202.92  " style="stroke-width: 0.85 ;&st7;   " /><path d=" M  7647.31,   202.92  C  7647.31    203.70   7647.94    204.33   7648.72    204.33  " style="stroke-width: 0.85 ;&st7;   " /><path d=" M  7648.72,   204.33  C  7649.50    204.33   7650.14    203.70   7650.14    202.92  " style="stroke-width: 0.85 ;&st7;   " /><path d=" M  7620.70,   211.77  C  7622.07    213.17   7624.31    213.19   7625.71    211.82  " style="stroke-width: 0.85 ;&st7;   " /><path d=" M  7625.71,   211.82  C  7627.10    210.45   7627.12    208.21   7625.76    206.81  " style="stroke-width: 0.85 ;&st7;   " /><path d=" M  7625.76,   206.81  C  7625.06    206.11   7624.22    205.75   7623.23    205.75  " style="stroke-width: 0.85 ;&st7;   " /><path d=" M  7620.70,   216.73  C  7622.07    218.13   7624.31    218.15   7625.71    216.78  " style="stroke-width: 0.85 ;&st7;   " /><path d=" M  7625.71,   216.78  C  7627.10    215.41   7627.12    213.17   7625.76    211.77  " style="stroke-width: 0.85 ;&st7;   " /><path d=" M  7625.76,   211.77  C  7624.39    210.37   7622.14    210.35   7620.75    211.72  " style="stroke-width: 0.85 ;&st7;   " /><path d=" M  7620.75,   211.72  C  7620.73    211.74   7620.71    211.75   7620.70    211.77  " style="stroke-width: 0.85 ;&st7;   " /><path d=" M  7699.71,   200.09  C  7696.98    201.70   7696.06    205.23   7697.68    207.96  " style="stroke-width: 1.42 ;&st7;   " /><path d=" M  7697.68,   207.96  C  7698.20    208.85   7698.83    209.48   7699.71    210.00  " style="stroke-width: 1.42 ;&st7;   " /><path d=" M  7699.71,   219.92  C  7702.45    218.30   7703.36    214.77   7701.75    212.04  " style="stroke-width: 1.42 ;&st7;   " /><path d=" M  7701.75,   212.04  C  7701.23    211.16   7700.60    210.52   7699.71    210.00  " style="stroke-width: 1.42 ;&st7;   " /><path d=" M  7701.13,   198.67  C  7701.13    197.89   7700.50    197.25   7699.71    197.25  " style="stroke-width: 0.85 ;&st7;   " /><path d=" M  7699.71,   197.25  C  7698.93    197.25   7698.30    197.89   7698.30    198.67  " style="stroke-width: 0.85 ;&st7;   " /><path d=" M  7698.30,   198.67  C  7698.30    199.45   7698.93    200.09   7699.71    200.09  " style="stroke-width: 0.85 ;&st7;   " /><path d=" M  7699.71,   200.09  C  7700.50    200.09   7701.13    199.45   7701.13    198.67  " style="stroke-width: 0.85 ;&st7;   " /><path d=" M  7701.13,   221.33  C  7701.13    220.55   7700.50    219.92   7699.71    219.92  " style="stroke-width: 0.85 ;&st7;   " /><path d=" M  7699.71,   219.92  C  7698.93    219.92   7698.30    220.55   7698.30    221.33  " style="stroke-width: 0.85 ;&st7;   " /><path d=" M  7698.30,   221.33  C  7698.30    222.11   7698.93    222.75   7699.71    222.75  " style="stroke-width: 0.85 ;&st7;   " /><path d=" M  7699.71,   222.75  C  7700.50    222.75   7701.13    222.11   7701.13    221.33  " style="stroke-width: 0.85 ;&st7;   " /><path d=" M  7844.19,   180.26  C  7846.14    180.26   7847.73    178.67   7847.73    176.71  " style="stroke-width: 0.85 ;&st7;   " /><path d=" M  7847.73,   176.71  C  7847.73    174.76   7846.14    173.17   7844.19    173.17  " style="stroke-width: 0.85 ;&st7;   " /><path d=" M  7844.19,   173.17  C  7843.20    173.17   7842.35    173.53   7841.66    174.24  " style="stroke-width: 0.85 ;&st7;   " /><path d=" M  7841.66,   174.24  C  7843.03    175.63   7845.27    175.66   7846.67    174.29  " style="stroke-width: 0.85 ;&st7;   " /><path d=" M  7846.67,   174.29  C  7848.07    172.92   7848.09    170.67   7846.72    169.28  " style="stroke-width: 0.85 ;&st7;   " /><path d=" M  7846.72,   169.28  C  7845.35    167.88   7843.11    167.86   7841.71    169.23  " style="stroke-width: 0.85 ;&st7;   " /><path d=" M  7841.71,   169.23  C  7841.69    169.24   7841.68    169.26   7841.66    169.28  " style="stroke-width: 0.85 ;&st7;   " /><path d=" M  7841.66,   169.28  C  7843.03    170.67   7845.27    170.70   7846.67    169.33  " style="stroke-width: 0.85 ;&st7;   " /><path d=" M  7846.67,   169.33  C  7848.07    167.96   7848.09    165.72   7846.72    164.32  " style="stroke-width: 0.85 ;&st7;   " /><path d=" M  7846.72,   164.32  C  7846.03    163.61   7845.18    163.26   7844.19    163.26  " style="stroke-width: 0.85 ;&st7;   " /><path d=" M  7820.11,   160.43  C  7820.11    159.64   7819.48    159.01   7818.69    159.01  " style="stroke-width: 0.85 ;&st7;   " /><path d=" M  7818.69,   159.01  C  7817.91    159.01   7817.28    159.64   7817.28    160.43  " style="stroke-width: 0.85 ;&st7;   " /><path d=" M  7817.28,   160.43  C  7817.28    161.21   7817.91    161.84   7818.69    161.84  " style="stroke-width: 0.85 ;&st7;   " /><path d=" M  7818.69,   161.84  C  7819.48    161.84   7820.11    161.21   7820.11    160.43  " style="stroke-width: 0.85 ;&st7;   " /><path d=" M  7820.11,   183.09  C  7820.11    182.31   7819.48    181.67   7818.69    181.67  " style="stroke-width: 0.85 ;&st7;   " /><path d=" M  7818.69,   181.67  C  7817.91    181.67   7817.28    182.31   7817.28    183.09  " style="stroke-width: 0.85 ;&st7;   " /><path d=" M  7817.28,   183.09  C  7817.28    183.87   7817.91    184.50   7818.69    184.50  " style="stroke-width: 0.85 ;&st7;   " /><path d=" M  7818.69,   184.50  C  7819.48    184.50   7820.11    183.87   7820.11    183.09  " style="stroke-width: 0.85 ;&st7;   " /><path d=" M  7815.86,   171.76  C  7815.86    170.97   7815.23    170.34   7814.44    170.34  " style="stroke-width: 0.85 ;&st7;   " /><path d=" M  7814.44,   170.34  C  7813.66    170.34   7813.03    170.97   7813.03    171.76  " style="stroke-width: 0.85 ;&st7;   " /><path d=" M  7813.03,   171.76  C  7813.03    172.54   7813.66    173.17   7814.44    173.17  " style="stroke-width: 0.85 ;&st7;   " /><path d=" M  7814.44,   173.17  C  7815.23    173.17   7815.86    172.54   7815.86    171.76  " style="stroke-width: 0.85 ;&st7;   " /><path d=" M  7929.18,   180.26  C  7931.13    180.26   7932.72    178.67   7932.72    176.71  " style="stroke-width: 0.85 ;&st7;   " /><path d=" M  7932.72,   176.71  C  7932.72    174.76   7931.13    173.17   7929.18    173.17  " style="stroke-width: 0.85 ;&st7;   " /><path d=" M  7929.18,   173.17  C  7928.18    173.17   7927.34    173.53   7926.65    174.24  " style="stroke-width: 0.85 ;&st7;   " /><path d=" M  7926.65,   174.24  C  7928.01    175.63   7930.26    175.66   7931.65    174.29  " style="stroke-width: 0.85 ;&st7;   " /><path d=" M  7931.65,   174.29  C  7933.05    172.92   7933.07    170.67   7931.70    169.28  " style="stroke-width: 0.85 ;&st7;   " /><path d=" M  7931.70,   169.28  C  7930.34    167.88   7928.09    167.86   7926.70    169.23  " style="stroke-width: 0.85 ;&st7;   " /><path d=" M  7926.70,   169.23  C  7926.68    169.24   7926.66    169.26   7926.65    169.28  " style="stroke-width: 0.85 ;&st7;   " /><path d=" M  7926.65,   169.28  C  7928.01    170.67   7930.26    170.70   7931.65    169.33  " style="stroke-width: 0.85 ;&st7;   " /><path d=" M  7931.65,   169.33  C  7933.05    167.96   7933.07    165.72   7931.70    164.32  " style="stroke-width: 0.85 ;&st7;   " /><path d=" M  7931.70,   164.32  C  7931.01    163.61   7930.17    163.26   7929.18    163.26  " style="stroke-width: 0.85 ;&st7;   " /><path d=" M  7905.10,   160.43  C  7905.10    159.64   7904.46    159.01   7903.68    159.01  " style="stroke-width: 0.85 ;&st7;   " /><path d=" M  7903.68,   159.01  C  7902.90    159.01   7902.26    159.64   7902.26    160.43  " style="stroke-width: 0.85 ;&st7;   " /><path d=" M  7902.26,   160.43  C  7902.26    161.21   7902.90    161.84   7903.68    161.84  " style="stroke-width: 0.85 ;&st7;   " /><path d=" M  7903.68,   161.84  C  7904.46    161.84   7905.10    161.21   7905.10    160.43  " style="stroke-width: 0.85 ;&st7;   " /><path d=" M  7905.10,   183.09  C  7905.10    182.31   7904.46    181.67   7903.68    181.67  " style="stroke-width: 0.85 ;&st7;   " /><path d=" M  7903.68,   181.67  C  7902.90    181.67   7902.26    182.31   7902.26    183.09  " style="stroke-width: 0.85 ;&st7;   " /><path d=" M  7902.26,   183.09  C  7902.26    183.87   7902.90    184.50   7903.68    184.50  " style="stroke-width: 0.85 ;&st7;   " /><path d=" M  7903.68,   184.50  C  7904.46    184.50   7905.10    183.87   7905.10    183.09  " style="stroke-width: 0.85 ;&st7;   " /><path d=" M  7900.85,   171.76  C  7900.85    170.97   7900.21    170.34   7899.43    170.34  " style="stroke-width: 0.85 ;&st7;   " /><path d=" M  7899.43,   170.34  C  7898.65    170.34   7898.01    170.97   7898.01    171.76  " style="stroke-width: 0.85 ;&st7;   " /><path d=" M  7898.01,   171.76  C  7898.01    172.54   7898.65    173.17   7899.43    173.17  " style="stroke-width: 0.85 ;&st7;   " /><path d=" M  7899.43,   173.17  C  7900.21    173.17   7900.85    172.54   7900.85    171.76  " style="stroke-width: 0.85 ;&st7;   " /><path d=" M  7998.58,   160.43  C  7998.58    159.64   7997.95    159.01   7997.16    159.01  " style="stroke-width: 0.85 ;&st7;   " /><path d=" M  7997.16,   159.01  C  7996.38    159.01   7995.75    159.64   7995.75    160.43  " style="stroke-width: 0.85 ;&st7;   " /><path d=" M  7995.75,   160.43  C  7995.75    161.21   7996.38    161.84   7997.16    161.84  " style="stroke-width: 0.85 ;&st7;   " /><path d=" M  7997.16,   161.84  C  7997.95    161.84   7998.58    161.21   7998.58    160.43  " style="stroke-width: 0.85 ;&st7;   " /><path d=" M  7998.58,   183.09  C  7998.58    182.31   7997.95    181.67   7997.16    181.67  " style="stroke-width: 0.85 ;&st7;   " /><path d=" M  7997.16,   181.67  C  7996.38    181.67   7995.75    182.31   7995.75    183.09  " style="stroke-width: 0.85 ;&st7;   " /><path d=" M  7995.75,   183.09  C  7995.75    183.87   7996.38    184.50   7997.16    184.50  " style="stroke-width: 0.85 ;&st7;   " /><path d=" M  7997.16,   184.50  C  7997.95    184.50   7998.58    183.87   7998.58    183.09  " style="stroke-width: 0.85 ;&st7;   " /><path d=" M  7994.33,   171.76  C  7994.33    170.97   7993.70    170.34   7992.91    170.34  " style="stroke-width: 0.85 ;&st7;   " /><path d=" M  7992.91,   170.34  C  7992.13    170.34   7991.50    170.97   7991.50    171.76  " style="stroke-width: 0.85 ;&st7;   " /><path d=" M  7991.50,   171.76  C  7991.50    172.54   7992.13    173.17   7992.91    173.17  " style="stroke-width: 0.85 ;&st7;   " /><path d=" M  7992.91,   173.17  C  7993.70    173.17   7994.33    172.54   7994.33    171.76  " style="stroke-width: 0.85 ;&st7;   " /><path d=" M  7623.23,   222.75  C  7625.18    222.75   7626.77    221.16   7626.77    219.21  " style="stroke-width: 0.85 ;&st7;   " /><path d=" M  7626.77,   219.21  C  7626.77    217.25   7625.18    215.67   7623.23    215.67  " style="stroke-width: 0.85 ;&st7;   " /><path d=" M  7623.23,   215.67  C  7622.24    215.67   7621.39    216.02   7620.70    216.73  " style="stroke-width: 0.85 ;&st7;   " /><path d=" M  7648.72,   299.24  C  7650.93    301.06   7654.07    301.00   7656.21    299.09  " style="stroke-width: 1.42 ;&st7;   " /><path d=" M  7648.72,   299.24  C  7646.51    297.41   7643.38    297.47   7641.24    299.38  " style="stroke-width: 1.42 ;&st7;   " /><text style="&st18;" transform="matrix(&st16;  7716.14  209.14 )">20A <tspan dy="6.0" x="0 ">D/L-AM1</tspan></text><text ewd:textID="51" style="&st18;" transform="matrix(&st17;  7860.33  191.98 )">P&amp;RR&amp;RL DR <tspan dy="6.0" x="0 ">UNLOCK Relay</tspan></text><text ewd:textID="16" style="&st18;" transform="matrix(&st17;  7945.31  191.98 )">D DR <tspan dy="6.0" x="0 ">UNLOCK Relay</tspan></text><text style="&st18;" transform="matrix(&st16;  7963.47  74.58 )">GND1</text><text style="&st18;" transform="matrix(&st16;  7742.7  74.58 )">ALTB</text><text style="&st18;" transform="matrix(&st16;  7836.22  74.58 )">ACT-</text><text style="&st18;" transform="matrix(&st16;  7920.63  74.58 )">ACTD</text><text style="&st18;" transform="matrix(&st16;  7693.53  239.44 )">2</text><text ewd:textID="38" style="&st18;" transform="matrix(&st17;  7664.86  226.49 )">IG1 NO.4 <tspan dy="6.0" x="0 ">Relay</tspan></text><text ewd:textID="37" style="&st18;" transform="matrix(&st17;  7571.37  226.49 )">IG1 NO.3 <tspan dy="6.0" x="0 ">Relay</tspan></text><text style="&st18;" transform="matrix(&st16;  7741.42  86.47 )">31</text><text style="&st18;" transform="matrix(&st16;  7838.01  86.47 )">8</text><text style="&st18;" transform="matrix(&st16;  7919.89  86.47 )">10</text><text style="&st18;" transform="matrix(&st16;  7962.38  86.47 )">11</text><text style="&st18;" transform="matrix(&st16;  7693.53  185.06 )">1</text></svg>