﻿<?xml version="1.0" encoding="utf-8"?>
<!DOCTYPE svg PUBLIC "-//W3C//DTD SVG 1.0//EN" "http://www.w3.org/TR/2001/REC-SVG-20010904/DTD/svg10.dtd"[
	<!ENTITY ns_flows "http://ns.adobe.com/Flows/1.0/">
	<!ENTITY ns_svg "http://www.w3.org/2000/svg">
	<!ENTITY ns_xlink "http://www.w3.org/1999/xlink">
	<!ENTITY st0 "font-size:7px;font-family:'MS-PGothic';adobe-font-script:japanese;">
	<!ENTITY st1 "font-size:6px;font-family:'ArialMT';">
	<!-- White fill  -->
	<!ENTITY st2 "fill:#FFFFFF;stroke:#000000; stroke-width:1.41;stroke-linecap:round;stroke-linejoin:round;">
	<!-- Yellow fill  -->
	<!ENTITY st3 "fill:#FFFFCC;stroke:#FFFFCC; stroke-width:0.1;stroke-linecap:round;stroke-linejoin:round;">
	<!-- Gray fill  -->
	<!ENTITY st4 "fill:#CCCCCC;stroke:#CCCCCC; stroke-width:0.1;stroke-linecap:round;stroke-linejoin:round;">
	<!-- Light-blue fill -->
	<!ENTITY st5 "fill:#CCECF4;stroke:#000000; stroke-width:1.133;stroke-linecap:round;stroke-linejoin:round;">
	<!ENTITY st6 "fill:none;stroke-linecap:butt; stroke-linejoin:round;">
	<!ENTITY st7 "fill:none;stroke:#000000;stroke-linecap:round;stroke-linejoin:round;">
	<!ENTITY st8 "enable-background:new    ;">
	<!-- Black fill -->
	<!ENTITY st9 "fill:#000000;stroke:#000000; stroke-linecap:round;stroke-linejoin:round;">
	<!-- SRS note   -->
	<!ENTITY st10 "font-size:9px;font-family:'ArialMT';">
	<!ENTITY st11 "font-size:9px;font-family:'Svg Symbol';">
	<!ENTITY st12 "font-size:6px;font-family:'Svg Symbol';">
	<!ENTITY st13 "fill:none;stroke:#ff0000;stroke-linecap:round;stroke-linejoin:round;">
	<!-- Yellow fill  -->
	<!ENTITY st14 "fill:#FFFF00;stroke:#FFFF00; stroke-width:0.1;stroke-linecap:round;stroke-linejoin:round;">
	<!ENTITY st15 "font-size:6px;font-family:'MS-PGothic';adobe-font-script:japanese;">
	<!ENTITY st16 "1.00 0.00 0.00 1.00">
	<!ENTITY st17 "0.00 -1.00 1.00 0.00">
	<!ENTITY st18 "font-size:6px;font-family:'Arial';">
	<!ENTITY st19 "font-size:9px;font-family:'Arial';">
	<!ENTITY st20 "font-size:6px;font-family:'MS-PGothic','MS PGothic';adobe-font-script:japanese;">
	<!ENTITY st21 "font-size:7px;font-family:'MS-PGothic','MS PGothic';adobe-font-script:japanese;">
	<!ATTLIST svg
		xmlns:ewd CDATA #FIXED "http://shcl.co.jp/ewd"
		xmlns:a CDATA #FIXED "http://ns.adobe.com/AdobeSVGViewerExtensions/3.0/"
		ewd:ver CDATA #IMPLIED
	>
	<!ATTLIST a
		ewd:lineID CDATA #IMPLIED
		ewd:groupID CDATA #IMPLIED
		ewd:figtype CDATA #IMPLIED
		ewd:code CDATA #IMPLIED
		ewd:figID CDATA #IMPLIED
		ewd:pinNo CDATA #IMPLIED
		ewd:comment CDATA #IMPLIED >
	<!ATTLIST g
		ewd:lineID CDATA #IMPLIED
		ewd:groupID CDATA #IMPLIED
		ewd:figtype CDATA #IMPLIED
		ewd:code CDATA #IMPLIED
		ewd:figID CDATA #IMPLIED
		ewd:pinNo CDATA #IMPLIED
		ewd:comment CDATA #IMPLIED >
	<!ATTLIST text
		ewd:textID CDATA #IMPLIED >
	<!ATTLIST title
		ewd:textID CDATA #IMPLIED >
]>
<!-- Generator: Shintec Hozumi YS   -->
<svg onload="call_execInitLoadProc_svg('system')" style="overflow:visible;  enable-background:new 0 0 7768.410 710.000" viewBox="0 0 7768.410 710.000" height="710.000" width="7768.410" xml:space="preserve" ewd:ver="L2.1.2.9" xmlns="&ns_svg;" xmlns:a="http://ns.adobe.com/AdobeSVGViewerExtensions/3.0/" xmlns:ewd="http://shcl.co.jp/ewd" xmlns:xlink="&ns_xlink;">
<path d=" M   756.37,   525.17  L   751.40,   520.20  " style="stroke-width: 1.42 ;&st7;  " /><path d=" M   739.38,   532.23  L   744.35,   537.20  " style="stroke-width: 1.42 ;&st7;  " /><path d=" M   751.40,   537.20  L   756.37,   532.23  " style="stroke-width: 1.42 ;&st7;  " /><path d=" M   744.35,   520.20  L   739.38,   525.17  " style="stroke-width: 1.42 ;&st7;  " /><path d=" M   756.37,   397.69  L   751.40,   392.72  " style="stroke-width: 1.42 ;&st7;  " /><path d=" M   739.38,   404.75  L   744.35,   409.72  " style="stroke-width: 1.42 ;&st7;  " /><path d=" M   751.40,   409.72  L   756.37,   404.75  " style="stroke-width: 1.42 ;&st7;  " /><path d=" M   744.35,   392.72  L   739.38,   397.69  " style="stroke-width: 1.42 ;&st7;  " /><path d=" M   824.36,   524.45  L   824.36,   528.70  " style="stroke-width: 1.42 ;&st7;  " /><path d=" M   913.60,   558.44  L   917.85,   558.44  " style="stroke-width: 1.42 ;&st7;  " /><path d=" M   917.85,   600.93  L   913.60,   600.93  " style="stroke-width: 1.42 ;&st7;  " /><path d=" M   913.60,   592.44  L   917.85,   592.44  " style="stroke-width: 1.42 ;&st7;  " /><path d=" M   824.36,   593.16  L   819.39,   588.19  " style="stroke-width: 1.42 ;&st7;  " /><path d=" M   807.37,   600.22  L   812.33,   605.18  " style="stroke-width: 1.42 ;&st7;  " /><path d=" M   819.39,   605.18  L   824.36,   600.22  " style="stroke-width: 1.42 ;&st7;  " /><path d=" M   812.33,   588.19  L   807.37,   593.16  " style="stroke-width: 1.42 ;&st7;  " /><path d=" M   747.88,   117.24  L   742.90,   112.27  " style="stroke-width: 1.42 ;&st7;  " /><path d=" M   730.88,   124.29  L   735.85,   129.26  " style="stroke-width: 1.42 ;&st7;  " /><path d=" M   742.90,   129.26  L   747.88,   124.29  " style="stroke-width: 1.42 ;&st7;  " /><path d=" M   735.85,   112.27  L   730.88,   117.24  " style="stroke-width: 1.42 ;&st7;  " /><path d=" M   735.85,    44.28  L   730.88,    49.25  " style="stroke-width: 1.42 ;&st7;  " /><path d=" M   742.90,    61.28  L   747.88,    56.31  " style="stroke-width: 1.42 ;&st7;  " /><path d=" M   730.88,    56.31  L   735.85,    61.28  " style="stroke-width: 1.42 ;&st7;  " /><path d=" M   747.88,    49.25  L   742.90,    44.28  " style="stroke-width: 1.42 ;&st7;  " /><path d=" M   917.85,   566.94  L   913.60,   566.94  " style="stroke-width: 1.42 ;&st7;  " /><path d=" M   943.34,   520.20  L   943.34,   545.69  L  1028.33,   545.69  L  1028.33,   520.20  L   943.34,   520.20  " style="stroke-width: 1.42 ;&st7;  " /><path d=" M   526.91,   520.20  L   526.91,   545.69  L   611.90,   545.69  L   611.90,   520.20  L   526.91,   520.20  " style="stroke-width: 1.42 ;&st7;  " /><path d=" M   526.91,   613.68  L   526.91,   673.17  L   611.90,   673.17  L   611.90,   613.68  L   526.91,   613.68  " style="stroke-width: 1.42 ;&st7;  " /><path d=" M   943.34,   358.73  L   943.34,   384.22  L  1028.33,   384.22  L  1028.33,   358.73  L   943.34,   358.73  " style="stroke-width: 1.42 ;&st7;  " /><path d=" M   526.91,   358.73  L   526.91,   384.22  L   611.90,   384.22  L   611.90,   358.73  L   526.91,   358.73  " style="stroke-width: 1.42 ;&st7;  " /><path d=" M   526.91,   477.71  L   526.91,   503.20  L   611.90,   503.20  L   611.90,   477.71  L   526.91,   477.71  " style="stroke-width: 1.42 ;&st7;  " /><path d=" M   526.91,   426.71  L   526.91,   452.21  L   611.90,   452.21  L   611.90,   426.71  L   526.91,   426.71  " style="stroke-width: 1.42 ;&st7;  " /><path d=" M   943.34,   426.71  L   943.34,   452.21  L  1028.33,   452.21  L  1028.33,   426.71  L   943.34,   426.71  " style="stroke-width: 1.42 ;&st7;  " /><path d=" M   526.91,   392.72  L   526.91,   418.22  L   611.90,   418.22  L   611.90,   392.72  L   526.91,   392.72  " style="stroke-width: 1.42 ;&st7;  " /><path d=" M   943.34,   622.18  L   943.34,   647.68  L  1028.33,   647.68  L  1028.33,   622.18  L   943.34,   622.18  " style="stroke-width: 1.42 ;&st7;  " /><path d=" M   747.87,   697.25  L   747.87,   701.50  " style="stroke-width: 0.85 ;&st7;  " /><path d=" M   739.38,   701.50  L   756.37,   701.50  " style="stroke-width: 0.85 ;&st7;  " /><path d=" M   743.63,   704.33  L   752.12,   704.33  " style="stroke-width: 0.85 ;&st7;  " /><path d=" M   745.04,   707.17  L   750.71,   707.17  " style="stroke-width: 0.85 ;&st7;  " /><path d=" M   746.46,   710.00  L   749.29,   710.00  " style="stroke-width: 0.85 ;&st7;  " /><path d=" M   815.86,   697.25  L   815.86,   701.50  " style="stroke-width: 0.85 ;&st7;  " /><path d=" M   807.36,   701.50  L   824.36,   701.50  " style="stroke-width: 0.85 ;&st7;  " /><path d=" M   811.61,   704.33  L   820.11,   704.33  " style="stroke-width: 0.85 ;&st7;  " /><path d=" M   813.03,   707.17  L   818.70,   707.17  " style="stroke-width: 0.85 ;&st7;  " /><path d=" M   814.45,   710.00  L   817.28,   710.00  " style="stroke-width: 0.85 ;&st7;  " /><path d=" M   943.34,   392.72  L   943.34,   418.22  L  1028.33,   418.22  L  1028.33,   392.72  L   943.34,   392.72  " style="stroke-width: 1.42 ;&st7;  " /><path d=" M   830.03,   532.95  L   825.78,   528.70  L   830.03,   524.45  " style="stroke-width: 1.42 ;&st7;  " /><path d=" M   833.43,   532.95  L   829.18,   528.70  L   833.43,   524.45  " style="stroke-width: 1.42 ;&st7;  " /><path d=" M   526.91,   146.26  L   526.91,   239.75  L   611.90,   239.75  L   611.90,   146.26  L   526.91,   146.26  " style="stroke-width: 1.42 ;&st7;  " /><path d=" M   526.91,   112.27  L   526.91,   137.76  L   611.90,   137.76  L   611.90,   112.27  L   526.91,   112.27  " style="stroke-width: 1.42 ;&st7;  " /><path d=" M   526.91,    78.27  L   526.91,   103.77  L   611.90,   103.77  L   611.90,    78.27  L   526.91,    78.27  " style="stroke-width: 1.42 ;&st7;  " /><path d=" M   526.91,    44.28  L   526.91,    69.77  L   611.90,    69.77  L   611.90,    44.28  L   526.91,    44.28  " style="stroke-width: 1.42 ;&st7;  " /><path d=" M   526.91,    10.28  L   526.91,    35.78  L   611.90,    35.78  L   611.90,    10.28  L   526.91,    10.28  " style="stroke-width: 1.42 ;&st7;  " /><path d=" M   722.38,   263.82  L   722.38,   268.07  " style="stroke-width: 0.85 ;&st7;  " /><path d=" M   713.88,   268.07  L   730.88,   268.07  " style="stroke-width: 0.85 ;&st7;  " /><path d=" M   718.13,   270.91  L   726.63,   270.91  " style="stroke-width: 0.85 ;&st7;  " /><path d=" M   719.55,   273.74  L   725.21,   273.74  " style="stroke-width: 0.85 ;&st7;  " /><path d=" M   720.96,   276.57  L   723.80,   276.57  " style="stroke-width: 0.85 ;&st7;  " /><path d=" M   943.34,   460.71  L   943.34,   511.70  L  1028.33,   511.70  L  1028.33,   460.71  L   943.34,   460.71  " style="stroke-width: 1.42 ;&st7;  " /><path d=" M   943.34,   554.19  L   943.34,   613.68  L  1028.33,   613.68  L  1028.33,   554.19  L   943.34,   554.19  " style="stroke-width: 1.42 ;&st7;  " /><path d=" M   926.99,   562.69  L   929.82,   559.86  L   925.57,   559.86  L   922.74,   562.69  L   925.57,   565.52  L   929.82,   565.52  L   926.99,   562.69  " style="stroke-width: 0.28 ;&st9;  " /><path d=" M   943.34,   562.69  L   922.10,   562.69  " style="stroke-width: 0.85 ;&st7;  " /><path d=" M   926.99,   596.69  L   929.82,   593.85  L   925.57,   593.85  L   922.74,   596.69  L   925.57,   599.52  L   929.82,   599.52  L   926.99,   596.69  " style="stroke-width: 0.28 ;&st9;  " /><path d=" M   943.34,   596.69  L   922.10,   596.69  " style="stroke-width: 0.85 ;&st7;  " /><path d=" M   526.91,   554.19  L   526.91,   579.69  L   611.90,   579.69  L   611.90,   554.19  L   526.91,   554.19  " style="stroke-width: 1.42 ;&st7;  " /><path d=" M   943.34,   239.75  L   943.34,   290.74  L  1028.33,   290.74  L  1028.33,   239.75  L   943.34,   239.75  " style="stroke-width: 1.42 ;&st7;  " /><path d=" M   943.34,   299.24  L   943.34,   350.23  L  1028.33,   350.23  L  1028.33,   299.24  L   943.34,   299.24  " style="stroke-width: 1.42 ;&st7;  " /><path d=" M   781.87,   340.31  L   781.87,   344.56  " style="stroke-width: 0.85 ;&st7;  " /><path d=" M   773.37,   344.56  L   790.37,   344.56  " style="stroke-width: 0.85 ;&st7;  " /><path d=" M   777.62,   347.39  L   786.12,   347.39  " style="stroke-width: 0.85 ;&st7;  " /><path d=" M   779.04,   350.23  L   784.70,   350.23  " style="stroke-width: 0.85 ;&st7;  " /><path d=" M   780.45,   353.06  L   783.29,   353.06  " style="stroke-width: 0.85 ;&st7;  " /><path d=" M   943.34,   656.18  L   943.34,   698.67  L  1028.33,   698.67  L  1028.33,   656.18  L   943.34,   656.18  " style="stroke-width: 1.42 ;&st7;  " /><path d=" M   913.60,   558.44  C   911.25    558.44    909.35    560.34    909.35    562.69  " style="stroke-width: 1.42 ;&st7;   " /><path d=" M   909.35,   562.69  C   909.35    565.04    911.25    566.94    913.60    566.94  " style="stroke-width: 1.42 ;&st7;   " /><path d=" M   917.85,   566.94  C   920.19    566.94    922.10    565.04    922.10    562.69  " style="stroke-width: 1.42 ;&st7;   " /><path d=" M   922.10,   562.69  C   922.10    560.34    920.19    558.44    917.85    558.44  " style="stroke-width: 1.42 ;&st7;   " /><path d=" M   913.60,   592.44  C   911.25    592.44    909.35    594.34    909.35    596.69  " style="stroke-width: 1.42 ;&st7;   " /><path d=" M   909.35,   596.69  C   909.35    599.03    911.25    600.93    913.60    600.93  " style="stroke-width: 1.42 ;&st7;   " /><path d=" M   917.85,   600.93  C   920.19    600.93    922.10    599.03    922.10    596.69  " style="stroke-width: 1.42 ;&st7;   " /><path d=" M   922.10,   596.69  C   922.10    594.34    920.19    592.44    917.85    592.44  " style="stroke-width: 1.42 ;&st7;   " /><text style="&st18;" transform="matrix(&st16;  592.14  488.17 )">(RH E)</text><text ewd:textID="71" style="&st18;" transform="matrix(&st16;  527.76  629.82 )">Brake Actuator <tspan dy="6.0" x="0 ">Assembly</tspan></text><text ewd:textID="93" style="&st18;" transform="matrix(&st16;  969.68  536.33 )">Fog Light <tspan dy="6.0" x="0 ">Assembly RH</tspan></text><text style="&st18;" transform="matrix(&st16;  969.67  529.23 )">Z1</text><text style="&st18;" transform="matrix(&st16;  945.08  530.67 )">(E)</text><text style="&st18;" transform="matrix(&st16;  602.22  530.67 )">(E)</text><text ewd:textID="93" style="&st18;" transform="matrix(&st16;  527.76  536.33 )">Fog Light <tspan dy="6.0" x="0 ">Assembly RH</tspan></text><text style="&st18;" transform="matrix(&st16;  527.75  529.23 )">A57</text><text style="&st18;" transform="matrix(&st16;  527.75  622.71 )">A49</text><text style="&st18;" transform="matrix(&st16;  590.05  624.15 )">(GND1)</text><text style="&st18;" transform="matrix(&st16;  969.67  367.75 )">A66</text><text style="&st18;" transform="matrix(&st16;  945.08  369.19 )">(E)</text><text style="&st18;" transform="matrix(&st16;  602.22  369.19 )">(E)</text><text ewd:textID="118" style="&st18;" transform="matrix(&st16;  969.68  374.86 )">Headlight <tspan dy="6.0" x="0 ">Assembly RH</tspan></text><text style="&st18;" transform="matrix(&st16;  527.75  367.75 )">A63</text><text ewd:textID="118" style="&st18;" transform="matrix(&st16;  527.76  374.86 )">Headlight <tspan dy="6.0" x="0 ">Assembly RH</tspan></text><text style="&st18;" transform="matrix(&st16;  527.75  486.73 )">A62</text><text ewd:textID="217" style="&st18;" transform="matrix(&st16;  527.76  442.85 )">Wireless Door <tspan dy="6.0" x="0 ">Lock Buzzer</tspan></text><text style="&st18;" transform="matrix(&st16;  527.75  435.74 )">A15</text><text style="&st18;" transform="matrix(&st16;  602.22  437.18 )">(E)</text><text style="&st18;" transform="matrix(&st16;  969.67  435.74 )">A65</text><text style="&st18;" transform="matrix(&st16;  945.08  437.18 )">(E)</text><text ewd:textID="118" style="&st18;" transform="matrix(&st16;  969.68  442.85 )">Headlight <tspan dy="6.0" x="0 ">Assembly RH</tspan></text><text style="&st18;" transform="matrix(&st16;  868.9  397.52 )">W-B</text><text style="&st18;" transform="matrix(&st16;  602.22  403.19 )">(E)</text><text style="&st18;" transform="matrix(&st16;  527.75  401.75 )">A64</text><text ewd:textID="118" style="&st18;" transform="matrix(&st16;  527.76  408.85 )">Headlight <tspan dy="6.0" x="0 ">Assembly RH</tspan></text><text style="&st18;" transform="matrix(&st16;  969.67  631.21 )">A52</text><text style="&st18;" transform="matrix(&st16;  945.08  632.65 )">(E)</text><text style="&st18;" transform="matrix(&st16;  590.05  658.14 )">(GND2)</text><text ewd:textID="119" style="&st18;" transform="matrix(&st16;  969.68  638.31 )">Headlight Cleaner <tspan dy="6.0" x="0 ">Control Relay</tspan></text><text ewd:textID="118" style="&st18;" transform="matrix(&st16;  527.76  493.84 )">Headlight <tspan dy="6.0" x="0 ">Assembly RH</tspan></text><text style="&st18;" transform="matrix(&st16;  868.59  638.31 )">(*16)</text><text style="&st18;" transform="matrix(&st16;  652.09  536.33 )">(*8 *27)</text><text style="&st18;" transform="matrix(&st16;  775.42  652.48 )">W-B</text><text style="&st18;" transform="matrix(&st16;  656.44  525.0 )">W-B</text><text style="&st18;" transform="matrix(&st16;  656.44  618.48 )">W-B</text><text style="&st18;" transform="matrix(&st16;  656.44  652.48 )">W-B</text><text style="&st18;" transform="matrix(&st17;  744.18  645.13 )">W-B</text><text ewd:textID="118" style="&st18;" transform="matrix(&st16;  969.68  408.85 )">Headlight <tspan dy="6.0" x="0 ">Assembly RH</tspan></text><text style="&st18;" transform="matrix(&st16;  656.44  482.51 )">W-B</text><text style="&st18;" transform="matrix(&st16;  656.44  431.52 )">W-B</text><text style="&st18;" transform="matrix(&st16;  656.44  397.52 )">W-B</text><text style="&st18;" transform="matrix(&st16;  656.44  363.53 )">W-B</text><text style="&st18;" transform="matrix(&st16;  775.42  525.0 )">W-B</text><text style="&st18;" transform="matrix(&st16;  868.9  431.52 )">W-B</text><text style="&st18;" transform="matrix(&st16;  945.08  403.19 )">(E)</text><text style="&st18;" transform="matrix(&st16;  868.9  363.53 )">W-B</text><text ewd:textID="1" style="&st18;" transform="matrix(&st16;  860.6  374.86 )">(HID Type)</text><text style="&st18;" transform="matrix(&st16;  969.67  401.75 )">A60</text><text style="&st18;" transform="matrix(&st16;  648.95  442.85 )">(RHD *20)</text><text style="&st18;" transform="matrix(&st16;  814.06  521.46 )">5</text><text style="&st18;" transform="matrix(&st17;  744.18  458.16 )">W-B</text><text ewd:textID="2" style="&st18;" transform="matrix(&st16;  855.45  408.85 )">(Halogen Type)</text><text style="&st18;" transform="matrix(&st16;  868.9  626.98 )">W-B</text><text style="&st18;" transform="matrix(&st16;  868.9  525.0 )">W-B</text><text style="&st18;" transform="matrix(&st16;  673.43  151.06 )">W-B</text><text style="&st18;" transform="matrix(&st16;  596.02  190.72 )">(E04)</text><text style="&st18;" transform="matrix(&st16;  591.05  224.72 )">(ME01)</text><text style="&st18;" transform="matrix(&st16;  596.02  156.73 )">(E03)</text><text style="&st18;" transform="matrix(&st16;  527.75  155.29 )">E83</text><text style="&st18;" transform="matrix(&st16;  527.76  162.39 )">ECM</text><text style="&st18;" transform="matrix(&st16;  527.75  121.29 )">E38</text><text style="&st18;" transform="matrix(&st16;  593.15  122.73 )">(GND)</text><text style="&st18;" transform="matrix(&st16;  593.15  88.74 )">(GND)</text><text style="&st18;" transform="matrix(&st16;  527.75  87.3 )">E37</text><text style="&st18;" transform="matrix(&st16;  527.75  53.3 )">E41</text><text style="&st18;" transform="matrix(&st16;  593.15  54.75 )">(GND)</text><text style="&st18;" transform="matrix(&st16;  593.15  20.75 )">(GND)</text><text style="&st18;" transform="matrix(&st16;  527.75  19.31 )">E42</text><text ewd:textID="136" style="&st18;" transform="matrix(&st16;  527.76  128.4 )">Ignition Coil <tspan dy="6.0" x="0 ">Assembly No. 3</tspan></text><text ewd:textID="134" style="&st18;" transform="matrix(&st16;  527.76  94.41 )">Ignition Coil <tspan dy="6.0" x="0 ">Assembly No. 1</tspan></text><text ewd:textID="137" style="&st18;" transform="matrix(&st16;  527.76  26.42 )">Ignition Coil <tspan dy="6.0" x="0 ">Assembly No. 4</tspan></text><text ewd:textID="135" style="&st18;" transform="matrix(&st16;  527.76  60.41 )">Ignition Coil <tspan dy="6.0" x="0 ">Assembly No. 2</tspan></text><text style="&st18;" transform="matrix(&st16;  735.26  253.05 )">(1AZ-FE)</text><text style="&st18;" transform="matrix(&st16;  673.43  185.06 )">W-B</text><text style="&st18;" transform="matrix(&st17;  735.68  169.21 )">W-B</text><text style="&st18;" transform="matrix(&st16;  673.43  117.07 )">W-B</text><text style="&st18;" transform="matrix(&st16;  673.43  83.07 )">W-B</text><text style="&st18;" transform="matrix(&st17;  735.68  92.72 )">W-B</text><text style="&st18;" transform="matrix(&st16;  673.43  49.08 )">W-B</text><text style="&st18;" transform="matrix(&st16;  673.43  15.09 )">W-B</text><text style="&st18;" transform="matrix(&st16;  673.43  219.05 )">W-B</text><text ewd:textID="21" style="&st18;" transform="matrix(&st16;  812.46  122.73 )">*19 :w/ Headlight Beam Level Control (Automatic)</text><text style="&st18;" transform="matrix(&st16;  969.67  469.74 )">A75</text><text style="&st18;" transform="matrix(&st16;  945.08  471.18 )">(E)</text><text style="&st18;" transform="matrix(&st16;  871.3  465.51 )">BR</text><text style="&st18;" transform="matrix(&st16;  767.04  536.33 )">(*7,*8 *28)</text><text style="&st18;" transform="matrix(&st16;  860.52  536.33 )">(*7,*8 *28)</text><text ewd:textID="24" style="&st18;" transform="matrix(&st16;  812.46  139.73 )">*22 :Before Sep. 2013 Production</text><text style="&st18;" transform="matrix(&st16;  945.08  598.65 )">(GND2)</text><text ewd:textID="141" style="&st18;" transform="matrix(&st16;  969.68  570.33 )">Integration Relay <tspan dy="6.0" x="0 ">(Engine Room </tspan><tspan dy="6.0" x="0 "> Junction Block </tspan><tspan dy="6.0" x="0 "> Assembly)</tspan></text><text style="&st18;" transform="matrix(&st16;  945.08  564.66 )">(GND1)</text><text style="&st18;" transform="matrix(&st16;  868.9  558.99 )">W-B</text><text style="&st18;" transform="matrix(&st16;  912.06  564.66 )">1F</text><text style="&st18;" transform="matrix(&st16;  913.92  555.45 )">3</text><text style="&st18;" transform="matrix(&st16;  868.59  570.33 )">(*23)</text><text style="&st18;" transform="matrix(&st16;  868.9  592.99 )">W-B</text><text style="&st18;" transform="matrix(&st16;  911.71  598.65 )">1G</text><text style="&st18;" transform="matrix(&st16;  913.92  589.45 )">4</text><text style="&st18;" transform="matrix(&st16;  868.59  604.32 )">(*23)</text><text style="&st18;" transform="matrix(&st17;  812.17  645.13 )">W-B</text><text style="&st18;" transform="matrix(&st17;  823.5  645.44 )">(*23)</text><text ewd:textID="28" style="&st18;" transform="matrix(&st16;  812.46  165.23 )">*28 :From Sep. 2014 Production</text><text ewd:textID="4" style="&st18;" transform="matrix(&st16;  812.46  71.74 )">* 1 :w/ Entry &amp; Start System</text><text ewd:textID="10" style="&st18;" transform="matrix(&st16;  812.46  80.24 )">* 7 :TMC Made</text><text ewd:textID="11" style="&st18;" transform="matrix(&st16;  812.46  88.74 )">* 8 :TMMR Made</text><text ewd:textID="13" style="&st18;" transform="matrix(&st16;  812.46  97.24 )">*10 :LHD w/ Wireless Door Lock Buzzer</text><text ewd:textID="18" style="&st18;" transform="matrix(&st16;  812.46  105.74 )">*15 :w/ Adaptive Front-Lighting System</text><text ewd:textID="118" style="&st18;" transform="matrix(&st16;  527.76  570.33 )">Headlight Assembly RH</text><text ewd:textID="146" style="&st18;" transform="matrix(&st16;  969.68  476.84 )">Level Warning <tspan dy="6.0" x="0 ">Switch Assembly </tspan><tspan dy="6.0" x="0 ">(Windshield Washer </tspan><tspan dy="6.0" x="0 "> Motor and Pump </tspan><tspan dy="6.0" x="0 "> Assembly)</tspan></text><text ewd:textID="126" style="&st18;" transform="matrix(&st16;  969.68  315.37 )">Heated <tspan dy="6.0" x="0 ">Windshield </tspan><tspan dy="6.0" x="0 ">Defroster LH </tspan><tspan dy="6.0" x="0 ">(Windshield </tspan><tspan dy="6.0" x="0 "> Glass)</tspan></text><text ewd:textID="127" style="&st18;" transform="matrix(&st16;  969.68  255.88 )">Heated <tspan dy="6.0" x="0 ">Windshield </tspan><tspan dy="6.0" x="0 ">Defroster RH </tspan><tspan dy="6.0" x="0 ">(Windshield </tspan><tspan dy="6.0" x="0 "> Glass)</tspan></text><text ewd:textID="22" style="&st18;" transform="matrix(&st16;  812.46  131.23 )">*20 :w/ Wireless Door Lock Control</text><text ewd:textID="25" style="&st18;" transform="matrix(&st16;  812.46  148.23 )">*23 :From Sep. 2013 Production</text><text ewd:textID="19" style="&st18;" transform="matrix(&st16;  812.46  114.24 )">*16 :w/ Headlight Cleaner</text><text ewd:textID="27" style="&st18;" transform="matrix(&st16;  812.46  156.73 )">*27 :Before Sep. 2014 Production</text><text style="&st18;" transform="matrix(&st16;  602.22  564.66 )">(E)</text><text style="&st18;" transform="matrix(&st16;  527.75  563.22 )">A78</text><text style="&st18;" transform="matrix(&st16;  656.44  558.99 )">W-B</text><text style="&st18;" transform="matrix(&st16;  656.13  570.33 )">(*28)</text><text style="&st18;" transform="matrix(&st16;  969.67  248.77 )">A82</text><text style="&st18;" transform="matrix(&st16;  945.08  250.21 )">(E)</text><text style="&st18;" transform="matrix(&st16;  868.9  304.04 )">W-B</text><text style="&st18;" transform="matrix(&st16;  945.08  309.7 )">(E)</text><text style="&st18;" transform="matrix(&st16;  868.9  244.55 )">W-B</text><text style="&st18;" transform="matrix(&st16;  969.67  308.26 )">A83</text><text style="&st18;" transform="matrix(&st16;  656.13  408.85 )">(*27)</text><text style="&st18;" transform="matrix(&st16;  969.67  665.2 )">A81</text><text style="&st18;" transform="matrix(&st16;  945.08  666.64 )">(E)</text><text ewd:textID="111" style="&st18;" transform="matrix(&st16;  969.68  672.31 )">Front Wiper <tspan dy="6.0" x="0 ">Deicer </tspan><tspan dy="6.0" x="0 ">(Windshield </tspan><tspan dy="6.0" x="0 "> Glass)</tspan></text><text style="&st18;" transform="matrix(&st16;  868.9  660.98 )">W-B</text><text style="&st18;" transform="matrix(&st16;  812.46  173.73 )">*52 :2GR-FE</text><text style="&st18;" transform="matrix(&st16;  812.46  182.22 )">*53 :2AR-FE</text><text style="&st18;" transform="matrix(&st16;  812.46  190.72 )">*54 :1AZ-FE</text><text style="&st18;" transform="matrix(&st16;  812.46  199.22 )">*55 :6AR-FSE</text></svg>