﻿<?xml version="1.0" encoding="utf-8"?>
<!DOCTYPE svg PUBLIC "-//W3C//DTD SVG 1.0//EN" "http://www.w3.org/TR/2001/REC-SVG-20010904/DTD/svg10.dtd"[
	<!ENTITY ns_flows "http://ns.adobe.com/Flows/1.0/">
	<!ENTITY ns_svg "http://www.w3.org/2000/svg">
	<!ENTITY ns_xlink "http://www.w3.org/1999/xlink">
	<!ENTITY st0 "font-size:7px;font-family:'MS-PGothic';adobe-font-script:japanese;">
	<!ENTITY st1 "font-size:6px;font-family:'ArialMT';">
	<!-- White fill  -->
	<!ENTITY st2 "fill:#FFFFFF;stroke:#000000; stroke-width:1.41;stroke-linecap:round;stroke-linejoin:round;">
	<!-- Yellow fill  -->
	<!ENTITY st3 "fill:#FFFFCC;stroke:#FFFFCC; stroke-width:0.1;stroke-linecap:round;stroke-linejoin:round;">
	<!-- Gray fill  -->
	<!ENTITY st4 "fill:#CCCCCC;stroke:#CCCCCC; stroke-width:0.1;stroke-linecap:round;stroke-linejoin:round;">
	<!-- Light-blue fill -->
	<!ENTITY st5 "fill:#CCECF4;stroke:#000000; stroke-width:1.133;stroke-linecap:round;stroke-linejoin:round;">
	<!ENTITY st6 "fill:none;stroke-linecap:butt; stroke-linejoin:round;">
	<!ENTITY st7 "fill:none;stroke:#000000;stroke-linecap:round;stroke-linejoin:round;">
	<!ENTITY st8 "enable-background:new    ;">
	<!-- Black fill -->
	<!ENTITY st9 "fill:#000000;stroke:#000000; stroke-linecap:round;stroke-linejoin:round;">
	<!-- SRS note   -->
	<!ENTITY st10 "font-size:9px;font-family:'ArialMT';">
	<!ENTITY st11 "font-size:9px;font-family:'Svg Symbol';">
	<!ENTITY st12 "font-size:6px;font-family:'Svg Symbol';">
	<!ENTITY st13 "fill:none;stroke:#ff0000;stroke-linecap:round;stroke-linejoin:round;">
	<!-- Yellow fill  -->
	<!ENTITY st14 "fill:#FFFF00;stroke:#FFFF00; stroke-width:0.1;stroke-linecap:round;stroke-linejoin:round;">
	<!ENTITY st15 "font-size:6px;font-family:'MS-PGothic';adobe-font-script:japanese;">
	<!ENTITY st16 "1.00 0.00 0.00 1.00">
	<!ENTITY st17 "0.00 -1.00 1.00 0.00">
	<!ENTITY st18 "font-size:6px;font-family:'Arial';">
	<!ENTITY st19 "font-size:9px;font-family:'Arial';">
	<!ENTITY st20 "font-size:6px;font-family:'MS-PGothic','MS PGothic';adobe-font-script:japanese;">
	<!ENTITY st21 "font-size:7px;font-family:'MS-PGothic','MS PGothic';adobe-font-script:japanese;">
	<!ATTLIST svg
		xmlns:ewd CDATA #FIXED "http://shcl.co.jp/ewd"
		xmlns:a CDATA #FIXED "http://ns.adobe.com/AdobeSVGViewerExtensions/3.0/"
		ewd:ver CDATA #IMPLIED
	>
	<!ATTLIST a
		ewd:lineID CDATA #IMPLIED
		ewd:groupID CDATA #IMPLIED
		ewd:figtype CDATA #IMPLIED
		ewd:code CDATA #IMPLIED
		ewd:figID CDATA #IMPLIED
		ewd:pinNo CDATA #IMPLIED
		ewd:comment CDATA #IMPLIED >
	<!ATTLIST g
		ewd:lineID CDATA #IMPLIED
		ewd:groupID CDATA #IMPLIED
		ewd:figtype CDATA #IMPLIED
		ewd:code CDATA #IMPLIED
		ewd:figID CDATA #IMPLIED
		ewd:pinNo CDATA #IMPLIED
		ewd:comment CDATA #IMPLIED >
	<!ATTLIST text
		ewd:textID CDATA #IMPLIED >
	<!ATTLIST title
		ewd:textID CDATA #IMPLIED >
]>
<!-- Generator: Shintec Hozumi YS   -->
<svg onload="call_execInitLoadProc_svg('system')" style="overflow:visible;  enable-background:new 0 0 7768.410 710.000" viewBox="0 0 7768.410 710.000" height="710.000" width="7768.410" xml:space="preserve" ewd:ver="L2.1.2.9" xmlns="&ns_svg;" xmlns:a="http://ns.adobe.com/AdobeSVGViewerExtensions/3.0/" xmlns:ewd="http://shcl.co.jp/ewd" xmlns:xlink="&ns_xlink;">
<path d=" M  5490.08,   508.17  L  5485.11,   503.20  " style="stroke-width: 1.42 ;&st7;  " /><path d=" M  5473.09,   515.23  L  5478.06,   520.20  " style="stroke-width: 1.42 ;&st7;  " /><path d=" M  5485.11,   520.20  L  5490.08,   515.23  " style="stroke-width: 1.42 ;&st7;  " /><path d=" M  5478.06,   503.20  L  5473.09,   508.17  " style="stroke-width: 1.42 ;&st7;  " /><path d=" M  5490.08,   372.20  L  5485.11,   367.22  " style="stroke-width: 1.42 ;&st7;  " /><path d=" M  5473.09,   379.25  L  5478.06,   384.22  " style="stroke-width: 1.42 ;&st7;  " /><path d=" M  5485.11,   384.22  L  5490.08,   379.25  " style="stroke-width: 1.42 ;&st7;  " /><path d=" M  5478.06,   367.22  L  5473.09,   372.20  " style="stroke-width: 1.42 ;&st7;  " /><path d=" M  5490.08,   304.21  L  5485.11,   299.24  " style="stroke-width: 1.42 ;&st7;  " /><path d=" M  5473.09,   311.26  L  5478.06,   316.23  " style="stroke-width: 1.42 ;&st7;  " /><path d=" M  5485.11,   316.23  L  5490.08,   311.26  " style="stroke-width: 1.42 ;&st7;  " /><path d=" M  5478.06,   299.24  L  5473.09,   304.21  " style="stroke-width: 1.42 ;&st7;  " /><path d=" M  5490.08,   168.23  L  5485.11,   163.26  " style="stroke-width: 1.42 ;&st7;  " /><path d=" M  5473.09,   175.29  L  5478.06,   180.26  " style="stroke-width: 1.42 ;&st7;  " /><path d=" M  5485.11,   180.26  L  5490.08,   175.29  " style="stroke-width: 1.42 ;&st7;  " /><path d=" M  5478.06,   163.26  L  5473.09,   168.23  " style="stroke-width: 1.42 ;&st7;  " /><path d=" M  5430.59,   168.23  L  5425.62,   163.26  " style="stroke-width: 1.42 ;&st7;  " /><path d=" M  5413.60,   175.29  L  5418.57,   180.26  " style="stroke-width: 1.42 ;&st7;  " /><path d=" M  5425.62,   180.26  L  5430.59,   175.29  " style="stroke-width: 1.42 ;&st7;  " /><path d=" M  5418.57,   163.26  L  5413.60,   168.23  " style="stroke-width: 1.42 ;&st7;  " /><path d=" M  5192.63,   401.22  L  5192.63,   426.71  L  5277.62,   426.71  L  5277.62,   401.22  L  5192.63,   401.22  " style="stroke-width: 1.42 ;&st7;  " /><path d=" M  5192.63,   469.21  L  5192.63,   494.70  L  5277.62,   494.70  L  5277.62,   469.21  L  5192.63,   469.21  " style="stroke-width: 1.42 ;&st7;  " /><path d=" M  5192.63,   299.24  L  5192.63,   358.73  L  5277.62,   358.73  L  5277.62,   299.24  L  5192.63,   299.24  " style="stroke-width: 1.42 ;&st7;  " /><path d=" M  5192.63,   503.20  L  5192.63,   562.69  L  5277.62,   562.69  L  5277.62,   503.20  L  5192.63,   503.20  " style="stroke-width: 1.42 ;&st7;  " /><path d=" M  5090.65,    18.78  L  5090.65,    78.27  L  5175.63,    78.27  L  5175.63,    18.78  L  5090.65,    18.78  " style="stroke-width: 1.42 ;&st7;  " /><path d=" M  5090.65,   137.76  L  5090.65,   180.26  L  5175.63,   180.26  L  5175.63,   137.76  L  5090.65,   137.76  " style="stroke-width: 1.42 ;&st7;  " /><path d=" M  5090.65,   188.75  L  5090.65,   231.25  L  5175.63,   231.25  L  5175.63,   188.75  L  5090.65,   188.75  " style="stroke-width: 1.42 ;&st7;  " /><path d=" M  5090.65,    86.77  L  5090.65,   129.26  L  5175.63,   129.26  L  5175.63,    86.77  L  5090.65,    86.77  " style="stroke-width: 1.42 ;&st7;  " /><path d=" M  5477.33,   704.33  L  5485.83,   704.33  " style="stroke-width: 0.85 ;&st7;  " /><path d=" M  5473.08,   701.50  L  5490.08,   701.50  " style="stroke-width: 0.85 ;&st7;  " /><path d=" M  5481.58,   697.25  L  5481.58,   701.50  " style="stroke-width: 0.85 ;&st7;  " /><path d=" M  5478.75,   707.17  L  5484.41,   707.17  " style="stroke-width: 0.85 ;&st7;  " /><path d=" M  5480.17,   710.00  L  5483.00,   710.00  " style="stroke-width: 0.85 ;&st7;  " /><path d=" M  5090.65,   239.75  L  5090.65,   265.24  L  5175.63,   265.24  L  5175.63,   239.75  L  5090.65,   239.75  " style="stroke-width: 1.42 ;&st7;  " /><path d=" M  5090.65,   273.74  L  5090.65,   299.24  L  5175.63,   299.24  L  5175.63,   273.74  L  5090.65,   273.74  " style="stroke-width: 1.42 ;&st7;  " /><path d=" M  5090.65,   307.73  L  5090.65,   333.23  L  5175.63,   333.23  L  5175.63,   307.73  L  5090.65,   307.73  " style="stroke-width: 1.42 ;&st7;  " /><path d=" M  5192.63,   265.24  L  5192.63,   290.74  L  5277.62,   290.74  L  5277.62,   265.24  L  5192.63,   265.24  " style="stroke-width: 1.42 ;&st7;  " /><path d=" M  5192.63,   367.22  L  5192.63,   392.72  L  5277.62,   392.72  L  5277.62,   367.22  L  5192.63,   367.22  " style="stroke-width: 1.42 ;&st7;  " /><path d=" M  5192.63,   571.19  L  5192.63,   630.68  L  5277.62,   630.68  L  5277.62,   571.19  L  5192.63,   571.19  " style="stroke-width: 1.42 ;&st7;  " /><path d=" M  5192.63,   197.25  L  5192.63,   256.74  L  5277.62,   256.74  L  5277.62,   197.25  L  5192.63,   197.25  " style="stroke-width: 1.42 ;&st7;  " /><path d=" M  5192.63,   129.26  L  5192.63,   188.75  L  5277.62,   188.75  L  5277.62,   129.26  L  5192.63,   129.26  " style="stroke-width: 1.42 ;&st7;  " /><text style="&st18;" transform="matrix(&st16;  5116.98  146.79 )">K9</text><text style="&st18;" transform="matrix(&st16;  5092.38  148.23 )">(GND)</text><text ewd:textID="102" style="&st18;" transform="matrix(&st16;  5116.99  153.9 )">Front Power <tspan dy="6.0" x="0 ">Window Regulator </tspan><tspan dy="6.0" x="0 ">Motor </tspan><tspan dy="6.0" x="0 ">Assembly LH</tspan></text><text ewd:textID="104" style="&st18;" transform="matrix(&st16;  5116.99  204.89 )">Front Power <tspan dy="6.0" x="0 ">Window Regulator </tspan><tspan dy="6.0" x="0 ">Switch </tspan><tspan dy="6.0" x="0 ">Assembly LH</tspan></text><text style="&st18;" transform="matrix(&st16;  5092.38  199.22 )">(GND)</text><text style="&st18;" transform="matrix(&st16;  5116.98  197.78 )">K4</text><text style="&st18;" transform="matrix(&st16;  5092.38  97.24 )">(-)</text><text style="&st18;" transform="matrix(&st16;  5116.98  95.8 )">K8</text><text style="&st18;" transform="matrix(&st16;  5024.71  91.57 )">W-B</text><text style="&st18;" transform="matrix(&st16;  5092.38  63.24 )">(HL-)</text><text style="&st18;" transform="matrix(&st17;  5010.47  560.15 )">W-B</text><text style="&st18;" transform="matrix(&st16;  5267.94  343.7 )">(E)</text><text style="&st18;" transform="matrix(&st16;  5259.49  411.69 )">(ILL-)</text><text style="&st18;" transform="matrix(&st16;  5193.47  410.25 )">I9</text><text ewd:textID="120" style="&st18;" transform="matrix(&st16;  5193.48  417.35 )">Headlight Cleaner <tspan dy="6.0" x="0 ">Switch Assembly</tspan></text><text style="&st18;" transform="matrix(&st16;  5193.47  478.23 )">I15</text><text ewd:textID="155" style="&st18;" transform="matrix(&st16;  5193.48  485.34 )">Multiplex Tilt &amp;<tspan dy="6.0" x="0 ">Telescopic ECU</tspan></text><text ewd:textID="125" style="&st18;" transform="matrix(&st16;  5193.48  315.37 )">Headlight Swivel <tspan dy="6.0" x="0 ">Main Switch</tspan></text><text style="&st18;" transform="matrix(&st16;  5193.47  308.26 )">I8</text><text style="&st18;" transform="matrix(&st16;  5259.49  309.7 )">(ILL-)</text><text style="&st18;" transform="matrix(&st16;  5334.62  553.33 )">(LHD *21 *27)</text><text style="&st18;" transform="matrix(&st16;  5340.21  519.33 )">(LHD *27)</text><text style="&st18;" transform="matrix(&st16;  5341.76  417.35 )">(*16 *27)</text><text style="&st18;" transform="matrix(&st16;  5259.49  547.66 )">(ILL-)</text><text style="&st18;" transform="matrix(&st16;  5193.47  512.23 )">I5</text><text ewd:textID="65" style="&st18;" transform="matrix(&st16;  5193.48  519.33 )">Back Sonar or <tspan dy="6.0" x="0 ">Clearance Sonar </tspan><tspan dy="6.0" x="0 ">Switch Assembly</tspan></text><text style="&st18;" transform="matrix(&st16;  5267.94  513.67 )">(E)</text><text style="&st18;" transform="matrix(&st16;  5255.77  479.67 )">(GND2)</text><text ewd:textID="163" style="&st18;" transform="matrix(&st16;  5116.99  34.92 )">Outer Rear <tspan dy="6.0" x="0 ">View Mirror </tspan><tspan dy="6.0" x="0 ">Assembly LH</tspan></text><text style="&st18;" transform="matrix(&st16;  5092.38  29.25 )">(E)</text><text style="&st18;" transform="matrix(&st16;  5116.98  27.81 )">K7</text><text style="&st18;" transform="matrix(&st16;  5203.18  448.51 )">W-B</text><text style="&st18;" transform="matrix(&st16;  5152.18  448.51 )">W-B</text><text style="&st18;" transform="matrix(&st16;  5152.18  643.98 )">W-B</text><text style="&st18;" transform="matrix(&st16;  5203.18  643.98 )">W-B</text><text style="&st18;" transform="matrix(&st17;  5477.89  602.64 )">W-B</text><text style="&st18;" transform="matrix(&st16;  5347.65  542.0 )">W-B</text><text style="&st18;" transform="matrix(&st16;  5347.65  508.0 )">W-B</text><text style="&st18;" transform="matrix(&st16;  5350.06  474.01 )">BR</text><text style="&st18;" transform="matrix(&st16;  5347.65  406.02 )">W-B</text><text style="&st18;" transform="matrix(&st16;  5347.65  304.04 )">W-B</text><text style="&st18;" transform="matrix(&st16;  5350.06  338.03 )">BR</text><text ewd:textID="94" style="&st18;" transform="matrix(&st16;  5116.99  102.9 )">Front Door <tspan dy="6.0" x="0 ">Inside Handle </tspan><tspan dy="6.0" x="0 ">Illumination </tspan><tspan dy="6.0" x="0 ">Light Assembly LH</tspan></text><text style="&st18;" transform="matrix(&st16;  5022.81  204.89 )">(RHD)</text><text style="&st18;" transform="matrix(&st16;  5341.76  349.36 )">(*15 *27)</text><text style="&st18;" transform="matrix(&st16;  5341.76  315.37 )">(*15 *27)</text><text style="&st18;" transform="matrix(&st17;  5477.89  432.67 )">W-B</text><text ewd:textID="15" style="&st18;" transform="matrix(&st16;  5206.22  97.24 )">*12 :w/o Seat Heater (Driver's Seat and Front Passenger's Seat)</text><text ewd:textID="4" style="&st18;" transform="matrix(&st16;  5206.22  20.75 )">* 1 :w/ Entry &amp; Start System</text><text ewd:textID="6" style="&st18;" transform="matrix(&st16;  5206.22  37.75 )">* 3 :w/ ID Code Box</text><text ewd:textID="9" style="&st18;" transform="matrix(&st16;  5206.22  63.24 )">* 6 :Except *5</text><text ewd:textID="18" style="&st18;" transform="matrix(&st16;  5478.18  20.75 )">*15 :w/ Adaptive Front-Lighting System</text><text ewd:textID="14" style="&st18;" transform="matrix(&st16;  5206.22  88.74 )">*11 :w/ Seat Heater (Driver's Seat and Front Passenger's Seat)</text><text ewd:textID="16" style="&st18;" transform="matrix(&st16;  5206.22  105.74 )">*13 :w/ Power Seat (Driver's Seat and Front Passenger's Seat)</text><text ewd:textID="17" style="&st18;" transform="matrix(&st16;  5206.22  114.24 )">*14 :w/o Power Seat (Driver's Seat and Front Passenger's Seat)</text><text ewd:textID="5" style="&st18;" transform="matrix(&st16;  5206.22  29.25 )">* 2 :w/o Entry &amp; Start System</text><text ewd:textID="23" style="&st18;" transform="matrix(&st16;  5478.18  37.75 )">*21 :w/ Parking Assist (TOYOTA Parking Assist-Sensor)</text><text ewd:textID="19" style="&st18;" transform="matrix(&st16;  5478.18  29.25 )">*16 :w/ Headlight Cleaner</text><text style="&st18;" transform="matrix(&st16;  5027.11  193.56 )">BR</text><text style="&st18;" transform="matrix(&st16;  5024.71  142.56 )">W-B</text><text style="&st18;" transform="matrix(&st16;  5024.71  57.58 )">W-B</text><text style="&st18;" transform="matrix(&st16;  5024.71  23.58 )">W-B</text><text style="&st18;" transform="matrix(&st16;  5092.38  250.21 )">(GND)</text><text style="&st18;" transform="matrix(&st16;  5116.98  248.77 )">I15</text><text ewd:textID="155" style="&st18;" transform="matrix(&st16;  5116.99  255.88 )">Multiplex Tilt <tspan dy="6.0" x="0 ">&amp; Telescopic ECU</tspan></text><text style="&st18;" transform="matrix(&st16;  5092.38  284.21 )">(GND)</text><text style="&st18;" transform="matrix(&st16;  5116.98  282.77 )">I16</text><text ewd:textID="142" style="&st18;" transform="matrix(&st16;  5116.99  289.87 )">Ion Generator <tspan dy="6.0" x="0 ">Assembly</tspan></text><text style="&st18;" transform="matrix(&st16;  5092.38  318.2 )">(ES)</text><text style="&st18;" transform="matrix(&st16;  5116.98  316.76 )">I18</text><text ewd:textID="79" style="&st18;" transform="matrix(&st16;  5116.99  323.87 )">Combination <tspan dy="6.0" x="0 ">Meter Assembly</tspan></text><text style="&st18;" transform="matrix(&st16;  5024.71  244.55 )">W-B</text><text style="&st18;" transform="matrix(&st16;  5024.71  278.54 )">W-B</text><text style="&st18;" transform="matrix(&st16;  5027.11  312.54 )">BR</text><text style="&st18;" transform="matrix(&st16;  5347.65  168.06 )">W-B</text><text style="&st18;" transform="matrix(&st16;  5341.76  179.39 )">(*21 *28)</text><text style="&st18;" transform="matrix(&st16;  5347.65  134.07 )">W-B</text><text style="&st18;" transform="matrix(&st16;  5341.76  145.4 )">(*21 *28)</text><text ewd:textID="27" style="&st18;" transform="matrix(&st16;  5478.18  54.75 )">*27 :Before Sep. 2014 Production</text><text ewd:textID="28" style="&st18;" transform="matrix(&st16;  5478.18  63.24 )">*28 :From Sep. 2014 Production</text><text ewd:textID="34" style="&st18;" transform="matrix(&st16;  5478.18  114.24 )">*34 :w/ Radio &amp; Display Receiver Assembly</text><text ewd:textID="35" style="&st18;" transform="matrix(&st16;  5478.18  122.73 )">*35 :w/ Navigation Receiver Assembly</text><text ewd:textID="24" style="&st18;" transform="matrix(&st16;  5478.18  46.25 )">*22 :Before Sep. 2013 Production</text><text ewd:textID="10" style="&st18;" transform="matrix(&st16;  5206.22  71.74 )">* 7 :TMC Made</text><text ewd:textID="11" style="&st18;" transform="matrix(&st16;  5206.22  80.24 )">* 8 :TMMR Made</text><text ewd:textID="31" style="&st18;" transform="matrix(&st16;  5478.18  88.74 )">*31 :Russia</text><text ewd:textID="32" style="&st18;" transform="matrix(&st16;  5478.18  97.24 )">*32 :Except Russia</text><text ewd:textID="33" style="&st18;" transform="matrix(&st16;  5478.18  105.74 )">*33 :w/ Blind Spot Monitor System</text><text ewd:textID="30" style="&st18;" transform="matrix(&st16;  5478.18  71.74 )">*30 :From Sep. 2013 Production <tspan dy="8.5" x="14.16">until Sep. 2014 Production</tspan></text><text style="&st18;" transform="matrix(&st17;  5477.89  245.7 )">W-B</text><text ewd:textID="67" style="&st18;" transform="matrix(&st16;  5193.48  587.32 )">Blind Spot Monitor <tspan dy="6.0" x="0 ">Main Switch </tspan><tspan dy="6.0" x="0 ">(Warning Canceling </tspan><tspan dy="6.0" x="0 "> Switch Assembly)</tspan></text><text ewd:textID="120" style="&st18;" transform="matrix(&st16;  5193.48  383.36 )">Headlight Cleaner <tspan dy="6.0" x="0 ">Switch Assembly</tspan></text><text ewd:textID="110" style="&st18;" transform="matrix(&st16;  5193.48  281.37 )">Front Window <tspan dy="6.0" x="0 ">Deicer Switch</tspan></text><text style="&st18;" transform="matrix(&st16;  5024.4  289.87 )">(*27)</text><text style="&st18;" transform="matrix(&st17;  5477.89  351.93 )">W-B</text><text style="&st18;" transform="matrix(&st16;  5259.49  275.71 )">(ILL-)</text><text style="&st18;" transform="matrix(&st16;  5193.47  274.27 )">I195</text><text style="&st18;" transform="matrix(&st16;  5347.65  270.04 )">W-B</text><text style="&st18;" transform="matrix(&st16;  5259.49  377.69 )">(ILL-)</text><text style="&st18;" transform="matrix(&st16;  5193.47  376.25 )">I181</text><text style="&st18;" transform="matrix(&st16;  5347.65  372.03 )">W-B</text><text style="&st18;" transform="matrix(&st16;  5341.76  383.36 )">(*16 *28)</text><text style="&st18;" transform="matrix(&st16;  5259.49  615.65 )">(ILL-)</text><text style="&st18;" transform="matrix(&st16;  5193.47  580.22 )">I192</text><text style="&st18;" transform="matrix(&st16;  5267.94  581.66 )">(E)</text><text style="&st18;" transform="matrix(&st16;  5347.65  575.99 )">W-B</text><text style="&st18;" transform="matrix(&st16;  5347.34  587.32 )">(*33)</text><text style="&st18;" transform="matrix(&st16;  5347.65  609.99 )">W-B</text><text style="&st18;" transform="matrix(&st16;  5347.34  621.32 )">(*33)</text><text ewd:textID="8" style="&st18;" transform="matrix(&st16;  5206.22  46.25 )">* 5 :w/ Parking Assist (TOYOTA Parking Assist-Sensor), <tspan dy="8.5" x="14.17">w/ Power Tilt and Power Telescopic, w/ Headlight Cleaner</tspan></text><text style="&st18;" transform="matrix(&st16;  5350.06  236.05 )">BR</text><text style="&st18;" transform="matrix(&st16;  5347.34  247.38 )">(*43)</text><text style="&st18;" transform="matrix(&st16;  5347.65  202.05 )">W-B</text><text style="&st18;" transform="matrix(&st16;  5347.34  213.39 )">(*43)</text><text style="&st18;" transform="matrix(&st16;  5445.39  168.06 )">W-B</text><text style="&st18;" transform="matrix(&st16;  5347.34  281.37 )">(*56)</text><text style="&st18;" transform="matrix(&st16;  5267.94  241.71 )">(E)</text><text ewd:textID="211" style="&st18;" transform="matrix(&st16;  5193.48  213.39 )">Vehicle <tspan dy="6.0" x="0 ">Stability </tspan><tspan dy="6.0" x="0 ">Control </tspan><tspan dy="6.0" x="0 ">Switch</tspan></text><text style="&st18;" transform="matrix(&st16;  5193.47  206.28 )">I179</text><text style="&st18;" transform="matrix(&st16;  5259.49  207.72 )">(ILL-)</text><text style="&st18;" transform="matrix(&st16;  5267.94  173.73 )">(E)</text><text ewd:textID="65" style="&st18;" transform="matrix(&st16;  5193.48  145.4 )">Back Sonar <tspan dy="6.0" x="0 ">or Clearance </tspan><tspan dy="6.0" x="0 ">Sonar Switch </tspan><tspan dy="6.0" x="0 ">Assembly</tspan></text><text style="&st18;" transform="matrix(&st16;  5193.47  138.29 )">I178</text><text style="&st18;" transform="matrix(&st16;  5259.49  139.73 )">(ILL-)</text></svg>