﻿<?xml version="1.0" encoding="utf-8"?>
<!DOCTYPE svg PUBLIC "-//W3C//DTD SVG 1.0//EN" "http://www.w3.org/TR/2001/REC-SVG-20010904/DTD/svg10.dtd"[
	<!ENTITY ns_flows "http://ns.adobe.com/Flows/1.0/">
	<!ENTITY ns_svg "http://www.w3.org/2000/svg">
	<!ENTITY ns_xlink "http://www.w3.org/1999/xlink">
	<!ENTITY st0 "font-size:7px;font-family:'MS-PGothic';adobe-font-script:japanese;">
	<!ENTITY st1 "font-size:6px;font-family:'ArialMT';">
	<!-- White fill  -->
	<!ENTITY st2 "fill:#FFFFFF;stroke:#000000; stroke-width:1.41;stroke-linecap:round;stroke-linejoin:round;">
	<!-- Yellow fill  -->
	<!ENTITY st3 "fill:#FFFFCC;stroke:#FFFFCC; stroke-width:0.1;stroke-linecap:round;stroke-linejoin:round;">
	<!-- Gray fill  -->
	<!ENTITY st4 "fill:#CCCCCC;stroke:#CCCCCC; stroke-width:0.1;stroke-linecap:round;stroke-linejoin:round;">
	<!-- Light-blue fill -->
	<!ENTITY st5 "fill:#CCECF4;stroke:#000000; stroke-width:1.133;stroke-linecap:round;stroke-linejoin:round;">
	<!ENTITY st6 "fill:none;stroke-linecap:butt; stroke-linejoin:round;">
	<!ENTITY st7 "fill:none;stroke:#000000;stroke-linecap:round;stroke-linejoin:round;">
	<!ENTITY st8 "enable-background:new    ;">
	<!-- Black fill -->
	<!ENTITY st9 "fill:#000000;stroke:#000000; stroke-linecap:round;stroke-linejoin:round;">
	<!-- SRS note   -->
	<!ENTITY st10 "font-size:9px;font-family:'ArialMT';">
	<!ENTITY st11 "font-size:9px;font-family:'Svg Symbol';">
	<!ENTITY st12 "font-size:6px;font-family:'Svg Symbol';">
	<!ENTITY st13 "fill:none;stroke:#ff0000;stroke-linecap:round;stroke-linejoin:round;">
	<!-- Yellow fill  -->
	<!ENTITY st14 "fill:#FFFF00;stroke:#FFFF00; stroke-width:0.1;stroke-linecap:round;stroke-linejoin:round;">
	<!ENTITY st15 "font-size:6px;font-family:'MS-PGothic';adobe-font-script:japanese;">
	<!ENTITY st16 "1.00 0.00 0.00 1.00">
	<!ENTITY st17 "0.00 -1.00 1.00 0.00">
	<!ENTITY st18 "font-size:6px;font-family:'Arial';">
	<!ENTITY st19 "font-size:9px;font-family:'Arial';">
	<!ENTITY st20 "font-size:6px;font-family:'MS-PGothic','MS PGothic';adobe-font-script:japanese;">
	<!ENTITY st21 "font-size:7px;font-family:'MS-PGothic','MS PGothic';adobe-font-script:japanese;">
	<!ATTLIST svg
		xmlns:ewd CDATA #FIXED "http://shcl.co.jp/ewd"
		xmlns:a CDATA #FIXED "http://ns.adobe.com/AdobeSVGViewerExtensions/3.0/"
		ewd:ver CDATA #IMPLIED
	>
	<!ATTLIST a
		ewd:lineID CDATA #IMPLIED
		ewd:groupID CDATA #IMPLIED
		ewd:figtype CDATA #IMPLIED
		ewd:code CDATA #IMPLIED
		ewd:figID CDATA #IMPLIED
		ewd:pinNo CDATA #IMPLIED
		ewd:comment CDATA #IMPLIED >
	<!ATTLIST g
		ewd:lineID CDATA #IMPLIED
		ewd:groupID CDATA #IMPLIED
		ewd:figtype CDATA #IMPLIED
		ewd:code CDATA #IMPLIED
		ewd:figID CDATA #IMPLIED
		ewd:pinNo CDATA #IMPLIED
		ewd:comment CDATA #IMPLIED >
	<!ATTLIST text
		ewd:textID CDATA #IMPLIED >
	<!ATTLIST title
		ewd:textID CDATA #IMPLIED >
]>
<!-- Generator: Shintec Hozumi YS   -->
<svg onload="call_execInitLoadProc_svg('system')" style="overflow:visible;  enable-background:new 0 0 7768.410 710.000" viewBox="0 0 7768.410 710.000" height="710.000" width="7768.410" xml:space="preserve" ewd:ver="L2.1.2.9" xmlns="&ns_svg;" xmlns:a="http://ns.adobe.com/AdobeSVGViewerExtensions/3.0/" xmlns:ewd="http://shcl.co.jp/ewd" xmlns:xlink="&ns_xlink;">
<path d=" M  1912.18,   350.23  L  1971.67,   350.23  " style="stroke:#000000;stroke-width: 0.85;stroke-dasharray:3, 1.5;&st6;" /><path d=" M  1912.18,   324.73  L  1963.17,   324.73  L  1963.17,   333.23  L  1974.15,   344.21  " style="stroke:#000000;stroke-width: 0.85;stroke-dasharray:3, 1.5;&st6;" /><path d=" M  2048.16,   324.73  L  1980.17,   324.73  L  1980.17,   341.73  " style="stroke:#000000;stroke-width: 0.85;stroke-dasharray:3, 1.5;&st6;" /><path d=" M  2048.16,   350.23  L  1988.67,   350.23  " style="stroke:#000000;stroke-width: 0.85;stroke-dasharray:3, 1.5;&st6;" /><path d=" M  2048.16,   375.72  L  1997.17,   375.72  L  1997.17,   367.22  L  1986.18,   356.24  " style="stroke:#000000;stroke-width: 0.85;stroke-dasharray:3, 1.5;&st6;" /><path d=" M  1912.18,   375.72  L  1963.17,   375.72  L  1963.17,   367.22  L  1974.15,   356.24  " style="stroke:#000000;stroke-width: 0.85;stroke-dasharray:3, 1.5;&st6;" /><path d=" M  1827.19,   447.96  L  1827.19,   452.21  " style="stroke-width: 1.42 ;&st7;  " /><path d=" M  1730.18,   443.71  L  1725.21,   448.68  " style="stroke-width: 1.42 ;&st7;  " /><path d=" M  1737.24,   460.71  L  1742.21,   455.74  " style="stroke-width: 1.42 ;&st7;  " /><path d=" M  1725.21,   455.74  L  1730.18,   460.71  " style="stroke-width: 1.42 ;&st7;  " /><path d=" M  1742.21,   448.68  L  1737.24,   443.71  " style="stroke-width: 1.42 ;&st7;  " /><path d=" M  1988.67,   346.70  L  1983.70,   341.73  " style="stroke-width: 1.42 ;&st7;  " /><path d=" M  1971.67,   353.76  L  1976.64,   358.73  " style="stroke-width: 1.42 ;&st7;  " /><path d=" M  1983.70,   358.73  L  1988.67,   353.76  " style="stroke-width: 1.42 ;&st7;  " /><path d=" M  1976.64,   341.73  L  1971.67,   346.70  " style="stroke-width: 1.42 ;&st7;  " /><path d=" M  1563.74,   409.72  L  1563.74,   435.21  L  1648.72,   435.21  L  1648.72,   409.72  L  1563.74,   409.72  " style="stroke-width: 1.42 ;&st7;  " /><path d=" M  1563.74,   443.71  L  1563.74,   469.21  L  1648.72,   469.21  L  1648.72,   443.71  L  1563.74,   443.71  " style="stroke-width: 1.42 ;&st7;  " /><path d=" M  1563.74,   613.68  L  1563.74,   673.17  L  1648.72,   673.17  L  1648.72,   613.68  L  1563.74,   613.68  " style="stroke-width: 1.42 ;&st7;  " /><path d=" M  1980.17,   647.68  L  1980.17,   681.67  L  2065.15,   681.67  L  2065.15,   647.68  L  1980.17,   647.68  " style="stroke-width: 1.42 ;&st7;  " /><path d=" M  1927.76,   710.00  L  1930.59,   710.00  " style="stroke-width: 0.85 ;&st7;  " /><path d=" M  1926.34,   707.17  L  1932.01,   707.17  " style="stroke-width: 0.85 ;&st7;  " /><path d=" M  1924.93,   704.33  L  1933.43,   704.33  " style="stroke-width: 0.85 ;&st7;  " /><path d=" M  1920.68,   701.50  L  1937.68,   701.50  " style="stroke-width: 0.85 ;&st7;  " /><path d=" M  1929.18,   697.25  L  1929.18,   701.50  " style="stroke-width: 0.85 ;&st7;  " /><path d=" M  1869.69,   409.72  L  1869.69,   460.71  L  1903.68,   460.71  L  1903.68,   409.72  L  1869.69,   409.72  " style="stroke-width: 1.42 ;&st7;  " /><path d=" M  1878.19,   409.72  L  1878.19,   460.71  " style="stroke-width: 1.13 ;&st7; stroke-dasharray:3, 3;" /><path d=" M  1895.18,   409.72  L  1895.18,   460.71  " style="stroke-width: 1.13 ;&st7; stroke-dasharray:3, 3;" /><path d=" M  1836.26,   456.46  L  1832.01,   452.21  L  1836.26,   447.96  " style="stroke-width: 1.42 ;&st7;  " /><path d=" M  1832.86,   456.46  L  1828.61,   452.21  L  1832.86,   447.96  " style="stroke-width: 1.42 ;&st7;  " /><path d=" M  1869.69,   452.21  L  1903.68,   452.21  " style="stroke-width: 0.85 ;&st7;  " /><path d=" M  1886.68,   452.21  L  1886.68,   418.22  L  1903.68,   418.22  " style="stroke-width: 0.85 ;&st7;  " /><path d=" M  1885.49,   451.21  L  1885.22,   451.68  L  1885.13,   452.21  L  1885.22,   452.74  L  1885.49,   453.21  L  1885.90,   453.56  L  1886.41,   453.75  L  1886.96,   453.75  L  1887.46,   453.56  L  1887.88,   453.21  L  1888.15,   452.74  L  1888.24,   452.21  L  1888.15,   451.68  L  1887.88,   451.21  L  1887.46,   450.86  L  1886.96,   450.67  L  1886.41,   450.67  L  1885.90,   450.86  L  1885.49,   451.21  L  1885.89,   451.92  L  1885.89,   452.50  L  1886.26,   452.95  L  1886.83,   453.05  L  1887.34,   452.76  L  1887.53,   452.21  L  1887.34,   451.66  L  1886.83,   451.37  L  1886.26,   451.47  L  1886.68,   452.21  " style="stroke-width: 0.85 ;&st7;  " /><path d=" M  1733.71,   477.71  L  1750.71,   477.71  L  1750.71,   520.20  L  1733.71,   520.20  L  1733.71,   477.71  " style="stroke-width: 1.42 ;&st7;  " /><path d=" M  1733.71,   486.20  L  1750.71,   486.20  " style="stroke-width: 0.85 ;&st7;  " /><path d=" M  1733.71,   511.70  L  1742.21,   511.70  L  1742.21,   486.20  " style="stroke-width: 0.85 ;&st7;  " /><path d=" M  1741.02,   485.20  L  1740.74,   485.67  L  1740.65,   486.20  L  1740.74,   486.74  L  1741.02,   487.21  L  1741.43,   487.55  L  1741.94,   487.74  L  1742.48,   487.74  L  1742.99,   487.55  L  1743.40,   487.21  L  1743.67,   486.74  L  1743.77,   486.20  L  1743.67,   485.67  L  1743.40,   485.20  L  1742.99,   484.86  L  1742.48,   484.67  L  1741.94,   484.67  L  1741.43,   484.86  L  1741.02,   485.20  L  1741.41,   485.91  L  1741.41,   486.50  L  1741.78,   486.94  L  1742.36,   487.04  L  1742.86,   486.75  L  1743.06,   486.20  L  1742.86,   485.66  L  1742.36,   485.37  L  1741.78,   485.47  L  1742.21,   486.20  " style="stroke-width: 0.85 ;&st7;  " /><path d=" M  1912.75,   452.21  C  1912.75    449.71   1910.72    447.68   1908.21    447.68  " style="stroke-width: 1.42 ;&st7;   " /><path d=" M  1908.21,   447.68  C  1905.71    447.68   1903.68    449.71   1903.68    452.21  " style="stroke-width: 1.42 ;&st7;   " /><path d=" M  1903.68,   452.21  C  1903.68    454.71   1905.71    456.74   1908.21    456.74  " style="stroke-width: 1.42 ;&st7;   " /><path d=" M  1908.21,   456.74  C  1910.72    456.74   1912.75    454.71   1912.75    452.21  " style="stroke-width: 1.42 ;&st7;   " /><path d=" M  1869.69,   452.21  C  1869.69    449.71   1867.66    447.68   1865.16    447.68  " style="stroke-width: 1.42 ;&st7;   " /><path d=" M  1865.16,   447.68  C  1862.65    447.68   1860.62    449.71   1860.62    452.21  " style="stroke-width: 1.42 ;&st7;   " /><path d=" M  1860.62,   452.21  C  1860.62    454.71   1862.65    456.74   1865.16    456.74  " style="stroke-width: 1.42 ;&st7;   " /><path d=" M  1865.16,   456.74  C  1867.66    456.74   1869.69    454.71   1869.69    452.21  " style="stroke-width: 1.42 ;&st7;   " /><path d=" M  1912.75,   418.22  C  1912.75    415.71   1910.72    413.68   1908.21    413.68  " style="stroke-width: 1.42 ;&st7;   " /><path d=" M  1908.21,   413.68  C  1905.71    413.68   1903.68    415.71   1903.68    418.22  " style="stroke-width: 1.42 ;&st7;   " /><path d=" M  1903.68,   418.22  C  1903.68    420.72   1905.71    422.75   1908.21    422.75  " style="stroke-width: 1.42 ;&st7;   " /><path d=" M  1908.21,   422.75  C  1910.72    422.75   1912.75    420.72   1912.75    418.22  " style="stroke-width: 1.42 ;&st7;   " /><path d=" M  1912.32,   368.24  C  1910.42    370.38   1910.36    373.51   1912.18    375.72  " style="stroke-width: 1.42 ;&st7;   " /><path d=" M  1912.04,   383.21  C  1913.94    381.07   1914.00    377.93   1912.18    375.72  " style="stroke-width: 1.42 ;&st7;   " /><path d=" M  1912.32,   342.74  C  1910.42    344.88   1910.36    348.02   1912.18    350.23  " style="stroke-width: 1.42 ;&st7;   " /><path d=" M  1912.04,   357.71  C  1913.94    355.57   1914.00    352.44   1912.18    350.23  " style="stroke-width: 1.42 ;&st7;   " /><path d=" M  1912.04,   332.22  C  1913.94    330.07   1914.00    326.94   1912.18    324.73  " style="stroke-width: 1.42 ;&st7;   " /><path d=" M  1912.32,   317.25  C  1910.42    319.39   1910.36    322.52   1912.18    324.73  " style="stroke-width: 1.42 ;&st7;   " /><text style="&st18;" transform="matrix(&st16;  1630.36  420.18 )">(ECC)</text><text style="&st18;" transform="matrix(&st16;  1564.58  418.74 )">I28</text><text ewd:textID="198" style="&st18;" transform="matrix(&st16;  1564.58  425.85 )">Spiral Cable <tspan dy="6.0" x="0 ">Sub-Assembly</tspan></text><text style="&st18;" transform="matrix(&st16;  1564.58  459.84 )">DLC3</text><text style="&st18;" transform="matrix(&st16;  1564.58  452.74 )">I39</text><text style="&st18;" transform="matrix(&st16;  1635.25  454.18 )">(SG)</text><text style="&st18;" transform="matrix(&st16;  1564.58  629.82 )">ECM</text><text style="&st18;" transform="matrix(&st16;  1564.58  622.71 )">E26</text><text style="&st18;" transform="matrix(&st16;  1632.84  624.15 )">(E02)</text><text style="&st18;" transform="matrix(&st16;  1981.9  658.14 )">(E1)</text><text style="&st18;" transform="matrix(&st16;  1635.95  658.14 )">(E1)</text><text style="&st18;" transform="matrix(&st16;  1735.76  618.48 )">W-B</text><text style="&st18;" transform="matrix(&st16;  1942.06  686.47 )">(2GR-FE)</text><text ewd:textID="143" style="&st18;" transform="matrix(&st16;  1866.28  475.43 )">Junction <tspan dy="6.0" x="0 ">Connector</tspan></text><text style="&st18;" transform="matrix(&st16;  1866.27  468.32 )">A70(A),E76(B)</text><text style="&st18;" transform="matrix(&st16;  1906.03  454.18 )">B</text><text style="&st18;" transform="matrix(&st16;  1906.41  445.68 )">7</text><text style="&st18;" transform="matrix(&st17;  1925.48  642.73 )">BR</text><text style="&st18;" transform="matrix(&st16;  1738.16  652.48 )">BR</text><text style="&st18;" transform="matrix(&st16;  1959.12  652.48 )">BR</text><text style="&st18;" transform="matrix(&st16;  1862.85  454.18 )">A</text><text style="&st18;" transform="matrix(&st16;  1863.35  445.68 )">5</text><text style="&st18;" transform="matrix(&st16;  1815.34  444.97 )">20</text><text style="&st18;" transform="matrix(&st16;  1844.39  448.51 )">BR</text><text style="&st18;" transform="matrix(&st16;  1906.03  420.18 )">B</text><text style="&st18;" transform="matrix(&st16;  1906.41  411.69 )">6</text><text style="&st18;" transform="matrix(&st16;  1933.63  414.52 )">BR</text><text ewd:textID="3" style="&st18;" transform="matrix(&st16;  1924.94  346.53 )">(Shielded)</text><text ewd:textID="3" style="&st18;" transform="matrix(&st16;  1924.94  372.03 )">(Shielded)</text><text ewd:textID="3" style="&st18;" transform="matrix(&st16;  1924.94  321.03 )">(Shielded)</text><text ewd:textID="26" style="&st18;" transform="matrix(&st16;  1577.33  46.25 )">*24 :From Jan. 2012 Production until Sep. 2013 Production</text><text style="&st18;" transform="matrix(&st16;  1727.53  482.51 )">1</text><text style="&st18;" transform="matrix(&st16;  1753.29  482.51 )">3</text><text style="&st18;" transform="matrix(&st16;  1699.92  414.52 )">BR</text><text style="&st18;" transform="matrix(&st16;  1691.62  425.85 )">(*17,*23)</text><text style="&st18;" transform="matrix(&st16;  1699.92  448.51 )">BR</text><text style="&st18;" transform="matrix(&st16;  1691.62  459.84 )">(*17,*23)</text><text style="&st18;" transform="matrix(&st16;  1699.92  482.51 )">BR</text><text style="&st18;" transform="matrix(&st16;  1697.2  493.84 )">(*24)</text><text style="&st18;" transform="matrix(&st16;  1699.92  508.0 )">BR</text><text style="&st18;" transform="matrix(&st16;  1697.2  519.33 )">(*24)</text><text style="&st18;" transform="matrix(&st16;  1767.9  482.51 )">BR</text><text style="&st18;" transform="matrix(&st16;  1765.19  493.84 )">(*24)</text><text style="&st18;" transform="matrix(&st16;  1767.9  448.51 )">BR</text><text style="&st18;" transform="matrix(&st16;  1759.61  459.84 )">(*17,*23)</text><text style="&st18;" transform="matrix(&st16;  1727.53  508.01 )">2</text><text ewd:textID="143" style="&st18;" transform="matrix(&st16;  1752.97  512.25 )">Junction <tspan dy="6.0" x="0 ">Connector</tspan></text><text style="&st18;" transform="matrix(&st16;  1752.96  505.15 )">I174</text><text ewd:textID="25" style="&st18;" transform="matrix(&st16;  1577.33  37.75 )">*23 :From Sep. 2013 Production</text><text ewd:textID="20" style="&st18;" transform="matrix(&st16;  1577.33  29.25 )">*17 :Before Jan. 2012 Production</text><text ewd:textID="28" style="&st18;" transform="matrix(&st16;  1577.33  63.24 )">*28 :From Sep. 2014 Production</text><text ewd:textID="27" style="&st18;" transform="matrix(&st16;  1577.33  54.75 )">*27 :Before Sep. 2014 Production</text></svg>