﻿<?xml version="1.0" encoding="utf-8"?>
<!DOCTYPE svg PUBLIC "-//W3C//DTD SVG 1.0//EN" "http://www.w3.org/TR/2001/REC-SVG-20010904/DTD/svg10.dtd"[
	<!ENTITY ns_flows "http://ns.adobe.com/Flows/1.0/">
	<!ENTITY ns_svg "http://www.w3.org/2000/svg">
	<!ENTITY ns_xlink "http://www.w3.org/1999/xlink">
	<!ENTITY st0 "font-size:7px;font-family:'MS-PGothic';adobe-font-script:japanese;">
	<!ENTITY st1 "font-size:6px;font-family:'ArialMT';">
	<!-- White fill  -->
	<!ENTITY st2 "fill:#FFFFFF;stroke:#000000; stroke-width:1.41;stroke-linecap:round;stroke-linejoin:round;">
	<!-- Yellow fill  -->
	<!ENTITY st3 "fill:#FFFFCC;stroke:#FFFFCC; stroke-width:0.1;stroke-linecap:round;stroke-linejoin:round;">
	<!-- Gray fill  -->
	<!ENTITY st4 "fill:#CCCCCC;stroke:#CCCCCC; stroke-width:0.1;stroke-linecap:round;stroke-linejoin:round;">
	<!-- Light-blue fill -->
	<!ENTITY st5 "fill:#CCECF4;stroke:#000000; stroke-width:1.133;stroke-linecap:round;stroke-linejoin:round;">
	<!ENTITY st6 "fill:none;stroke-linecap:butt; stroke-linejoin:round;">
	<!ENTITY st7 "fill:none;stroke:#000000;stroke-linecap:round;stroke-linejoin:round;">
	<!ENTITY st8 "enable-background:new    ;">
	<!-- Black fill -->
	<!ENTITY st9 "fill:#000000;stroke:#000000; stroke-linecap:round;stroke-linejoin:round;">
	<!-- SRS note   -->
	<!ENTITY st10 "font-size:9px;font-family:'ArialMT';">
	<!ENTITY st11 "font-size:9px;font-family:'Svg Symbol';">
	<!ENTITY st12 "font-size:6px;font-family:'Svg Symbol';">
	<!ENTITY st13 "fill:none;stroke:#ff0000;stroke-linecap:round;stroke-linejoin:round;">
	<!-- Yellow fill  -->
	<!ENTITY st14 "fill:#FFFF00;stroke:#FFFF00; stroke-width:0.1;stroke-linecap:round;stroke-linejoin:round;">
	<!ENTITY st15 "font-size:6px;font-family:'MS-PGothic';adobe-font-script:japanese;">
	<!ENTITY st16 "1.00 0.00 0.00 1.00">
	<!ENTITY st17 "0.00 -1.00 1.00 0.00">
	<!ENTITY st18 "font-size:6px;font-family:'Arial';">
	<!ENTITY st19 "font-size:9px;font-family:'Arial';">
	<!ENTITY st20 "font-size:6px;font-family:'MS-PGothic','MS PGothic';adobe-font-script:japanese;">
	<!ENTITY st21 "font-size:7px;font-family:'MS-PGothic','MS PGothic';adobe-font-script:japanese;">
	<!ATTLIST svg
		xmlns:ewd CDATA #FIXED "http://shcl.co.jp/ewd"
		xmlns:a CDATA #FIXED "http://ns.adobe.com/AdobeSVGViewerExtensions/3.0/"
		ewd:ver CDATA #IMPLIED
	>
	<!ATTLIST a
		ewd:lineID CDATA #IMPLIED
		ewd:groupID CDATA #IMPLIED
		ewd:figtype CDATA #IMPLIED
		ewd:code CDATA #IMPLIED
		ewd:figID CDATA #IMPLIED
		ewd:pinNo CDATA #IMPLIED
		ewd:comment CDATA #IMPLIED >
	<!ATTLIST g
		ewd:lineID CDATA #IMPLIED
		ewd:groupID CDATA #IMPLIED
		ewd:figtype CDATA #IMPLIED
		ewd:code CDATA #IMPLIED
		ewd:figID CDATA #IMPLIED
		ewd:pinNo CDATA #IMPLIED
		ewd:comment CDATA #IMPLIED >
	<!ATTLIST text
		ewd:textID CDATA #IMPLIED >
	<!ATTLIST title
		ewd:textID CDATA #IMPLIED >
]>
<!-- Generator: Shintec Hozumi YS   -->
<svg onload="call_execInitLoadProc_svg('system')" style="overflow:visible;  enable-background:new 0 0 1339.066 710.000" viewBox="0 0 1339.066 710.000" height="710.000" width="1339.066" xml:space="preserve" ewd:ver="L2.1.2.9" xmlns="&ns_svg;" xmlns:a="http://ns.adobe.com/AdobeSVGViewerExtensions/3.0/" xmlns:ewd="http://shcl.co.jp/ewd" xmlns:xlink="&ns_xlink;">
<path d=" M   603.40,    69.77  L   603.40,    78.27  " style="stroke-width: 0.85 ;&st7;  " /><path d=" M   605.52,    95.27  L   601.27,    95.27  " style="stroke-width: 1.42 ;&st7;  " /><path d=" M   605.52,   103.77  L   601.27,   103.77  " style="stroke-width: 1.42 ;&st7;  " /><path d=" M   603.40,   224.16  L   609.06,   201.50  " style="stroke-width: 1.42 ;&st7;  " /><path d=" M   603.40,   231.25  L   603.40,   227.00  " style="stroke-width: 0.85 ;&st7;  " /><path d=" M   603.40,   197.25  L   603.40,   201.50  " style="stroke-width: 0.85 ;&st7;  " /><path d=" M   577.90,   197.25  L   577.90,   205.75  " style="stroke-width: 0.85 ;&st7;  " /><path d=" M   577.90,   222.75  L   577.90,   231.25  " style="stroke-width: 0.85 ;&st7;  " /><path d=" M   605.52,   163.26  L   601.27,   163.26  " style="stroke-width: 1.42 ;&st7;  " /><path d=" M   605.52,   171.76  L   601.27,   171.76  " style="stroke-width: 1.42 ;&st7;  " /><path d=" M   690.51,   435.21  L   686.26,   435.21  " style="stroke-width: 1.42 ;&st7;  " /><path d=" M   690.51,   443.71  L   686.26,   443.71  " style="stroke-width: 1.42 ;&st7;  " /><path d=" M   688.38,   401.22  L   688.38,   409.72  " style="stroke-width: 0.85 ;&st7;  " /><path d=" M   620.40,   401.22  L   620.40,   409.72  " style="stroke-width: 0.85 ;&st7;  " /><path d=" M   622.52,   435.21  L   618.27,   435.21  " style="stroke-width: 1.42 ;&st7;  " /><path d=" M   622.52,   443.71  L   618.27,   443.71  " style="stroke-width: 1.42 ;&st7;  " /><path d=" M   622.52,   324.73  L   618.27,   324.73  " style="stroke-width: 1.42 ;&st7;  " /><path d=" M   622.52,   316.23  L   618.27,   316.23  " style="stroke-width: 1.42 ;&st7;  " /><path d=" M   696.88,   533.67  L   691.91,   528.70  " style="stroke-width: 1.42 ;&st7;  " /><path d=" M   679.89,   540.73  L   684.86,   545.69  " style="stroke-width: 1.42 ;&st7;  " /><path d=" M   691.91,   545.69  L   696.88,   540.73  " style="stroke-width: 1.42 ;&st7;  " /><path d=" M   684.86,   528.70  L   679.89,   533.67  " style="stroke-width: 1.42 ;&st7;  " /><path d=" M   622.52,   256.74  L   618.27,   256.74  " style="stroke-width: 1.42 ;&st7;  " /><path d=" M   622.52,   265.24  L   618.27,   265.24  " style="stroke-width: 1.42 ;&st7;  " /><path d=" M   994.33,   482.68  L   989.36,   477.71  " style="stroke-width: 1.42 ;&st7;  " /><path d=" M   977.34,   489.73  L   982.31,   494.70  " style="stroke-width: 1.42 ;&st7;  " /><path d=" M   989.36,   494.70  L   994.33,   489.73  " style="stroke-width: 1.42 ;&st7;  " /><path d=" M   982.31,   477.71  L   977.34,   482.68  " style="stroke-width: 1.42 ;&st7;  " /><path d=" M   798.87,   482.68  L   793.89,   477.71  " style="stroke-width: 1.42 ;&st7;  " /><path d=" M   781.87,   489.73  L   786.84,   494.70  " style="stroke-width: 1.42 ;&st7;  " /><path d=" M   793.89,   494.70  L   798.87,   489.73  " style="stroke-width: 1.42 ;&st7;  " /><path d=" M   786.84,   477.71  L   781.87,   482.68  " style="stroke-width: 1.42 ;&st7;  " /><path d=" M   951.84,   593.16  L   946.87,   588.19  " style="stroke-width: 1.42 ;&st7;  " /><path d=" M   934.84,   600.22  L   939.81,   605.18  " style="stroke-width: 1.42 ;&st7;  " /><path d=" M   946.87,   605.18  L   951.84,   600.22  " style="stroke-width: 1.42 ;&st7;  " /><path d=" M   939.81,   588.19  L   934.84,   593.16  " style="stroke-width: 1.42 ;&st7;  " /><path d=" M   580.03,   163.26  L   575.78,   163.26  " style="stroke-width: 1.42 ;&st7;  " /><path d=" M   580.03,   171.76  L   575.78,   171.76  " style="stroke-width: 1.42 ;&st7;  " /><path d=" M   580.03,   256.74  L   575.78,   256.74  " style="stroke-width: 1.42 ;&st7;  " /><path d=" M   580.03,   265.24  L   575.78,   265.24  " style="stroke-width: 1.42 ;&st7;  " /><path d=" M   603.40,    78.27  L   603.40,    95.27  " style="stroke-width: 0.85 ;&st7;  " /><path d=" M   611.90,   197.25  L   569.40,   197.25  L   569.40,   231.25  L   611.90,   231.25  L   611.90,   197.25  " style="stroke-width: 1.42 ;&st7;  " /><path d=" M   603.40,   176.65  L   606.23,   179.48  L   606.23,   175.24  L   603.40,   172.40  L   600.57,   175.24  L   600.57,   179.48  L   603.40,   176.65  " style="stroke-width: 0.28 ;&st9;  " /><path d=" M   688.38,   430.32  L   685.55,   427.48  L   685.55,   431.73  L   688.38,   434.57  L   691.22,   431.73  L   691.22,   427.48  L   688.38,   430.32  " style="stroke-width: 0.28 ;&st9;  " /><path d=" M   603.40,   171.76  L   603.40,   197.25  " style="stroke-width: 0.85 ;&st7;  " /><path d=" M   688.38,   409.72  L   688.38,   435.21  " style="stroke-width: 0.85 ;&st7;  " /><path d=" M   577.90,   171.76  L   577.90,   197.25  " style="stroke-width: 0.85 ;&st7;  " /><path d=" M   577.90,   231.25  L   577.90,   256.74  " style="stroke-width: 0.85 ;&st7;  " /><path d=" M   688.38,   367.22  L   688.38,   375.72  " style="stroke-width: 0.85 ;&st7;  " /><path d=" M   675.64,   367.22  L   675.64,   409.72  L   701.13,   409.72  L   701.13,   367.22  L   675.64,   367.22  " style="stroke-width: 1.42 ;&st7;  " /><path d=" M   620.40,   367.22  L   620.40,   375.72  " style="stroke-width: 0.85 ;&st7;  " /><path d=" M   607.65,   367.22  L   607.65,   409.72  L   633.14,   409.72  L   633.14,   367.22  L   607.65,   367.22  " style="stroke-width: 1.42 ;&st7;  " /><path d=" M   603.40,   231.25  L   603.40,   239.75  L   620.40,   239.75  L   620.40,   256.74  " style="stroke-width: 0.85 ;&st7;  " /><path d=" M   620.40,   430.32  L   617.56,   427.48  L   617.56,   431.73  L   620.40,   434.57  L   623.23,   431.73  L   623.23,   427.48  L   620.40,   430.32  " style="stroke-width: 0.28 ;&st9;  " /><path d=" M   620.40,   409.72  L   620.40,   435.21  " style="stroke-width: 0.85 ;&st7;  " /><path d=" M   620.40,   367.22  L   620.40,   324.73  " style="stroke-width: 0.85 ;&st7;  " /><path d=" M   620.40,   329.63  L   623.23,   332.46  L   623.23,   328.21  L   620.40,   325.38  L   617.56,   328.21  L   617.56,   332.46  L   620.40,   329.63  " style="stroke-width: 0.28 ;&st9;  " /><path d=" M   620.40,   251.85  L   617.56,   249.01  L   617.56,   253.26  L   620.40,   256.10  L   623.23,   253.26  L   623.23,   249.01  L   620.40,   251.85  " style="stroke-width: 0.28 ;&st9;  " /><path d=" M   688.38,   367.22  L   688.38,   341.73  L   620.40,   341.73  " style="stroke-width: 0.85 ;&st7;  " /><path d=" M   722.38,   299.24  L   722.38,   358.73  L   858.36,   358.73  L   858.36,   299.24  L   722.38,   299.24  " style="stroke-width: 1.42 ;&st7;  " /><path d=" M   875.35,   299.24  L   875.35,   358.73  L  1011.33,   358.73  L  1011.33,   299.24  L   875.35,   299.24  " style="stroke-width: 1.42 ;&st7;  " /><path d=" M   939.09,   704.33  L   947.59,   704.33  " style="stroke-width: 0.85 ;&st7;  " /><path d=" M   943.34,   697.25  L   943.34,   701.50  " style="stroke-width: 0.85 ;&st7;  " /><path d=" M   934.84,   701.50  L   951.84,   701.50  " style="stroke-width: 0.85 ;&st7;  " /><path d=" M   934.84,   656.18  L   934.84,   673.17  L   951.84,   673.17  L   951.84,   656.18  L   934.84,   656.18  " style="stroke-width: 1.42 ;&st7;  " /><path d=" M   943.34,   656.18  L   943.34,   681.67  " style="stroke-width: 0.85 ;&st7;  " /><path d=" M   941.93,   710.00  L   944.76,   710.00  " style="stroke-width: 0.85 ;&st7;  " /><path d=" M   940.51,   707.17  L   946.17,   707.17  " style="stroke-width: 0.85 ;&st7;  " /><path d=" M   790.37,   697.25  L   790.37,   701.50  " style="stroke-width: 0.85 ;&st7;  " /><path d=" M   781.87,   701.50  L   798.87,   701.50  " style="stroke-width: 0.85 ;&st7;  " /><path d=" M   786.12,   704.33  L   794.62,   704.33  " style="stroke-width: 0.85 ;&st7;  " /><path d=" M   787.53,   707.17  L   793.20,   707.17  " style="stroke-width: 0.85 ;&st7;  " /><path d=" M   788.95,   710.00  L   791.78,   710.00  " style="stroke-width: 0.85 ;&st7;  " /><path d=" M   603.40,    90.37  L   600.57,    87.54  L   600.57,    91.79  L   603.40,    94.62  L   606.23,    91.79  L   606.23,    87.54  L   603.40,    90.37  " style="stroke-width: 0.28 ;&st9;  " /><path d=" M   590.65,    35.78  L   590.65,    78.27  L   616.15,    78.27  L   616.15,    35.78  L   590.65,    35.78  " style="stroke-width: 1.42 ;&st7;  " /><path d=" M   577.90,   176.65  L   580.74,   179.48  L   580.74,   175.24  L   577.90,   172.40  L   575.07,   175.24  L   575.07,   179.48  L   577.90,   176.65  " style="stroke-width: 0.28 ;&st9;  " /><path d=" M   892.35,   316.23  L   892.35,   341.73  L   994.33,   341.73  L   994.33,   316.23  L   892.35,   316.23  " style="stroke-width: 1.42 ;&st7;  " /><path d=" M   577.90,   251.85  L   575.07,   249.01  L   575.07,   253.26  L   577.90,   256.10  L   580.74,   253.26  L   580.74,   249.01  L   577.90,   251.85  " style="stroke-width: 0.28 ;&st9;  " /><path d=" M   619.20,   340.73  L   618.93,   341.20  L   618.84,   341.73  L   618.93,   342.26  L   619.20,   342.73  L   619.62,   343.08  L   620.12,   343.26  L   620.67,   343.26  L   621.18,   343.08  L   621.59,   342.73  L   621.86,   342.26  L   621.95,   341.73  L   621.86,   341.20  L   621.59,   340.73  L   621.18,   340.38  L   620.67,   340.19  L   620.12,   340.19  L   619.62,   340.38  L   619.20,   340.73  L   619.60,   341.44  L   619.60,   342.02  L   619.97,   342.46  L   620.54,   342.56  L   621.05,   342.28  L   621.25,   341.73  L   621.05,   341.18  L   620.54,   340.89  L   619.97,   340.99  L   620.40,   341.73  " style="stroke-width: 0.85 ;&st7;  " /><path d=" M   739.38,   316.23  L   739.38,   341.73  L   841.36,   341.73  L   841.36,   316.23  L   739.38,   316.23  " style="stroke-width: 1.42 ;&st7;  " /><path d=" M   747.87,   341.73  L   747.87,   358.73  " style="stroke-width: 0.85 ;&st7;  " /><path d=" M   832.86,   341.73  L   832.86,   358.73  " style="stroke-width: 0.85 ;&st7;  " /><path d=" M   790.37,   341.73  L   790.37,   358.73  " style="stroke-width: 0.85 ;&st7;  " /><path d=" M   900.85,   341.73  L   900.85,   358.73  " style="stroke-width: 0.85 ;&st7;  " /><path d=" M   985.83,   341.73  L   985.83,   358.73  " style="stroke-width: 0.85 ;&st7;  " /><path d=" M   943.34,   341.73  L   943.34,   358.73  " style="stroke-width: 0.85 ;&st7;  " /><path d=" M   605.52,   103.77  C   607.87    103.77    609.77    101.87    609.77     99.52  " style="stroke-width: 1.42 ;&st7;   " /><path d=" M   601.27,    95.27  C   598.93     95.27    597.03     97.17    597.03     99.52  " style="stroke-width: 1.42 ;&st7;   " /><path d=" M   609.77,    99.52  C   609.77     97.17    607.87     95.27    605.52     95.27  " style="stroke-width: 1.42 ;&st7;   " /><path d=" M   597.03,    99.52  C   597.03    101.87    598.93    103.77    601.27    103.77  " style="stroke-width: 1.42 ;&st7;   " /><path d=" M   604.82,    68.36  C   604.82     67.57    604.18     66.94    603.40     66.94  " style="stroke-width: 0.85 ;&st7;   " /><path d=" M   603.40,    66.94  C   602.62     66.94    601.98     67.57    601.98     68.36  " style="stroke-width: 0.85 ;&st7;   " /><path d=" M   601.98,    68.36  C   601.98     69.14    602.62     69.77    603.40     69.77  " style="stroke-width: 0.85 ;&st7;   " /><path d=" M   603.40,    69.77  C   604.18     69.77    604.82     69.14    604.82     68.36  " style="stroke-width: 0.85 ;&st7;   " /><path d=" M   604.82,   225.58  C   604.82    224.80    604.18    224.16    603.40    224.16  " style="stroke-width: 0.85 ;&st7;   " /><path d=" M   603.40,   224.16  C   602.62    224.16    601.98    224.80    601.98    225.58  " style="stroke-width: 0.85 ;&st7;   " /><path d=" M   601.98,   225.58  C   601.98    226.36    602.62    227.00    603.40    227.00  " style="stroke-width: 0.85 ;&st7;   " /><path d=" M   603.40,   227.00  C   604.18    227.00    604.82    226.36    604.82    225.58  " style="stroke-width: 0.85 ;&st7;   " /><path d=" M   604.82,   202.92  C   604.82    202.14    604.18    201.50    603.40    201.50  " style="stroke-width: 0.85 ;&st7;   " /><path d=" M   603.40,   201.50  C   602.62    201.50    601.98    202.14    601.98    202.92  " style="stroke-width: 0.85 ;&st7;   " /><path d=" M   601.98,   202.92  C   601.98    203.70    602.62    204.33    603.40    204.33  " style="stroke-width: 0.85 ;&st7;   " /><path d=" M   603.40,   204.33  C   604.18    204.33    604.82    203.70    604.82    202.92  " style="stroke-width: 0.85 ;&st7;   " /><path d=" M   575.37,   211.77  C   576.74    213.17    578.99    213.19    580.38    211.82  " style="stroke-width: 0.85 ;&st7;   " /><path d=" M   580.38,   211.82  C   581.78    210.45    581.80    208.21    580.43    206.81  " style="stroke-width: 0.85 ;&st7;   " /><path d=" M   580.43,   206.81  C   579.74    206.11    578.89    205.75    577.90    205.75  " style="stroke-width: 0.85 ;&st7;   " /><path d=" M   575.37,   216.73  C   576.74    218.13    578.99    218.15    580.38    216.78  " style="stroke-width: 0.85 ;&st7;   " /><path d=" M   580.38,   216.78  C   581.78    215.41    581.80    213.17    580.43    211.77  " style="stroke-width: 0.85 ;&st7;   " /><path d=" M   580.43,   211.77  C   579.06    210.37    576.82    210.35    575.42    211.72  " style="stroke-width: 0.85 ;&st7;   " /><path d=" M   575.42,   211.72  C   575.41    211.74    575.39    211.75    575.37    211.77  " style="stroke-width: 0.85 ;&st7;   " /><path d=" M   577.90,   222.75  C   579.86    222.75    581.44    221.16    581.44    219.21  " style="stroke-width: 0.85 ;&st7;   " /><path d=" M   581.44,   219.21  C   581.44    217.25    579.86    215.67    577.90    215.67  " style="stroke-width: 0.85 ;&st7;   " /><path d=" M   577.90,   215.67  C   576.91    215.67    576.07    216.02    575.37    216.73  " style="stroke-width: 0.85 ;&st7;   " /><path d=" M   601.27,   163.26  C   598.93    163.26    597.03    165.16    597.03    167.51  " style="stroke-width: 1.42 ;&st7;   " /><path d=" M   597.03,   167.51  C   597.03    169.85    598.93    171.76    601.27    171.76  " style="stroke-width: 1.42 ;&st7;   " /><path d=" M   605.52,   171.76  C   607.87    171.76    609.77    169.85    609.77    167.51  " style="stroke-width: 1.42 ;&st7;   " /><path d=" M   609.77,   167.51  C   609.77    165.16    607.87    163.26    605.52    163.26  " style="stroke-width: 1.42 ;&st7;   " /><path d=" M   686.26,   435.21  C   683.91    435.21    682.01    437.12    682.01    439.46  " style="stroke-width: 1.42 ;&st7;   " /><path d=" M   682.01,   439.46  C   682.01    441.81    683.91    443.71    686.26    443.71  " style="stroke-width: 1.42 ;&st7;   " /><path d=" M   690.51,   443.71  C   692.86    443.71    694.76    441.81    694.76    439.46  " style="stroke-width: 1.42 ;&st7;   " /><path d=" M   694.76,   439.46  C   694.76    437.12    692.86    435.21    690.51    435.21  " style="stroke-width: 1.42 ;&st7;   " /><path d=" M   688.38,   378.56  C   685.65    380.17    684.74    383.70    686.35    386.43  " style="stroke-width: 1.42 ;&st7;   " /><path d=" M   686.35,   386.43  C   686.87    387.32    687.50    387.95    688.38    388.47  " style="stroke-width: 1.42 ;&st7;   " /><path d=" M   688.38,   398.39  C   691.12    396.77    692.03    393.25    690.42    390.51  " style="stroke-width: 1.42 ;&st7;   " /><path d=" M   690.42,   390.51  C   689.90    389.63    689.27    388.99    688.38    388.47  " style="stroke-width: 1.42 ;&st7;   " /><path d=" M   689.80,   377.14  C   689.80    376.36    689.17    375.72    688.38    375.72  " style="stroke-width: 0.85 ;&st7;   " /><path d=" M   688.38,   375.72  C   687.60    375.72    686.97    376.36    686.97    377.14  " style="stroke-width: 0.85 ;&st7;   " /><path d=" M   686.97,   377.14  C   686.97    377.92    687.60    378.56    688.38    378.56  " style="stroke-width: 0.85 ;&st7;   " /><path d=" M   688.38,   378.56  C   689.17    378.56    689.80    377.92    689.80    377.14  " style="stroke-width: 0.85 ;&st7;   " /><path d=" M   689.80,   399.80  C   689.80    399.02    689.17    398.39    688.38    398.39  " style="stroke-width: 0.85 ;&st7;   " /><path d=" M   688.38,   398.39  C   687.60    398.39    686.97    399.02    686.97    399.80  " style="stroke-width: 0.85 ;&st7;   " /><path d=" M   686.97,   399.80  C   686.97    400.58    687.60    401.22    688.38    401.22  " style="stroke-width: 0.85 ;&st7;   " /><path d=" M   688.38,   401.22  C   689.17    401.22    689.80    400.58    689.80    399.80  " style="stroke-width: 0.85 ;&st7;   " /><path d=" M   620.40,   378.56  C   617.66    380.17    616.75    383.70    618.36    386.43  " style="stroke-width: 1.42 ;&st7;   " /><path d=" M   618.36,   386.43  C   618.88    387.32    619.51    387.95    620.40    388.47  " style="stroke-width: 1.42 ;&st7;   " /><path d=" M   620.40,   398.39  C   623.13    396.77    624.05    393.25    622.43    390.51  " style="stroke-width: 1.42 ;&st7;   " /><path d=" M   622.43,   390.51  C   621.91    389.63    621.28    388.99    620.40    388.47  " style="stroke-width: 1.42 ;&st7;   " /><path d=" M   621.81,   377.14  C   621.81    376.36    621.18    375.72    620.40    375.72  " style="stroke-width: 0.85 ;&st7;   " /><path d=" M   620.40,   375.72  C   619.61    375.72    618.98    376.36    618.98    377.14  " style="stroke-width: 0.85 ;&st7;   " /><path d=" M   618.98,   377.14  C   618.98    377.92    619.61    378.56    620.40    378.56  " style="stroke-width: 0.85 ;&st7;   " /><path d=" M   620.40,   378.56  C   621.18    378.56    621.81    377.92    621.81    377.14  " style="stroke-width: 0.85 ;&st7;   " /><path d=" M   621.81,   399.80  C   621.81    399.02    621.18    398.39    620.40    398.39  " style="stroke-width: 0.85 ;&st7;   " /><path d=" M   620.40,   398.39  C   619.61    398.39    618.98    399.02    618.98    399.80  " style="stroke-width: 0.85 ;&st7;   " /><path d=" M   618.98,   399.80  C   618.98    400.58    619.61    401.22    620.40    401.22  " style="stroke-width: 0.85 ;&st7;   " /><path d=" M   620.40,   401.22  C   621.18    401.22    621.81    400.58    621.81    399.80  " style="stroke-width: 0.85 ;&st7;   " /><path d=" M   618.27,   435.21  C   615.92    435.21    614.02    437.12    614.02    439.46  " style="stroke-width: 1.42 ;&st7;   " /><path d=" M   614.02,   439.46  C   614.02    441.81    615.92    443.71    618.27    443.71  " style="stroke-width: 1.42 ;&st7;   " /><path d=" M   622.52,   443.71  C   624.87    443.71    626.77    441.81    626.77    439.46  " style="stroke-width: 1.42 ;&st7;   " /><path d=" M   626.77,   439.46  C   626.77    437.12    624.87    435.21    622.52    435.21  " style="stroke-width: 1.42 ;&st7;   " /><path d=" M   622.52,   324.73  C   624.87    324.73    626.77    322.83    626.77    320.48  " style="stroke-width: 1.42 ;&st7;   " /><path d=" M   614.02,   320.48  C   614.02    322.83    615.92    324.73    618.27    324.73  " style="stroke-width: 1.42 ;&st7;   " /><path d=" M   618.27,   316.23  C   615.92    316.23    614.02    318.13    614.02    320.48  " style="stroke-width: 1.42 ;&st7;   " /><path d=" M   626.77,   320.48  C   626.77    318.13    624.87    316.23    622.52    316.23  " style="stroke-width: 1.42 ;&st7;   " /><path d=" M   618.27,   256.74  C   615.92    256.74    614.02    258.64    614.02    260.99  " style="stroke-width: 1.42 ;&st7;   " /><path d=" M   614.02,   260.99  C   614.02    263.34    615.92    265.24    618.27    265.24  " style="stroke-width: 1.42 ;&st7;   " /><path d=" M   622.52,   265.24  C   624.87    265.24    626.77    263.34    626.77    260.99  " style="stroke-width: 1.42 ;&st7;   " /><path d=" M   626.77,   260.99  C   626.77    258.64    624.87    256.74    622.52    256.74  " style="stroke-width: 1.42 ;&st7;   " /><path d=" M   604.82,    45.69  C   604.82     44.91    604.18     44.28    603.40     44.28  " style="stroke-width: 0.85 ;&st7;   " /><path d=" M   603.40,    44.28  C   602.62     44.28    601.98     44.91    601.98     45.69  " style="stroke-width: 0.85 ;&st7;   " /><path d=" M   601.98,    45.69  C   601.98     46.48    602.62     47.11    603.40     47.11  " style="stroke-width: 0.85 ;&st7;   " /><path d=" M   603.40,    47.11  C   604.18     47.11    604.82     46.48    604.82     45.69  " style="stroke-width: 0.85 ;&st7;   " /><path d=" M   603.40,    66.94  C   604.25     64.02    603.59     61.13    601.56     58.87  " style="stroke-width: 1.42 ;&st7;   " /><path d=" M   603.40,    66.94  C   605.57     63.92    605.57     60.05    603.40     57.03  " style="stroke-width: 1.42 ;&st7;   " /><path d=" M   603.40,    66.94  C   607.12     64.17    607.93     58.96    605.24     55.19  " style="stroke-width: 1.42 ;&st7;   " /><path d=" M   603.40,    47.11  C   599.68     49.88    598.87     55.10    601.56     58.87  " style="stroke-width: 1.42 ;&st7;   " /><path d=" M   603.40,    47.11  C   601.23     50.13    601.23     54.00    603.40     57.03  " style="stroke-width: 1.42 ;&st7;   " /><path d=" M   603.40,    47.11  C   602.55     50.03    603.21     52.92    605.24     55.18  " style="stroke-width: 1.42 ;&st7;   " /><path d=" M   575.78,   163.26  C   573.43    163.26    571.53    165.16    571.53    167.51  " style="stroke-width: 1.42 ;&st7;   " /><path d=" M   571.53,   167.51  C   571.53    169.85    573.43    171.76    575.78    171.76  " style="stroke-width: 1.42 ;&st7;   " /><path d=" M   580.03,   171.76  C   582.37    171.76    584.28    169.85    584.28    167.51  " style="stroke-width: 1.42 ;&st7;   " /><path d=" M   584.28,   167.51  C   584.28    165.16    582.37    163.26    580.03    163.26  " style="stroke-width: 1.42 ;&st7;   " /><path d=" M   575.78,   256.74  C   573.43    256.74    571.53    258.64    571.53    260.99  " style="stroke-width: 1.42 ;&st7;   " /><path d=" M   571.53,   260.99  C   571.53    263.34    573.43    265.24    575.78    265.24  " style="stroke-width: 1.42 ;&st7;   " /><path d=" M   580.03,   265.24  C   582.37    265.24    584.28    263.34    584.28    260.99  " style="stroke-width: 1.42 ;&st7;   " /><path d=" M   584.28,   260.99  C   584.28    258.64    582.37    256.74    580.03    256.74  " style="stroke-width: 1.42 ;&st7;   " /><text style="&st18;" transform="matrix(&st16;  619.82  56.17 )">30A <tspan dy="6.0" x="0 ">H-LP-MAIN</tspan></text><text style="&st18;" transform="matrix(&st16;  571.72  239.44 )">1</text><text style="&st18;" transform="matrix(&st16;  597.21  239.44 )">3</text><text style="&st18;" transform="matrix(&st16;  571.72  193.56 )">2</text><text style="&st18;" transform="matrix(&st16;  597.21  193.56 )">5</text><text style="&st18;" transform="matrix(&st16;  601.6  169.48 )">1</text><text style="&st18;" transform="matrix(&st16;  686.58  441.43 )">1</text><text ewd:textID="4" style="&st18;" transform="matrix(&st16;  614.16  213.39 )">H-LP <tspan dy="6.0" x="0 ">Relay</tspan></text><text style="&st18;" transform="matrix(&st16;  704.81  384.79 )">15A <tspan dy="6.0" x="0 ">H-LP </tspan><tspan dy="6.0" x="0 ">RH-LO</tspan></text><text style="&st18;" transform="matrix(&st16;  636.82  384.79 )">15A <tspan dy="6.0" x="0 ">H-LP </tspan><tspan dy="6.0" x="0 ">LH-LO</tspan></text><text style="&st18;" transform="matrix(&st16;  618.6  441.43 )">1</text><text style="&st18;" transform="matrix(&st17;  599.7  130.95 )">B</text><text style="&st18;" transform="matrix(&st17;  684.69  470.9 )">B</text><text style="&st18;" transform="matrix(&st16;  618.6  322.45 )">1</text><text style="&st18;" transform="matrix(&st16;  618.6  262.96 )">1</text><text style="&st18;" transform="matrix(&st17;  616.7  292.31 )">L</text><text style="&st18;" transform="matrix(&st17;  744.18  394.33 )">R</text><text style="&st18;" transform="matrix(&st17;  897.15  394.52 )">V</text><text style="&st18;" transform="matrix(&st17;  982.14  396.5 )">LG</text><text style="&st18;" transform="matrix(&st17;  829.16  395.18 )">W</text><text style="&st18;" transform="matrix(&st17;  786.67  398.67 )">W-B</text><text style="&st18;" transform="matrix(&st17;  939.65  398.67 )">W-B</text><text ewd:textID="11" style="&st18;" transform="matrix(&st16;  954.1  666.64 )">Junction <tspan dy="6.0" x="0 ">Connector</tspan></text><text style="&st18;" transform="matrix(&st16;  954.09  659.54 )">A73</text><text style="&st18;" transform="matrix(&st16;  937.16  652.49 )">4</text><text style="&st18;" transform="matrix(&st17;  786.67  619.64 )">W-B</text><text style="&st18;" transform="matrix(&st17;  939.65  636.63 )">W-B</text><text style="&st18;" transform="matrix(&st16;  735.96  288.43 )">A62</text><text style="&st18;" transform="matrix(&st16;  888.94  288.43 )">A18</text><text style="&st18;" transform="matrix(&st16;  595.36  32.08 )">(BAT)</text><text style="&st18;" transform="matrix(&st16;  601.6  101.49 )">1</text><text style="&st18;" transform="matrix(&st16;  576.1  169.48 )">1</text><text style="&st18;" transform="matrix(&st16;  584.21  142.56 )">B</text><text style="&st18;" transform="matrix(&st16;  614.21  417.91 )">2</text><text style="&st18;" transform="matrix(&st16;  682.2  417.91 )">2</text><text style="&st18;" transform="matrix(&st16;  614.21  363.53 )">1</text><text style="&st18;" transform="matrix(&st16;  682.2  363.53 )">1</text><text style="&st18;" transform="matrix(&st17;  616.7  547.5 )">V</text><text style="&st18;" transform="matrix(&st16;  979.65  366.92 )">2</text><text style="&st18;" transform="matrix(&st16;  894.67  366.92 )">3</text><text style="&st18;" transform="matrix(&st16;  937.16  366.92 )">1</text><text style="&st18;" transform="matrix(&st16;  826.68  366.92 )">2</text><text style="&st18;" transform="matrix(&st16;  784.18  366.92 )">1</text><text style="&st18;" transform="matrix(&st16;  741.69  366.92 )">3</text><text ewd:textID="6" style="&st18;" transform="matrix(&st16;  888.95  295.54 )">Headlight Assembly LH</text><text ewd:textID="7" style="&st18;" transform="matrix(&st16;  735.97  295.54 )">Headlight Assembly RH</text><text ewd:textID="9" style="&st18;" transform="matrix(&st16;  770.65  328.12 )">Headlight <tspan dy="6.0" x="0 ">Leveling Motor</tspan></text><text style="&st18;" transform="matrix(&st16;  750.46  355.03 )">RHB1</text><text style="&st18;" transform="matrix(&st16;  792.95  355.03 )">RH E</text><text style="&st18;" transform="matrix(&st16;  835.44  355.03 )">RHM+</text><text ewd:textID="9" style="&st18;" transform="matrix(&st16;  923.63  328.12 )">Headlight <tspan dy="6.0" x="0 ">Leveling Motor</tspan></text><text style="&st18;" transform="matrix(&st16;  903.43  355.03 )">LHB1</text><text style="&st18;" transform="matrix(&st16;  945.93  355.03 )">LH E</text><text style="&st18;" transform="matrix(&st16;  988.42  355.03 )">LHM+</text><text style="&st18;" transform="matrix(&st16;  576.1  262.96 )">1</text><text style="&st18;" transform="matrix(&st16;  541.91  423.02 )">P</text><text style="&st18;" transform="matrix(&st17;  574.21  292.23 )">P</text><text ewd:textID="3" style="&st18;" transform="matrix(&st16;  761.47  122.73 )">* 3 :RHD w/ Entry &amp; Start System</text></svg>