﻿<?xml version="1.0" encoding="utf-8"?>
<!DOCTYPE svg PUBLIC "-//W3C//DTD SVG 1.0//EN" "http://www.w3.org/TR/2001/REC-SVG-20010904/DTD/svg10.dtd"[
	<!ENTITY ns_flows "http://ns.adobe.com/Flows/1.0/">
	<!ENTITY ns_svg "http://www.w3.org/2000/svg">
	<!ENTITY ns_xlink "http://www.w3.org/1999/xlink">
	<!ENTITY st0 "font-size:7px;font-family:'MS-PGothic';adobe-font-script:japanese;">
	<!ENTITY st1 "font-size:6px;font-family:'ArialMT';">
	<!-- White fill  -->
	<!ENTITY st2 "fill:#FFFFFF;stroke:#000000; stroke-width:1.41;stroke-linecap:round;stroke-linejoin:round;">
	<!-- Yellow fill  -->
	<!ENTITY st3 "fill:#FFFFCC;stroke:#FFFFCC; stroke-width:0.1;stroke-linecap:round;stroke-linejoin:round;">
	<!-- Gray fill  -->
	<!ENTITY st4 "fill:#CCCCCC;stroke:#CCCCCC; stroke-width:0.1;stroke-linecap:round;stroke-linejoin:round;">
	<!-- Light-blue fill -->
	<!ENTITY st5 "fill:#CCECF4;stroke:#000000; stroke-width:1.133;stroke-linecap:round;stroke-linejoin:round;">
	<!ENTITY st6 "fill:none;stroke-linecap:butt; stroke-linejoin:round;">
	<!ENTITY st7 "fill:none;stroke:#000000;stroke-linecap:round;stroke-linejoin:round;">
	<!ENTITY st8 "enable-background:new    ;">
	<!-- Black fill -->
	<!ENTITY st9 "fill:#000000;stroke:#000000; stroke-linecap:round;stroke-linejoin:round;">
	<!-- SRS note   -->
	<!ENTITY st10 "font-size:9px;font-family:'ArialMT';">
	<!ENTITY st11 "font-size:9px;font-family:'Svg Symbol';">
	<!ENTITY st12 "font-size:6px;font-family:'Svg Symbol';">
	<!ENTITY st13 "fill:none;stroke:#ff0000;stroke-linecap:round;stroke-linejoin:round;">
	<!-- Yellow fill  -->
	<!ENTITY st14 "fill:#FFFF00;stroke:#FFFF00; stroke-width:0.1;stroke-linecap:round;stroke-linejoin:round;">
	<!ENTITY st15 "font-size:6px;font-family:'MS-PGothic';adobe-font-script:japanese;">
	<!ENTITY st16 "1.00 0.00 0.00 1.00">
	<!ENTITY st17 "0.00 -1.00 1.00 0.00">
	<!ENTITY st18 "font-size:6px;font-family:'Arial';">
	<!ENTITY st19 "font-size:9px;font-family:'Arial';">
	<!ENTITY st20 "font-size:6px;font-family:'MS-PGothic','MS PGothic';adobe-font-script:japanese;">
	<!ENTITY st21 "font-size:7px;font-family:'MS-PGothic','MS PGothic';adobe-font-script:japanese;">
	<!ATTLIST svg
		xmlns:ewd CDATA #FIXED "http://shcl.co.jp/ewd"
		xmlns:a CDATA #FIXED "http://ns.adobe.com/AdobeSVGViewerExtensions/3.0/"
		ewd:ver CDATA #IMPLIED
	>
	<!ATTLIST a
		ewd:lineID CDATA #IMPLIED
		ewd:groupID CDATA #IMPLIED
		ewd:figtype CDATA #IMPLIED
		ewd:code CDATA #IMPLIED
		ewd:figID CDATA #IMPLIED
		ewd:pinNo CDATA #IMPLIED
		ewd:comment CDATA #IMPLIED >
	<!ATTLIST g
		ewd:lineID CDATA #IMPLIED
		ewd:groupID CDATA #IMPLIED
		ewd:figtype CDATA #IMPLIED
		ewd:code CDATA #IMPLIED
		ewd:figID CDATA #IMPLIED
		ewd:pinNo CDATA #IMPLIED
		ewd:comment CDATA #IMPLIED >
	<!ATTLIST text
		ewd:textID CDATA #IMPLIED >
	<!ATTLIST title
		ewd:textID CDATA #IMPLIED >
]>
<!-- Generator: Shintec Hozumi YS   -->
<svg onload="call_execInitLoadProc_svg('system')" style="overflow:visible;  enable-background:new 0 0 2031.869 710.000" viewBox="0 0 2031.869 710.000" height="710.000" width="2031.869" xml:space="preserve" ewd:ver="L2.1.2.9" xmlns="&ns_svg;" xmlns:a="http://ns.adobe.com/AdobeSVGViewerExtensions/3.0/" xmlns:ewd="http://shcl.co.jp/ewd" xmlns:xlink="&ns_xlink;">
<path d=" M  1635.98,   197.25  L  1627.48,   197.25  " style="stroke-width: 0.85 ;&st7;  " /><path d=" M  1963.17,   392.72  L  1958.11,   381.36  " style="stroke-width: 1.42 ;&st7;  " /><path d=" M  1963.17,   392.72  L  1968.23,   381.36  " style="stroke-width: 1.42 ;&st7;  " /><path d=" M  1912.18,   392.72  L  1907.12,   381.36  " style="stroke-width: 1.42 ;&st7;  " /><path d=" M  1912.18,   392.72  L  1917.24,   381.36  " style="stroke-width: 1.42 ;&st7;  " /><path d=" M  1861.19,   392.72  L  1856.13,   381.36  " style="stroke-width: 1.42 ;&st7;  " /><path d=" M  1861.19,   392.72  L  1866.25,   381.36  " style="stroke-width: 1.42 ;&st7;  " /><path d=" M  1988.67,   375.72  L  1993.73,   387.09  " style="stroke-width: 1.42 ;&st7;  " /><path d=" M  1988.67,   375.72  L  1983.61,   387.09  " style="stroke-width: 1.42 ;&st7;  " /><path d=" M  1835.69,   375.72  L  1830.63,   387.09  " style="stroke-width: 1.42 ;&st7;  " /><path d=" M  1835.69,   375.72  L  1840.75,   387.09  " style="stroke-width: 1.42 ;&st7;  " /><path d=" M  1886.68,   375.72  L  1891.74,   387.09  " style="stroke-width: 1.42 ;&st7;  " /><path d=" M  1886.68,   375.72  L  1881.63,   387.09  " style="stroke-width: 1.42 ;&st7;  " /><path d=" M  1937.68,   375.72  L  1942.74,   387.09  " style="stroke-width: 1.42 ;&st7;  " /><path d=" M  1937.68,   375.72  L  1932.62,   387.09  " style="stroke-width: 1.42 ;&st7;  " /><path d=" M  1699.72,   324.73  L  1699.72,   452.21  " style="stroke-width: 0.85 ;&st7;  " /><path d=" M  1631.73,   197.25  L  1626.06,   188.75  L  1637.39,   188.75  L  1631.73,   197.25  " style="stroke-width: 0.28 ;&st9;  " /><path d=" M  1665.72,   299.24  L  1682.72,   299.24  " style="stroke-width: 0.85 ;&st7;  " /><path d=" M  1631.73,   290.74  L  1631.73,   273.74  " style="stroke-width: 0.85 ;&st7;  " /><path d=" M  1606.23,   290.74  L  1606.23,   273.74  " style="stroke-width: 0.85 ;&st7;  " /><path d=" M  1657.22,   273.74  L  1657.22,   290.74  " style="stroke-width: 0.85 ;&st7;  " /><path d=" M  1682.72,   307.73  L  1665.72,   307.73  " style="stroke-width: 0.85 ;&st7;  " /><path d=" M  1665.72,   316.23  L  1682.72,   316.23  " style="stroke-width: 0.85 ;&st7;  " /><path d=" M  1597.73,   273.74  L  1665.72,   273.74  L  1665.72,   256.74  L  1597.73,   256.74  L  1597.73,   273.74  " style="stroke-width: 1.42 ;&st7;  " /><path d=" M  1597.73,   324.73  L  1665.72,   324.73  L  1665.72,   290.74  L  1597.73,   290.74  L  1597.73,   324.73  " style="stroke-width: 1.42 ;&st7;  " /><path d=" M  1733.71,   358.73  L  1733.71,   469.21  " style="stroke-width: 0.85 ;&st7;  " /><path d=" M  1682.72,   324.73  L  1750.71,   324.73  L  1750.71,   290.74  L  1682.72,   290.74  L  1682.72,   324.73  " style="stroke-width: 1.42 ;&st7;  " /><path d=" M  1818.70,   460.71  L  1818.70,   426.71  L  2031.16,   426.71  L  2031.16,   460.71  L  1818.70,   460.71  " style="stroke-width: 1.42 ;&st7;  " /><path d=" M  2018.41,   371.47  L  2014.16,   367.22  L  1978.04,   367.22  L  1975.92,   362.97  L  1973.79,   367.22  L  1937.68,   367.22  L  1933.43,   371.47  " style="stroke-width: 0.85 ;&st7;  " /><path d=" M  1916.43,   371.47  L  1912.18,   367.22  L  1876.06,   367.22  L  1873.94,   362.97  L  1871.81,   367.22  L  1835.69,   367.22  L  1831.44,   371.47  " style="stroke-width: 0.85 ;&st7;  " /><path d=" M  1716.71,   358.73  L  1750.71,   358.73  L  1750.71,   341.73  L  1716.71,   341.73  L  1716.71,   358.73  " style="stroke-width: 1.42 ;&st7;  " /><path d=" M  1733.71,   324.73  L  1733.71,   341.73  " style="stroke-width: 0.85 ;&st7;  " /><path d=" M  1508.78,   482.80  C  1508.78    480.30   1506.75    478.27   1504.25    478.27  " style="stroke-width: 1.42 ;&st7;   " /><path d=" M  1504.25,   478.27  C  1501.75    478.27   1499.72    480.30   1499.72    482.80  " style="stroke-width: 1.42 ;&st7;   " /><path d=" M  1504.25,   487.34  C  1506.75    487.34   1508.78    485.31   1508.78    482.80  " style="stroke-width: 1.42 ;&st7;   " /><path d=" M  1508.78,   473.74  C  1508.78    471.24   1506.75    469.21   1504.25    469.21  " style="stroke-width: 1.42 ;&st7;   " /><path d=" M  1504.25,   469.21  C  1501.75    469.21   1499.72    471.24   1499.72    473.74  " style="stroke-width: 1.42 ;&st7;   " /><path d=" M  1504.25,   478.27  C  1506.75    478.27   1508.78    476.24   1508.78    473.74  " style="stroke-width: 1.42 ;&st7;   " /><path d=" M  1738.24,   482.80  C  1738.24    480.30   1736.21    478.27   1733.71    478.27  " style="stroke-width: 1.42 ;&st7;   " /><path d=" M  1733.71,   478.27  C  1731.21    478.27   1729.18    480.30   1729.18    482.80  " style="stroke-width: 1.42 ;&st7;   " /><path d=" M  1729.18,   482.80  C  1729.18    485.31   1731.21    487.34   1733.71    487.34  " style="stroke-width: 1.42 ;&st7;   " /><path d=" M  1733.71,   487.34  C  1736.21    487.34   1738.24    485.31   1738.24    482.80  " style="stroke-width: 1.42 ;&st7;   " /><path d=" M  1738.24,   473.74  C  1738.24    471.24   1736.21    469.21   1733.71    469.21  " style="stroke-width: 1.42 ;&st7;   " /><path d=" M  1733.71,   469.21  C  1731.21    469.21   1729.18    471.24   1729.18    473.74  " style="stroke-width: 1.42 ;&st7;   " /><path d=" M  1729.18,   473.74  C  1729.18    476.24   1731.21    478.27   1733.71    478.27  " style="stroke-width: 1.42 ;&st7;   " /><path d=" M  1733.71,   478.27  C  1736.21    478.27   1738.24    476.24   1738.24    473.74  " style="stroke-width: 1.42 ;&st7;   " /><text style="&st18;" transform="matrix(&st16;  1710.41  309.7 )">CPU</text><text ewd:textID="23" style="&st18;" transform="matrix(&st16;  1620.62  267.21 )">Telltales</text><text ewd:textID="16" style="&st18;" transform="matrix(&st16;  1623.41  306.88 )">LED <tspan dy="6.0" x="0 ">Driver</tspan></text><text style="&st18;" transform="matrix(&st16;  1502.06  475.71 )">B</text><text style="&st18;" transform="matrix(&st16;  1829.51  468.9 )">2</text><text style="&st18;" transform="matrix(&st16;  1830.6  457.01 )">SP1</text><text ewd:textID="5" style="&st18;" transform="matrix(&st16;  1891.78  475.43 )">Brake Actuator Assembly</text><text style="&st18;" transform="matrix(&st16;  1891.77  468.32 )">A49</text><text style="&st18;" transform="matrix(&st16;  1979.38  423.02 )">17</text><text ewd:textID="21" style="&st18;" transform="matrix(&st16;  1957.33  353.34 )">Rear <tspan dy="6.0" x="0 ">Speed Sensors</tspan></text><text style="&st18;" transform="matrix(&st16;  1953.89  423.02 )">18</text><text style="&st18;" transform="matrix(&st16;  1928.39  423.02 )">31</text><text style="&st18;" transform="matrix(&st16;  1906.0  423.02 )">4</text><text style="&st18;" transform="matrix(&st16;  1877.4  423.02 )">16</text><text style="&st18;" transform="matrix(&st16;  1855.0  423.02 )">8</text><text style="&st18;" transform="matrix(&st16;  1826.41  423.02 )">19</text><text style="&st18;" transform="matrix(&st16;  1957.69  434.35 )">RL-</text><text style="&st18;" transform="matrix(&st16;  1983.14  434.35 )">RR+</text><text style="&st18;" transform="matrix(&st16;  1932.19  434.35 )">RL+</text><text style="&st18;" transform="matrix(&st17;  1933.98  402.83 )">R</text><text style="&st18;" transform="matrix(&st17;  1959.48  403.18 )">G</text><text style="&st18;" transform="matrix(&st17;  1984.97  402.91 )">B</text><text style="&st18;" transform="matrix(&st16;  1855.7  434.35 )">FL-</text><text style="&st18;" transform="matrix(&st16;  1881.16  434.35 )">FR+</text><text style="&st18;" transform="matrix(&st16;  1906.66  434.35 )">FR-</text><text style="&st18;" transform="matrix(&st16;  1830.21  434.35 )">FL+</text><text style="&st18;" transform="matrix(&st17;  1832.0  402.91 )">B</text><text style="&st18;" transform="matrix(&st17;  1857.49  403.68 )">W</text><text style="&st18;" transform="matrix(&st17;  1882.99  403.18 )">G</text><text style="&st18;" transform="matrix(&st17;  1908.48  402.79 )">L</text><text ewd:textID="7" style="&st18;" transform="matrix(&st16;  1855.35  353.34 )">Front <tspan dy="6.0" x="0 ">Speed Sensors</tspan></text><text style="&st18;" transform="matrix(&st17;  1832.0  498.49 )">LG</text><text style="&st18;" transform="matrix(&st16;  1594.32  143.96 )">I17(A),I18(B)</text><text ewd:textID="6" style="&st18;" transform="matrix(&st16;  1594.33  151.06 )">Combination Meter Assembly</text><text style="&st18;" transform="matrix(&st16;  1729.16  352.2 )">I/F</text><text style="&st18;" transform="matrix(&st16;  1731.52  475.71 )">B</text><text style="&st18;" transform="matrix(&st16;  1721.91  475.71 )">12</text><text style="&st18;" transform="matrix(&st16;  1736.29  465.52 )">LVWG</text><text style="&st18;" transform="matrix(&st16;  1578.74  626.98 )">P</text><text style="&st18;" transform="matrix(&st16;  1527.75  626.98 )">P</text><text style="&st18;" transform="matrix(&st17;  1730.01  504.7 )">P</text><text style="&st18;" transform="matrix(&st16;  1525.46  643.98 )">LG</text><text style="&st18;" transform="matrix(&st16;  1576.45  643.98 )">LG</text><text style="&st18;" transform="matrix(&st16;  1506.83  465.52 )">+S</text><text style="&st18;" transform="matrix(&st17;  1500.55  522.0 )">V</text><text style="&st18;" transform="matrix(&st17;  1511.89  528.94 )">(*4,*3)</text><text style="&st18;" transform="matrix(&st16;  1883.28  71.74 )">* 4 :2GR-FE</text><text style="&st18;" transform="matrix(&st16;  1883.28  63.24 )">* 3 :2AR-FE</text><text style="&st18;" transform="matrix(&st16;  1509.34  484.77 )">(*6)</text><text style="&st18;" transform="matrix(&st16;  1502.06  484.77 )">B</text><text style="&st18;" transform="matrix(&st16;  1509.34  475.71 )">(*5)</text><text ewd:textID="4" style="&st18;" transform="matrix(&st16;  1883.28  88.74 )">* 6 :From Sep. 2014 Production</text><text ewd:textID="3" style="&st18;" transform="matrix(&st16;  1883.28  80.24 )">* 5 :Before Sep. 2014 Production</text><text style="&st18;" transform="matrix(&st16;  1738.8  484.77 )">(*6)</text><text style="&st18;" transform="matrix(&st16;  1731.41  484.77 )">A</text><text style="&st18;" transform="matrix(&st16;  1721.91  484.77 )">11</text><text style="&st18;" transform="matrix(&st16;  1738.8  475.71 )">(*5)</text></svg>