﻿<?xml version="1.0" encoding="utf-8"?>
<!DOCTYPE svg PUBLIC "-//W3C//DTD SVG 1.0//EN" "http://www.w3.org/TR/2001/REC-SVG-20010904/DTD/svg10.dtd"[
	<!ENTITY ns_flows "http://ns.adobe.com/Flows/1.0/">
	<!ENTITY ns_svg "http://www.w3.org/2000/svg">
	<!ENTITY ns_xlink "http://www.w3.org/1999/xlink">
	<!ENTITY st0 "font-size:7px;font-family:'MS-PGothic';adobe-font-script:japanese;">
	<!ENTITY st1 "font-size:6px;font-family:'ArialMT';">
	<!-- White fill  -->
	<!ENTITY st2 "fill:#FFFFFF;stroke:#000000; stroke-width:1.41;stroke-linecap:round;stroke-linejoin:round;">
	<!-- Yellow fill  -->
	<!ENTITY st3 "fill:#FFFFCC;stroke:#FFFFCC; stroke-width:0.1;stroke-linecap:round;stroke-linejoin:round;">
	<!-- Gray fill  -->
	<!ENTITY st4 "fill:#CCCCCC;stroke:#CCCCCC; stroke-width:0.1;stroke-linecap:round;stroke-linejoin:round;">
	<!-- Light-blue fill -->
	<!ENTITY st5 "fill:#CCECF4;stroke:#000000; stroke-width:1.133;stroke-linecap:round;stroke-linejoin:round;">
	<!ENTITY st6 "fill:none;stroke-linecap:butt; stroke-linejoin:round;">
	<!ENTITY st7 "fill:none;stroke:#000000;stroke-linecap:round;stroke-linejoin:round;">
	<!ENTITY st8 "enable-background:new    ;">
	<!-- Black fill -->
	<!ENTITY st9 "fill:#000000;stroke:#000000; stroke-linecap:round;stroke-linejoin:round;">
	<!-- SRS note   -->
	<!ENTITY st10 "font-size:9px;font-family:'ArialMT';">
	<!ENTITY st11 "font-size:9px;font-family:'Svg Symbol';">
	<!ENTITY st12 "font-size:6px;font-family:'Svg Symbol';">
	<!ENTITY st13 "fill:none;stroke:#ff0000;stroke-linecap:round;stroke-linejoin:round;">
	<!-- Yellow fill  -->
	<!ENTITY st14 "fill:#FFFF00;stroke:#FFFF00; stroke-width:0.1;stroke-linecap:round;stroke-linejoin:round;">
	<!ENTITY st15 "font-size:6px;font-family:'MS-PGothic';adobe-font-script:japanese;">
	<!ENTITY st16 "1.00 0.00 0.00 1.00">
	<!ENTITY st17 "0.00 -1.00 1.00 0.00">
	<!ENTITY st18 "font-size:6px;font-family:'Arial';">
	<!ENTITY st19 "font-size:9px;font-family:'Arial';">
	<!ENTITY st20 "font-size:6px;font-family:'MS-PGothic','MS PGothic';adobe-font-script:japanese;">
	<!ENTITY st21 "font-size:7px;font-family:'MS-PGothic','MS PGothic';adobe-font-script:japanese;">
	<!ATTLIST svg
		xmlns:ewd CDATA #FIXED "http://shcl.co.jp/ewd"
		xmlns:a CDATA #FIXED "http://ns.adobe.com/AdobeSVGViewerExtensions/3.0/"
		ewd:ver CDATA #IMPLIED
	>
	<!ATTLIST a
		ewd:lineID CDATA #IMPLIED
		ewd:groupID CDATA #IMPLIED
		ewd:figtype CDATA #IMPLIED
		ewd:code CDATA #IMPLIED
		ewd:figID CDATA #IMPLIED
		ewd:pinNo CDATA #IMPLIED
		ewd:comment CDATA #IMPLIED >
	<!ATTLIST g
		ewd:lineID CDATA #IMPLIED
		ewd:groupID CDATA #IMPLIED
		ewd:figtype CDATA #IMPLIED
		ewd:code CDATA #IMPLIED
		ewd:figID CDATA #IMPLIED
		ewd:pinNo CDATA #IMPLIED
		ewd:comment CDATA #IMPLIED >
	<!ATTLIST text
		ewd:textID CDATA #IMPLIED >
	<!ATTLIST title
		ewd:textID CDATA #IMPLIED >
]>
<!-- Generator: Shintec Hozumi YS   -->
<svg onload="call_execInitLoadProc_svg('system')" style="overflow:visible;  enable-background:new 0 0 3034.701 710.000" viewBox="0 0 3034.701 710.000" height="710.000" width="3034.701" xml:space="preserve" ewd:ver="L2.1.2.9" xmlns="&ns_svg;" xmlns:a="http://ns.adobe.com/AdobeSVGViewerExtensions/3.0/" xmlns:ewd="http://shcl.co.jp/ewd" xmlns:xlink="&ns_xlink;">
<path d=" M  2636.68,   137.76  L  2632.44,   137.76  " style="stroke-width: 1.42 ;&st7;  " /><path d=" M  2636.68,   146.26  L  2632.44,   146.26  " style="stroke-width: 1.42 ;&st7;  " /><path d=" M  2634.56,   402.63  L  2640.23,   379.97  " style="stroke-width: 1.42 ;&st7;  " /><path d=" M  2634.56,   418.22  L  2634.56,   405.47  " style="stroke-width: 0.85 ;&st7;  " /><path d=" M  2634.56,   379.97  L  2634.56,   367.22  " style="stroke-width: 0.85 ;&st7;  " /><path d=" M  2626.06,   256.74  L  2634.56,   256.74  " style="stroke-width: 1.42 ;&st7;  " /><path d=" M  2643.06,   491.18  L  2638.09,   486.20  " style="stroke-width: 1.42 ;&st7;  " /><path d=" M  2626.06,   498.23  L  2631.03,   503.20  " style="stroke-width: 1.42 ;&st7;  " /><path d=" M  2638.09,   503.20  L  2643.06,   498.23  " style="stroke-width: 1.42 ;&st7;  " /><path d=" M  2631.03,   486.20  L  2626.06,   491.18  " style="stroke-width: 1.42 ;&st7;  " /><path d=" M  2532.58,   394.14  L  2538.24,   371.47  " style="stroke-width: 1.42 ;&st7;  " /><path d=" M  2524.08,   256.74  L  2532.58,   256.74  " style="stroke-width: 1.42 ;&st7;  " /><path d=" M  2541.08,   491.18  L  2536.10,   486.20  " style="stroke-width: 1.42 ;&st7;  " /><path d=" M  2524.08,   498.23  L  2529.05,   503.20  " style="stroke-width: 1.42 ;&st7;  " /><path d=" M  2536.10,   503.20  L  2541.08,   498.23  " style="stroke-width: 1.42 ;&st7;  " /><path d=" M  2529.05,   486.20  L  2524.08,   491.18  " style="stroke-width: 1.42 ;&st7;  " /><path d=" M  2957.51,   311.98  L  2957.51,   303.48  " style="stroke-width: 0.85 ;&st7;  " /><path d=" M  2967.17,   295.00  L  2962.92,   302.36  " style="stroke-width: 0.85 ;&st7;  " /><path d=" M  2959.45,   300.36  L  2963.70,   293.00  " style="stroke-width: 0.85 ;&st7;  " /><path d=" M  2940.51,   311.98  L  2940.51,   303.48  " style="stroke-width: 0.85 ;&st7;  " /><path d=" M  2950.17,   295.00  L  2945.92,   302.36  " style="stroke-width: 0.85 ;&st7;  " /><path d=" M  2942.45,   300.36  L  2946.70,   293.00  " style="stroke-width: 0.85 ;&st7;  " /><path d=" M  2541.08,   554.19  L  2532.58,   554.19  " style="stroke-width: 1.42 ;&st7;  " /><path d=" M  2634.56,   132.87  L  2631.73,   130.03  L  2631.73,   134.28  L  2634.56,   137.12  L  2637.39,   134.28  L  2637.39,   130.03  L  2634.56,   132.87  " style="stroke-width: 0.28 ;&st9;  " /><path d=" M  2634.56,    78.27  L  2634.56,   137.76  " style="stroke-width: 0.85 ;&st7;  " /><path d=" M  2634.56,   697.25  L  2634.56,   701.50  " style="stroke-width: 0.85 ;&st7;  " /><path d=" M  2626.06,   701.50  L  2643.06,   701.50  " style="stroke-width: 0.85 ;&st7;  " /><path d=" M  2630.31,   704.33  L  2638.81,   704.33  " style="stroke-width: 0.85 ;&st7;  " /><path d=" M  2631.73,   707.17  L  2637.39,   707.17  " style="stroke-width: 0.85 ;&st7;  " /><path d=" M  2633.14,   710.00  L  2635.98,   710.00  " style="stroke-width: 0.85 ;&st7;  " /><path d=" M  2651.56,   418.22  L  2651.56,   367.22  L  2617.56,   367.22  L  2617.56,   418.22  L  2651.56,   418.22  " style="stroke-width: 1.42 ;&st7;  " /><path d=" M  2638.81,   251.08  L  2634.56,   255.33  L  2630.31,   251.08  " style="stroke-width: 1.42 ;&st7;  " /><path d=" M  2630.31,   247.68  L  2634.56,   251.93  L  2638.81,   247.68  " style="stroke-width: 1.42 ;&st7;  " /><path d=" M  2528.33,   704.33  L  2536.83,   704.33  " style="stroke-width: 0.85 ;&st7;  " /><path d=" M  2532.58,   697.25  L  2532.58,   701.50  " style="stroke-width: 0.85 ;&st7;  " /><path d=" M  2515.58,   418.22  L  2558.07,   418.22  L  2558.07,   350.23  L  2515.58,   350.23  L  2515.58,   418.22  " style="stroke-width: 1.42 ;&st7;  " /><path d=" M  2532.58,   371.47  L  2532.58,   350.23  " style="stroke-width: 0.85 ;&st7;  " /><path d=" M  2532.58,   396.97  L  2532.58,   418.22  " style="stroke-width: 0.85 ;&st7;  " /><path d=" M  2529.74,   707.17  L  2535.41,   707.17  " style="stroke-width: 0.85 ;&st7;  " /><path d=" M  2531.16,   710.00  L  2533.99,   710.00  " style="stroke-width: 0.85 ;&st7;  " /><path d=" M  2524.08,   701.50  L  2541.07,   701.50  " style="stroke-width: 0.85 ;&st7;  " /><path d=" M  2528.33,   247.68  L  2532.58,   251.93  L  2536.83,   247.68  " style="stroke-width: 1.42 ;&st7;  " /><path d=" M  2536.83,   251.08  L  2532.58,   255.33  L  2528.33,   251.08  " style="stroke-width: 1.42 ;&st7;  " /><path d=" M  2702.55,   290.74  L  2753.54,   290.74  L  2753.54,   273.74  L  2702.55,   273.74  L  2702.55,   290.74  " style="stroke-width: 1.42 ;&st7;  " /><path d=" M  2745.04,   290.74  L  2745.04,   273.74  " style="stroke-width: 0.85 ;&st7;  " /><path d=" M  2711.05,   290.74  L  2711.05,   273.74  " style="stroke-width: 0.85 ;&st7;  " /><path d=" M  2830.03,   290.74  L  2881.02,   290.74  L  2881.02,   273.74  L  2830.03,   273.74  L  2830.03,   290.74  " style="stroke-width: 1.42 ;&st7;  " /><path d=" M  2872.52,   273.74  L  2872.52,   290.74  " style="stroke-width: 0.85 ;&st7;  " /><path d=" M  2838.52,   273.74  L  2838.52,   290.74  " style="stroke-width: 0.85 ;&st7;  " /><path d=" M  2821.53,    78.27  L  3025.49,    78.27  L  3025.49,    44.28  L  2821.53,    44.28  L  2821.53,    78.27  " style="stroke-width: 1.42 ;&st7;  " /><path d=" M  3008.50,   273.74  L  3008.50,   307.73  L  2991.50,   307.73  " style="stroke-width: 0.85 ;&st7;  " /><path d=" M  2974.50,   307.73  L  2975.92,   304.90  L  2978.75,   310.57  L  2981.58,   304.90  L  2984.42,   310.57  L  2987.25,   304.90  L  2990.08,   310.57  L  2991.50,   307.73  " style="stroke-width: 0.85 ;&st7;  " /><path d=" M  2923.51,   273.74  L  2923.51,   307.73  L  2974.50,   307.73  " style="stroke-width: 0.85 ;&st7;  " /><path d=" M  2946.70,   293.00  L  2943.66,   295.33  L  2946.20,   296.80  L  2946.70,   293.00  L  2945.96,   294.28  L  2944.68,   295.27  L  2945.75,   295.88  L  2945.96,   294.28  L  2945.59,   294.92  L  2945.19,   295.23  L  2945.52,   295.43  L  2945.59,   294.92  " style="stroke-width: 0.85 ;&st7;  " /><path d=" M  2950.17,   295.00  L  2947.13,   297.33  L  2949.67,   298.80  L  2950.17,   295.00  L  2949.43,   296.28  L  2948.15,   297.27  L  2949.22,   297.89  L  2949.43,   296.28  L  2949.06,   296.92  L  2948.66,   297.24  L  2948.99,   297.43  L  2949.06,   296.92  " style="stroke-width: 0.85 ;&st7;  " /><path d=" M  2940.51,   307.73  L  2949.01,   302.07  L  2949.01,   313.40  L  2940.51,   307.73  " style="stroke-width: 0.28 ;&st9;  " /><path d=" M  2963.70,   293.00  L  2960.66,   295.33  L  2963.20,   296.80  L  2963.70,   293.00  L  2962.96,   294.28  L  2961.67,   295.27  L  2962.75,   295.88  L  2962.96,   294.28  L  2962.59,   294.92  L  2962.18,   295.23  L  2962.52,   295.43  L  2962.59,   294.92  " style="stroke-width: 0.85 ;&st7;  " /><path d=" M  2967.17,   295.00  L  2964.13,   297.33  L  2966.67,   298.80  L  2967.17,   295.00  L  2966.43,   296.28  L  2965.14,   297.27  L  2966.22,   297.89  L  2966.43,   296.28  L  2966.06,   296.92  L  2965.65,   297.24  L  2965.99,   297.43  L  2966.06,   296.92  " style="stroke-width: 0.85 ;&st7;  " /><path d=" M  2957.50,   307.73  L  2966.00,   302.07  L  2966.00,   313.40  L  2957.50,   307.73  " style="stroke-width: 0.28 ;&st9;  " /><path d=" M  2906.51,   333.23  L  3033.99,   333.23  L  3033.99,   273.74  L  2906.51,   273.74  L  2906.51,   333.23  " style="stroke-width: 1.42 ;&st7;  " /><path d=" M  2932.01,   290.74  L  2932.01,   324.73  L  3000.00,   324.73  L  3000.00,   290.74  L  2932.01,   290.74  " style="stroke-width: 1.42 ;&st7;  " /><path d=" M  2536.83,   563.26  L  2532.58,   559.01  L  2528.33,   563.26  " style="stroke-width: 1.42 ;&st7;  " /><path d=" M  2536.83,   559.86  L  2532.58,   555.61  L  2528.33,   559.86  " style="stroke-width: 1.42 ;&st7;  " /><path d=" M  2632.44,   137.76  C  2630.09    137.76   2628.19    139.66   2628.19    142.01  " style="stroke-width: 1.42 ;&st7;   " /><path d=" M  2628.19,   142.01  C  2628.19    144.36   2630.09    146.26   2632.44    146.26  " style="stroke-width: 1.42 ;&st7;   " /><path d=" M  2636.68,   146.26  C  2639.03    146.26   2640.93    144.36   2640.93    142.01  " style="stroke-width: 1.42 ;&st7;   " /><path d=" M  2640.93,   142.01  C  2640.93    139.66   2639.03    137.76   2636.68    137.76  " style="stroke-width: 1.42 ;&st7;   " /><path d=" M  2635.98,   404.05  C  2635.98    403.27   2635.34    402.63   2634.56    402.63  " style="stroke-width: 0.85 ;&st7;   " /><path d=" M  2634.56,   402.63  C  2633.78    402.63   2633.14    403.27   2633.14    404.05  " style="stroke-width: 0.85 ;&st7;   " /><path d=" M  2633.14,   404.05  C  2633.14    404.83   2633.78    405.47   2634.56    405.47  " style="stroke-width: 0.85 ;&st7;   " /><path d=" M  2634.56,   405.47  C  2635.34    405.47   2635.98    404.83   2635.98    404.05  " style="stroke-width: 0.85 ;&st7;   " /><path d=" M  2635.98,   381.39  C  2635.98    380.61   2635.34    379.97   2634.56    379.97  " style="stroke-width: 0.85 ;&st7;   " /><path d=" M  2634.56,   379.97  C  2633.78    379.97   2633.14    380.61   2633.14    381.39  " style="stroke-width: 0.85 ;&st7;   " /><path d=" M  2633.14,   381.39  C  2633.14    382.17   2633.78    382.80   2634.56    382.80  " style="stroke-width: 0.85 ;&st7;   " /><path d=" M  2634.56,   382.80  C  2635.34    382.80   2635.98    382.17   2635.98    381.39  " style="stroke-width: 0.85 ;&st7;   " /><path d=" M  2533.99,   395.55  C  2533.99    394.77   2533.36    394.14   2532.58    394.14  " style="stroke-width: 0.85 ;&st7;   " /><path d=" M  2532.58,   394.14  C  2531.79    394.14   2531.16    394.77   2531.16    395.55  " style="stroke-width: 0.85 ;&st7;   " /><path d=" M  2531.16,   395.55  C  2531.16    396.33   2531.79    396.97   2532.58    396.97  " style="stroke-width: 0.85 ;&st7;   " /><path d=" M  2532.58,   396.97  C  2533.36    396.97   2533.99    396.33   2533.99    395.55  " style="stroke-width: 0.85 ;&st7;   " /><path d=" M  2533.99,   372.89  C  2533.99    372.11   2533.36    371.47   2532.58    371.47  " style="stroke-width: 0.85 ;&st7;   " /><path d=" M  2532.58,   371.47  C  2531.79    371.47   2531.16    372.11   2531.16    372.89  " style="stroke-width: 0.85 ;&st7;   " /><path d=" M  2531.16,   372.89  C  2531.16    373.67   2531.79    374.31   2532.58    374.31  " style="stroke-width: 0.85 ;&st7;   " /><path d=" M  2532.58,   374.31  C  2533.36    374.31   2533.99    373.67   2533.99    372.89  " style="stroke-width: 0.85 ;&st7;   " /><path d=" M  2537.11,    82.80  C  2537.11     80.30   2535.08     78.27   2532.58     78.27  " style="stroke-width: 1.42 ;&st7;   " /><path d=" M  2532.58,    78.27  C  2530.07     78.27   2528.04     80.30   2528.04     82.80  " style="stroke-width: 1.42 ;&st7;   " /><path d=" M  2528.04,    82.80  C  2528.04     85.31   2530.07     87.34   2532.58     87.34  " style="stroke-width: 1.42 ;&st7;   " /><path d=" M  2532.58,    87.34  C  2535.08     87.34   2537.11     85.31   2537.11     82.80  " style="stroke-width: 1.42 ;&st7;   " /><path d=" M  2715.58,    82.80  C  2715.58     80.30   2713.55     78.27   2711.05     78.27  " style="stroke-width: 1.42 ;&st7;   " /><path d=" M  2711.05,    78.27  C  2708.54     78.27   2706.51     80.30   2706.51     82.80  " style="stroke-width: 1.42 ;&st7;   " /><path d=" M  2706.51,    82.80  C  2706.51     85.31   2708.54     87.34   2711.05     87.34  " style="stroke-width: 1.42 ;&st7;   " /><path d=" M  2711.05,    87.34  C  2713.55     87.34   2715.58     85.31   2715.58     82.80  " style="stroke-width: 1.42 ;&st7;   " /><path d=" M  2749.57,    82.80  C  2749.57     80.30   2747.54     78.27   2745.04     78.27  " style="stroke-width: 1.42 ;&st7;   " /><path d=" M  2745.04,    78.27  C  2742.54     78.27   2740.51     80.30   2740.51     82.80  " style="stroke-width: 1.42 ;&st7;   " /><path d=" M  2740.51,    82.80  C  2740.51     85.31   2742.54     87.34   2745.04     87.34  " style="stroke-width: 1.42 ;&st7;   " /><path d=" M  2745.04,    87.34  C  2747.54     87.34   2749.57     85.31   2749.57     82.80  " style="stroke-width: 1.42 ;&st7;   " /><path d=" M  2715.58,   269.21  C  2715.58    266.70   2713.55    264.67   2711.05    264.67  " style="stroke-width: 1.42 ;&st7;   " /><path d=" M  2711.05,   264.67  C  2708.54    264.67   2706.51    266.70   2706.51    269.21  " style="stroke-width: 1.42 ;&st7;   " /><path d=" M  2706.51,   269.21  C  2706.51    271.71   2708.54    273.74   2711.05    273.74  " style="stroke-width: 1.42 ;&st7;   " /><path d=" M  2711.05,   273.74  C  2713.55    273.74   2715.58    271.71   2715.58    269.21  " style="stroke-width: 1.42 ;&st7;   " /><path d=" M  2749.57,   269.21  C  2749.57    266.70   2747.54    264.67   2745.04    264.67  " style="stroke-width: 1.42 ;&st7;   " /><path d=" M  2745.04,   264.67  C  2742.54    264.67   2740.51    266.70   2740.51    269.21  " style="stroke-width: 1.42 ;&st7;   " /><path d=" M  2740.51,   269.21  C  2740.51    271.71   2742.54    273.74   2745.04    273.74  " style="stroke-width: 1.42 ;&st7;   " /><path d=" M  2745.04,   273.74  C  2747.54    273.74   2749.57    271.71   2749.57    269.21  " style="stroke-width: 1.42 ;&st7;   " /><path d=" M  2715.58,   295.27  C  2715.58    292.77   2713.55    290.74   2711.05    290.74  " style="stroke-width: 1.42 ;&st7;   " /><path d=" M  2711.05,   290.74  C  2708.54    290.74   2706.51    292.77   2706.51    295.27  " style="stroke-width: 1.42 ;&st7;   " /><path d=" M  2706.51,   295.27  C  2706.51    297.77   2708.54    299.80   2711.05    299.80  " style="stroke-width: 1.42 ;&st7;   " /><path d=" M  2711.05,   299.80  C  2713.55    299.80   2715.58    297.77   2715.58    295.27  " style="stroke-width: 1.42 ;&st7;   " /><path d=" M  2749.57,   295.27  C  2749.57    292.77   2747.54    290.74   2745.04    290.74  " style="stroke-width: 1.42 ;&st7;   " /><path d=" M  2745.04,   290.74  C  2742.54    290.74   2740.51    292.77   2740.51    295.27  " style="stroke-width: 1.42 ;&st7;   " /><path d=" M  2740.51,   295.27  C  2740.51    297.77   2742.54    299.80   2745.04    299.80  " style="stroke-width: 1.42 ;&st7;   " /><path d=" M  2745.04,   299.80  C  2747.54    299.80   2749.57    297.77   2749.57    295.27  " style="stroke-width: 1.42 ;&st7;   " /><path d=" M  2843.06,   269.21  C  2843.06    266.70   2841.03    264.67   2838.53    264.67  " style="stroke-width: 1.42 ;&st7;   " /><path d=" M  2838.53,   264.67  C  2836.02    264.67   2833.99    266.70   2833.99    269.21  " style="stroke-width: 1.42 ;&st7;   " /><path d=" M  2833.99,   269.21  C  2833.99    271.71   2836.02    273.74   2838.53    273.74  " style="stroke-width: 1.42 ;&st7;   " /><path d=" M  2838.53,   273.74  C  2841.03    273.74   2843.06    271.71   2843.06    269.21  " style="stroke-width: 1.42 ;&st7;   " /><path d=" M  2877.05,   269.21  C  2877.05    266.70   2875.02    264.67   2872.52    264.67  " style="stroke-width: 1.42 ;&st7;   " /><path d=" M  2872.52,   264.67  C  2870.02    264.67   2867.99    266.70   2867.99    269.21  " style="stroke-width: 1.42 ;&st7;   " /><path d=" M  2867.99,   269.21  C  2867.99    271.71   2870.02    273.74   2872.52    273.74  " style="stroke-width: 1.42 ;&st7;   " /><path d=" M  2872.52,   273.74  C  2875.02    273.74   2877.05    271.71   2877.05    269.21  " style="stroke-width: 1.42 ;&st7;   " /><path d=" M  2877.05,    82.80  C  2877.05     80.30   2875.02     78.27   2872.52     78.27  " style="stroke-width: 1.42 ;&st7;   " /><path d=" M  2872.52,    78.27  C  2870.02     78.27   2867.99     80.30   2867.99     82.80  " style="stroke-width: 1.42 ;&st7;   " /><path d=" M  2867.99,    82.80  C  2867.99     85.31   2870.02     87.34   2872.52     87.34  " style="stroke-width: 1.42 ;&st7;   " /><path d=" M  2872.52,    87.34  C  2875.02     87.34   2877.05     85.31   2877.05     82.80  " style="stroke-width: 1.42 ;&st7;   " /><path d=" M  2928.04,    82.80  C  2928.04     80.30   2926.01     78.27   2923.51     78.27  " style="stroke-width: 1.42 ;&st7;   " /><path d=" M  2923.51,    78.27  C  2921.01     78.27   2918.98     80.30   2918.98     82.80  " style="stroke-width: 1.42 ;&st7;   " /><path d=" M  2918.98,    82.80  C  2918.98     85.31   2921.01     87.34   2923.51     87.34  " style="stroke-width: 1.42 ;&st7;   " /><path d=" M  2923.51,    87.34  C  2926.01     87.34   2928.04     85.31   2928.04     82.80  " style="stroke-width: 1.42 ;&st7;   " /><path d=" M  2843.06,    82.80  C  2843.06     80.30   2841.03     78.27   2838.53     78.27  " style="stroke-width: 1.42 ;&st7;   " /><path d=" M  2838.53,    78.27  C  2836.02     78.27   2833.99     80.30   2833.99     82.80  " style="stroke-width: 1.42 ;&st7;   " /><path d=" M  2833.99,    82.80  C  2833.99     85.31   2836.02     87.34   2838.53     87.34  " style="stroke-width: 1.42 ;&st7;   " /><path d=" M  2838.53,    87.34  C  2841.03     87.34   2843.06     85.31   2843.06     82.80  " style="stroke-width: 1.42 ;&st7;   " /><path d=" M  2843.06,   295.27  C  2843.06    292.77   2841.03    290.74   2838.53    290.74  " style="stroke-width: 1.42 ;&st7;   " /><path d=" M  2838.53,   290.74  C  2836.02    290.74   2833.99    292.77   2833.99    295.27  " style="stroke-width: 1.42 ;&st7;   " /><path d=" M  2833.99,   295.27  C  2833.99    297.77   2836.02    299.80   2838.53    299.80  " style="stroke-width: 1.42 ;&st7;   " /><path d=" M  2838.53,   299.80  C  2841.03    299.80   2843.06    297.77   2843.06    295.27  " style="stroke-width: 1.42 ;&st7;   " /><path d=" M  2877.05,   295.27  C  2877.05    292.77   2875.02    290.74   2872.52    290.74  " style="stroke-width: 1.42 ;&st7;   " /><path d=" M  2872.52,   290.74  C  2870.02    290.74   2867.99    292.77   2867.99    295.27  " style="stroke-width: 1.42 ;&st7;   " /><path d=" M  2867.99,   295.27  C  2867.99    297.77   2870.02    299.80   2872.52    299.80  " style="stroke-width: 1.42 ;&st7;   " /><path d=" M  2872.52,   299.80  C  2875.02    299.80   2877.05    297.77   2877.05    295.27  " style="stroke-width: 1.42 ;&st7;   " /><text style="&st18;" transform="matrix(&st16;  2626.17  74.58 )">LGCY</text><text style="&st18;" transform="matrix(&st16;  2630.59  143.98 )">3C</text><text style="&st18;" transform="matrix(&st16;  2624.05  143.98 )">9</text><text style="&st18;" transform="matrix(&st16;  2628.38  426.41 )">2</text><text style="&st18;" transform="matrix(&st16;  2628.38  363.53 )">3</text><text ewd:textID="16" style="&st18;" transform="matrix(&st17;  2666.27  421.12 )">Luggage Compartment <tspan dy="6.0" x="0 ">Door Lock Assembly</tspan></text><text style="&st18;" transform="matrix(&st17;  2659.17  421.11 )">T3</text><text style="&st18;" transform="matrix(&st17;  2630.86  174.22 )">W</text><text style="&st18;" transform="matrix(&st17;  2630.86  288.95 )">W</text><text style="&st18;" transform="matrix(&st17;  2630.86  462.41 )">W-B</text><text style="&st18;" transform="matrix(&st16;  2621.93  262.96 )">5</text><text style="&st18;" transform="matrix(&st16;  2628.38  86.47 )">4</text><text style="&st18;" transform="matrix(&st17;  2630.86  619.64 )">W-B</text><text style="&st18;" transform="matrix(&st17;  2565.68  421.11 )">J1</text><text style="&st18;" transform="matrix(&st16;  2535.16  358.42 )">LSSR</text><text style="&st18;" transform="matrix(&st16;  2535.16  414.53 )">E</text><text style="&st18;" transform="matrix(&st17;  2528.88  462.41 )">W-B</text><text style="&st18;" transform="matrix(&st17;  2528.88  288.95 )">W</text><text style="&st18;" transform="matrix(&st17;  2528.88  174.22 )">W</text><text style="&st18;" transform="matrix(&st16;  2525.23  74.58 )">LSFR</text><text style="&st18;" transform="matrix(&st16;  2530.39  84.77 )">B</text><text style="&st18;" transform="matrix(&st16;  2520.78  84.77 )">18</text><text style="&st18;" transform="matrix(&st16;  2516.84  262.96 )">15</text><text style="&st18;" transform="matrix(&st16;  2526.39  426.41 )">8</text><text style="&st18;" transform="matrix(&st16;  2526.39  346.54 )">7</text><text style="&st18;" transform="matrix(&st17;  2528.88  645.13 )">W-B</text><text style="&st18;" transform="matrix(&st17;  2528.88  526.15 )">W-B</text><text ewd:textID="13" style="&st18;" transform="matrix(&st17;  2572.79  421.12 )">Front Door Lock <tspan dy="6.0" x="0 ">Assembly with Motor RH</tspan></text><text style="&st18;" transform="matrix(&st16;  2917.33  270.05 )">6</text><text ewd:textID="7" style="&st18;" transform="matrix(&st16;  2903.11  347.95 )">Engine Switch</text><text style="&st18;" transform="matrix(&st16;  2903.1  340.84 )">I58</text><text style="&st18;" transform="matrix(&st16;  2926.09  281.93 )">AGND</text><text style="&st18;" transform="matrix(&st16;  2637.14  375.42 )">D+</text><text style="&st18;" transform="matrix(&st16;  2637.14  414.53 )">E</text><text style="&st18;" transform="matrix(&st16;  2519.95  551.91 )">7</text><text style="&st18;" transform="matrix(&st16;  2702.27  74.58 )">CANH</text><text style="&st18;" transform="matrix(&st16;  2736.69  74.58 )">CANL</text><text style="&st18;" transform="matrix(&st16;  2699.25  84.77 )">14</text><text style="&st18;" transform="matrix(&st16;  2708.86  84.77 )">B</text><text style="&st18;" transform="matrix(&st16;  2733.25  84.77 )">13</text><text style="&st18;" transform="matrix(&st16;  2742.85  84.77 )">B</text><text style="&st18;" transform="matrix(&st16;  2702.35  271.18 )">1</text><text style="&st18;" transform="matrix(&st16;  2708.63  271.18 )">C</text><text style="&st18;" transform="matrix(&st16;  2736.35  271.18 )">2</text><text style="&st18;" transform="matrix(&st16;  2742.62  271.18 )">C</text><text style="&st18;" transform="matrix(&st16;  2702.35  297.24 )">1</text><text style="&st18;" transform="matrix(&st16;  2708.74  297.24 )">A</text><text style="&st18;" transform="matrix(&st16;  2736.35  297.24 )">2</text><text style="&st18;" transform="matrix(&st16;  2742.74  297.24 )">A</text><text style="&st18;" transform="matrix(&st16;  2836.03  271.18 )">H</text><text style="&st18;" transform="matrix(&st16;  2829.83  271.18 )">2</text><text style="&st18;" transform="matrix(&st16;  2863.83  271.18 )">1</text><text style="&st18;" transform="matrix(&st16;  2870.02  271.18 )">H</text><text style="&st18;" transform="matrix(&st17;  2919.82  173.72 )">G</text><text style="&st18;" transform="matrix(&st16;  2996.7  84.77 )">16</text><text style="&st18;" transform="matrix(&st16;  2921.32  84.77 )">B</text><text style="&st18;" transform="matrix(&st16;  2911.72  84.77 )">24</text><text style="&st18;" transform="matrix(&st16;  2914.81  74.58 )">AGND</text><text style="&st18;" transform="matrix(&st16;  2870.33  84.77 )">B</text><text style="&st18;" transform="matrix(&st16;  2860.72  84.77 )">14</text><text style="&st18;" transform="matrix(&st16;  2836.34  84.77 )">B</text><text style="&st18;" transform="matrix(&st16;  2826.73  84.77 )">15</text><text style="&st18;" transform="matrix(&st16;  2830.17  74.58 )">CANL</text><text style="&st18;" transform="matrix(&st16;  2863.74  74.58 )">CANH</text><text style="&st18;" transform="matrix(&st17;  2834.83  174.22 )">W</text><text style="&st18;" transform="matrix(&st17;  2868.82  173.33 )">L</text><text style="&st18;" transform="matrix(&st16;  2829.83  297.24 )">2</text><text style="&st18;" transform="matrix(&st16;  2836.14  297.24 )">D</text><text style="&st18;" transform="matrix(&st16;  2863.83  297.24 )">1</text><text style="&st18;" transform="matrix(&st16;  2870.14  297.24 )">D</text><text style="&st18;" transform="matrix(&st17;  2686.08  293.64 )">I93(A),I95(C)</text><text ewd:textID="14" style="&st18;" transform="matrix(&st17;  2692.9  293.64 )">Junction <tspan dy="6.0" x="0 ">Connector</tspan></text><text style="&st18;" transform="matrix(&st16;  2784.57  338.03 )">W</text><text style="&st18;" transform="matrix(&st16;  2785.35  363.53 )">B</text><text ewd:textID="3" style="&st18;" transform="matrix(&st16;  2818.12  40.58 )">Certification ECU</text><text style="&st18;" transform="matrix(&st16;  2818.12  33.47 )">I78(B)</text><text style="&st18;" transform="matrix(&st17;  2741.35  174.22 )">W</text><text style="&st18;" transform="matrix(&st17;  2707.35  173.25 )">P</text><text style="&st18;" transform="matrix(&st16;  2648.14  24.98 )">I12(A),I13(B)</text><text ewd:textID="17" style="&st18;" transform="matrix(&st16;  2648.15  32.08 )">Main Body ECU</text><text style="&st18;" transform="matrix(&st17;  2813.56  293.64 )">I101(D),I106(H)</text><text ewd:textID="14" style="&st18;" transform="matrix(&st17;  2820.38  293.64 )">Junction <tspan dy="6.0" x="0 ">Connector</tspan></text><text ewd:textID="4" style="&st18;" transform="matrix(&st17;  2628.03  404.18 )">Courtesy</text><text ewd:textID="28" style="&st18;" transform="matrix(&st17;  2522.95  396.5 )">Unlock <tspan dy="6.0" x="0 ">Detection</tspan></text><text ewd:textID="1" style="&st18;" transform="matrix(&st16;  2818.12  428.68 )">* 3 :w/ Sliding Roof</text></svg>