﻿<?xml version="1.0" encoding="UTF-8"?>
<!DOCTYPE svg PUBLIC "-//W3C//DTD SVG 1.0//EN" "http://www.w3.org/TR/2001/REC-SVG-20010904/DTD/svg10.dtd"[
	<!ENTITY ns_flows "http://ns.adobe.com/Flows/1.0/">
	<!ENTITY ns_svg "http://www.w3.org/2000/svg">
	<!ENTITY ns_xlink "http://www.w3.org/1999/xlink">
	<!ENTITY st0 "font-size:7px;font-family:'MS-PGothic';adobe-font-script:japanese;">
	<!ENTITY st1 "font-size:6px;font-family:'ArialMT';">
	<!-- White fill  -->
	<!ENTITY st2 "fill:#FFFFFF;stroke:#000000; stroke-width:1.41;stroke-linecap:round;stroke-linejoin:round;">
	<!-- Yellow fill  -->
	<!ENTITY st3 "fill:#FFFFCC;stroke:#FFFFCC; stroke-width:0.1;stroke-linecap:round;stroke-linejoin:round;">
	<!-- Gray fill  -->
	<!ENTITY st4 "fill:#CCCCCC;stroke:#CCCCCC; stroke-width:0.1;stroke-linecap:round;stroke-linejoin:round;">
	<!-- Light-blue fill -->
	<!ENTITY st5 "fill:#CCECF4;stroke:#000000; stroke-width:1.133;stroke-linecap:round;stroke-linejoin:round;">
	<!ENTITY st6 "fill:none;stroke-linecap:butt; stroke-linejoin:round;">
	<!ENTITY st7 "fill:none;stroke:#000000;stroke-linecap:round;stroke-linejoin:round;">
	<!ENTITY st8 "enable-background:new    ;">
	<!-- Black fill -->
	<!ENTITY st9 "fill:#000000;stroke:#000000; stroke-linecap:round;stroke-linejoin:round;">
	<!-- SRS note   -->
	<!ENTITY st10 "font-size:9px;font-family:'ArialMT';">
	<!ENTITY st11 "font-size:9px;font-family:'Svg Symbol';">
	<!ENTITY st12 "font-size:6px;font-family:'Svg Symbol';">
	<!ENTITY st13 "fill:none;stroke:#ff0000;stroke-linecap:round;stroke-linejoin:round;">
	<!-- Yellow fill  -->
	<!ENTITY st14 "fill:#FFFF00;stroke:#FFFF00; stroke-width:0.1;stroke-linecap:round;stroke-linejoin:round;">
	<!ENTITY st15 "font-size:6px;font-family:'MS-PGothic';adobe-font-script:japanese;">
	<!ENTITY st16 "1.00 0.00 0.00 1.00">
	<!ENTITY st17 "0.00 -1.00 1.00 0.00">
	<!ENTITY st18 "font-size:6px;font-family:'Arial';">
	<!ENTITY st19 "font-size:9px;font-family:'Arial';">
	<!ENTITY st20 "font-size:6px;font-family:'MS-PGothic','MS PGothic';adobe-font-script:japanese;">
	<!ENTITY st21 "font-size:7px;font-family:'MS-PGothic','MS PGothic';adobe-font-script:japanese;">
	<!ATTLIST svg
		xmlns:ewd CDATA #FIXED "http://shcl.co.jp/ewd"
		xmlns:a CDATA #FIXED "http://ns.adobe.com/AdobeSVGViewerExtensions/3.0/"
		ewd:ver CDATA #IMPLIED
	>
	<!ATTLIST a
		ewd:lineID CDATA #IMPLIED
		ewd:groupID CDATA #IMPLIED
		ewd:figtype CDATA #IMPLIED
		ewd:code CDATA #IMPLIED
		ewd:figID CDATA #IMPLIED
		ewd:pinNo CDATA #IMPLIED
		ewd:comment CDATA #IMPLIED >
	<!ATTLIST g
		ewd:lineID CDATA #IMPLIED
		ewd:groupID CDATA #IMPLIED
		ewd:figtype CDATA #IMPLIED
		ewd:code CDATA #IMPLIED
		ewd:figID CDATA #IMPLIED
		ewd:pinNo CDATA #IMPLIED
		ewd:comment CDATA #IMPLIED >
	<!ATTLIST text
		ewd:textID CDATA #IMPLIED >
	<!ATTLIST title
		ewd:textID CDATA #IMPLIED >
]>
<!-- Generator: Shintec Hozumi YS   -->
<svg onload="call_execInitLoadProc_svg('system')" style="overflow:visible;  enable-background:new 0 0 487.791 710.000" viewBox="0 0 487.791 710.000" height="710.000" width="487.791" xml:space="preserve" ewd:ver="L2.1.2.9" xmlns="&ns_svg;" xmlns:a="http://ns.adobe.com/AdobeSVGViewerExtensions/3.0/" xmlns:ewd="http://shcl.co.jp/ewd" xmlns:xlink="&ns_xlink;">
	<script type="text/javascript" xlink:href="../../../../../system/js/ewd/fig/svgfig.js"/>
<g id="ewd_top">
	<a ewd:code="E26" ewd:figID="1" ewd:figtype="conn" style="cursor:pointer;">
		<path d=" M    93.48,   120.77  L    93.48,   171.76  L   467.42,   171.76  L   467.42,   120.77  L    93.48,   120.77 " style="fill:#CCECF4;stroke:#000000; stroke-width:1.133; stroke-linecap:round;stroke-linejoin:round; "/>
		<title>ECM</title>
	</a>
	<a ewd:code="E89" ewd:figID="2" ewd:figtype="conn" style="cursor:pointer;">
		<path d=" M   195.47,   367.22  L   195.47,   401.22  L   263.46,   401.22  L   263.46,   367.22  L   195.47,   367.22 " style="fill:#CCECF4;stroke:#000000; stroke-width:1.133; stroke-linecap:round;stroke-linejoin:round; "/>
		<title ewd:textID="2">Ignition Coil Assembly No. 2</title>
	</a>
	<a ewd:code="E91" ewd:figID="3" ewd:figtype="conn" style="cursor:pointer;">
		<path d=" M   399.43,   367.22  L   399.43,   401.22  L   467.42,   401.22  L   467.42,   367.22  L   399.43,   367.22 " style="fill:#CCECF4;stroke:#000000; stroke-width:1.133; stroke-linecap:round;stroke-linejoin:round; "/>
		<title ewd:textID="4">Ignition Coil Assembly No. 4</title>
	</a>
	<a ewd:code="E87" ewd:figID="4" ewd:figtype="conn" style="cursor:pointer;">
		<path d=" M   297.45,   367.22  L   297.45,   401.22  L   365.44,   401.22  L   365.44,   367.22  L   297.45,   367.22 " style="fill:#CCECF4;stroke:#000000; stroke-width:1.133; stroke-linecap:round;stroke-linejoin:round; "/>
		<title ewd:textID="3">Ignition Coil Assembly No. 3</title>
	</a>
	<a ewd:code="E86" ewd:figID="5" ewd:figtype="conn" style="cursor:pointer;">
		<path d=" M    93.48,   367.22  L    93.48,   401.22  L   161.47,   401.22  L   161.47,   367.22  L    93.48,   367.22 " style="fill:#CCECF4;stroke:#000000; stroke-width:1.133; stroke-linecap:round;stroke-linejoin:round; "/>
		<title ewd:textID="1">Ignition Coil Assembly No. 1</title>
	</a>
	<a ewd:code="1" ewd:figID="6" ewd:figtype="jb" style="cursor:pointer;">
		<path d=" M    33.99,    35.78  L    33.99,   103.77  L    84.99,   103.77  L    84.99,    35.78  L    33.99,    35.78  " style="&st4; "/>
	</a>
	<a ewd:code="FUSE24" ewd:figID="7" ewd:figtype="fuse" style="cursor:pointer;">
		<path d=" M    38.24,    35.78  L    38.24,    78.27  L    63.74,    78.27  L    63.74,    35.78  L    38.24,    35.78 " style="&st7; stroke-width:0;"/>
	</a>
	<a ewd:lineID="1" style="cursor:pointer;">
		<path d=" M   101.98,   486.20  L    50.99,   486.20  L    50.99,   103.77  " style="stroke:#00A0C6;stroke-width: 5.10 ;&st6;"/>
	</a>
	<a ewd:lineID="2" style="cursor:pointer;">
		<path d=" M   110.48,   401.22  L   110.48,   477.71  " style="stroke:#00A0C6;stroke-width: 5.10 ;&st6;"/>
	</a>
	<a ewd:lineID="3" style="cursor:pointer;">
		<path d=" M   110.48,   180.82  L   110.48,   367.22  " style="stroke:#FFE600;stroke-width: 5.10 ;&st6;"/>
	</a>
	<a ewd:lineID="4" style="cursor:pointer;">
		<path d=" M   118.98,   486.20  L   203.97,   486.20  " style="stroke:#00A0C6;stroke-width: 5.10 ;&st6;"/>
	</a>
	<a ewd:lineID="5" style="cursor:pointer;">
		<path d=" M   144.48,   401.22  L   144.48,   511.70  L   237.96,   511.70  " style="stroke:#000000;stroke-width: 5.10 ;&st6;"/>
		<path d=" M   144.48,   401.22  L   144.48,   511.70  L   237.96,   511.70  " style="stroke:#FFFFFF;stroke-width: 4.53 ;&st6;"/>
		<path d=" M   144.48,   401.22  L   144.48,   511.70  L   237.96,   511.70  " style="stroke:#000000;stroke-width: 1.13 ;&st6;"/>
	</a>
	<a ewd:lineID="6" style="cursor:pointer;"> d=" M   144.48,   367.22  L   144.48,   265.24  L   237.96,   265.24 
	
		<path d=" M   144.48,   367.22  L   144.48,   265.24  L   237.96,   265.24  " style="stroke:#000000;stroke-width: 5.10 ;&st6;"/>
		<path d=" M   144.48,   367.22  L   144.48,   265.24  L   237.96,   265.24  " style="stroke:#FFFFFF;stroke-width: 4.53 ;&st6;"/>
	</a>
	<a ewd:lineID="7" style="cursor:pointer;">
		<path d=" M   212.46,   401.22  L   212.46,   477.71  " style="stroke:#00A0C6;stroke-width: 5.10 ;&st6;"/>
	</a>
	<a ewd:lineID="8" style="cursor:pointer;">
		<path d=" M   212.46,   180.82  L   212.46,   367.22  " style="stroke:#FF0000;stroke-width: 5.10 ;&st6;"/>
	</a>
	<a ewd:lineID="9" style="cursor:pointer;">
		<path d=" M   220.96,   486.20  L   305.95,   486.20  " style="stroke:#00A0C6;stroke-width: 5.10 ;&st6;"/>
	</a>
	<a ewd:lineID="10" style="cursor:pointer;">
		<path d=" M   246.46,   401.22  L   246.46,   503.20  " style="stroke:#000000;stroke-width: 5.10 ;&st6;"/>
		<path d=" M   246.46,   401.22  L   246.46,   503.20  " style="stroke:#FFFFFF;stroke-width: 4.53 ;&st6;"/>
		<path d=" M   246.46,   401.22  L   246.46,   503.20  " style="stroke:#000000;stroke-width: 1.13 ;&st6;"/>
	</a>
	<a ewd:lineID="11" style="cursor:pointer;"> d=" M   246.46,   367.22  L   246.46,   273.74 
	
		<path d=" M   246.46,   367.22  L   246.46,   273.74  " style="stroke:#000000;stroke-width: 5.10 ;&st6;"/>
		<path d=" M   246.46,   367.22  L   246.46,   273.74  " style="stroke:#FFFFFF;stroke-width: 4.53 ;&st6;"/>
	</a>
	<a ewd:lineID="12" style="cursor:pointer;">
		<path d=" M   254.96,   511.70  L   339.94,   511.70  " style="stroke:#000000;stroke-width: 5.10 ;&st6;"/>
		<path d=" M   254.96,   511.70  L   339.94,   511.70  " style="stroke:#FFFFFF;stroke-width: 4.53 ;&st6;"/>
		<path d=" M   254.96,   511.70  L   339.94,   511.70  " style="stroke:#000000;stroke-width: 1.13 ;&st6;"/>
	</a>
	<a ewd:lineID="13" style="cursor:pointer;"> d=" M   254.96,   265.24  L   339.94,   265.24 
	
		<path d=" M   254.96,   265.24  L   339.94,   265.24  " style="stroke:#000000;stroke-width: 5.10 ;&st6;"/>
		<path d=" M   254.96,   265.24  L   339.94,   265.24  " style="stroke:#FFFFFF;stroke-width: 4.53 ;&st6;"/>
	</a>
	<a ewd:lineID="14" style="cursor:pointer;">
		<path d=" M   314.45,   401.22  L   314.45,   477.71  " style="stroke:#00A0C6;stroke-width: 5.10 ;&st6;"/>
	</a>
	<a ewd:lineID="15" style="cursor:pointer;">
		<path d=" M   314.45,   180.82  L   314.45,   367.22  " style="stroke:#008837;stroke-width: 5.10 ;&st6;"/>
	</a>
	<a ewd:lineID="16" style="cursor:pointer;">
		<path d=" M   322.95,   486.20  L   416.43,   486.20  L   416.43,   401.22  " style="stroke:#00A0C6;stroke-width: 5.10 ;&st6;"/>
	</a>
	<a ewd:lineID="17" style="cursor:pointer;">
		<path d=" M   348.44,   401.22  L   348.44,   503.20  " style="stroke:#000000;stroke-width: 5.10 ;&st6;"/>
		<path d=" M   348.44,   401.22  L   348.44,   503.20  " style="stroke:#FFFFFF;stroke-width: 4.53 ;&st6;"/>
		<path d=" M   348.44,   401.22  L   348.44,   503.20  " style="stroke:#000000;stroke-width: 1.13 ;&st6;"/>
	</a>
	<a ewd:lineID="18" style="cursor:pointer;"> d=" M   348.44,   367.22  L   348.44,   273.74 
	
		<path d=" M   348.44,   367.22  L   348.44,   273.74  " style="stroke:#000000;stroke-width: 5.10 ;&st6;"/>
		<path d=" M   348.44,   367.22  L   348.44,   273.74  " style="stroke:#FFFFFF;stroke-width: 4.53 ;&st6;"/>
	</a>
	<a ewd:lineID="19" style="cursor:pointer;">
		<path d=" M   356.94,   511.70  L   441.93,   511.70  " style="stroke:#000000;stroke-width: 5.10 ;&st6;"/>
		<path d=" M   356.94,   511.70  L   441.93,   511.70  " style="stroke:#FFFFFF;stroke-width: 4.53 ;&st6;"/>
		<path d=" M   356.94,   511.70  L   441.93,   511.70  " style="stroke:#000000;stroke-width: 1.13 ;&st6;"/>
	</a>
	<a ewd:lineID="20" style="cursor:pointer;"> d=" M   356.94,   265.24  L   441.93,   265.24 
	
		<path d=" M   356.94,   265.24  L   441.93,   265.24  " style="stroke:#000000;stroke-width: 5.10 ;&st6;"/>
		<path d=" M   356.94,   265.24  L   441.93,   265.24  " style="stroke:#FFFFFF;stroke-width: 4.53 ;&st6;"/>
	</a>
	<a ewd:lineID="21" style="cursor:pointer;">
		<path d=" M   416.43,   180.82  L   416.43,   367.22  " style="stroke:#00A0C6;stroke-width: 5.10 ;&st6;"/>
	</a>
	<a ewd:lineID="22" style="cursor:pointer;">
		<path d=" M   450.42,   681.67  L   450.42,   520.20  " style="stroke:#000000;stroke-width: 5.10 ;&st6;"/>
		<path d=" M   450.42,   681.67  L   450.42,   520.20  " style="stroke:#FFFFFF;stroke-width: 4.53 ;&st6;"/>
		<path d=" M   450.42,   681.67  L   450.42,   520.20  " style="stroke:#000000;stroke-width: 1.13 ;&st6;"/>
	</a>
	<a ewd:lineID="23" style="cursor:pointer;">
		<path d=" M   450.42,   401.22  L   450.42,   503.20  " style="stroke:#000000;stroke-width: 5.10 ;&st6;"/>
		<path d=" M   450.42,   401.22  L   450.42,   503.20  " style="stroke:#FFFFFF;stroke-width: 4.53 ;&st6;"/>
		<path d=" M   450.42,   401.22  L   450.42,   503.20  " style="stroke:#000000;stroke-width: 1.13 ;&st6;"/>
	</a>
	<a ewd:lineID="24" style="cursor:pointer;"> d=" M   450.42,   367.22  L   450.42,   273.74 
	
		<path d=" M   450.42,   367.22  L   450.42,   273.74  " style="stroke:#000000;stroke-width: 5.10 ;&st6;"/>
		<path d=" M   450.42,   367.22  L   450.42,   273.74  " style="stroke:#FFFFFF;stroke-width: 4.53 ;&st6;"/>
	</a>
	<a ewd:lineID="25" style="cursor:pointer;"> d=" M   450.42,   180.82  L   450.42,   256.74 
	
		<path d=" M   450.42,   180.82  L   450.42,   256.74  " style="stroke:#000000;stroke-width: 5.10 ;&st6;"/>
		<path d=" M   450.42,   180.82  L   450.42,   256.74  " style="stroke:#FFFFFF;stroke-width: 4.53 ;&st6;"/>
	</a>
	<path d=" M    50.99,    69.77  L    50.99,    95.27  " style="stroke-width: 0.85 ;&st7;  "/>
	<path d=" M    53.12,    95.27  L    48.87,    95.27  " style="stroke-width: 1.42 ;&st7;  "/>
	<path d=" M    53.12,   103.77  L    48.87,   103.77  " style="stroke-width: 1.42 ;&st7;  "/>
	<path d=" M   305.95,   482.67  L   310.92,   477.71  " style="stroke-width: 1.42 ;&st7;  "/>
	<path d=" M   317.97,   477.71  L   322.95,   482.67  " style="stroke-width: 1.42 ;&st7;  "/>
	<path d=" M   310.92,   494.70  L   305.95,   489.73  " style="stroke-width: 1.42 ;&st7;  "/>
	<path d=" M   356.94,   515.23  L   351.97,   520.20  " style="stroke-width: 1.42 ;&st7;  "/>
	<path d=" M   446.89,   256.74  L   441.93,   261.71  " style="stroke-width: 1.42 ;&st7;  "/>
	<path d=" M   453.95,   273.74  L   458.92,   268.77  " style="stroke-width: 1.42 ;&st7;  "/>
	<path d=" M   441.93,   268.77  L   446.89,   273.74  " style="stroke-width: 1.42 ;&st7;  "/>
	<path d=" M   458.92,   261.71  L   453.95,   256.74  " style="stroke-width: 1.42 ;&st7;  "/>
	<path d=" M   344.91,   256.74  L   339.94,   261.71  " style="stroke-width: 1.42 ;&st7;  "/>
	<path d=" M   351.97,   273.74  L   356.94,   268.77  " style="stroke-width: 1.42 ;&st7;  "/>
	<path d=" M   339.94,   268.77  L   344.91,   273.74  " style="stroke-width: 1.42 ;&st7;  "/>
	<path d=" M   356.94,   261.71  L   351.97,   256.74  " style="stroke-width: 1.42 ;&st7;  "/>
	<path d=" M   249.99,   273.74  L   254.96,   268.77  " style="stroke-width: 1.42 ;&st7;  "/>
	<path d=" M   242.93,   256.74  L   237.96,   261.71  " style="stroke-width: 1.42 ;&st7;  "/>
	<path d=" M   237.96,   268.77  L   242.93,   273.74  " style="stroke-width: 1.42 ;&st7;  "/>
	<path d=" M   254.96,   261.71  L   249.99,   256.74  " style="stroke-width: 1.42 ;&st7;  "/>
	<path d=" M   339.94,   508.17  L   344.91,   503.20  " style="stroke-width: 1.42 ;&st7;  "/>
	<path d=" M   351.97,   503.20  L   356.94,   508.17  " style="stroke-width: 1.42 ;&st7;  "/>
	<path d=" M   344.91,   520.20  L   339.94,   515.23  " style="stroke-width: 1.42 ;&st7;  "/>
	<path d=" M   458.92,   515.23  L   453.95,   520.20  " style="stroke-width: 1.42 ;&st7;  "/>
	<path d=" M   441.93,   508.17  L   446.89,   503.20  " style="stroke-width: 1.42 ;&st7;  "/>
	<path d=" M   453.95,   503.20  L   458.92,   508.17  " style="stroke-width: 1.42 ;&st7;  "/>
	<path d=" M   446.89,   520.20  L   441.93,   515.23  " style="stroke-width: 1.42 ;&st7;  "/>
	<path d=" M   322.95,   489.73  L   317.97,   494.70  " style="stroke-width: 1.42 ;&st7;  "/>
	<path d=" M   242.93,   520.20  L   237.96,   515.23  " style="stroke-width: 1.42 ;&st7;  "/>
	<path d=" M   249.99,   503.20  L   254.96,   508.17  " style="stroke-width: 1.42 ;&st7;  "/>
	<path d=" M   237.96,   508.17  L   242.93,   503.20  " style="stroke-width: 1.42 ;&st7;  "/>
	<path d=" M   254.96,   515.23  L   249.99,   520.20  " style="stroke-width: 1.42 ;&st7;  "/>
	<path d=" M   208.93,   494.70  L   203.97,   489.73  " style="stroke-width: 1.42 ;&st7;  "/>
	<path d=" M   215.99,   477.71  L   220.96,   482.67  " style="stroke-width: 1.42 ;&st7;  "/>
	<path d=" M   203.97,   482.67  L   208.93,   477.71  " style="stroke-width: 1.42 ;&st7;  "/>
	<path d=" M   220.96,   489.73  L   215.99,   494.70  " style="stroke-width: 1.42 ;&st7;  "/>
	<path d=" M   118.98,   489.73  L   114.01,   494.70  " style="stroke-width: 1.42 ;&st7;  "/>
	<path d=" M   101.98,   482.67  L   106.95,   477.71  " style="stroke-width: 1.42 ;&st7;  "/>
	<path d=" M   114.01,   477.71  L   118.98,   482.67  " style="stroke-width: 1.42 ;&st7;  "/>
	<path d=" M   106.95,   494.70  L   101.98,   489.73  " style="stroke-width: 1.42 ;&st7;  "/>
	<path d=" M    38.24,    35.78  L    38.24,    78.27  L    63.74,    78.27  L    63.74,    35.78  L    38.24,    35.78  " style="stroke-width: 1.42 ;&st7;  "/>
	<path d=" M    50.99,    90.37  L    48.16,    87.54  L    48.16,    91.79  L    50.99,    94.62  L    53.82,    91.79  L    53.82,    87.54  L    50.99,    90.37  " style="stroke-width: 0.28 ;&st9;  "/>
	<path d=" M    93.48,   120.77  L    93.48,   171.76  L   467.42,   171.76  L   467.42,   120.77  L    93.48,   120.77  " style="stroke-width: 1.42 ;&st7;  "/>
	<path d=" M   449.01,   710.00  L   451.84,   710.00  " style="stroke-width: 0.85 ;&st7;  "/>
	<path d=" M   447.59,   707.17  L   453.26,   707.17  " style="stroke-width: 0.85 ;&st7;  "/>
	<path d=" M   446.18,   704.33  L   454.67,   704.33  " style="stroke-width: 0.85 ;&st7;  "/>
	<path d=" M   441.93,   701.50  L   458.92,   701.50  " style="stroke-width: 0.85 ;&st7;  "/>
	<path d=" M   450.42,   697.25  L   450.42,   701.50  " style="stroke-width: 0.85 ;&st7;  "/>
	<path d=" M   399.43,   367.22  L   399.43,   401.22  L   467.42,   401.22  L   467.42,   367.22  L   399.43,   367.22  " style="stroke-width: 1.42 ;&st7;  "/>
	<path d=" M   297.45,   367.22  L   297.45,   401.22  L   365.44,   401.22  L   365.44,   367.22  L   297.45,   367.22  " style="stroke-width: 1.42 ;&st7;  "/>
	<path d=" M   195.47,   367.22  L   195.47,   401.22  L   263.46,   401.22  L   263.46,   367.22  L   195.47,   367.22  " style="stroke-width: 1.42 ;&st7;  "/>
	<path d=" M    93.48,   367.22  L    93.48,   401.22  L   161.47,   401.22  L   161.47,   367.22  L    93.48,   367.22  " style="stroke-width: 1.42 ;&st7;  "/>
	<path d=" M    50.99,    47.11  C    48.25     48.72     47.34     52.25     48.95     54.99  " style="stroke-width: 1.42 ;&st7;   "/>
	<path d=" M    48.95,    54.99  C    49.47     55.87     50.11     56.51     50.99     57.03  " style="stroke-width: 1.42 ;&st7;   "/>
	<path d=" M    50.99,    66.94  C    53.73     65.33     54.64     61.80     53.03     59.06  " style="stroke-width: 1.42 ;&st7;   "/>
	<path d=" M    53.03,    59.06  C    52.51     58.18     51.87     57.55     50.99     57.03  " style="stroke-width: 1.42 ;&st7;   "/>
	<path d=" M    52.41,    45.69  C    52.41     44.91     51.77     44.28     50.99     44.28  " style="stroke-width: 0.85 ;&st7;   "/>
	<path d=" M    50.99,    44.28  C    50.21     44.28     49.58     44.91     49.58     45.69  " style="stroke-width: 0.85 ;&st7;   "/>
	<path d=" M    49.58,    45.69  C    49.58     46.48     50.21     47.11     50.99     47.11  " style="stroke-width: 0.85 ;&st7;   "/>
	<path d=" M    50.99,    47.11  C    51.77     47.11     52.41     46.48     52.41     45.69  " style="stroke-width: 0.85 ;&st7;   "/>
	<path d=" M    52.41,    68.36  C    52.41     67.57     51.77     66.94     50.99     66.94  " style="stroke-width: 0.85 ;&st7;   "/>
	<path d=" M    50.99,    66.94  C    50.21     66.94     49.58     67.57     49.58     68.36  " style="stroke-width: 0.85 ;&st7;   "/>
	<path d=" M    49.58,    68.36  C    49.58     69.14     50.21     69.77     50.99     69.77  " style="stroke-width: 0.85 ;&st7;   "/>
	<path d=" M    50.99,    69.77  C    51.77     69.77     52.41     69.14     52.41     68.36  " style="stroke-width: 0.85 ;&st7;   "/>
	<path d=" M    48.87,    95.27  C    46.52     95.27     44.62     97.17     44.62     99.52  " style="stroke-width: 1.42 ;&st7;   "/>
	<path d=" M    44.62,    99.52  C    44.62    101.87     46.52    103.77     48.87    103.77  " style="stroke-width: 1.42 ;&st7;   "/>
	<path d=" M    53.12,   103.77  C    55.46    103.77     57.37    101.87     57.37     99.52  " style="stroke-width: 1.42 ;&st7;   "/>
	<path d=" M    57.37,    99.52  C    57.37     97.17     55.46     95.27     53.12     95.27  " style="stroke-width: 1.42 ;&st7;   "/>
	<path d=" M   454.96,   176.29  C   454.96    173.79    452.93    171.76    450.42    171.76  " style="stroke-width: 1.42 ;&st7;   "/>
	<path d=" M   450.42,   171.76  C   447.92    171.76    445.89    173.79    445.89    176.29  " style="stroke-width: 1.42 ;&st7;   "/>
	<path d=" M   445.89,   176.29  C   445.89    178.79    447.92    180.82    450.42    180.82  " style="stroke-width: 1.42 ;&st7;   "/>
	<path d=" M   450.42,   180.82  C   452.93    180.82    454.96    178.79    454.96    176.29  " style="stroke-width: 1.42 ;&st7;   "/>
	<path d=" M   420.96,   176.29  C   420.96    173.79    418.93    171.76    416.43    171.76  " style="stroke-width: 1.42 ;&st7;   "/>
	<path d=" M   416.43,   171.76  C   413.93    171.76    411.90    173.79    411.90    176.29  " style="stroke-width: 1.42 ;&st7;   "/>
	<path d=" M   411.90,   176.29  C   411.90    178.79    413.93    180.82    416.43    180.82  " style="stroke-width: 1.42 ;&st7;   "/>
	<path d=" M   416.43,   180.82  C   418.93    180.82    420.96    178.79    420.96    176.29  " style="stroke-width: 1.42 ;&st7;   "/>
	<path d=" M   115.01,   176.29  C   115.01    173.79    112.98    171.76    110.48    171.76  " style="stroke-width: 1.42 ;&st7;   "/>
	<path d=" M   110.48,   171.76  C   107.98    171.76    105.95    173.79    105.95    176.29  " style="stroke-width: 1.42 ;&st7;   "/>
	<path d=" M   105.95,   176.29  C   105.95    178.79    107.98    180.82    110.48    180.82  " style="stroke-width: 1.42 ;&st7;   "/>
	<path d=" M   110.48,   180.82  C   112.98    180.82    115.01    178.79    115.01    176.29  " style="stroke-width: 1.42 ;&st7;   "/>
	<path d=" M   217.00,   176.29  C   217.00    173.79    214.97    171.76    212.46    171.76  " style="stroke-width: 1.42 ;&st7;   "/>
	<path d=" M   212.46,   171.76  C   209.96    171.76    207.93    173.79    207.93    176.29  " style="stroke-width: 1.42 ;&st7;   "/>
	<path d=" M   207.93,   176.29  C   207.93    178.79    209.96    180.82    212.46    180.82  " style="stroke-width: 1.42 ;&st7;   "/>
	<path d=" M   212.46,   180.82  C   214.97    180.82    217.00    178.79    217.00    176.29  " style="stroke-width: 1.42 ;&st7;   "/>
	<path d=" M   318.98,   176.29  C   318.98    173.79    316.95    171.76    314.45    171.76  " style="stroke-width: 1.42 ;&st7;   "/>
	<path d=" M   314.45,   171.76  C   311.94    171.76    309.91    173.79    309.91    176.29  " style="stroke-width: 1.42 ;&st7;   "/>
	<path d=" M   309.91,   176.29  C   309.91    178.79    311.94    180.82    314.45    180.82  " style="stroke-width: 1.42 ;&st7;   "/>
	<path d=" M   314.45,   180.82  C   316.95    180.82    318.98    178.79    318.98    176.29  " style="stroke-width: 1.42 ;&st7;   "/>
	<text style="&st18;" transform="matrix(&st16;  67.42  56.17 )">15A <tspan dy="6.0" x="0 ">IGN</tspan></text>
	<text style="&st18;" transform="matrix(&st16;  47.14  101.49 )">1A</text>
	<text style="&st18;" transform="matrix(&st16;  40.48  101.49 )">1</text>
	<text style="&st18;" transform="matrix(&st16;  45.78  32.08 )">(IG)</text>
	<text style="&st18;" transform="matrix(&st17;  47.3  164.83 )">L</text>
	<text style="&st18;" transform="matrix(&st16;  444.24  363.53 )">2</text>
	<text style="&st18;" transform="matrix(&st16;  410.25  363.53 )">3</text>
	<text style="&st18;" transform="matrix(&st16;  448.24  178.26 )">B</text>
	<text style="&st18;" transform="matrix(&st16;  312.26  178.26 )">B</text>
	<text style="&st18;" transform="matrix(&st16;  438.63  178.26 )">51</text>
	<text style="&st18;" transform="matrix(&st17;  169.08  404.12 )">E86</text>
	<text style="&st18;" transform="matrix(&st17;  271.07  404.12 )">E89</text>
	<text style="&st18;" transform="matrix(&st17;  446.73  662.13 )">W-B</text>
	<text style="&st18;" transform="matrix(&st16;  370.97  261.54 )">W</text>
	<text style="&st18;" transform="matrix(&st16;  268.99  261.54 )">W</text>
	<text style="&st18;" transform="matrix(&st17;  446.73  225.21 )">W</text>
	<text style="&st18;" transform="matrix(&st16;  443.66  168.06 )">IGF1</text>
	<text style="&st18;" transform="matrix(&st17;  446.73  327.2 )">W</text>
	<text style="&st18;" transform="matrix(&st16;  445.21  374.86 )">IGF</text>
	<text style="&st18;" transform="matrix(&st17;  373.05  404.12 )">E87</text>
	<text style="&st18;" transform="matrix(&st17;  412.73  326.3 )">L</text>
	<text style="&st18;" transform="matrix(&st16;  409.59  374.86 )">IGT4</text>
	<text style="&st18;" transform="matrix(&st16;  409.59  168.06 )">IGT4</text>
	<text style="&st18;" transform="matrix(&st17;  344.75  327.2 )">W</text>
	<text style="&st18;" transform="matrix(&st16;  343.23  374.86 )">IGF</text>
	<text style="&st18;" transform="matrix(&st17;  310.75  326.69 )">G</text>
	<text style="&st18;" transform="matrix(&st16;  307.61  374.86 )">IGT3</text>
	<text style="&st18;" transform="matrix(&st16;  307.61  168.06 )">IGT3</text>
	<text style="&st18;" transform="matrix(&st17;  242.76  327.2 )">W</text>
	<text style="&st18;" transform="matrix(&st16;  241.25  374.86 )">IGF</text>
	<text style="&st18;" transform="matrix(&st17;  208.77  326.34 )">R</text>
	<text style="&st18;" transform="matrix(&st16;  414.24  178.26 )">B</text>
	<text style="&st18;" transform="matrix(&st17;  475.03  404.12 )">E91</text>
	<text style="&st18;" transform="matrix(&st16;  205.62  374.86 )">IGT2</text>
	<text style="&st18;" transform="matrix(&st17;  140.78  327.2 )">W</text>
	<text style="&st18;" transform="matrix(&st16;  139.26  374.86 )">IGF</text>
	<text style="&st18;" transform="matrix(&st17;  106.79  326.42 )">Y</text>
	<text style="&st18;" transform="matrix(&st16;  404.63  178.26 )">54</text>
	<text style="&st18;" transform="matrix(&st16;  103.64  374.86 )">IGT1</text>
	<text style="&st18;" transform="matrix(&st16;  103.64  168.06 )">IGT1</text>
	<text style="&st18;" transform="matrix(&st16;  205.62  168.06 )">IGT2</text>
	<text style="&st18;" transform="matrix(&st16;  138.29  363.53 )">2</text>
	<text style="&st18;" transform="matrix(&st16;  108.29  178.26 )">B</text>
	<text style="&st18;" transform="matrix(&st16;  104.3  363.53 )">3</text>
	<text style="&st18;" transform="matrix(&st16;  98.69  178.26 )">57</text>
	<text style="&st18;" transform="matrix(&st16;  200.67  178.26 )">56</text>
	<text style="&st18;" transform="matrix(&st16;  210.28  178.26 )">B</text>
	<text style="&st18;" transform="matrix(&st16;  302.65  178.26 )">55</text>
	<text style="&st18;" transform="matrix(&st16;  308.26  363.53 )">3</text>
	<text style="&st18;" transform="matrix(&st16;  342.26  363.53 )">2</text>
	<text style="&st18;" transform="matrix(&st16;  206.28  363.53 )">3</text>
	<text style="&st18;" transform="matrix(&st16;  240.27  363.53 )">2</text>
	<text style="&st18;" transform="matrix(&st16;  443.78  397.52 )">GND</text>
	<text style="&st18;" transform="matrix(&st17;  446.73  449.67 )">W-B</text>
	<text style="&st18;" transform="matrix(&st17;  310.75  445.28 )">L</text>
	<text style="&st18;" transform="matrix(&st17;  344.75  449.67 )">W-B</text>
	<text style="&st18;" transform="matrix(&st17;  208.77  445.28 )">L</text>
	<text style="&st18;" transform="matrix(&st17;  242.76  449.67 )">W-B</text>
	<text style="&st18;" transform="matrix(&st17;  106.79  445.28 )">L</text>
	<text style="&st18;" transform="matrix(&st17;  140.78  449.67 )">W-B</text>
	<text style="&st18;" transform="matrix(&st16;  265.5  508.0 )">W-B</text>
	<text style="&st18;" transform="matrix(&st16;  269.88  482.51 )">L</text>
	<text style="&st18;" transform="matrix(&st16;  371.87  482.51 )">L</text>
	<text style="&st18;" transform="matrix(&st16;  367.48  508.0 )">W-B</text>
	<text style="&st18;" transform="matrix(&st16;  412.69  397.52 )">+B</text>
	<text style="&st18;" transform="matrix(&st16;  341.79  397.52 )">GND</text>
	<text style="&st18;" transform="matrix(&st16;  310.71  397.52 )">+B</text>
	<text style="&st18;" transform="matrix(&st16;  239.81  397.52 )">GND</text>
	<text style="&st18;" transform="matrix(&st16;  208.73  397.52 )">+B</text>
	<text style="&st18;" transform="matrix(&st16;  137.83  397.52 )">GND</text>
	<text style="&st18;" transform="matrix(&st16;  106.74  397.52 )">+B</text>
	<text style="&st18;" transform="matrix(&st16;  104.3  409.41 )">1</text>
	<text style="&st18;" transform="matrix(&st16;  138.29  409.41 )">4</text>
	<text style="&st18;" transform="matrix(&st16;  206.28  409.41 )">1</text>
	<text style="&st18;" transform="matrix(&st16;  240.27  409.41 )">4</text>
	<text style="&st18;" transform="matrix(&st16;  308.26  409.41 )">1</text>
	<text style="&st18;" transform="matrix(&st16;  342.26  409.41 )">4</text>
	<text style="&st18;" transform="matrix(&st16;  410.25  409.41 )">1</text>
	<text style="&st18;" transform="matrix(&st16;  444.24  409.41 )">4</text>
	<text style="&st18;" transform="matrix(&st16;  159.4  482.51 )">L</text>
	<text style="&st18;" transform="matrix(&st16;  90.08  117.07 )">ECM</text>
	<text style="&st18;" transform="matrix(&st16;  90.07  109.96 )">E26(B)</text>
	<text ewd:textID="1" style="&st18;" transform="matrix(&st17;  176.19  404.12 )">Ignition Coil Assembly No. 1</text>
	<text ewd:textID="3" style="&st18;" transform="matrix(&st17;  380.16  404.12 )">Ignition Coil Assembly No. 3</text>
	<text ewd:textID="2" style="&st18;" transform="matrix(&st17;  278.17  404.12 )">Ignition Coil Assembly No. 2</text>
	<text ewd:textID="4" style="&st18;" transform="matrix(&st17;  482.14  404.12 )">Ignition Coil Assembly No. 4</text>
	<a ewd:code="E1" ewd:figID="8" ewd:figtype="gp" style="cursor:pointer;">
		<path d=" M   439.80,   681.67  L   461.05,   681.67  L   450.42,   697.25  L   439.80,   681.67 " style="&st2;"/>
		<text style="&st8;" transform="matrix(&st16;  447.11  689.46 )"><tspan style="&st18;" x="0" y="0">E1</tspan></text>
	</a>
	<a ewd:code="1573" ewd:figID="9" ewd:figtype="sp" style="cursor:pointer;">
		<path d=" M   344.19,   256.74  L   352.69,   256.74  L   356.94,   260.99  L   356.94,   269.49  L   352.69,   273.74  L   344.19,   273.74  L   339.94,   269.49  L   339.94,   260.99  L   344.19,   256.74 " style="&st2;"/>
	</a>
	<a ewd:code="1585" ewd:figID="10" ewd:figtype="sp" style="cursor:pointer;">
		<path d=" M   242.21,   256.74  L   250.71,   256.74  L   254.96,   260.99  L   254.96,   269.49  L   250.71,   273.74  L   242.21,   273.74  L   237.96,   269.49  L   237.96,   260.99  L   242.21,   256.74 " style="&st2;"/>
	</a>
	<a ewd:code="1873" ewd:figID="11" ewd:figtype="sp" style="cursor:pointer;">
		<path d=" M   344.19,   503.20  L   352.69,   503.20  L   356.94,   507.45  L   356.94,   515.95  L   352.69,   520.20  L   344.19,   520.20  L   339.94,   515.95  L   339.94,   507.45  L   344.19,   503.20 " style="&st2;"/>
	</a>
	<a ewd:code="1909" ewd:figID="12" ewd:figtype="sp" style="cursor:pointer;">
		<path d=" M   208.22,   477.71  L   216.71,   477.71  L   220.96,   481.95  L   220.96,   490.45  L   216.71,   494.70  L   208.22,   494.70  L   203.97,   490.45  L   203.97,   481.95  L   208.22,   477.71 " style="&st2;"/>
	</a>
	<a ewd:code="2065" ewd:figID="13" ewd:figtype="sp" style="cursor:pointer;">
		<path d=" M   106.23,   477.71  L   114.73,   477.71  L   118.98,   481.95  L   118.98,   490.45  L   114.73,   494.70  L   106.23,   494.70  L   101.98,   490.45  L   101.98,   481.95  L   106.23,   477.71 " style="&st2;"/>
	</a>
	<a ewd:code="1885" ewd:figID="14" ewd:figtype="sp" style="cursor:pointer;">
		<path d=" M   310.20,   477.71  L   318.70,   477.71  L   322.95,   481.95  L   322.95,   490.45  L   318.70,   494.70  L   310.20,   494.70  L   305.95,   490.45  L   305.95,   481.95  L   310.20,   477.71 " style="&st2;"/>
	</a>
	<a ewd:code="1849" ewd:figID="15" ewd:figtype="sp" style="cursor:pointer;">
		<path d=" M   446.18,   503.20  L   454.67,   503.20  L   458.92,   507.45  L   458.92,   515.95  L   454.67,   520.20  L   446.18,   520.20  L   441.93,   515.95  L   441.93,   507.45  L   446.18,   503.20 " style="&st2;"/>
	</a>
	<a ewd:code="1897" ewd:figID="16" ewd:figtype="sp" style="cursor:pointer;">
		<path d=" M   242.21,   503.20  L   250.71,   503.20  L   254.96,   507.45  L   254.96,   515.95  L   250.71,   520.20  L   242.21,   520.20  L   237.96,   515.95  L   237.96,   507.45  L   242.21,   503.20 " style="&st2;"/>
	</a>
	<a ewd:code="1561" ewd:figID="17" ewd:figtype="sp" style="cursor:pointer;">
		<path d=" M   446.18,   256.74  L   454.67,   256.74  L   458.92,   260.99  L   458.92,   269.49  L   454.67,   273.74  L   446.18,   273.74  L   441.93,   269.49  L   441.93,   260.99  L   446.18,   256.74 " style="&st2;"/>
	</a>
</g>
</svg>