﻿<?xml version="1.0" encoding="utf-8"?>
<!DOCTYPE svg PUBLIC "-//W3C//DTD SVG 1.0//EN" "http://www.w3.org/TR/2001/REC-SVG-20010904/DTD/svg10.dtd"[
	<!ENTITY ns_flows "http://ns.adobe.com/Flows/1.0/">
	<!ENTITY ns_svg "http://www.w3.org/2000/svg">
	<!ENTITY ns_xlink "http://www.w3.org/1999/xlink">
	<!ENTITY st0 "font-size:7px;font-family:'MS-PGothic';adobe-font-script:japanese;">
	<!ENTITY st1 "font-size:6px;font-family:'ArialMT';">
	<!-- White fill  -->
	<!ENTITY st2 "fill:#FFFFFF;stroke:#000000; stroke-width:1.41;stroke-linecap:round;stroke-linejoin:round;">
	<!-- Yellow fill  -->
	<!ENTITY st3 "fill:#FFFFCC;stroke:#FFFFCC; stroke-width:0.1;stroke-linecap:round;stroke-linejoin:round;">
	<!-- Gray fill  -->
	<!ENTITY st4 "fill:#CCCCCC;stroke:#CCCCCC; stroke-width:0.1;stroke-linecap:round;stroke-linejoin:round;">
	<!-- Light-blue fill -->
	<!ENTITY st5 "fill:#CCECF4;stroke:#000000; stroke-width:1.133;stroke-linecap:round;stroke-linejoin:round;">
	<!ENTITY st6 "fill:none;stroke-linecap:butt; stroke-linejoin:round;">
	<!ENTITY st7 "fill:none;stroke:#000000;stroke-linecap:round;stroke-linejoin:round;">
	<!ENTITY st8 "enable-background:new    ;">
	<!-- Black fill -->
	<!ENTITY st9 "fill:#000000;stroke:#000000; stroke-linecap:round;stroke-linejoin:round;">
	<!-- SRS note   -->
	<!ENTITY st10 "font-size:9px;font-family:'ArialMT';">
	<!ENTITY st11 "font-size:9px;font-family:'Svg Symbol';">
	<!ENTITY st12 "font-size:6px;font-family:'Svg Symbol';">
	<!ENTITY st13 "fill:none;stroke:#ff0000;stroke-linecap:round;stroke-linejoin:round;">
	<!-- Yellow fill  -->
	<!ENTITY st14 "fill:#FFFF00;stroke:#FFFF00; stroke-width:0.1;stroke-linecap:round;stroke-linejoin:round;">
	<!ENTITY st15 "font-size:6px;font-family:'MS-PGothic';adobe-font-script:japanese;">
	<!ENTITY st16 "1.00 0.00 0.00 1.00">
	<!ENTITY st17 "0.00 -1.00 1.00 0.00">
	<!ENTITY st18 "font-size:6px;font-family:'Arial';">
	<!ENTITY st19 "font-size:9px;font-family:'Arial';">
	<!ENTITY st20 "font-size:6px;font-family:'MS-PGothic','MS PGothic';adobe-font-script:japanese;">
	<!ENTITY st21 "font-size:7px;font-family:'MS-PGothic','MS PGothic';adobe-font-script:japanese;">
	<!ATTLIST svg
		xmlns:ewd CDATA #FIXED "http://shcl.co.jp/ewd"
		xmlns:a CDATA #FIXED "http://ns.adobe.com/AdobeSVGViewerExtensions/3.0/"
		ewd:ver CDATA #IMPLIED
	>
	<!ATTLIST a
		ewd:lineID CDATA #IMPLIED
		ewd:groupID CDATA #IMPLIED
		ewd:figtype CDATA #IMPLIED
		ewd:code CDATA #IMPLIED
		ewd:figID CDATA #IMPLIED
		ewd:pinNo CDATA #IMPLIED
		ewd:comment CDATA #IMPLIED >
	<!ATTLIST g
		ewd:lineID CDATA #IMPLIED
		ewd:groupID CDATA #IMPLIED
		ewd:figtype CDATA #IMPLIED
		ewd:code CDATA #IMPLIED
		ewd:figID CDATA #IMPLIED
		ewd:pinNo CDATA #IMPLIED
		ewd:comment CDATA #IMPLIED >
	<!ATTLIST text
		ewd:textID CDATA #IMPLIED >
	<!ATTLIST title
		ewd:textID CDATA #IMPLIED >
]>
<!-- Generator: Shintec Hozumi YS   -->
<svg onload="call_execInitLoadProc_svg('system')" style="overflow:visible;  enable-background:new 0 0 3096.855 710.000" viewBox="0 0 3096.855 710.000" height="710.000" width="3096.855" xml:space="preserve" ewd:ver="L2.1.2.9" xmlns="&ns_svg;" xmlns:a="http://ns.adobe.com/AdobeSVGViewerExtensions/3.0/" xmlns:ewd="http://shcl.co.jp/ewd" xmlns:xlink="&ns_xlink;">
<path d=" M  3008.50,   537.20  L  3008.50,   526.57  " style="stroke-width: 0.85 ;&st7;  " /><path d=" M  3008.50,   522.32  L  3008.50,   511.70  " style="stroke-width: 0.85 ;&st7;  " /><path d=" M  3012.75,   522.32  L  3004.25,   522.32  " style="stroke-width: 1.42 ;&st7;  " /><path d=" M  3012.75,   526.57  L  3004.25,   526.57  " style="stroke-width: 1.42 ;&st7;  " /><path d=" M  3050.99,   341.73  L  3050.99,   316.23  " style="stroke-width: 0.85 ;&st7;  " /><path d=" M  3049.80,   332.23  L  3049.52,   332.70  L  3049.43,   333.23  L  3049.52,   333.76  L  3049.80,   334.23  L  3050.21,   334.58  L  3050.72,   334.77  L  3051.26,   334.77  L  3051.77,   334.58  L  3052.18,   334.23  L  3052.45,   333.76  L  3052.55,   333.23  L  3052.45,   332.70  L  3052.18,   332.23  L  3051.77,   331.88  L  3051.26,   331.69  L  3050.72,   331.69  L  3050.21,   331.88  L  3049.80,   332.23  L  3050.19,   332.94  L  3050.19,   333.52  L  3050.56,   333.97  L  3051.14,   334.07  L  3051.64,   333.78  L  3051.84,   333.23  L  3051.64,   332.68  L  3051.14,   332.39  L  3050.56,   332.49  L  3050.99,   333.23  " style="stroke-width: 0.85 ;&st7;  " /><path d=" M  3007.30,   323.73  L  3007.03,   324.20  L  3006.94,   324.73  L  3007.03,   325.26  L  3007.30,   325.73  L  3007.72,   326.08  L  3008.23,   326.27  L  3008.77,   326.27  L  3009.28,   326.08  L  3009.69,   325.73  L  3009.96,   325.26  L  3010.05,   324.73  L  3009.96,   324.20  L  3009.69,   323.73  L  3009.28,   323.38  L  3008.77,   323.20  L  3008.23,   323.20  L  3007.72,   323.38  L  3007.30,   323.73  L  3007.70,   324.44  L  3007.70,   325.02  L  3008.07,   325.47  L  3008.64,   325.57  L  3009.15,   325.28  L  3009.35,   324.73  L  3009.15,   324.18  L  3008.64,   323.90  L  3008.07,   323.99  L  3008.50,   324.73  " style="stroke-width: 0.85 ;&st7;  " /><path d=" M  3008.50,   341.73  L  3008.50,   316.23  " style="stroke-width: 0.85 ;&st7;  " /><path d=" M  3008.50,   697.25  L  3008.50,   701.50  " style="stroke-width: 0.85 ;&st7;  " /><path d=" M  3000.00,   701.50  L  3016.99,   701.50  " style="stroke-width: 0.85 ;&st7;  " /><path d=" M  3004.25,   704.33  L  3012.75,   704.33  " style="stroke-width: 0.85 ;&st7;  " /><path d=" M  3005.66,   707.17  L  3011.33,   707.17  " style="stroke-width: 0.85 ;&st7;  " /><path d=" M  3007.08,   710.00  L  3009.91,   710.00  " style="stroke-width: 0.85 ;&st7;  " /><path d=" M  3008.50,   494.70  L  3008.50,   486.20  L  3005.66,   484.79  L  3011.33,   481.95  L  3005.66,   479.12  L  3011.33,   476.29  L  3005.66,   473.46  L  3011.33,   470.62  L  3008.50,   469.21  L  3008.50,   460.71  " style="stroke-width: 0.85 ;&st7;  " /><path d=" M  3008.50,   511.70  L  3008.50,   494.70  " style="stroke-width: 0.85 ;&st7;  " /><path d=" M  3007.30,   502.20  L  3007.03,   502.67  L  3006.94,   503.20  L  3007.03,   503.73  L  3007.30,   504.20  L  3007.72,   504.55  L  3008.23,   504.74  L  3008.77,   504.74  L  3009.28,   504.55  L  3009.69,   504.20  L  3009.96,   503.73  L  3010.05,   503.20  L  3009.96,   502.67  L  3009.69,   502.20  L  3009.28,   501.85  L  3008.77,   501.67  L  3008.23,   501.67  L  3007.72,   501.85  L  3007.30,   502.20  L  3007.70,   502.91  L  3007.70,   503.49  L  3008.07,   503.94  L  3008.64,   504.04  L  3009.15,   503.75  L  3009.35,   503.20  L  3009.15,   502.65  L  3008.64,   502.37  L  3008.07,   502.46  L  3008.50,   503.20  " style="stroke-width: 0.85 ;&st7;  " /><path d=" M  3008.50,   503.20  L  3050.99,   503.20  L  3050.99,   494.70  " style="stroke-width: 0.85 ;&st7;  " /><path d=" M  3050.99,   494.70  L  3050.99,   486.20  L  3048.16,   484.79  L  3053.82,   481.95  L  3048.16,   479.12  L  3053.82,   476.29  L  3048.16,   473.46  L  3053.82,   470.62  L  3050.99,   469.21  L  3050.99,   460.71  " style="stroke-width: 0.85 ;&st7;  " /><path d=" M  3008.50,   460.71  L  3008.50,   452.21  " style="stroke-width: 0.85 ;&st7;  " /><path d=" M  3050.99,   460.71  L  3050.99,   452.21  " style="stroke-width: 0.85 ;&st7;  " /><path d=" M  3008.50,   545.69  L  3008.50,   537.20  " style="stroke-width: 0.85 ;&st7;  " /><path d=" M  3016.99,   311.70  L  3038.24,   311.70  " style="stroke-width: 0.85 ;&st7; stroke-dasharray:3, 1.5;" /><path d=" M  3016.99,   302.63  L  3033.99,   302.63  " style="stroke-width: 0.85 ;&st7; stroke-dasharray:3, 1.5;" /><path d=" M  3016.99,   346.26  L  3038.24,   346.26  " style="stroke-width: 0.85 ;&st7; stroke-dasharray:3, 1.5;" /><path d=" M  3016.99,   355.33  L  3038.24,   355.33  " style="stroke-width: 0.85 ;&st7; stroke-dasharray:3, 1.5;" /><path d=" M  3055.52,   355.33  C  3055.52    352.82   3053.49    350.79   3050.99    350.79  " style="stroke-width: 1.42 ;&st7;   " /><path d=" M  3050.99,   350.79  C  3048.49    350.79   3046.46    352.82   3046.46    355.33  " style="stroke-width: 1.42 ;&st7;   " /><path d=" M  3046.46,   355.33  C  3046.46    357.83   3048.49    359.86   3050.99    359.86  " style="stroke-width: 1.42 ;&st7;   " /><path d=" M  3050.99,   359.86  C  3053.49    359.86   3055.52    357.83   3055.52    355.33  " style="stroke-width: 1.42 ;&st7;   " /><path d=" M  3055.52,   346.26  C  3055.52    343.76   3053.49    341.73   3050.99    341.73  " style="stroke-width: 1.42 ;&st7;   " /><path d=" M  3050.99,   341.73  C  3048.49    341.73   3046.46    343.76   3046.46    346.26  " style="stroke-width: 1.42 ;&st7;   " /><path d=" M  3046.46,   346.26  C  3046.46    348.76   3048.49    350.79   3050.99    350.79  " style="stroke-width: 1.42 ;&st7;   " /><path d=" M  3050.99,   350.79  C  3053.49    350.79   3055.52    348.76   3055.52    346.26  " style="stroke-width: 1.42 ;&st7;   " /><path d=" M  3013.03,   355.33  C  3013.03    352.82   3011.00    350.79   3008.50    350.79  " style="stroke-width: 1.42 ;&st7;   " /><path d=" M  3008.50,   350.79  C  3005.99    350.79   3003.96    352.82   3003.96    355.33  " style="stroke-width: 1.42 ;&st7;   " /><path d=" M  3003.96,   355.33  C  3003.96    357.83   3005.99    359.86   3008.50    359.86  " style="stroke-width: 1.42 ;&st7;   " /><path d=" M  3008.50,   359.86  C  3011.00    359.86   3013.03    357.83   3013.03    355.33  " style="stroke-width: 1.42 ;&st7;   " /><path d=" M  3013.03,   346.26  C  3013.03    343.76   3011.00    341.73   3008.50    341.73  " style="stroke-width: 1.42 ;&st7;   " /><path d=" M  3008.50,   341.73  C  3005.99    341.73   3003.96    343.76   3003.96    346.26  " style="stroke-width: 1.42 ;&st7;   " /><path d=" M  3003.96,   346.26  C  3003.96    348.76   3005.99    350.79   3008.50    350.79  " style="stroke-width: 1.42 ;&st7;   " /><path d=" M  3008.50,   350.79  C  3011.00    350.79   3013.03    348.76   3013.03    346.26  " style="stroke-width: 1.42 ;&st7;   " /><path d=" M  3055.52,   311.70  C  3055.52    309.20   3053.49    307.17   3050.99    307.17  " style="stroke-width: 1.42 ;&st7;   " /><path d=" M  3050.99,   307.17  C  3048.49    307.17   3046.46    309.20   3046.46    311.70  " style="stroke-width: 1.42 ;&st7;   " /><path d=" M  3046.46,   311.70  C  3046.46    314.20   3048.49    316.23   3050.99    316.23  " style="stroke-width: 1.42 ;&st7;   " /><path d=" M  3050.99,   316.23  C  3053.49    316.23   3055.52    314.20   3055.52    311.70  " style="stroke-width: 1.42 ;&st7;   " /><path d=" M  3055.52,   302.63  C  3055.52    300.13   3053.49    298.10   3050.99    298.10  " style="stroke-width: 1.42 ;&st7;   " /><path d=" M  3050.99,   298.10  C  3048.49    298.10   3046.46    300.13   3046.46    302.63  " style="stroke-width: 1.42 ;&st7;   " /><path d=" M  3046.46,   302.63  C  3046.46    305.14   3048.49    307.17   3050.99    307.17  " style="stroke-width: 1.42 ;&st7;   " /><path d=" M  3050.99,   307.17  C  3053.49    307.17   3055.52    305.14   3055.52    302.63  " style="stroke-width: 1.42 ;&st7;   " /><path d=" M  3013.03,   311.70  C  3013.03    309.20   3011.00    307.17   3008.50    307.17  " style="stroke-width: 1.42 ;&st7;   " /><path d=" M  3008.50,   307.17  C  3005.99    307.17   3003.96    309.20   3003.96    311.70  " style="stroke-width: 1.42 ;&st7;   " /><path d=" M  3003.96,   311.70  C  3003.96    314.20   3005.99    316.23   3008.50    316.23  " style="stroke-width: 1.42 ;&st7;   " /><path d=" M  3008.50,   316.23  C  3011.00    316.23   3013.03    314.20   3013.03    311.70  " style="stroke-width: 1.42 ;&st7;   " /><path d=" M  3013.03,   302.63  C  3013.03    300.13   3011.00    298.10   3008.50    298.10  " style="stroke-width: 1.42 ;&st7;   " /><path d=" M  3008.50,   298.10  C  3005.99    298.10   3003.96    300.13   3003.96    302.63  " style="stroke-width: 1.42 ;&st7;   " /><path d=" M  3003.96,   302.63  C  3003.96    305.14   3005.99    307.17   3008.50    307.17  " style="stroke-width: 1.42 ;&st7;   " /><path d=" M  3008.50,   307.17  C  3011.00    307.17   3013.03    305.14   3013.03    302.63  " style="stroke-width: 1.42 ;&st7;   " /><text style="&st18;" transform="matrix(&st16;  3011.08  460.4 )">LO</text><text style="&st18;" transform="matrix(&st16;  3053.57  460.4 )">HI</text><text style="&st18;" transform="matrix(&st16;  3011.08  542.0 )">E</text><text style="&st18;" transform="matrix(&st17;  3084.38  548.59 )">T22</text><text style="&st18;" transform="matrix(&st17;  3004.8  594.14 )">W-B</text><text style="&st18;" transform="matrix(&st17;  3016.13  267.04 )">(*8 *16)</text><text style="&st18;" transform="matrix(&st17;  3058.63  267.04 )">(*8 *16)</text><text style="&st18;" transform="matrix(&st17;  3016.14  425.6 )">(*15,*8 *16)</text><text style="&st18;" transform="matrix(&st17;  3058.63  425.6 )">(*15,*8 *16)</text><text style="&st18;" transform="matrix(&st17;  3016.14  604.07 )">(*15,*8 *16)</text><text ewd:textID="42" style="&st18;" transform="matrix(&st17;  3082.71  217.16 )">Rear Television <tspan dy="6.0" x="0 ">Camera Assembly</tspan></text><text ewd:textID="31" style="&st18;" transform="matrix(&st17;  3091.2  548.6 )">Junction Terminal</text><text style="&st18;" transform="matrix(&st16;  3056.08  357.3 )">(*19)</text><text style="&st18;" transform="matrix(&st16;  3048.8  357.3 )">B</text><text style="&st18;" transform="matrix(&st16;  3042.3  357.3 )">1</text><text style="&st18;" transform="matrix(&st16;  3056.08  348.23 )">(*18)</text><text style="&st18;" transform="matrix(&st16;  3048.69  348.23 )">A</text><text style="&st18;" transform="matrix(&st16;  3042.3  348.23 )">9</text><text style="&st18;" transform="matrix(&st16;  3006.31  357.3 )">B</text><text style="&st18;" transform="matrix(&st16;  3006.19  348.23 )">A</text><text style="&st18;" transform="matrix(&st16;  3056.08  313.67 )">(*19)</text><text style="&st18;" transform="matrix(&st16;  3048.8  313.67 )">B</text><text style="&st18;" transform="matrix(&st16;  3042.3  313.67 )">2</text><text style="&st18;" transform="matrix(&st16;  3056.08  304.6 )">(*18)</text><text style="&st18;" transform="matrix(&st16;  3048.69  304.6 )">A</text><text style="&st18;" transform="matrix(&st16;  3039.19  304.6 )">10</text><text style="&st18;" transform="matrix(&st16;  3006.31  313.67 )">B</text><text style="&st18;" transform="matrix(&st16;  3006.19  304.6 )">A</text><text style="&st18;" transform="matrix(&st16;  3042.21  210.55 )">CANH</text><text style="&st18;" transform="matrix(&st16;  3000.14  210.55 )">CANL</text><text style="&st18;" transform="matrix(&st16;  3044.81  448.52 )">3</text><text style="&st18;" transform="matrix(&st16;  3002.31  553.89 )">1</text><text style="&st18;" transform="matrix(&st16;  3002.31  448.52 )">2</text><text style="&st18;" transform="matrix(&st17;  3047.29  258.55 )">V</text><text style="&st18;" transform="matrix(&st17;  3004.8  258.24 )">P</text><text style="&st18;" transform="matrix(&st17;  3047.29  411.29 )">L</text><text style="&st18;" transform="matrix(&st17;  3004.8  411.41 )">B</text><text style="&st18;" transform="matrix(&st17;  3075.88  217.15 )">T20</text><text style="&st18;" transform="matrix(&st16;  3002.31  222.44 )">1</text><text style="&st18;" transform="matrix(&st16;  3044.81  222.44 )">4</text></svg>