﻿<?xml version="1.0" encoding="utf-8"?>
<!DOCTYPE svg PUBLIC "-//W3C//DTD SVG 1.0//EN" "http://www.w3.org/TR/2001/REC-SVG-20010904/DTD/svg10.dtd"[
	<!ENTITY ns_flows "http://ns.adobe.com/Flows/1.0/">
	<!ENTITY ns_svg "http://www.w3.org/2000/svg">
	<!ENTITY ns_xlink "http://www.w3.org/1999/xlink">
	<!ENTITY st0 "font-size:7px;font-family:'MS-PGothic';adobe-font-script:japanese;">
	<!ENTITY st1 "font-size:6px;font-family:'ArialMT';">
	<!-- White fill  -->
	<!ENTITY st2 "fill:#FFFFFF;stroke:#000000; stroke-width:1.41;stroke-linecap:round;stroke-linejoin:round;">
	<!-- Yellow fill  -->
	<!ENTITY st3 "fill:#FFFFCC;stroke:#FFFFCC; stroke-width:0.1;stroke-linecap:round;stroke-linejoin:round;">
	<!-- Gray fill  -->
	<!ENTITY st4 "fill:#CCCCCC;stroke:#CCCCCC; stroke-width:0.1;stroke-linecap:round;stroke-linejoin:round;">
	<!-- Light-blue fill -->
	<!ENTITY st5 "fill:#CCECF4;stroke:#000000; stroke-width:1.133;stroke-linecap:round;stroke-linejoin:round;">
	<!ENTITY st6 "fill:none;stroke-linecap:butt; stroke-linejoin:round;">
	<!ENTITY st7 "fill:none;stroke:#000000;stroke-linecap:round;stroke-linejoin:round;">
	<!ENTITY st8 "enable-background:new    ;">
	<!-- Black fill -->
	<!ENTITY st9 "fill:#000000;stroke:#000000; stroke-linecap:round;stroke-linejoin:round;">
	<!-- SRS note   -->
	<!ENTITY st10 "font-size:9px;font-family:'ArialMT';">
	<!ENTITY st11 "font-size:9px;font-family:'Svg Symbol';">
	<!ENTITY st12 "font-size:6px;font-family:'Svg Symbol';">
	<!ENTITY st13 "fill:none;stroke:#ff0000;stroke-linecap:round;stroke-linejoin:round;">
	<!-- Yellow fill  -->
	<!ENTITY st14 "fill:#FFFF00;stroke:#FFFF00; stroke-width:0.1;stroke-linecap:round;stroke-linejoin:round;">
	<!ENTITY st15 "font-size:6px;font-family:'MS-PGothic';adobe-font-script:japanese;">
	<!ENTITY st16 "1.00 0.00 0.00 1.00">
	<!ENTITY st17 "0.00 -1.00 1.00 0.00">
	<!ENTITY st18 "font-size:6px;font-family:'Arial';">
	<!ENTITY st19 "font-size:9px;font-family:'Arial';">
	<!ENTITY st20 "font-size:6px;font-family:'MS-PGothic','MS PGothic';adobe-font-script:japanese;">
	<!ENTITY st21 "font-size:7px;font-family:'MS-PGothic','MS PGothic';adobe-font-script:japanese;">
	<!ATTLIST svg
		xmlns:ewd CDATA #FIXED "http://shcl.co.jp/ewd"
		xmlns:a CDATA #FIXED "http://ns.adobe.com/AdobeSVGViewerExtensions/3.0/"
		ewd:ver CDATA #IMPLIED
	>
	<!ATTLIST a
		ewd:lineID CDATA #IMPLIED
		ewd:groupID CDATA #IMPLIED
		ewd:figtype CDATA #IMPLIED
		ewd:code CDATA #IMPLIED
		ewd:figID CDATA #IMPLIED
		ewd:pinNo CDATA #IMPLIED
		ewd:comment CDATA #IMPLIED >
	<!ATTLIST g
		ewd:lineID CDATA #IMPLIED
		ewd:groupID CDATA #IMPLIED
		ewd:figtype CDATA #IMPLIED
		ewd:code CDATA #IMPLIED
		ewd:figID CDATA #IMPLIED
		ewd:pinNo CDATA #IMPLIED
		ewd:comment CDATA #IMPLIED >
	<!ATTLIST text
		ewd:textID CDATA #IMPLIED >
	<!ATTLIST title
		ewd:textID CDATA #IMPLIED >
]>
<!-- Generator: Shintec Hozumi YS   -->
<svg onload="call_execInitLoadProc_svg('system')" style="overflow:visible;  enable-background:new 0 0 989.207 710.000" viewBox="0 0 989.207 710.000" height="710.000" width="989.207" xml:space="preserve" ewd:ver="L2.1.2.9" xmlns="&ns_svg;" xmlns:a="http://ns.adobe.com/AdobeSVGViewerExtensions/3.0/" xmlns:ewd="http://shcl.co.jp/ewd" xmlns:xlink="&ns_xlink;"><script type="text/javascript" xlink:href="../../../../../system/js/ewd/fig/svgfig.js" xmlns:xlink="http://www.w3.org/1999/xlink" />
<g id="ewd_top"><a ewd:code="I77" ewd:figID="1" ewd:figtype="conn" style="cursor:pointer;"><path d=" M   288.95,   197.25  L   356.94,   197.25  L   356.94,   163.26  L   288.95,   163.26  L   288.95,   197.25 " style="fill:#CCECF4;stroke:#000000; stroke-width:1.133; stroke-linecap:round;stroke-linejoin:round; " /><title ewd:textID="3">A/C Amplifier Assembly</title></a><a ewd:code="I18" ewd:figID="2" ewd:figtype="conn" style="cursor:pointer;"><path d=" M   900.85,   197.25  L   968.84,   197.25  L   968.84,   163.26  L   900.85,   163.26  L   900.85,   197.25 " style="fill:#CCECF4;stroke:#000000; stroke-width:1.133; stroke-linecap:round;stroke-linejoin:round; " /><title ewd:textID="7">Combination Meter Assembly</title></a><a ewd:code="I155,I184,I185,I67" ewd:figID="3" ewd:figtype="conn" style="cursor:pointer;"><path d=" M    76.49,   197.25  L   144.48,   197.25  L   144.48,   163.26  L    76.49,   163.26  L    76.49,   197.25 " style="fill:#CCECF4;stroke:#000000; stroke-width:1.133; stroke-linecap:round;stroke-linejoin:round; " /><title ewd:textID="13">Radio &amp; Display Receiver Assembly , Navigation Receiver Assembly</title></a><a ewd:code="I100,I103,I93,I94,I95,I96,I97" ewd:figID="4" ewd:figtype="conn" style="cursor:pointer;"><path d=" M   586.40,   316.23  L   960.34,   316.23  L   960.34,   290.74  L   586.40,   290.74  L   586.40,   316.23 " style="fill:#CCECF4;stroke:#000000; stroke-width:1.133; stroke-linecap:round;stroke-linejoin:round; " /><title ewd:textID="8">Junction Connector</title></a><a ewd:code="I29" ewd:figID="5" ewd:figtype="conn" style="cursor:pointer;"><path d=" M   900.85,   503.20  L   968.84,   503.20  L   968.84,   469.21  L   900.85,   469.21  L   900.85,   503.20 " style="fill:#CCECF4;stroke:#000000; stroke-width:1.133; stroke-linecap:round;stroke-linejoin:round; " /><title ewd:textID="14">Steering Sensor</title></a><a ewd:code="A25" ewd:figID="6" ewd:figtype="conn" style="cursor:pointer;"><path d=" M   186.97,   503.20  L   254.96,   503.20  L   254.96,   469.21  L   186.97,   469.21  L   186.97,   503.20 " style="fill:#CCECF4;stroke:#000000; stroke-width:1.133; stroke-linecap:round;stroke-linejoin:round; " /><title>ECM</title></a><a ewd:code="A49" ewd:figID="7" ewd:figtype="conn" style="cursor:pointer;"><path d=" M    76.49,   503.20  L   144.48,   503.20  L   144.48,   469.21  L    76.49,   469.21  L    76.49,   503.20 " style="fill:#CCECF4;stroke:#000000; stroke-width:1.133; stroke-linecap:round;stroke-linejoin:round; " /><title ewd:textID="5">Brake Actuator Assembly</title></a><a ewd:code="I39" ewd:figID="8" ewd:figtype="conn" style="cursor:pointer;"><path d=" M   696.88,   197.25  L   764.87,   197.25  L   764.87,   163.26  L   696.88,   163.26  L   696.88,   197.25 " style="fill:#CCECF4;stroke:#000000; stroke-width:1.133; stroke-linecap:round;stroke-linejoin:round; " /><title>DLC3</title></a><a ewd:code="I13" ewd:figID="9" ewd:figtype="conn" style="cursor:pointer;"><path d=" M   798.87,   503.20  L   866.86,   503.20  L   866.86,   469.21  L   798.87,   469.21  L   798.87,   503.20 " style="fill:#CCECF4;stroke:#000000; stroke-width:1.133; stroke-linecap:round;stroke-linejoin:round; " /><title ewd:textID="9">Main Body ECU</title></a><a ewd:code="I101,I102,I104,I105,I106,I107" ewd:figID="10" ewd:figtype="conn" style="cursor:pointer;"><path d=" M    84.99,   316.23  L   450.42,   316.23  L   450.42,   290.74  L    84.99,   290.74  L    84.99,   316.23 " style="fill:#CCECF4;stroke:#000000; stroke-width:1.133; stroke-linecap:round;stroke-linejoin:round; " /><title ewd:textID="8">Junction Connector</title></a><a ewd:code="I78" ewd:figID="11" ewd:figtype="conn" style="cursor:pointer;"><path d=" M   186.97,   197.25  L   254.96,   197.25  L   254.96,   163.26  L   186.97,   163.26  L   186.97,   197.25 " style="fill:#CCECF4;stroke:#000000; stroke-width:1.133; stroke-linecap:round;stroke-linejoin:round; " /><title ewd:textID="6">Certification ECU</title></a><a ewd:code="I47" ewd:figID="12" ewd:figtype="conn" style="cursor:pointer;"><path d=" M   798.87,   197.25  L   866.86,   197.25  L   866.86,   163.26  L   798.87,   163.26  L   798.87,   197.25 " style="fill:#CCECF4;stroke:#000000; stroke-width:1.133; stroke-linecap:round;stroke-linejoin:round; " /><title ewd:textID="4">Airbag Sensor Assembly</title></a><a ewd:code="j1" ewd:figID="13" ewd:figtype="conn" style="cursor:pointer;"><path d=" M   696.88,   503.20  L   764.87,   503.20  L   764.87,   469.21  L   696.88,   469.21  L   696.88,   503.20 " style="fill:#CCECF4;stroke:#000000; stroke-width:1.133; stroke-linecap:round;stroke-linejoin:round; " /><title ewd:textID="11">Power Steering ECU Assembly</title></a><a ewd:lineID="1" style="cursor:pointer;"> d=" M    93.48,   390.74  L    93.48,   469.21 
	
		<path d=" M    93.48,   390.74  L    93.48,   469.21  " style="stroke:#000000;stroke-width: 5.10 ;&st6;" /><path d=" M    93.48,   390.74  L    93.48,   469.21  " style="stroke:#FFFFFF;stroke-width: 4.53 ;&st6;" /></a><a ewd:lineID="2" style="cursor:pointer;"> d=" M    93.48,   325.30  L    93.48,   375.72 
	
		<path d=" M    93.48,   325.30  L    93.48,   375.72  " style="stroke:#000000;stroke-width: 5.10 ;&st6;" /><path d=" M    93.48,   325.30  L    93.48,   375.72  " style="stroke:#FFFFFF;stroke-width: 4.53 ;&st6;" /></a><a ewd:lineID="3" style="cursor:pointer;"> d=" M    93.48,   281.67  L    93.48,   215.38 
	
		<path d=" M    93.48,   281.67  L    93.48,   215.38  " style="stroke:#000000;stroke-width: 5.10 ;&st6;" /><path d=" M    93.48,   281.67  L    93.48,   215.38  " style="stroke:#FFFFFF;stroke-width: 4.53 ;&st6;" /></a><a ewd:lineID="4" style="cursor:pointer;"><path d=" M    93.48,   145.13  L    93.48,    69.77  L   951.84,    69.77  L   951.84,   154.19  " style="stroke:#999999;stroke-width: 5.10 ;&st6;" /></a><a ewd:lineID="5" style="cursor:pointer;"><path d=" M   127.48,   469.21  L   127.48,   390.45  " style="stroke:#999999;stroke-width: 5.10 ;&st6;" /></a><a ewd:lineID="6" style="cursor:pointer;"><path d=" M   127.48,   375.72  L   127.48,   325.30  " style="stroke:#FFE600;stroke-width: 5.10 ;&st6;" /></a><a ewd:lineID="7" style="cursor:pointer;"><path d=" M   127.48,   281.67  L   127.48,   215.38  " style="stroke:#FF0000;stroke-width: 5.10 ;&st6;" /></a><a ewd:lineID="8" style="cursor:pointer;"> d=" M   127.48,   145.13  L   127.48,    86.77  L   917.85,    86.77  L   917.85,   154.19 
	
		<path d=" M   127.48,   145.13  L   127.48,    86.77  L   917.85,    86.77  L   917.85,   154.19  " style="stroke:#000000;stroke-width: 5.10 ;&st6;" /><path d=" M   127.48,   145.13  L   127.48,    86.77  L   917.85,    86.77  L   917.85,   154.19  " style="stroke:#FFFFFF;stroke-width: 4.53 ;&st6;" /></a><a ewd:lineID="9" style="cursor:pointer;"> d=" M   203.97,   390.74  L   203.97,   460.14 
	
		<path d=" M   203.97,   390.74  L   203.97,   460.14  " style="stroke:#000000;stroke-width: 5.10 ;&st6;" /><path d=" M   203.97,   390.74  L   203.97,   460.14  " style="stroke:#FFFFFF;stroke-width: 4.53 ;&st6;" /></a><a ewd:lineID="10" style="cursor:pointer;"> d=" M   203.97,   325.30  L   203.97,   375.72 
	
		<path d=" M   203.97,   325.30  L   203.97,   375.72  " style="stroke:#000000;stroke-width: 5.10 ;&st6;" /><path d=" M   203.97,   325.30  L   203.97,   375.72  " style="stroke:#FFFFFF;stroke-width: 4.53 ;&st6;" /></a><a ewd:lineID="11" style="cursor:pointer;"> d=" M   203.97,   281.67  L   203.97,   206.32 
	
		<path d=" M   203.97,   281.67  L   203.97,   206.32  " style="stroke:#000000;stroke-width: 5.10 ;&st6;" /><path d=" M   203.97,   281.67  L   203.97,   206.32  " style="stroke:#FFFFFF;stroke-width: 4.53 ;&st6;" /></a><a ewd:lineID="12" style="cursor:pointer;"><path d=" M   237.96,   460.14  L   237.96,   390.45  " style="stroke:#000000;stroke-width: 5.10 ;&st6;" /></a><a ewd:lineID="13" style="cursor:pointer;"><path d=" M   237.96,   375.72  L   237.96,   325.30  " style="stroke:#F668B2;stroke-width: 5.10 ;&st6;" /></a><a ewd:lineID="14" style="cursor:pointer;"><path d=" M   237.96,   281.67  L   237.96,   206.32  " style="stroke:#00A0C6;stroke-width: 5.10 ;&st6;" /></a><a ewd:lineID="15" style="cursor:pointer;"> d=" M   305.95,   281.67  L   305.95,   206.32 
	
		<path d=" M   305.95,   281.67  L   305.95,   206.32  " style="stroke:#000000;stroke-width: 5.10 ;&st6;" /><path d=" M   305.95,   281.67  L   305.95,   206.32  " style="stroke:#FFFFFF;stroke-width: 4.53 ;&st6;" /></a><a ewd:lineID="16" style="cursor:pointer;"><path d=" M   339.94,   281.67  L   339.94,   206.32  " style="stroke:#56077D;stroke-width: 5.10 ;&st6;" /></a><a ewd:lineID="17" style="cursor:pointer;"><path d=" M   628.89,   281.67  L   628.89,   239.75  L   407.93,   239.75  L   407.93,   281.67  " style="stroke:#000000;stroke-width: 5.10 ;&st6;" /></a><a ewd:lineID="18" style="cursor:pointer;"> d=" M   594.90,   281.67  L   594.90,   256.74  L   441.93,   256.74  L   441.93,   281.67 
	
		<path d=" M   594.90,   281.67  L   594.90,   256.74  L   441.93,   256.74  L   441.93,   281.67  " style="stroke:#000000;stroke-width: 5.10 ;&st6;" /><path d=" M   594.90,   281.67  L   594.90,   256.74  L   441.93,   256.74  L   441.93,   281.67  " style="stroke:#FFFFFF;stroke-width: 4.53 ;&st6;" /></a><a ewd:lineID="19" style="cursor:pointer;"><path d=" M   713.88,   390.45  L   713.88,   460.14  " style="stroke:#99D9E8;stroke-width: 5.10 ;&st6;" /></a><a ewd:lineID="20" style="cursor:pointer;"> d=" M   713.88,   325.30  L   713.88,   375.72 
	
		<path d=" M   713.88,   325.30  L   713.88,   375.72  " style="stroke:#000000;stroke-width: 5.10 ;&st6;" /><path d=" M   713.88,   325.30  L   713.88,   375.72  " style="stroke:#FFFFFF;stroke-width: 4.53 ;&st6;" /></a><a ewd:lineID="21" style="cursor:pointer;"> d=" M   713.88,   281.67  L   713.88,   197.25 
	
		<path d=" M   713.88,   281.67  L   713.88,   197.25  " style="stroke:#000000;stroke-width: 5.10 ;&st6;" /><path d=" M   713.88,   281.67  L   713.88,   197.25  " style="stroke:#FFFFFF;stroke-width: 4.53 ;&st6;" /></a><a ewd:lineID="22" style="cursor:pointer;"><path d=" M   747.88,   460.14  L   747.88,   390.45  " style="stroke:#FFE600;stroke-width: 5.10 ;&st6;" /></a><a ewd:lineID="23" style="cursor:pointer;"><path d=" M   747.88,   375.72  L   747.88,   325.30  " style="stroke:#008837;stroke-width: 5.10 ;&st6;" /></a><a ewd:lineID="24" style="cursor:pointer;"><path d=" M   747.88,   281.67  L   747.88,   197.25  " style="stroke:#00A0C6;stroke-width: 5.10 ;&st6;" /></a><a ewd:lineID="25" style="cursor:pointer;"> d=" M   815.86,   325.30  L   815.86,   460.14 
	
		<path d=" M   815.86,   325.30  L   815.86,   460.14  " style="stroke:#000000;stroke-width: 5.10 ;&st6;" /><path d=" M   815.86,   325.30  L   815.86,   460.14  " style="stroke:#FFFFFF;stroke-width: 4.53 ;&st6;" /></a><a ewd:lineID="26" style="cursor:pointer;"> d=" M   815.86,   281.67  L   815.86,   206.32 
	
		<path d=" M   815.86,   281.67  L   815.86,   206.32  " style="stroke:#000000;stroke-width: 5.10 ;&st6;" /><path d=" M   815.86,   281.67  L   815.86,   206.32  " style="stroke:#FFFFFF;stroke-width: 4.53 ;&st6;" /></a><a ewd:lineID="27" style="cursor:pointer;"><path d=" M   849.86,   325.30  L   849.86,   460.14  " style="stroke:#F668B2;stroke-width: 5.10 ;&st6;" /></a><a ewd:lineID="28" style="cursor:pointer;"><path d=" M   849.86,   281.67  L   849.86,   206.32  " style="stroke:#FFE600;stroke-width: 5.10 ;&st6;" /></a><a ewd:lineID="29" style="cursor:pointer;"> d=" M   917.85,   325.30  L   917.85,   469.21 
	
		<path d=" M   917.85,   325.30  L   917.85,   469.21  " style="stroke:#000000;stroke-width: 5.10 ;&st6;" /><path d=" M   917.85,   325.30  L   917.85,   469.21  " style="stroke:#FFFFFF;stroke-width: 4.53 ;&st6;" /></a><a ewd:lineID="30" style="cursor:pointer;"> d=" M   917.85,   281.67  L   917.85,   206.32 
	
		<path d=" M   917.85,   281.67  L   917.85,   206.32  " style="stroke:#000000;stroke-width: 5.10 ;&st6;" /><path d=" M   917.85,   281.67  L   917.85,   206.32  " style="stroke:#FFFFFF;stroke-width: 4.53 ;&st6;" /></a><a ewd:lineID="31" style="cursor:pointer;"><path d=" M   951.84,   469.21  L   951.84,   325.30  " style="stroke:#56077D;stroke-width: 5.10 ;&st6;" /></a><a ewd:lineID="32" style="cursor:pointer;"><path d=" M   951.84,   281.67  L   951.84,   206.32  " style="stroke:#FF0000;stroke-width: 5.10 ;&st6;" /></a><a ewd:code="IA8" ewd:figID="14" ewd:figtype="w2w" ewd:pinNo="15" style="cursor:pointer;"><path d=" M   246.46,   375.72  L   229.46,   375.72  L   229.46,   384.22  L   246.46,   384.22  L   246.46,   375.72 " style="&st2;" /><text style="&st8;" transform="matrix(&st16;  233.6  382.09 )"><tspan style="&st18;" x="0" y="0">IA8</tspan></text></a><a ewd:code="IA8" ewd:figID="15" ewd:figtype="w2w" ewd:pinNo="14" style="cursor:pointer;"><path d=" M   212.46,   375.72  L   195.47,   375.72  L   195.47,   384.22  L   212.46,   384.22  L   212.46,   375.72 " style="&st2;" /><text style="&st8;" transform="matrix(&st16;  199.6  382.09 )"><tspan style="&st18;" x="0" y="0">IA8</tspan></text></a><a ewd:code="Ij2" ewd:figID="16" ewd:figtype="w2w" ewd:pinNo="2" style="cursor:pointer;"><path d=" M   756.37,   375.72  L   739.38,   375.72  L   739.38,   384.22  L   756.37,   384.22  L   756.37,   375.72 " style="&st2;" /><text style="&st8;" transform="matrix(&st16;  744.79  382.09 )"><tspan style="&st18;" x="0" y="0">Ij2</tspan></text></a><a ewd:code="IA8" ewd:figID="17" ewd:figtype="w2w" ewd:pinNo="6" style="cursor:pointer;"><path d=" M   101.98,   375.72  L    84.99,   375.72  L    84.99,   384.22  L   101.98,   384.22  L   101.98,   375.72 " style="&st2;" /><text style="&st8;" transform="matrix(&st16;  89.12  382.09 )"><tspan style="&st18;" x="0" y="0">IA8</tspan></text></a><a ewd:code="Ij2" ewd:figID="18" ewd:figtype="w2w" ewd:pinNo="1" style="cursor:pointer;"><path d=" M   722.38,   375.72  L   705.38,   375.72  L   705.38,   384.22  L   722.38,   384.22  L   722.38,   375.72 " style="&st2;" /><text style="&st8;" transform="matrix(&st16;  710.8  382.09 )"><tspan style="&st18;" x="0" y="0">Ij2</tspan></text></a><a ewd:code="IA8" ewd:figID="19" ewd:figtype="w2w" ewd:pinNo="7" style="cursor:pointer;"><path d=" M   135.98,   375.72  L   118.98,   375.72  L   118.98,   384.22  L   135.98,   384.22  L   135.98,   375.72 " style="&st2;" /><text style="&st8;" transform="matrix(&st16;  123.11  382.09 )"><tspan style="&st18;" x="0" y="0">IA8</tspan></text></a></g></svg>