﻿<?xml version="1.0" encoding="utf-8"?>
<!DOCTYPE svg PUBLIC "-//W3C//DTD SVG 1.0//EN" "http://www.w3.org/TR/2001/REC-SVG-20010904/DTD/svg10.dtd"[
	<!ENTITY ns_flows "http://ns.adobe.com/Flows/1.0/">
	<!ENTITY ns_svg "http://www.w3.org/2000/svg">
	<!ENTITY ns_xlink "http://www.w3.org/1999/xlink">
	<!ENTITY st0 "font-size:7px;font-family:'MS-PGothic';adobe-font-script:japanese;">
	<!ENTITY st1 "font-size:6px;font-family:'ArialMT';">
	<!-- White fill  -->
	<!ENTITY st2 "fill:#FFFFFF;stroke:#000000; stroke-width:1.41;stroke-linecap:round;stroke-linejoin:round;">
	<!-- Yellow fill  -->
	<!ENTITY st3 "fill:#FFFFCC;stroke:#FFFFCC; stroke-width:0.1;stroke-linecap:round;stroke-linejoin:round;">
	<!-- Gray fill  -->
	<!ENTITY st4 "fill:#CCCCCC;stroke:#CCCCCC; stroke-width:0.1;stroke-linecap:round;stroke-linejoin:round;">
	<!-- Light-blue fill -->
	<!ENTITY st5 "fill:#CCECF4;stroke:#000000; stroke-width:1.133;stroke-linecap:round;stroke-linejoin:round;">
	<!ENTITY st6 "fill:none;stroke-linecap:butt; stroke-linejoin:round;">
	<!ENTITY st7 "fill:none;stroke:#000000;stroke-linecap:round;stroke-linejoin:round;">
	<!ENTITY st8 "enable-background:new    ;">
	<!-- Black fill -->
	<!ENTITY st9 "fill:#000000;stroke:#000000; stroke-linecap:round;stroke-linejoin:round;">
	<!-- SRS note   -->
	<!ENTITY st10 "font-size:9px;font-family:'ArialMT';">
	<!ENTITY st11 "font-size:9px;font-family:'Svg Symbol';">
	<!ENTITY st12 "font-size:6px;font-family:'Svg Symbol';">
	<!ENTITY st13 "fill:none;stroke:#ff0000;stroke-linecap:round;stroke-linejoin:round;">
	<!-- Yellow fill  -->
	<!ENTITY st14 "fill:#FFFF00;stroke:#FFFF00; stroke-width:0.1;stroke-linecap:round;stroke-linejoin:round;">
	<!ENTITY st15 "font-size:6px;font-family:'MS-PGothic';adobe-font-script:japanese;">
	<!ENTITY st16 "1.00 0.00 0.00 1.00">
	<!ENTITY st17 "0.00 -1.00 1.00 0.00">
	<!ENTITY st18 "font-size:6px;font-family:'Arial';">
	<!ENTITY st19 "font-size:9px;font-family:'Arial';">
	<!ENTITY st20 "font-size:6px;font-family:'MS-PGothic','MS PGothic';adobe-font-script:japanese;">
	<!ENTITY st21 "font-size:7px;font-family:'MS-PGothic','MS PGothic';adobe-font-script:japanese;">
	<!ATTLIST svg
		xmlns:ewd CDATA #FIXED "http://shcl.co.jp/ewd"
		xmlns:a CDATA #FIXED "http://ns.adobe.com/AdobeSVGViewerExtensions/3.0/"
		ewd:ver CDATA #IMPLIED
	>
	<!ATTLIST a
		ewd:lineID CDATA #IMPLIED
		ewd:groupID CDATA #IMPLIED
		ewd:figtype CDATA #IMPLIED
		ewd:code CDATA #IMPLIED
		ewd:figID CDATA #IMPLIED
		ewd:pinNo CDATA #IMPLIED
		ewd:comment CDATA #IMPLIED >
	<!ATTLIST g
		ewd:lineID CDATA #IMPLIED
		ewd:groupID CDATA #IMPLIED
		ewd:figtype CDATA #IMPLIED
		ewd:code CDATA #IMPLIED
		ewd:figID CDATA #IMPLIED
		ewd:pinNo CDATA #IMPLIED
		ewd:comment CDATA #IMPLIED >
	<!ATTLIST text
		ewd:textID CDATA #IMPLIED >
	<!ATTLIST title
		ewd:textID CDATA #IMPLIED >
]>
<!-- Generator: Shintec Hozumi YS   -->
<svg onload="call_execInitLoadProc_svg('system')" style="overflow:visible;  enable-background:new 0 0 3096.855 710.000" viewBox="0 0 3096.855 710.000" height="710.000" width="3096.855" xml:space="preserve" ewd:ver="L2.1.2.9" xmlns="&ns_svg;" xmlns:a="http://ns.adobe.com/AdobeSVGViewerExtensions/3.0/" xmlns:ewd="http://shcl.co.jp/ewd" xmlns:xlink="&ns_xlink;">
<path d=" M  2260.62,    69.77  L  2260.62,    78.27  " style="stroke-width: 0.85 ;&st7;  " /><path d=" M  2262.75,    95.27  L  2258.50,    95.27  " style="stroke-width: 1.42 ;&st7;  " /><path d=" M  2262.75,   103.77  L  2258.50,   103.77  " style="stroke-width: 1.42 ;&st7;  " /><path d=" M  2260.62,    78.27  L  2260.62,    95.27  " style="stroke-width: 0.85 ;&st7;  " /><path d=" M  2337.11,    69.77  L  2337.11,    78.27  " style="stroke-width: 0.85 ;&st7;  " /><path d=" M  2339.23,    95.27  L  2334.98,    95.27  " style="stroke-width: 1.42 ;&st7;  " /><path d=" M  2339.23,   103.77  L  2334.98,   103.77  " style="stroke-width: 1.42 ;&st7;  " /><path d=" M  2337.11,    78.27  L  2337.11,    95.27  " style="stroke-width: 0.85 ;&st7;  " /><path d=" M  2413.60,    69.77  L  2413.60,    78.27  " style="stroke-width: 0.85 ;&st7;  " /><path d=" M  2415.72,    95.27  L  2411.47,    95.27  " style="stroke-width: 1.42 ;&st7;  " /><path d=" M  2415.72,   103.77  L  2411.47,   103.77  " style="stroke-width: 1.42 ;&st7;  " /><path d=" M  2413.60,    78.27  L  2413.60,    95.27  " style="stroke-width: 0.85 ;&st7;  " /><path d=" M  2339.23,   171.76  L  2334.98,   171.76  " style="stroke-width: 1.42 ;&st7;  " /><path d=" M  2339.23,   180.26  L  2334.98,   180.26  " style="stroke-width: 1.42 ;&st7;  " /><path d=" M  2339.23,   214.25  L  2334.98,   214.25  " style="stroke-width: 1.42 ;&st7;  " /><path d=" M  2339.23,   222.75  L  2334.98,   222.75  " style="stroke-width: 1.42 ;&st7;  " /><path d=" M  2260.62,    90.37  L  2257.79,    87.54  L  2257.79,    91.79  L  2260.62,    94.62  L  2263.45,    91.79  L  2263.45,    87.54  L  2260.62,    90.37  " style="stroke-width: 0.28 ;&st9;  " /><path d=" M  2247.87,    35.78  L  2247.87,    78.27  L  2273.37,    78.27  L  2273.37,    35.78  L  2247.87,    35.78  " style="stroke-width: 1.42 ;&st7;  " /><path d=" M  2337.11,    90.37  L  2334.28,    87.54  L  2334.28,    91.79  L  2337.11,    94.62  L  2339.94,    91.79  L  2339.94,    87.54  L  2337.11,    90.37  " style="stroke-width: 0.28 ;&st9;  " /><path d=" M  2324.36,    35.78  L  2324.36,    78.27  L  2349.86,    78.27  L  2349.86,    35.78  L  2324.36,    35.78  " style="stroke-width: 1.42 ;&st7;  " /><path d=" M  2413.60,    90.37  L  2410.76,    87.54  L  2410.76,    91.79  L  2413.60,    94.62  L  2416.43,    91.79  L  2416.43,    87.54  L  2413.60,    90.37  " style="stroke-width: 0.28 ;&st9;  " /><path d=" M  2400.85,    35.78  L  2400.85,    78.27  L  2426.34,    78.27  L  2426.34,    35.78  L  2400.85,    35.78  " style="stroke-width: 1.42 ;&st7;  " /><path d=" M  2337.11,   185.15  L  2339.94,   187.98  L  2339.94,   183.73  L  2337.11,   180.90  L  2334.28,   183.73  L  2334.28,   187.98  L  2337.11,   185.15  " style="stroke-width: 0.28 ;&st9;  " /><path d=" M  2337.11,   209.35  L  2334.28,   206.52  L  2334.28,   210.77  L  2337.11,   213.60  L  2339.94,   210.77  L  2339.94,   206.52  L  2337.11,   209.35  " style="stroke-width: 0.28 ;&st9;  " /><path d=" M  2337.11,   214.25  L  2337.11,   180.26  " style="stroke-width: 0.85 ;&st7;  " /><path d=" M  2337.11,   299.24  L  2337.11,   316.23  " style="stroke-width: 0.85 ;&st7;  " /><path d=" M  2328.61,   299.24  L  2345.61,   299.24  L  2345.61,   316.23  L  2328.61,   316.23  L  2328.61,   299.24  " style="stroke-width: 1.42 ;&st7;  " /><path d=" M  2405.10,   299.24  L  2422.09,   299.24  L  2422.09,   316.23  L  2405.10,   316.23  L  2405.10,   299.24  " style="stroke-width: 1.42 ;&st7;  " /><path d=" M  2413.60,   299.24  L  2413.60,   316.23  " style="stroke-width: 0.85 ;&st7;  " /><path d=" M  2252.12,   299.24  L  2252.12,   316.23  L  2269.12,   316.23  L  2269.12,   299.24  L  2252.12,   299.24  " style="stroke-width: 1.42 ;&st7;  " /><path d=" M  2260.62,   299.24  L  2260.62,   316.23  " style="stroke-width: 0.85 ;&st7;  " /><path d=" M  2235.13,   469.21  L  2694.05,   469.21  L  2694.05,   401.22  L  2235.13,   401.22  L  2235.13,   469.21  " style="stroke-width: 1.42 ;&st7;  " /><path d=" M  2362.60,   697.25  L  2362.60,   701.50  " style="stroke-width: 0.85 ;&st7;  " /><path d=" M  2354.11,   701.50  L  2371.10,   701.50  " style="stroke-width: 0.85 ;&st7;  " /><path d=" M  2358.35,   704.33  L  2366.85,   704.33  " style="stroke-width: 0.85 ;&st7;  " /><path d=" M  2359.77,   707.17  L  2365.44,   707.17  " style="stroke-width: 0.85 ;&st7;  " /><path d=" M  2361.19,   710.00  L  2364.02,   710.00  " style="stroke-width: 0.85 ;&st7;  " /><path d=" M  2260.62,    47.11  C  2257.88     48.72   2256.97     52.25   2258.59     54.99  " style="stroke-width: 1.42 ;&st7;   " /><path d=" M  2258.59,    54.99  C  2259.11     55.87   2259.74     56.51   2260.62     57.03  " style="stroke-width: 1.42 ;&st7;   " /><path d=" M  2260.62,    66.94  C  2263.36     65.33   2264.27     61.80   2262.66     59.06  " style="stroke-width: 1.42 ;&st7;   " /><path d=" M  2262.66,    59.06  C  2262.14     58.18   2261.50     57.55   2260.62     57.03  " style="stroke-width: 1.42 ;&st7;   " /><path d=" M  2262.04,    45.69  C  2262.04     44.91   2261.40     44.28   2260.62     44.28  " style="stroke-width: 0.85 ;&st7;   " /><path d=" M  2260.62,    44.28  C  2259.84     44.28   2259.21     44.91   2259.21     45.69  " style="stroke-width: 0.85 ;&st7;   " /><path d=" M  2259.21,    45.69  C  2259.21     46.48   2259.84     47.11   2260.62     47.11  " style="stroke-width: 0.85 ;&st7;   " /><path d=" M  2260.62,    47.11  C  2261.40     47.11   2262.04     46.48   2262.04     45.69  " style="stroke-width: 0.85 ;&st7;   " /><path d=" M  2262.04,    68.36  C  2262.04     67.57   2261.40     66.94   2260.62     66.94  " style="stroke-width: 0.85 ;&st7;   " /><path d=" M  2260.62,    66.94  C  2259.84     66.94   2259.21     67.57   2259.21     68.36  " style="stroke-width: 0.85 ;&st7;   " /><path d=" M  2259.21,    68.36  C  2259.21     69.14   2259.84     69.77   2260.62     69.77  " style="stroke-width: 0.85 ;&st7;   " /><path d=" M  2260.62,    69.77  C  2261.40     69.77   2262.04     69.14   2262.04     68.36  " style="stroke-width: 0.85 ;&st7;   " /><path d=" M  2258.50,    95.27  C  2256.15     95.27   2254.25     97.17   2254.25     99.52  " style="stroke-width: 1.42 ;&st7;   " /><path d=" M  2254.25,    99.52  C  2254.25    101.87   2256.15    103.77   2258.50    103.77  " style="stroke-width: 1.42 ;&st7;   " /><path d=" M  2262.75,   103.77  C  2265.09    103.77   2267.00    101.87   2267.00     99.52  " style="stroke-width: 1.42 ;&st7;   " /><path d=" M  2267.00,    99.52  C  2267.00     97.17   2265.09     95.27   2262.75     95.27  " style="stroke-width: 1.42 ;&st7;   " /><path d=" M  2337.11,    47.11  C  2334.37     48.72   2333.46     52.25   2335.07     54.99  " style="stroke-width: 1.42 ;&st7;   " /><path d=" M  2335.07,    54.99  C  2335.59     55.87   2336.23     56.51   2337.11     57.03  " style="stroke-width: 1.42 ;&st7;   " /><path d=" M  2337.11,    66.94  C  2339.85     65.33   2340.76     61.80   2339.15     59.06  " style="stroke-width: 1.42 ;&st7;   " /><path d=" M  2339.15,    59.06  C  2338.63     58.18   2337.99     57.55   2337.11     57.03  " style="stroke-width: 1.42 ;&st7;   " /><path d=" M  2338.53,    45.69  C  2338.53     44.91   2337.89     44.28   2337.11     44.28  " style="stroke-width: 0.85 ;&st7;   " /><path d=" M  2337.11,    44.28  C  2336.33     44.28   2335.69     44.91   2335.69     45.69  " style="stroke-width: 0.85 ;&st7;   " /><path d=" M  2335.69,    45.69  C  2335.69     46.48   2336.33     47.11   2337.11     47.11  " style="stroke-width: 0.85 ;&st7;   " /><path d=" M  2337.11,    47.11  C  2337.89     47.11   2338.53     46.48   2338.53     45.69  " style="stroke-width: 0.85 ;&st7;   " /><path d=" M  2338.53,    68.36  C  2338.53     67.57   2337.89     66.94   2337.11     66.94  " style="stroke-width: 0.85 ;&st7;   " /><path d=" M  2337.11,    66.94  C  2336.33     66.94   2335.69     67.57   2335.69     68.36  " style="stroke-width: 0.85 ;&st7;   " /><path d=" M  2335.69,    68.36  C  2335.69     69.14   2336.33     69.77   2337.11     69.77  " style="stroke-width: 0.85 ;&st7;   " /><path d=" M  2337.11,    69.77  C  2337.89     69.77   2338.53     69.14   2338.53     68.36  " style="stroke-width: 0.85 ;&st7;   " /><path d=" M  2334.98,    95.27  C  2332.64     95.27   2330.74     97.17   2330.74     99.52  " style="stroke-width: 1.42 ;&st7;   " /><path d=" M  2330.74,    99.52  C  2330.74    101.87   2332.64    103.77   2334.98    103.77  " style="stroke-width: 1.42 ;&st7;   " /><path d=" M  2339.23,   103.77  C  2341.58    103.77   2343.48    101.87   2343.48     99.52  " style="stroke-width: 1.42 ;&st7;   " /><path d=" M  2343.48,    99.52  C  2343.48     97.17   2341.58     95.27   2339.23     95.27  " style="stroke-width: 1.42 ;&st7;   " /><path d=" M  2413.60,    47.11  C  2410.86     48.72   2409.95     52.25   2411.56     54.99  " style="stroke-width: 1.42 ;&st7;   " /><path d=" M  2411.56,    54.99  C  2412.08     55.87   2412.71     56.51   2413.60     57.03  " style="stroke-width: 1.42 ;&st7;   " /><path d=" M  2413.60,    66.94  C  2416.33     65.33   2417.25     61.80   2415.63     59.06  " style="stroke-width: 1.42 ;&st7;   " /><path d=" M  2415.63,    59.06  C  2415.11     58.18   2414.48     57.55   2413.60     57.03  " style="stroke-width: 1.42 ;&st7;   " /><path d=" M  2415.01,    45.69  C  2415.01     44.91   2414.38     44.28   2413.60     44.28  " style="stroke-width: 0.85 ;&st7;   " /><path d=" M  2413.60,    44.28  C  2412.81     44.28   2412.18     44.91   2412.18     45.69  " style="stroke-width: 0.85 ;&st7;   " /><path d=" M  2412.18,    45.69  C  2412.18     46.48   2412.81     47.11   2413.60     47.11  " style="stroke-width: 0.85 ;&st7;   " /><path d=" M  2413.60,    47.11  C  2414.38     47.11   2415.01     46.48   2415.01     45.69  " style="stroke-width: 0.85 ;&st7;   " /><path d=" M  2415.01,    68.36  C  2415.01     67.57   2414.38     66.94   2413.60     66.94  " style="stroke-width: 0.85 ;&st7;   " /><path d=" M  2413.60,    66.94  C  2412.81     66.94   2412.18     67.57   2412.18     68.36  " style="stroke-width: 0.85 ;&st7;   " /><path d=" M  2412.18,    68.36  C  2412.18     69.14   2412.81     69.77   2413.60     69.77  " style="stroke-width: 0.85 ;&st7;   " /><path d=" M  2413.60,    69.77  C  2414.38     69.77   2415.01     69.14   2415.01     68.36  " style="stroke-width: 0.85 ;&st7;   " /><path d=" M  2411.47,    95.27  C  2409.13     95.27   2407.22     97.17   2407.22     99.52  " style="stroke-width: 1.42 ;&st7;   " /><path d=" M  2407.22,    99.52  C  2407.22    101.87   2409.13    103.77   2411.47    103.77  " style="stroke-width: 1.42 ;&st7;   " /><path d=" M  2415.72,   103.77  C  2418.07    103.77   2419.97    101.87   2419.97     99.52  " style="stroke-width: 1.42 ;&st7;   " /><path d=" M  2419.97,    99.52  C  2419.97     97.17   2418.07     95.27   2415.72     95.27  " style="stroke-width: 1.42 ;&st7;   " /><path d=" M  2334.98,   171.76  C  2332.64    171.76   2330.74    173.66   2330.74    176.01  " style="stroke-width: 1.42 ;&st7;   " /><path d=" M  2330.74,   176.01  C  2330.74    178.35   2332.64    180.26   2334.98    180.26  " style="stroke-width: 1.42 ;&st7;   " /><path d=" M  2339.23,   180.26  C  2341.58    180.26   2343.48    178.35   2343.48    176.01  " style="stroke-width: 1.42 ;&st7;   " /><path d=" M  2343.48,   176.01  C  2343.48    173.66   2341.58    171.76   2339.23    171.76  " style="stroke-width: 1.42 ;&st7;   " /><path d=" M  2334.98,   214.25  C  2332.64    214.25   2330.74    216.15   2330.74    218.50  " style="stroke-width: 1.42 ;&st7;   " /><path d=" M  2330.74,   218.50  C  2330.74    220.85   2332.64    222.75   2334.98    222.75  " style="stroke-width: 1.42 ;&st7;   " /><path d=" M  2339.23,   222.75  C  2341.58    222.75   2343.48    220.85   2343.48    218.50  " style="stroke-width: 1.42 ;&st7;   " /><path d=" M  2343.48,   218.50  C  2343.48    216.15   2341.58    214.25   2339.23    214.25  " style="stroke-width: 1.42 ;&st7;   " /><path d=" M  2265.15,   294.70  C  2265.15    292.20   2263.13    290.17   2260.62    290.17  " style="stroke-width: 1.42 ;&st7;   " /><path d=" M  2260.62,   290.17  C  2258.12    290.17   2256.09    292.20   2256.09    294.70  " style="stroke-width: 1.42 ;&st7;   " /><path d=" M  2256.09,   294.70  C  2256.09    297.21   2258.12    299.24   2260.62    299.24  " style="stroke-width: 1.42 ;&st7;   " /><path d=" M  2260.62,   299.24  C  2263.13    299.24   2265.15    297.21   2265.15    294.70  " style="stroke-width: 1.42 ;&st7;   " /><path d=" M  2265.15,   285.64  C  2265.15    283.13   2263.13    281.10   2260.62    281.10  " style="stroke-width: 1.42 ;&st7;   " /><path d=" M  2260.62,   281.10  C  2258.12    281.10   2256.09    283.13   2256.09    285.64  " style="stroke-width: 1.42 ;&st7;   " /><path d=" M  2256.09,   285.64  C  2256.09    288.14   2258.12    290.17   2260.62    290.17  " style="stroke-width: 1.42 ;&st7;   " /><path d=" M  2260.62,   290.17  C  2263.13    290.17   2265.15    288.14   2265.15    285.64  " style="stroke-width: 1.42 ;&st7;   " /><path d=" M  2265.15,   329.83  C  2265.15    327.33   2263.13    325.30   2260.62    325.30  " style="stroke-width: 1.42 ;&st7;   " /><path d=" M  2260.62,   325.30  C  2258.12    325.30   2256.09    327.33   2256.09    329.83  " style="stroke-width: 1.42 ;&st7;   " /><path d=" M  2256.09,   329.83  C  2256.09    332.33   2258.12    334.36   2260.62    334.36  " style="stroke-width: 1.42 ;&st7;   " /><path d=" M  2260.62,   334.36  C  2263.13    334.36   2265.15    332.33   2265.15    329.83  " style="stroke-width: 1.42 ;&st7;   " /><path d=" M  2265.15,   320.77  C  2265.15    318.26   2263.13    316.23   2260.62    316.23  " style="stroke-width: 1.42 ;&st7;   " /><path d=" M  2260.62,   316.23  C  2258.12    316.23   2256.09    318.26   2256.09    320.77  " style="stroke-width: 1.42 ;&st7;   " /><path d=" M  2256.09,   320.77  C  2256.09    323.27   2258.12    325.30   2260.62    325.30  " style="stroke-width: 1.42 ;&st7;   " /><path d=" M  2260.62,   325.30  C  2263.13    325.30   2265.15    323.27   2265.15    320.77  " style="stroke-width: 1.42 ;&st7;   " /><text style="&st18;" transform="matrix(&st16;  2355.96  465.51 )">GND</text><text style="&st18;" transform="matrix(&st16;  2356.42  477.4 )">4</text><text style="&st18;" transform="matrix(&st16;  2444.18  477.1 )">I187</text><text ewd:textID="35" style="&st18;" transform="matrix(&st16;  2444.19  483.92 )">Network Gateway ECU</text><text style="&st18;" transform="matrix(&st16;  2265.72  296.67 )">(*24)</text><text style="&st18;" transform="matrix(&st16;  2258.43  296.67 )">B</text><text style="&st18;" transform="matrix(&st16;  2251.93  296.67 )">1</text><text style="&st18;" transform="matrix(&st16;  2265.72  287.61 )">(*23)</text><text style="&st18;" transform="matrix(&st16;  2258.32  287.61 )">A</text><text style="&st18;" transform="matrix(&st16;  2248.83  287.61 )">16</text><text style="&st18;" transform="matrix(&st16;  2265.72  331.8 )">(*24)</text><text style="&st18;" transform="matrix(&st16;  2258.43  331.8 )">B</text><text style="&st18;" transform="matrix(&st16;  2251.93  331.8 )">3</text><text style="&st18;" transform="matrix(&st16;  2265.72  322.73 )">(*23)</text><text style="&st18;" transform="matrix(&st16;  2258.32  322.73 )">A</text><text style="&st18;" transform="matrix(&st16;  2248.83  322.73 )">19</text><text ewd:textID="30" style="&st18;" transform="matrix(&st17;  2245.6  319.14 )">Junction Connector</text><text style="&st18;" transform="matrix(&st17;  2238.77  319.13 )">I128(A),(B)</text><text style="&st18;" transform="matrix(&st16;  2036.7  609.99 )">W</text><text style="&st18;" transform="matrix(&st16;  2023.28  621.32 )">(*15,*8 *16)</text><text style="&st18;" transform="matrix(&st16;  2037.2  635.48 )">G</text><text style="&st18;" transform="matrix(&st16;  2023.28  646.81 )">(*15,*8 *16)</text><text style="&st18;" transform="matrix(&st16;  2104.68  609.99 )">W</text><text style="&st18;" transform="matrix(&st16;  2091.27  621.32 )">(*15,*8 *16)</text><text style="&st18;" transform="matrix(&st16;  2105.19  635.48 )">G</text><text style="&st18;" transform="matrix(&st16;  2091.27  646.81 )">(*15,*8 *16)</text><text style="&st18;" transform="matrix(&st16;  2277.05  53.34 )">7.5A <tspan dy="6.0" x="0 ">ECU-IG2 </tspan><tspan dy="6.0" x="0 ">NO.2</tspan></text><text style="&st18;" transform="matrix(&st16;  2256.77  101.49 )">3A</text><text style="&st18;" transform="matrix(&st16;  2247.01  101.49 )">50</text><text style="&st18;" transform="matrix(&st16;  2254.44  86.47 )">2</text><text style="&st18;" transform="matrix(&st16;  2255.41  32.08 )">(IG)</text><text style="&st18;" transform="matrix(&st16;  2353.53  53.34 )">10A <tspan dy="6.0" x="0 ">ECU-B </tspan><tspan dy="6.0" x="0 ">NO.1</tspan></text><text style="&st18;" transform="matrix(&st16;  2335.31  101.49 )">1</text><text style="&st18;" transform="matrix(&st16;  2330.93  86.47 )">2</text><text style="&st18;" transform="matrix(&st16;  2329.07  32.08 )">(BAT)</text><text style="&st18;" transform="matrix(&st16;  2430.02  53.34 )">10A <tspan dy="6.0" x="0 ">ECU-IG1 </tspan><tspan dy="6.0" x="0 ">NO.1</tspan></text><text style="&st18;" transform="matrix(&st16;  2409.74  101.49 )">3A</text><text style="&st18;" transform="matrix(&st16;  2399.99  101.49 )">56</text><text style="&st18;" transform="matrix(&st16;  2407.41  86.47 )">2</text><text style="&st18;" transform="matrix(&st16;  2408.38  32.08 )">(IG)</text><text ewd:textID="29" style="&st18;" transform="matrix(&st17;  2020.38  81.18 )">Inner Rear View <tspan dy="6.0" x="0 ">Mirror Assembly</tspan></text><text style="&st18;" transform="matrix(&st17;  2013.28  81.17 )">S2</text><text style="&st18;" transform="matrix(&st16;  2333.18  177.98 )">3D</text><text style="&st18;" transform="matrix(&st16;  2323.5  177.98 )">31</text><text style="&st18;" transform="matrix(&st16;  2333.37  220.47 )">3B</text><text style="&st18;" transform="matrix(&st16;  2323.5  220.47 )">26</text><text style="&st18;" transform="matrix(&st17;  2333.41  139.57 )">V</text><text style="&st18;" transform="matrix(&st17;  2344.75  153.64 )">(*15,*8 *16)</text><text style="&st18;" transform="matrix(&st17;  2333.41  259.21 )">W</text><text style="&st18;" transform="matrix(&st17;  2344.75  272.62 )">(*15,*8 *16)</text><text style="&st18;" transform="matrix(&st17;  2409.9  139.45 )">B</text><text style="&st18;" transform="matrix(&st17;  2421.23  153.64 )">(*15,*8 *16)</text><text style="&st18;" transform="matrix(&st17;  2256.93  141.55 )">LG</text><text style="&st18;" transform="matrix(&st17;  2268.26  153.64 )">(*15,*8 *16)</text><text style="&st18;" transform="matrix(&st16;  2330.93  295.55 )">1</text><text style="&st18;" transform="matrix(&st16;  2327.82  324.43 )">10</text><text ewd:textID="30" style="&st18;" transform="matrix(&st17;  2360.33  319.14 )">Junction <tspan dy="6.0" x="0 ">Connector</tspan></text><text style="&st18;" transform="matrix(&st17;  2353.5  319.13 )">I125</text><text style="&st18;" transform="matrix(&st17;  2333.41  361.19 )">W</text><text style="&st18;" transform="matrix(&st17;  2344.75  374.61 )">(*15,*8 *16)</text><text style="&st18;" transform="matrix(&st17;  2429.99  319.13 )">I124</text><text ewd:textID="30" style="&st18;" transform="matrix(&st17;  2436.81  319.14 )">Junction <tspan dy="6.0" x="0 ">Connector</tspan></text><text style="&st18;" transform="matrix(&st16;  2404.31  324.43 )">11</text><text style="&st18;" transform="matrix(&st16;  2407.41  295.55 )">7</text><text style="&st18;" transform="matrix(&st17;  2409.9  360.41 )">B</text><text style="&st18;" transform="matrix(&st17;  2421.23  374.61 )">(*15,*8 *16)</text><text style="&st18;" transform="matrix(&st17;  2256.93  362.51 )">LG</text><text style="&st18;" transform="matrix(&st17;  2268.26  374.61 )">(*15,*8 *16)</text><text style="&st18;" transform="matrix(&st16;  2254.44  397.53 )">9</text><text style="&st18;" transform="matrix(&st16;  2330.93  397.53 )">2</text><text style="&st18;" transform="matrix(&st16;  2404.31  397.53 )">10</text><text style="&st18;" transform="matrix(&st16;  2255.72  408.85 )">IG2</text><text style="&st18;" transform="matrix(&st16;  2328.99  408.85 )">BATT</text><text style="&st18;" transform="matrix(&st16;  2408.69  408.85 )">IG1</text><text style="&st18;" transform="matrix(&st16;  2251.34  477.4 )">15</text><text style="&st18;" transform="matrix(&st16;  2302.33  477.4 )">16</text><text style="&st18;" transform="matrix(&st16;  2252.77  465.51 )">CA1L</text><text style="&st18;" transform="matrix(&st16;  2303.34  465.51 )">CA1H</text><text style="&st18;" transform="matrix(&st17;  2256.93  522.66 )">W</text><text style="&st18;" transform="matrix(&st17;  2268.26  536.08 )">(*15,*8 *16)</text><text style="&st18;" transform="matrix(&st17;  2307.92  522.16 )">G</text><text style="&st18;" transform="matrix(&st17;  2319.25  536.08 )">(*15,*8 *16)</text><text style="&st18;" transform="matrix(&st17;  2370.24  536.08 )">(*15,*8 *16)</text><text style="&st18;" transform="matrix(&st17;  2358.91  526.15 )">W-B</text><text ewd:textID="27" style="&st18;" transform="matrix(&st17;  2020.38  446.62 )">DCM (Telematics Transceiver)</text><text style="&st18;" transform="matrix(&st17;  2013.56  446.61 )">I218(A)</text></svg>