﻿<?xml version="1.0" encoding="utf-8"?>
<!DOCTYPE svg PUBLIC "-//W3C//DTD SVG 1.0//EN" "http://www.w3.org/TR/2001/REC-SVG-20010904/DTD/svg10.dtd"[
	<!ENTITY ns_flows "http://ns.adobe.com/Flows/1.0/">
	<!ENTITY ns_svg "http://www.w3.org/2000/svg">
	<!ENTITY ns_xlink "http://www.w3.org/1999/xlink">
	<!ENTITY st0 "font-size:7px;font-family:'MS-PGothic';adobe-font-script:japanese;">
	<!ENTITY st1 "font-size:6px;font-family:'ArialMT';">
	<!-- White fill  -->
	<!ENTITY st2 "fill:#FFFFFF;stroke:#000000; stroke-width:1.41;stroke-linecap:round;stroke-linejoin:round;">
	<!-- Yellow fill  -->
	<!ENTITY st3 "fill:#FFFFCC;stroke:#FFFFCC; stroke-width:0.1;stroke-linecap:round;stroke-linejoin:round;">
	<!-- Gray fill  -->
	<!ENTITY st4 "fill:#CCCCCC;stroke:#CCCCCC; stroke-width:0.1;stroke-linecap:round;stroke-linejoin:round;">
	<!-- Light-blue fill -->
	<!ENTITY st5 "fill:#CCECF4;stroke:#000000; stroke-width:1.133;stroke-linecap:round;stroke-linejoin:round;">
	<!ENTITY st6 "fill:none;stroke-linecap:butt; stroke-linejoin:round;">
	<!ENTITY st7 "fill:none;stroke:#000000;stroke-linecap:round;stroke-linejoin:round;">
	<!ENTITY st8 "enable-background:new    ;">
	<!-- Black fill -->
	<!ENTITY st9 "fill:#000000;stroke:#000000; stroke-linecap:round;stroke-linejoin:round;">
	<!-- SRS note   -->
	<!ENTITY st10 "font-size:9px;font-family:'ArialMT';">
	<!ENTITY st11 "font-size:9px;font-family:'Svg Symbol';">
	<!ENTITY st12 "font-size:6px;font-family:'Svg Symbol';">
	<!ENTITY st13 "fill:none;stroke:#ff0000;stroke-linecap:round;stroke-linejoin:round;">
	<!-- Yellow fill  -->
	<!ENTITY st14 "fill:#FFFF00;stroke:#FFFF00; stroke-width:0.1;stroke-linecap:round;stroke-linejoin:round;">
	<!ENTITY st15 "font-size:6px;font-family:'MS-PGothic';adobe-font-script:japanese;">
	<!ENTITY st16 "1.00 0.00 0.00 1.00">
	<!ENTITY st17 "0.00 -1.00 1.00 0.00">
	<!ENTITY st18 "font-size:6px;font-family:'Arial';">
	<!ENTITY st19 "font-size:9px;font-family:'Arial';">
	<!ENTITY st20 "font-size:6px;font-family:'MS-PGothic','MS PGothic';adobe-font-script:japanese;">
	<!ENTITY st21 "font-size:7px;font-family:'MS-PGothic','MS PGothic';adobe-font-script:japanese;">
	<!ATTLIST svg
		xmlns:ewd CDATA #FIXED "http://shcl.co.jp/ewd"
		xmlns:a CDATA #FIXED "http://ns.adobe.com/AdobeSVGViewerExtensions/3.0/"
		ewd:ver CDATA #IMPLIED
	>
	<!ATTLIST a
		ewd:lineID CDATA #IMPLIED
		ewd:groupID CDATA #IMPLIED
		ewd:figtype CDATA #IMPLIED
		ewd:code CDATA #IMPLIED
		ewd:figID CDATA #IMPLIED
		ewd:pinNo CDATA #IMPLIED
		ewd:comment CDATA #IMPLIED >
	<!ATTLIST g
		ewd:lineID CDATA #IMPLIED
		ewd:groupID CDATA #IMPLIED
		ewd:figtype CDATA #IMPLIED
		ewd:code CDATA #IMPLIED
		ewd:figID CDATA #IMPLIED
		ewd:pinNo CDATA #IMPLIED
		ewd:comment CDATA #IMPLIED >
	<!ATTLIST text
		ewd:textID CDATA #IMPLIED >
	<!ATTLIST title
		ewd:textID CDATA #IMPLIED >
]>
<!-- Generator: Shintec Hozumi YS   -->
<svg onload="call_execInitLoadProc_svg('system')" style="overflow:visible;  enable-background:new 0 0 1546.742 710.000" viewBox="0 0 1546.742 710.000" height="710.000" width="1546.742" xml:space="preserve" ewd:ver="L2.1.2.9" xmlns="&ns_svg;" xmlns:a="http://ns.adobe.com/AdobeSVGViewerExtensions/3.0/" xmlns:ewd="http://shcl.co.jp/ewd" xmlns:xlink="&ns_xlink;">
<path d=" M   696.88,    69.77  L   696.88,    95.27  " style="stroke-width: 0.85 ;&st7;  " /><path d=" M   699.01,    95.27  L   694.76,    95.27  " style="stroke-width: 1.42 ;&st7;  " /><path d=" M   699.01,   103.77  L   694.76,   103.77  " style="stroke-width: 1.42 ;&st7;  " /><path d=" M   688.38,   180.26  L   696.88,   180.26  " style="stroke-width: 1.42 ;&st7;  " /><path d=" M   603.40,   418.22  L   594.90,   418.22  " style="stroke-width: 1.42 ;&st7;  " /><path d=" M   637.39,   418.22  L   628.89,   418.22  " style="stroke-width: 1.42 ;&st7;  " /><path d=" M   875.35,   401.22  L   883.85,   401.22  " style="stroke-width: 1.42 ;&st7;  " /><path d=" M   832.86,    69.77  L   832.86,    95.27  " style="stroke-width: 0.85 ;&st7;  " /><path d=" M   834.99,    95.27  L   830.74,    95.27  " style="stroke-width: 1.42 ;&st7;  " /><path d=" M   834.99,   103.77  L   830.74,   103.77  " style="stroke-width: 1.42 ;&st7;  " /><path d=" M   934.84,    69.77  L   934.84,    95.27  " style="stroke-width: 0.85 ;&st7;  " /><path d=" M   936.97,    95.27  L   932.72,    95.27  " style="stroke-width: 1.42 ;&st7;  " /><path d=" M   936.97,   103.77  L   932.72,   103.77  " style="stroke-width: 1.42 ;&st7;  " /><path d=" M   832.86,   222.75  L   832.86,   248.24  " style="stroke-width: 0.85 ;&st7;  " /><path d=" M   837.11,   239.75  L   828.61,   239.75  " style="stroke-width: 0.85 ;&st7;  " /><path d=" M   934.84,   222.75  L   934.84,   248.24  " style="stroke-width: 0.85 ;&st7;  " /><path d=" M   939.09,   239.75  L   930.59,   239.75  " style="stroke-width: 0.85 ;&st7;  " /><path d=" M   892.35,   304.21  L   887.38,   299.24  " style="stroke-width: 1.42 ;&st7;  " /><path d=" M   875.35,   311.26  L   880.32,   316.23  " style="stroke-width: 1.42 ;&st7;  " /><path d=" M   887.38,   316.23  L   892.35,   311.26  " style="stroke-width: 1.42 ;&st7;  " /><path d=" M   880.32,   299.24  L   875.35,   304.21  " style="stroke-width: 1.42 ;&st7;  " /><path d=" M   892.35,   358.73  L   883.85,   358.73  " style="stroke-width: 1.42 ;&st7;  " /><path d=" M   883.85,   222.75  L   883.85,   248.24  " style="stroke-width: 0.85 ;&st7;  " /><path d=" M   888.10,   239.75  L   879.60,   239.75  " style="stroke-width: 0.85 ;&st7;  " /><path d=" M   985.84,   222.75  L   985.84,   248.24  " style="stroke-width: 0.85 ;&st7;  " /><path d=" M   990.08,   239.75  L   981.59,   239.75  " style="stroke-width: 0.85 ;&st7;  " /><path d=" M   633.14,   423.88  L   628.89,   419.63  L   624.65,   423.88  " style="stroke-width: 1.42 ;&st7;  " /><path d=" M   633.14,   427.28  L   628.89,   423.03  L   624.65,   427.28  " style="stroke-width: 1.42 ;&st7;  " /><path d=" M   599.15,   423.88  L   594.90,   419.63  L   590.65,   423.88  " style="stroke-width: 1.42 ;&st7;  " /><path d=" M   671.39,   316.23  L   722.38,   316.23  " style="stroke-width: 0.85 ;&st7;  " /><path d=" M   712.46,   324.73  L   698.30,   324.73  " style="stroke-width: 0.85 ;&st7;  " /><path d=" M   705.38,   299.24  L   705.38,   333.23  " style="stroke-width: 0.85 ;&st7;  " /><path d=" M   688.38,   299.24  L   688.38,   333.23  " style="stroke-width: 0.85 ;&st7;  " /><path d=" M   671.39,   299.24  L   722.38,   299.24  L   722.38,   333.23  L   671.39,   333.23  L   671.39,   299.24  " style="stroke-width: 1.42 ;&st7;  " /><path d=" M   696.88,    90.37  L   694.05,    87.54  L   694.05,    91.79  L   696.88,    94.62  L   699.72,    91.79  L   699.72,    87.54  L   696.88,    90.37  " style="stroke-width: 0.28 ;&st9;  " /><path d=" M   684.14,    35.78  L   684.14,    78.27  L   709.63,    78.27  L   709.63,    35.78  L   684.14,    35.78  " style="stroke-width: 1.42 ;&st7;  " /><path d=" M   594.90,   316.23  L   594.90,   299.24  " style="stroke-width: 0.85 ;&st7;  " /><path d=" M   628.89,   316.23  L   628.89,   299.24  " style="stroke-width: 0.85 ;&st7;  " /><path d=" M   586.40,   316.23  L   637.39,   316.23  L   637.39,   299.24  L   586.40,   299.24  L   586.40,   316.23  " style="stroke-width: 1.42 ;&st7;  " /><path d=" M   628.89,   205.75  L   628.89,   222.75  " style="stroke-width: 0.85 ;&st7;  " /><path d=" M   594.90,   222.75  L   594.90,   205.75  " style="stroke-width: 0.85 ;&st7;  " /><path d=" M   586.40,   222.75  L   637.39,   222.75  L   637.39,   205.75  L   586.40,   205.75  L   586.40,   222.75  " style="stroke-width: 1.42 ;&st7;  " /><path d=" M   692.63,   171.19  L   696.88,   175.44  L   701.13,   171.19  " style="stroke-width: 1.42 ;&st7;  " /><path d=" M   701.13,   174.59  L   696.88,   178.84  L   692.63,   174.59  " style="stroke-width: 1.42 ;&st7;  " /><path d=" M   599.15,   427.28  L   594.90,   423.03  L   590.65,   427.28  " style="stroke-width: 1.42 ;&st7;  " /><path d=" M   577.90,   562.69  L   730.88,   562.69  L   730.88,   528.70  L   577.90,   528.70  L   577.90,   562.69  " style="stroke-width: 1.42 ;&st7;  " /><path d=" M   713.88,   418.22  L   713.88,   435.21  " style="stroke-width: 0.85 ;&st7;  " /><path d=" M   705.38,   418.22  L   705.38,   435.21  L   722.38,   435.21  L   722.38,   418.22  L   705.38,   418.22  " style="stroke-width: 1.42 ;&st7;  " /><path d=" M   603.40,   227.28  L   616.15,   227.28  " style="stroke-width: 0.85 ;&st7; stroke-dasharray:3, 1.5;" /><path d=" M   603.40,   236.35  L   611.90,   236.35  " style="stroke-width: 0.85 ;&st7; stroke-dasharray:3, 1.5;" /><path d=" M   603.40,   201.22  L   616.15,   201.22  " style="stroke-width: 0.85 ;&st7; stroke-dasharray:3, 1.5;" /><path d=" M   603.40,   192.15  L   616.15,   192.15  " style="stroke-width: 0.85 ;&st7; stroke-dasharray:3, 1.5;" /><path d=" M   832.86,    90.37  L   830.03,    87.54  L   830.03,    91.79  L   832.86,    94.62  L   835.69,    91.79  L   835.69,    87.54  L   832.86,    90.37  " style="stroke-width: 0.28 ;&st9;  " /><path d=" M   820.11,    35.78  L   820.11,    78.27  L   845.61,    78.27  L   845.61,    35.78  L   820.11,    35.78  " style="stroke-width: 1.42 ;&st7;  " /><path d=" M   934.84,    90.37  L   932.01,    87.54  L   932.01,    91.79  L   934.84,    94.62  L   937.68,    91.79  L   937.68,    87.54  L   934.84,    90.37  " style="stroke-width: 0.28 ;&st9;  " /><path d=" M   922.10,    35.78  L   922.10,    78.27  L   947.59,    78.27  L   947.59,    35.78  L   922.10,    35.78  " style="stroke-width: 1.42 ;&st7;  " /><path d=" M   824.36,   146.26  L   841.36,   146.26  L   841.36,   163.26  L   824.36,   163.26  L   824.36,   146.26  " style="stroke-width: 1.42 ;&st7;  " /><path d=" M   832.86,   146.26  L   832.86,   163.26  " style="stroke-width: 0.85 ;&st7;  " /><path d=" M   926.34,   146.26  L   943.34,   146.26  L   943.34,   163.26  L   926.34,   163.26  L   926.34,   146.26  " style="stroke-width: 1.42 ;&st7;  " /><path d=" M   934.84,   146.26  L   934.84,   163.26  " style="stroke-width: 0.85 ;&st7;  " /><path d=" M   832.86,   239.75  L   827.19,   231.25  L   838.53,   231.25  L   832.86,   239.75  " style="stroke-width: 0.28 ;&st9;  " /><path d=" M   824.36,   248.24  L   841.36,   248.24  L   841.36,   222.75  L   824.36,   222.75  L   824.36,   248.24  " style="stroke-width: 1.42 ;&st7;  " /><path d=" M   934.84,   239.75  L   929.18,   231.25  L   940.51,   231.25  L   934.84,   239.75  " style="stroke-width: 0.28 ;&st9;  " /><path d=" M   926.34,   248.24  L   943.34,   248.24  L   943.34,   222.75  L   926.34,   222.75  L   926.34,   248.24  " style="stroke-width: 1.42 ;&st7;  " /><path d=" M   888.10,   367.79  L   883.85,   363.54  L   879.60,   367.79  " style="stroke-width: 1.42 ;&st7;  " /><path d=" M   888.10,   364.39  L   883.85,   360.14  L   879.60,   364.39  " style="stroke-width: 1.42 ;&st7;  " /><path d=" M   883.85,   239.75  L   878.19,   231.25  L   889.52,   231.25  L   883.85,   239.75  " style="stroke-width: 0.28 ;&st9;  " /><path d=" M   875.35,   248.24  L   892.35,   248.24  L   892.35,   222.75  L   875.35,   222.75  L   875.35,   248.24  " style="stroke-width: 1.42 ;&st7;  " /><path d=" M   888.10,   395.55  L   883.85,   399.80  L   879.60,   395.55  " style="stroke-width: 1.42 ;&st7;  " /><path d=" M   879.60,   392.15  L   883.85,   396.40  L   888.10,   392.15  " style="stroke-width: 1.42 ;&st7;  " /><path d=" M   985.83,   239.75  L   980.17,   231.25  L   991.50,   231.25  L   985.83,   239.75  " style="stroke-width: 0.28 ;&st9;  " /><path d=" M   977.34,   248.24  L   994.33,   248.24  L   994.33,   222.75  L   977.34,   222.75  L   977.34,   248.24  " style="stroke-width: 1.42 ;&st7;  " /><path d=" M   556.94,    82.80  C   556.94     80.30    554.91     78.27    552.41     78.27  " style="stroke-width: 1.42 ;&st7;   " /><path d=" M   552.41,    78.27  C   549.90     78.27    547.88     80.30    547.88     82.80  " style="stroke-width: 1.42 ;&st7;   " /><path d=" M   547.88,    82.80  C   547.88     85.31    549.90     87.34    552.41     87.34  " style="stroke-width: 1.42 ;&st7;   " /><path d=" M   552.41,    87.34  C   554.91     87.34    556.94     85.31    556.94     82.80  " style="stroke-width: 1.42 ;&st7;   " /><path d=" M   698.30,   324.73  C   698.30    323.95    697.67    323.31    696.88    323.31  " style="stroke-width: 0.85 ;&st7;   " /><path d=" M   696.88,   323.31  C   696.10    323.31    695.47    323.95    695.47    324.73  " style="stroke-width: 0.85 ;&st7;   " /><path d=" M   695.47,   324.73  C   695.47    325.51    696.10    326.15    696.88    326.15  " style="stroke-width: 0.85 ;&st7;   " /><path d=" M   696.88,   326.15  C   697.67    326.15    698.30    325.51    698.30    324.73  " style="stroke-width: 0.85 ;&st7;   " /><path d=" M   715.30,   324.73  C   715.30    323.95    714.66    323.31    713.88    323.31  " style="stroke-width: 0.85 ;&st7;   " /><path d=" M   713.88,   323.31  C   713.10    323.31    712.46    323.95    712.46    324.73  " style="stroke-width: 0.85 ;&st7;   " /><path d=" M   712.46,   324.73  C   712.46    325.51    713.10    326.15    713.88    326.15  " style="stroke-width: 0.85 ;&st7;   " /><path d=" M   713.88,   326.15  C   714.66    326.15    715.30    325.51    715.30    324.73  " style="stroke-width: 0.85 ;&st7;   " /><path d=" M   696.88,    47.11  C   694.15     48.72    693.23     52.25    694.85     54.99  " style="stroke-width: 1.42 ;&st7;   " /><path d=" M   694.85,    54.99  C   695.37     55.87    696.00     56.51    696.88     57.03  " style="stroke-width: 1.42 ;&st7;   " /><path d=" M   696.88,    66.94  C   699.62     65.33    700.53     61.80    698.92     59.06  " style="stroke-width: 1.42 ;&st7;   " /><path d=" M   698.92,    59.06  C   698.40     58.18    697.77     57.55    696.88     57.03  " style="stroke-width: 1.42 ;&st7;   " /><path d=" M   698.30,    45.69  C   698.30     44.91    697.67     44.28    696.88     44.28  " style="stroke-width: 0.85 ;&st7;   " /><path d=" M   696.88,    44.28  C   696.10     44.28    695.47     44.91    695.47     45.69  " style="stroke-width: 0.85 ;&st7;   " /><path d=" M   695.47,    45.69  C   695.47     46.48    696.10     47.11    696.88     47.11  " style="stroke-width: 0.85 ;&st7;   " /><path d=" M   696.88,    47.11  C   697.67     47.11    698.30     46.48    698.30     45.69  " style="stroke-width: 0.85 ;&st7;   " /><path d=" M   698.30,    68.36  C   698.30     67.57    697.67     66.94    696.88     66.94  " style="stroke-width: 0.85 ;&st7;   " /><path d=" M   696.88,    66.94  C   696.10     66.94    695.47     67.57    695.47     68.36  " style="stroke-width: 0.85 ;&st7;   " /><path d=" M   695.47,    68.36  C   695.47     69.14    696.10     69.77    696.88     69.77  " style="stroke-width: 0.85 ;&st7;   " /><path d=" M   696.88,    69.77  C   697.67     69.77    698.30     69.14    698.30     68.36  " style="stroke-width: 0.85 ;&st7;   " /><path d=" M   694.76,    95.27  C   692.41     95.27    690.51     97.17    690.51     99.52  " style="stroke-width: 1.42 ;&st7;   " /><path d=" M   690.51,    99.52  C   690.51    101.87    692.41    103.77    694.76    103.77  " style="stroke-width: 1.42 ;&st7;   " /><path d=" M   699.01,   103.77  C   701.35    103.77    703.26    101.87    703.26     99.52  " style="stroke-width: 1.42 ;&st7;   " /><path d=" M   703.26,    99.52  C   703.26     97.17    701.35     95.27    699.01     95.27  " style="stroke-width: 1.42 ;&st7;   " /><path d=" M   633.43,   320.77  C   633.43    318.26    631.40    316.23    628.89    316.23  " style="stroke-width: 1.42 ;&st7;   " /><path d=" M   628.89,   316.23  C   626.39    316.23    624.36    318.26    624.36    320.77  " style="stroke-width: 1.42 ;&st7;   " /><path d=" M   624.36,   320.77  C   624.36    323.27    626.39    325.30    628.89    325.30  " style="stroke-width: 1.42 ;&st7;   " /><path d=" M   628.89,   325.30  C   631.40    325.30    633.43    323.27    633.43    320.77  " style="stroke-width: 1.42 ;&st7;   " /><path d=" M   599.43,   320.77  C   599.43    318.26    597.40    316.23    594.90    316.23  " style="stroke-width: 1.42 ;&st7;   " /><path d=" M   594.90,   316.23  C   592.40    316.23    590.37    318.26    590.37    320.77  " style="stroke-width: 1.42 ;&st7;   " /><path d=" M   590.37,   320.77  C   590.37    323.27    592.40    325.30    594.90    325.30  " style="stroke-width: 1.42 ;&st7;   " /><path d=" M   594.90,   325.30  C   597.40    325.30    599.43    323.27    599.43    320.77  " style="stroke-width: 1.42 ;&st7;   " /><path d=" M   633.43,   294.70  C   633.43    292.20    631.40    290.17    628.89    290.17  " style="stroke-width: 1.42 ;&st7;   " /><path d=" M   628.89,   290.17  C   626.39    290.17    624.36    292.20    624.36    294.70  " style="stroke-width: 1.42 ;&st7;   " /><path d=" M   624.36,   294.70  C   624.36    297.21    626.39    299.24    628.89    299.24  " style="stroke-width: 1.42 ;&st7;   " /><path d=" M   628.89,   299.24  C   631.40    299.24    633.43    297.21    633.43    294.70  " style="stroke-width: 1.42 ;&st7;   " /><path d=" M   599.43,   294.70  C   599.43    292.20    597.40    290.17    594.90    290.17  " style="stroke-width: 1.42 ;&st7;   " /><path d=" M   594.90,   290.17  C   592.40    290.17    590.37    292.20    590.37    294.70  " style="stroke-width: 1.42 ;&st7;   " /><path d=" M   590.37,   294.70  C   590.37    297.21    592.40    299.24    594.90    299.24  " style="stroke-width: 1.42 ;&st7;   " /><path d=" M   594.90,   299.24  C   597.40    299.24    599.43    297.21    599.43    294.70  " style="stroke-width: 1.42 ;&st7;   " /><path d=" M   599.43,    82.80  C   599.43     80.30    597.40     78.27    594.90     78.27  " style="stroke-width: 1.42 ;&st7;   " /><path d=" M   594.90,    78.27  C   592.40     78.27    590.37     80.30    590.37     82.80  " style="stroke-width: 1.42 ;&st7;   " /><path d=" M   590.37,    82.80  C   590.37     85.31    592.40     87.34    594.90     87.34  " style="stroke-width: 1.42 ;&st7;   " /><path d=" M   594.90,    87.34  C   597.40     87.34    599.43     85.31    599.43     82.80  " style="stroke-width: 1.42 ;&st7;   " /><path d=" M   633.43,    82.80  C   633.43     80.30    631.40     78.27    628.89     78.27  " style="stroke-width: 1.42 ;&st7;   " /><path d=" M   628.89,    78.27  C   626.39     78.27    624.36     80.30    624.36     82.80  " style="stroke-width: 1.42 ;&st7;   " /><path d=" M   624.36,    82.80  C   624.36     85.31    626.39     87.34    628.89     87.34  " style="stroke-width: 1.42 ;&st7;   " /><path d=" M   628.89,    87.34  C   631.40     87.34    633.43     85.31    633.43     82.80  " style="stroke-width: 1.42 ;&st7;   " /><path d=" M   633.43,   236.35  C   633.43    233.84    631.40    231.81    628.89    231.81  " style="stroke-width: 1.42 ;&st7;   " /><path d=" M   628.89,   231.81  C   626.39    231.81    624.36    233.84    624.36    236.35  " style="stroke-width: 1.42 ;&st7;   " /><path d=" M   624.36,   236.35  C   624.36    238.85    626.39    240.88    628.89    240.88  " style="stroke-width: 1.42 ;&st7;   " /><path d=" M   628.89,   240.88  C   631.40    240.88    633.43    238.85    633.43    236.35  " style="stroke-width: 1.42 ;&st7;   " /><path d=" M   599.43,   236.35  C   599.43    233.84    597.40    231.81    594.90    231.81  " style="stroke-width: 1.42 ;&st7;   " /><path d=" M   594.90,   231.81  C   592.40    231.81    590.37    233.84    590.37    236.35  " style="stroke-width: 1.42 ;&st7;   " /><path d=" M   590.37,   236.35  C   590.37    238.85    592.40    240.88    594.90    240.88  " style="stroke-width: 1.42 ;&st7;   " /><path d=" M   594.90,   240.88  C   597.40    240.88    599.43    238.85    599.43    236.35  " style="stroke-width: 1.42 ;&st7;   " /><path d=" M   599.43,   201.22  C   599.43    198.72    597.40    196.69    594.90    196.69  " style="stroke-width: 1.42 ;&st7;   " /><path d=" M   594.90,   196.69  C   592.40    196.69    590.37    198.72    590.37    201.22  " style="stroke-width: 1.42 ;&st7;   " /><path d=" M   590.37,   201.22  C   590.37    203.72    592.40    205.75    594.90    205.75  " style="stroke-width: 1.42 ;&st7;   " /><path d=" M   594.90,   205.75  C   597.40    205.75    599.43    203.72    599.43    201.22  " style="stroke-width: 1.42 ;&st7;   " /><path d=" M   633.43,   201.22  C   633.43    198.72    631.40    196.69    628.89    196.69  " style="stroke-width: 1.42 ;&st7;   " /><path d=" M   628.89,   196.69  C   626.39    196.69    624.36    198.72    624.36    201.22  " style="stroke-width: 1.42 ;&st7;   " /><path d=" M   624.36,   201.22  C   624.36    203.72    626.39    205.75    628.89    205.75  " style="stroke-width: 1.42 ;&st7;   " /><path d=" M   628.89,   205.75  C   631.40    205.75    633.43    203.72    633.43    201.22  " style="stroke-width: 1.42 ;&st7;   " /><path d=" M   718.41,   413.68  C   718.41    411.18    716.38    409.15    713.88    409.15  " style="stroke-width: 1.42 ;&st7;   " /><path d=" M   713.88,   409.15  C   711.38    409.15    709.35    411.18    709.35    413.68  " style="stroke-width: 1.42 ;&st7;   " /><path d=" M   709.35,   413.68  C   709.35    416.19    711.38    418.22    713.88    418.22  " style="stroke-width: 1.42 ;&st7;   " /><path d=" M   713.88,   418.22  C   716.38    418.22    718.41    416.19    718.41    413.68  " style="stroke-width: 1.42 ;&st7;   " /><path d=" M   718.41,   439.75  C   718.41    437.24    716.38    435.21    713.88    435.21  " style="stroke-width: 1.42 ;&st7;   " /><path d=" M   713.88,   435.21  C   711.38    435.21    709.35    437.24    709.35    439.75  " style="stroke-width: 1.42 ;&st7;   " /><path d=" M   709.35,   439.75  C   709.35    442.25    711.38    444.28    713.88    444.28  " style="stroke-width: 1.42 ;&st7;   " /><path d=" M   713.88,   444.28  C   716.38    444.28    718.41    442.25    718.41    439.75  " style="stroke-width: 1.42 ;&st7;   " /><path d=" M   718.41,   524.16  C   718.41    521.66    716.38    519.63    713.88    519.63  " style="stroke-width: 1.42 ;&st7;   " /><path d=" M   713.88,   519.63  C   711.38    519.63    709.35    521.66    709.35    524.16  " style="stroke-width: 1.42 ;&st7;   " /><path d=" M   709.35,   524.16  C   709.35    526.67    711.38    528.70    713.88    528.70  " style="stroke-width: 1.42 ;&st7;   " /><path d=" M   713.88,   528.70  C   716.38    528.70    718.41    526.67    718.41    524.16  " style="stroke-width: 1.42 ;&st7;   " /><path d=" M   701.42,   294.70  C   701.42    292.20    699.39    290.17    696.88    290.17  " style="stroke-width: 1.42 ;&st7;   " /><path d=" M   696.88,   290.17  C   694.38    290.17    692.35    292.20    692.35    294.70  " style="stroke-width: 1.42 ;&st7;   " /><path d=" M   692.35,   294.70  C   692.35    297.21    694.38    299.24    696.88    299.24  " style="stroke-width: 1.42 ;&st7;   " /><path d=" M   696.88,   299.24  C   699.39    299.24    701.42    297.21    701.42    294.70  " style="stroke-width: 1.42 ;&st7;   " /><path d=" M   701.42,   285.64  C   701.42    283.13    699.39    281.10    696.88    281.10  " style="stroke-width: 1.42 ;&st7;   " /><path d=" M   696.88,   281.10  C   694.38    281.10    692.35    283.13    692.35    285.64  " style="stroke-width: 1.42 ;&st7;   " /><path d=" M   692.35,   285.64  C   692.35    288.14    694.38    290.17    696.88    290.17  " style="stroke-width: 1.42 ;&st7;   " /><path d=" M   696.88,   290.17  C   699.39    290.17    701.42    288.14    701.42    285.64  " style="stroke-width: 1.42 ;&st7;   " /><path d=" M   718.41,   346.83  C   718.41    344.32    716.38    342.29    713.88    342.29  " style="stroke-width: 1.42 ;&st7;   " /><path d=" M   713.88,   342.29  C   711.38    342.29    709.35    344.32    709.35    346.83  " style="stroke-width: 1.42 ;&st7;   " /><path d=" M   709.35,   346.83  C   709.35    349.33    711.38    351.36    713.88    351.36  " style="stroke-width: 1.42 ;&st7;   " /><path d=" M   713.88,   351.36  C   716.38    351.36    718.41    349.33    718.41    346.83  " style="stroke-width: 1.42 ;&st7;   " /><path d=" M   718.41,   337.76  C   718.41    335.26    716.38    333.23    713.88    333.23  " style="stroke-width: 1.42 ;&st7;   " /><path d=" M   713.88,   333.23  C   711.38    333.23    709.35    335.26    709.35    337.76  " style="stroke-width: 1.42 ;&st7;   " /><path d=" M   709.35,   337.76  C   709.35    340.27    711.38    342.29    713.88    342.29  " style="stroke-width: 1.42 ;&st7;   " /><path d=" M   713.88,   342.29  C   716.38    342.29    718.41    340.27    718.41    337.76  " style="stroke-width: 1.42 ;&st7;   " /><path d=" M   599.43,   192.15  C   599.43    189.65    597.40    187.62    594.90    187.62  " style="stroke-width: 1.42 ;&st7;   " /><path d=" M   594.90,   187.62  C   592.40    187.62    590.37    189.65    590.37    192.15  " style="stroke-width: 1.42 ;&st7;   " /><path d=" M   590.37,   192.15  C   590.37    194.66    592.40    196.69    594.90    196.69  " style="stroke-width: 1.42 ;&st7;   " /><path d=" M   594.90,   196.69  C   597.40    196.69    599.43    194.66    599.43    192.15  " style="stroke-width: 1.42 ;&st7;   " /><path d=" M   633.43,   192.15  C   633.43    189.65    631.40    187.62    628.89    187.62  " style="stroke-width: 1.42 ;&st7;   " /><path d=" M   628.89,   187.62  C   626.39    187.62    624.36    189.65    624.36    192.15  " style="stroke-width: 1.42 ;&st7;   " /><path d=" M   624.36,   192.15  C   624.36    194.66    626.39    196.69    628.89    196.69  " style="stroke-width: 1.42 ;&st7;   " /><path d=" M   628.89,   196.69  C   631.40    196.69    633.43    194.66    633.43    192.15  " style="stroke-width: 1.42 ;&st7;   " /><path d=" M   633.43,   227.28  C   633.43    224.78    631.40    222.75    628.89    222.75  " style="stroke-width: 1.42 ;&st7;   " /><path d=" M   628.89,   222.75  C   626.39    222.75    624.36    224.78    624.36    227.28  " style="stroke-width: 1.42 ;&st7;   " /><path d=" M   624.36,   227.28  C   624.36    229.78    626.39    231.81    628.89    231.81  " style="stroke-width: 1.42 ;&st7;   " /><path d=" M   628.89,   231.81  C   631.40    231.81    633.43    229.78    633.43    227.28  " style="stroke-width: 1.42 ;&st7;   " /><path d=" M   599.43,   227.28  C   599.43    224.78    597.40    222.75    594.90    222.75  " style="stroke-width: 1.42 ;&st7;   " /><path d=" M   594.90,   222.75  C   592.40    222.75    590.37    224.78    590.37    227.28  " style="stroke-width: 1.42 ;&st7;   " /><path d=" M   590.37,   227.28  C   590.37    229.78    592.40    231.81    594.90    231.81  " style="stroke-width: 1.42 ;&st7;   " /><path d=" M   594.90,   231.81  C   597.40    231.81    599.43    229.78    599.43    227.28  " style="stroke-width: 1.42 ;&st7;   " /><path d=" M   718.41,   515.10  C   718.41    512.60    716.38    510.57    713.88    510.57  " style="stroke-width: 1.42 ;&st7;   " /><path d=" M   713.88,   510.57  C   711.38    510.57    709.35    512.60    709.35    515.10  " style="stroke-width: 1.42 ;&st7;   " /><path d=" M   709.35,   515.10  C   709.35    517.60    711.38    519.63    713.88    519.63  " style="stroke-width: 1.42 ;&st7;   " /><path d=" M   713.88,   519.63  C   716.38    519.63    718.41    517.60    718.41    515.10  " style="stroke-width: 1.42 ;&st7;   " /><path d=" M   633.43,   524.16  C   633.43    521.66    631.40    519.63    628.89    519.63  " style="stroke-width: 1.42 ;&st7;   " /><path d=" M   628.89,   519.63  C   626.39    519.63    624.36    521.66    624.36    524.16  " style="stroke-width: 1.42 ;&st7;   " /><path d=" M   624.36,   524.16  C   624.36    526.67    626.39    528.70    628.89    528.70  " style="stroke-width: 1.42 ;&st7;   " /><path d=" M   628.89,   528.70  C   631.40    528.70    633.43    526.67    633.43    524.16  " style="stroke-width: 1.42 ;&st7;   " /><path d=" M   599.43,   524.16  C   599.43    521.66    597.40    519.63    594.90    519.63  " style="stroke-width: 1.42 ;&st7;   " /><path d=" M   594.90,   519.63  C   592.40    519.63    590.37    521.66    590.37    524.16  " style="stroke-width: 1.42 ;&st7;   " /><path d=" M   590.37,   524.16  C   590.37    526.67    592.40    528.70    594.90    528.70  " style="stroke-width: 1.42 ;&st7;   " /><path d=" M   594.90,   528.70  C   597.40    528.70    599.43    526.67    599.43    524.16  " style="stroke-width: 1.42 ;&st7;   " /><path d=" M   832.86,    47.11  C   830.12     48.72    829.21     52.25    830.82     54.99  " style="stroke-width: 1.42 ;&st7;   " /><path d=" M   830.82,    54.99  C   831.34     55.87    831.98     56.51    832.86     57.03  " style="stroke-width: 1.42 ;&st7;   " /><path d=" M   832.86,    66.94  C   835.60     65.33    836.51     61.80    834.90     59.06  " style="stroke-width: 1.42 ;&st7;   " /><path d=" M   834.90,    59.06  C   834.38     58.18    833.74     57.55    832.86     57.03  " style="stroke-width: 1.42 ;&st7;   " /><path d=" M   834.28,    45.69  C   834.28     44.91    833.64     44.28    832.86     44.28  " style="stroke-width: 0.85 ;&st7;   " /><path d=" M   832.86,    44.28  C   832.08     44.28    831.44     44.91    831.44     45.69  " style="stroke-width: 0.85 ;&st7;   " /><path d=" M   831.44,    45.69  C   831.44     46.48    832.08     47.11    832.86     47.11  " style="stroke-width: 0.85 ;&st7;   " /><path d=" M   832.86,    47.11  C   833.64     47.11    834.28     46.48    834.28     45.69  " style="stroke-width: 0.85 ;&st7;   " /><path d=" M   834.28,    68.36  C   834.28     67.57    833.64     66.94    832.86     66.94  " style="stroke-width: 0.85 ;&st7;   " /><path d=" M   832.86,    66.94  C   832.08     66.94    831.44     67.57    831.44     68.36  " style="stroke-width: 0.85 ;&st7;   " /><path d=" M   831.44,    68.36  C   831.44     69.14    832.08     69.77    832.86     69.77  " style="stroke-width: 0.85 ;&st7;   " /><path d=" M   832.86,    69.77  C   833.64     69.77    834.28     69.14    834.28     68.36  " style="stroke-width: 0.85 ;&st7;   " /><path d=" M   830.74,    95.27  C   828.39     95.27    826.49     97.17    826.49     99.52  " style="stroke-width: 1.42 ;&st7;   " /><path d=" M   826.49,    99.52  C   826.49    101.87    828.39    103.77    830.74    103.77  " style="stroke-width: 1.42 ;&st7;   " /><path d=" M   834.99,   103.77  C   837.33    103.77    839.23    101.87    839.23     99.52  " style="stroke-width: 1.42 ;&st7;   " /><path d=" M   839.23,    99.52  C   839.23     97.17    837.33     95.27    834.99     95.27  " style="stroke-width: 1.42 ;&st7;   " /><path d=" M   934.84,    47.11  C   932.11     48.72    931.19     52.25    932.81     54.99  " style="stroke-width: 1.42 ;&st7;   " /><path d=" M   932.81,    54.99  C   933.33     55.87    933.96     56.51    934.84     57.03  " style="stroke-width: 1.42 ;&st7;   " /><path d=" M   934.84,    66.94  C   937.58     65.33    938.49     61.80    936.88     59.06  " style="stroke-width: 1.42 ;&st7;   " /><path d=" M   936.88,    59.06  C   936.36     58.18    935.73     57.55    934.84     57.03  " style="stroke-width: 1.42 ;&st7;   " /><path d=" M   936.26,    45.69  C   936.26     44.91    935.63     44.28    934.84     44.28  " style="stroke-width: 0.85 ;&st7;   " /><path d=" M   934.84,    44.28  C   934.06     44.28    933.43     44.91    933.43     45.69  " style="stroke-width: 0.85 ;&st7;   " /><path d=" M   933.43,    45.69  C   933.43     46.48    934.06     47.11    934.84     47.11  " style="stroke-width: 0.85 ;&st7;   " /><path d=" M   934.84,    47.11  C   935.63     47.11    936.26     46.48    936.26     45.69  " style="stroke-width: 0.85 ;&st7;   " /><path d=" M   936.26,    68.36  C   936.26     67.57    935.63     66.94    934.84     66.94  " style="stroke-width: 0.85 ;&st7;   " /><path d=" M   934.84,    66.94  C   934.06     66.94    933.43     67.57    933.43     68.36  " style="stroke-width: 0.85 ;&st7;   " /><path d=" M   933.43,    68.36  C   933.43     69.14    934.06     69.77    934.84     69.77  " style="stroke-width: 0.85 ;&st7;   " /><path d=" M   934.84,    69.77  C   935.63     69.77    936.26     69.14    936.26     68.36  " style="stroke-width: 0.85 ;&st7;   " /><path d=" M   932.72,    95.27  C   930.37     95.27    928.47     97.17    928.47     99.52  " style="stroke-width: 1.42 ;&st7;   " /><path d=" M   928.47,    99.52  C   928.47    101.87    930.37    103.77    932.72    103.77  " style="stroke-width: 1.42 ;&st7;   " /><path d=" M   936.97,   103.77  C   939.32    103.77    941.22    101.87    941.22     99.52  " style="stroke-width: 1.42 ;&st7;   " /><path d=" M   941.22,    99.52  C   941.22     97.17    939.32     95.27    936.97     95.27  " style="stroke-width: 1.42 ;&st7;   " /><text ewd:textID="16" style="&st18;" transform="matrix(&st16;  549.0  32.08 )">Main Body ECU</text><text style="&st18;" transform="matrix(&st16;  583.1  203.19 )">13</text><text style="&st18;" transform="matrix(&st16;  626.82  203.19 )">L</text><text style="&st18;" transform="matrix(&st16;  620.2  203.19 )">3</text><text style="&st18;" transform="matrix(&st16;  684.25  186.47 )">4</text><text style="&st18;" transform="matrix(&st16;  711.69  415.65 )">B</text><text style="&st18;" transform="matrix(&st16;  702.08  415.65 )">11</text><text style="&st18;" transform="matrix(&st16;  711.69  441.71 )">B</text><text style="&st18;" transform="matrix(&st16;  702.08  441.71 )">10</text><text ewd:textID="15" style="&st18;" transform="matrix(&st17;  737.1  438.12 )">Junction Connector</text><text style="&st18;" transform="matrix(&st17;  729.99  438.11 )">E76(B)</text><text style="&st18;" transform="matrix(&st16;  579.17  415.94 )">14</text><text style="&st18;" transform="matrix(&st16;  613.16  415.94 )">15</text><text style="&st18;" transform="matrix(&st17;  625.2  470.9 )">B</text><text style="&st18;" transform="matrix(&st17;  591.2  471.67 )">W</text><text style="&st18;" transform="matrix(&st16;  711.77  536.33 )">R</text><text ewd:textID="15" style="&st18;" transform="matrix(&st17;  652.11  319.14 )">Junction Connector</text><text style="&st18;" transform="matrix(&st17;  645.0  319.13 )">I101(D),I104(F)</text><text style="&st18;" transform="matrix(&st16;  574.5  577.41 )">ECM</text><text style="&st18;" transform="matrix(&st16;  574.49  570.3 )">A25(A),E26(B)</text><text style="&st18;" transform="matrix(&st16;  690.7  86.47 )">2</text><text style="&st18;" transform="matrix(&st17;  710.19  481.53 )">GR</text><text style="&st18;" transform="matrix(&st16;  711.69  526.13 )">B</text><text style="&st18;" transform="matrix(&st16;  702.08  526.13 )">68</text><text style="&st18;" transform="matrix(&st16;  701.98  296.67 )">(*6)</text><text style="&st18;" transform="matrix(&st16;  694.46  296.67 )">C</text><text style="&st18;" transform="matrix(&st16;  688.19  296.67 )">1</text><text style="&st18;" transform="matrix(&st16;  701.98  287.61 )">(*5)</text><text style="&st18;" transform="matrix(&st16;  694.58  287.61 )">A</text><text style="&st18;" transform="matrix(&st16;  688.19  287.61 )">1</text><text style="&st18;" transform="matrix(&st16;  718.97  348.8 )">(*6)</text><text style="&st18;" transform="matrix(&st16;  711.46  348.8 )">C</text><text style="&st18;" transform="matrix(&st16;  705.19  348.8 )">2</text><text style="&st18;" transform="matrix(&st16;  718.97  339.73 )">(*5)</text><text style="&st18;" transform="matrix(&st16;  711.58  339.73 )">A</text><text style="&st18;" transform="matrix(&st16;  705.19  339.73 )">2</text><text ewd:textID="15" style="&st18;" transform="matrix(&st17;  578.46  225.65 )">Junction Connector</text><text style="&st18;" transform="matrix(&st17;  571.63  225.65 )">I93(A),I95(C),I198(L)</text><text style="&st18;" transform="matrix(&st16;  592.48  194.12 )">C</text><text style="&st18;" transform="matrix(&st16;  586.21  194.12 )">2</text><text style="&st18;" transform="matrix(&st16;  626.47  194.12 )">C</text><text style="&st18;" transform="matrix(&st16;  620.2  194.12 )">1</text><text style="&st18;" transform="matrix(&st16;  626.59  229.25 )">A</text><text style="&st18;" transform="matrix(&st16;  620.2  229.25 )">1</text><text style="&st18;" transform="matrix(&st16;  592.6  229.25 )">A</text><text style="&st18;" transform="matrix(&st16;  586.21  229.25 )">2</text><text style="&st18;" transform="matrix(&st16;  633.99  194.12 )">(*10)</text><text style="&st18;" transform="matrix(&st16;  633.99  203.19 )">(*11)</text><text style="&st18;" transform="matrix(&st16;  633.99  229.25 )">(*10)</text><text style="&st18;" transform="matrix(&st16;  633.99  238.32 )">(*11)</text><text style="&st18;" transform="matrix(&st16;  549.0  24.98 )">I12(A),I13(B)</text><text style="&st18;" transform="matrix(&st16;  709.95  309.7 )">RL</text><text style="&st18;" transform="matrix(&st16;  692.83  309.7 )">RB</text><text style="&st18;" transform="matrix(&st16;  677.78  326.7 )">R</text><text style="&st18;" transform="matrix(&st16;  713.31  53.34 )">7.5A <tspan dy="6.0" x="0 ">BKUP </tspan><tspan dy="6.0" x="0 ">LP</tspan></text><text style="&st18;" transform="matrix(&st16;  692.95  101.49 )">3D</text><text style="&st18;" transform="matrix(&st16;  683.27  101.49 )">33</text><text style="&st18;" transform="matrix(&st16;  691.67  32.08 )">(IG)</text><text style="&st18;" transform="matrix(&st17;  693.19  131.22 )">G</text><text ewd:textID="17" style="&st18;" transform="matrix(&st17;  737.1  333.3 )">Park/Neutral <tspan dy="6.0" x="0 ">Position </tspan><tspan dy="6.0" x="0 ">Switch Assembly</tspan></text><text style="&st18;" transform="matrix(&st17;  729.99  333.3 )">E4(A),E85(C)</text><text style="&st18;" transform="matrix(&st17;  710.18  377.22 )">P</text><text style="&st18;" transform="matrix(&st16;  620.12  536.33 )">CANH</text><text style="&st18;" transform="matrix(&st17;  693.19  232.86 )">R</text><text style="&st18;" transform="matrix(&st16;  626.78  322.73 )">F</text><text style="&st18;" transform="matrix(&st16;  620.2  322.73 )">1</text><text style="&st18;" transform="matrix(&st16;  592.79  322.73 )">F</text><text style="&st18;" transform="matrix(&st16;  586.21  322.73 )">2</text><text style="&st18;" transform="matrix(&st16;  626.51  296.67 )">D</text><text style="&st18;" transform="matrix(&st16;  620.2  296.67 )">1</text><text style="&st18;" transform="matrix(&st16;  592.52  296.67 )">D</text><text style="&st18;" transform="matrix(&st16;  586.21  296.67 )">2</text><text style="&st18;" transform="matrix(&st17;  625.2  377.22 )">P</text><text style="&st18;" transform="matrix(&st17;  591.2  378.19 )">W</text><text style="&st18;" transform="matrix(&st16;  586.55  536.33 )">CANL</text><text style="&st18;" transform="matrix(&st17;  548.71  130.95 )">B</text><text style="&st18;" transform="matrix(&st16;  546.38  74.58 )">REV</text><text style="&st18;" transform="matrix(&st16;  550.22  84.77 )">B</text><text style="&st18;" transform="matrix(&st16;  540.61  84.77 )">15</text><text style="&st18;" transform="matrix(&st17;  591.2  131.73 )">W</text><text style="&st18;" transform="matrix(&st16;  586.55  74.58 )">CANL</text><text style="&st18;" transform="matrix(&st16;  592.71  84.77 )">B</text><text style="&st18;" transform="matrix(&st16;  583.1  84.77 )">13</text><text style="&st18;" transform="matrix(&st17;  625.2  130.76 )">P</text><text style="&st18;" transform="matrix(&st16;  620.12  74.58 )">CANH</text><text style="&st18;" transform="matrix(&st16;  626.71  84.77 )">B</text><text style="&st18;" transform="matrix(&st16;  617.1  84.77 )">14</text><text style="&st18;" transform="matrix(&st17;  625.2  258.43 )">B</text><text style="&st18;" transform="matrix(&st17;  591.2  259.21 )">W</text><text style="&st18;" transform="matrix(&st16;  626.82  238.32 )">L</text><text style="&st18;" transform="matrix(&st16;  617.1  238.32 )">10</text><text style="&st18;" transform="matrix(&st16;  592.83  238.32 )">L</text><text style="&st18;" transform="matrix(&st16;  583.1  238.32 )">20</text><text style="&st18;" transform="matrix(&st16;  592.83  203.19 )">L</text><text style="&st18;" transform="matrix(&st16;  711.69  517.07 )">B</text><text style="&st18;" transform="matrix(&st16;  702.08  517.07 )">66</text><text style="&st18;" transform="matrix(&st16;  626.59  526.13 )">A</text><text style="&st18;" transform="matrix(&st16;  617.1  526.13 )">13</text><text style="&st18;" transform="matrix(&st16;  592.6  526.13 )">A</text><text style="&st18;" transform="matrix(&st16;  583.1  526.13 )">26</text><text style="&st18;" transform="matrix(&st16;  718.97  526.13 )">(*15)</text><text style="&st18;" transform="matrix(&st16;  718.97  517.07 )">(*14)</text><text style="&st18;" transform="matrix(&st17;  704.52  135.53 )">(*16)</text><text style="&st18;" transform="matrix(&st17;  704.52  237.51 )">(*16)</text><text style="&st18;" transform="matrix(&st17;  891.49  386.24 )">(*17)</text><text style="&st18;" transform="matrix(&st17;  880.16  381.93 )">G</text><text style="&st18;" transform="matrix(&st16;  871.22  407.44 )">1</text><text style="&st18;" transform="matrix(&st17;  880.16  430.54 )">GR</text><text style="&st18;" transform="matrix(&st17;  891.49  432.98 )">(*17)</text><text style="&st18;" transform="matrix(&st17;  840.5  280.0 )">(*18)</text><text style="&st18;" transform="matrix(&st17;  942.48  280.0 )">(*18)</text><text style="&st18;" transform="matrix(&st17;  942.48  207.77 )">(*18)</text><text style="&st18;" transform="matrix(&st17;  840.5  207.77 )">(*18)</text><text style="&st18;" transform="matrix(&st17;  840.5  127.03 )">(*17)</text><text style="&st18;" transform="matrix(&st17;  942.48  127.03 )">(*17)</text><text style="&st18;" transform="matrix(&st16;  849.29  56.17 )">7.5A <tspan dy="6.0" x="0 ">ECU-ACC</tspan></text><text style="&st18;" transform="matrix(&st16;  829.12  101.49 )">3B</text><text style="&st18;" transform="matrix(&st16;  819.25  101.49 )">16</text><text style="&st18;" transform="matrix(&st16;  824.35  32.08 )">(ACC)</text><text style="&st18;" transform="matrix(&st17;  829.17  124.59 )">GR</text><text style="&st18;" transform="matrix(&st16;  826.68  86.47 )">2</text><text style="&st18;" transform="matrix(&st16;  951.27  53.34 )">10A <tspan dy="6.0" x="0 ">ECU-IG1 </tspan><tspan dy="6.0" x="0 ">NO.1</tspan></text><text style="&st18;" transform="matrix(&st16;  930.99  101.49 )">3A</text><text style="&st18;" transform="matrix(&st16;  921.23  101.49 )">56</text><text style="&st18;" transform="matrix(&st16;  929.63  32.08 )">(IG)</text><text style="&st18;" transform="matrix(&st17;  931.15  122.45 )">B</text><text style="&st18;" transform="matrix(&st16;  928.66  86.47 )">2</text><text style="&st18;" transform="matrix(&st16;  823.57  171.45 )">20</text><text style="&st18;" transform="matrix(&st16;  823.57  142.57 )">16</text><text style="&st18;" transform="matrix(&st16;  925.56  171.45 )">10</text><text style="&st18;" transform="matrix(&st16;  928.66  142.57 )">7</text><text style="&st18;" transform="matrix(&st16;  826.68  256.44 )">2</text><text style="&st18;" transform="matrix(&st16;  826.68  219.06 )">1</text><text style="&st18;" transform="matrix(&st16;  928.66  256.44 )">2</text><text style="&st18;" transform="matrix(&st16;  928.66  219.06 )">1</text><text style="&st18;" transform="matrix(&st17;  829.17  205.32 )">GR</text><text style="&st18;" transform="matrix(&st17;  931.15  203.19 )">B</text><text style="&st18;" transform="matrix(&st17;  829.16  275.7 )">G</text><text style="&st18;" transform="matrix(&st17;  931.15  275.7 )">G</text><text ewd:textID="14" style="&st18;" transform="matrix(&st17;  856.08  251.15 )">Diode <tspan dy="6.0" x="0 ">(A/T Shift)</tspan></text><text style="&st18;" transform="matrix(&st17;  849.25  251.14 )">I213</text><text ewd:textID="14" style="&st18;" transform="matrix(&st17;  958.06  251.15 )">Diode <tspan dy="6.0" x="0 ">(A/T Shift)</tspan></text><text style="&st18;" transform="matrix(&st17;  951.24  251.14 )">I214</text><text ewd:textID="15" style="&st18;" transform="matrix(&st17;  958.06  166.16 )">Junction <tspan dy="6.0" x="0 ">Connector</tspan></text><text style="&st18;" transform="matrix(&st17;  951.24  166.16 )">I124</text><text ewd:textID="15" style="&st18;" transform="matrix(&st17;  856.08  166.16 )">Junction <tspan dy="6.0" x="0 ">Connector</tspan></text><text style="&st18;" transform="matrix(&st17;  849.25  166.16 )">I128</text><text style="&st18;" transform="matrix(&st16;  868.12  356.45 )">12</text><text style="&st18;" transform="matrix(&st17;  880.16  335.19 )">G</text><text style="&st18;" transform="matrix(&st17;  891.49  339.49 )">(*17)</text><text style="&st18;" transform="matrix(&st17;  891.49  280.0 )">(*19)</text><text style="&st18;" transform="matrix(&st17;  891.49  207.77 )">(*19)</text><text style="&st18;" transform="matrix(&st16;  877.67  256.44 )">2</text><text style="&st18;" transform="matrix(&st16;  877.67  219.06 )">1</text><text style="&st18;" transform="matrix(&st17;  880.16  205.32 )">GR</text><text style="&st18;" transform="matrix(&st17;  880.16  275.7 )">G</text><text ewd:textID="14" style="&st18;" transform="matrix(&st17;  907.07  251.15 )">Diode <tspan dy="6.0" x="0 ">(A/T Shift)</tspan></text><text style="&st18;" transform="matrix(&st17;  900.24  251.14 )">I216</text><text style="&st18;" transform="matrix(&st17;  993.47  280.0 )">(*19)</text><text style="&st18;" transform="matrix(&st17;  993.47  207.77 )">(*19)</text><text style="&st18;" transform="matrix(&st16;  979.65  256.44 )">2</text><text style="&st18;" transform="matrix(&st16;  979.65  219.06 )">1</text><text style="&st18;" transform="matrix(&st17;  982.14  203.19 )">B</text><text style="&st18;" transform="matrix(&st17;  982.14  275.7 )">G</text></svg>