﻿<?xml version="1.0" encoding="utf-8"?>
<!DOCTYPE svg PUBLIC "-//W3C//DTD SVG 1.0//EN" "http://www.w3.org/TR/2001/REC-SVG-20010904/DTD/svg10.dtd"[
	<!ENTITY ns_flows "http://ns.adobe.com/Flows/1.0/">
	<!ENTITY ns_svg "http://www.w3.org/2000/svg">
	<!ENTITY ns_xlink "http://www.w3.org/1999/xlink">
	<!ENTITY st0 "font-size:7px;font-family:'MS-PGothic';adobe-font-script:japanese;">
	<!ENTITY st1 "font-size:6px;font-family:'ArialMT';">
	<!-- White fill  -->
	<!ENTITY st2 "fill:#FFFFFF;stroke:#000000; stroke-width:1.41;stroke-linecap:round;stroke-linejoin:round;">
	<!-- Yellow fill  -->
	<!ENTITY st3 "fill:#FFFFCC;stroke:#FFFFCC; stroke-width:0.1;stroke-linecap:round;stroke-linejoin:round;">
	<!-- Gray fill  -->
	<!ENTITY st4 "fill:#CCCCCC;stroke:#CCCCCC; stroke-width:0.1;stroke-linecap:round;stroke-linejoin:round;">
	<!-- Light-blue fill -->
	<!ENTITY st5 "fill:#CCECF4;stroke:#000000; stroke-width:1.133;stroke-linecap:round;stroke-linejoin:round;">
	<!ENTITY st6 "fill:none;stroke-linecap:butt; stroke-linejoin:round;">
	<!ENTITY st7 "fill:none;stroke:#000000;stroke-linecap:round;stroke-linejoin:round;">
	<!ENTITY st8 "enable-background:new    ;">
	<!-- Black fill -->
	<!ENTITY st9 "fill:#000000;stroke:#000000; stroke-linecap:round;stroke-linejoin:round;">
	<!-- SRS note   -->
	<!ENTITY st10 "font-size:9px;font-family:'ArialMT';">
	<!ENTITY st11 "font-size:9px;font-family:'Svg Symbol';">
	<!ENTITY st12 "font-size:6px;font-family:'Svg Symbol';">
	<!ENTITY st13 "fill:none;stroke:#ff0000;stroke-linecap:round;stroke-linejoin:round;">
	<!-- Yellow fill  -->
	<!ENTITY st14 "fill:#FFFF00;stroke:#FFFF00; stroke-width:0.1;stroke-linecap:round;stroke-linejoin:round;">
	<!ENTITY st15 "font-size:6px;font-family:'MS-PGothic';adobe-font-script:japanese;">
	<!ENTITY st16 "1.00 0.00 0.00 1.00">
	<!ENTITY st17 "0.00 -1.00 1.00 0.00">
	<!ENTITY st18 "font-size:6px;font-family:'Arial';">
	<!ENTITY st19 "font-size:9px;font-family:'Arial';">
	<!ENTITY st20 "font-size:6px;font-family:'MS-PGothic','MS PGothic';adobe-font-script:japanese;">
	<!ENTITY st21 "font-size:7px;font-family:'MS-PGothic','MS PGothic';adobe-font-script:japanese;">
	<!ATTLIST svg
		xmlns:ewd CDATA #FIXED "http://shcl.co.jp/ewd"
		xmlns:a CDATA #FIXED "http://ns.adobe.com/AdobeSVGViewerExtensions/3.0/"
		ewd:ver CDATA #IMPLIED
	>
	<!ATTLIST a
		ewd:lineID CDATA #IMPLIED
		ewd:groupID CDATA #IMPLIED
		ewd:figtype CDATA #IMPLIED
		ewd:code CDATA #IMPLIED
		ewd:figID CDATA #IMPLIED
		ewd:pinNo CDATA #IMPLIED
		ewd:comment CDATA #IMPLIED >
	<!ATTLIST g
		ewd:lineID CDATA #IMPLIED
		ewd:groupID CDATA #IMPLIED
		ewd:figtype CDATA #IMPLIED
		ewd:code CDATA #IMPLIED
		ewd:figID CDATA #IMPLIED
		ewd:pinNo CDATA #IMPLIED
		ewd:comment CDATA #IMPLIED >
	<!ATTLIST text
		ewd:textID CDATA #IMPLIED >
	<!ATTLIST title
		ewd:textID CDATA #IMPLIED >
]>
<!-- Generator: Shintec Hozumi YS   -->
<svg onload="call_execInitLoadProc_svg('system')" style="overflow:visible;  enable-background:new 0 0 997.706 710.000" viewBox="0 0 997.706 710.000" height="710.000" width="997.706" xml:space="preserve" ewd:ver="L2.1.2.9" xmlns="&ns_svg;" xmlns:a="http://ns.adobe.com/AdobeSVGViewerExtensions/3.0/" xmlns:ewd="http://shcl.co.jp/ewd" xmlns:xlink="&ns_xlink;"><script type="text/javascript" xlink:href="../../../../../system/js/ewd/fig/svgfig.js" xmlns:xlink="http://www.w3.org/1999/xlink" />
<g id="ewd_top"><a ewd:code="e19" ewd:figID="1" ewd:figtype="conn" style="cursor:pointer;"><path d=" M    84.99,   214.25  L    84.99,    86.77  L   246.46,    86.77  L   246.46,   214.25  L    84.99,   214.25 " style="fill:#CCECF4;stroke:#000000; stroke-width:1.133; stroke-linecap:round;stroke-linejoin:round; " /><title ewd:textID="1">Front Seat Cushion Heater Assembly LH</title></a><a ewd:code="I210" ewd:figID="2" ewd:figtype="conn" style="cursor:pointer;"><path d=" M   169.97,   554.19  L   399.43,   554.19  L   399.43,   401.22  L   169.97,   401.22  L   169.97,   554.19 " style="fill:#CCECF4;stroke:#000000; stroke-width:1.133; stroke-linecap:round;stroke-linejoin:round; " /><title ewd:textID="8">Seat Heater Switch LH</title></a><a ewd:code="d14" ewd:figID="3" ewd:figtype="conn" style="cursor:pointer;"><path d=" M   815.86,   214.25  L   815.86,    86.77  L   977.34,    86.77  L   977.34,   214.25  L   815.86,   214.25 " style="fill:#CCECF4;stroke:#000000; stroke-width:1.133; stroke-linecap:round;stroke-linejoin:round; " /><title ewd:textID="2">Front Seat Cushion Heater Assembly RH</title></a><a ewd:code="I53" ewd:figID="4" ewd:figtype="conn" style="cursor:pointer;"><path d=" M   569.40,   562.69  L   798.87,   562.69  L   798.87,   401.22  L   569.40,   401.22  L   569.40,   562.69 " style="fill:#CCECF4;stroke:#000000; stroke-width:1.133; stroke-linecap:round;stroke-linejoin:round; " /><title ewd:textID="9">Seat Heater Switch RH</title></a><a ewd:code="3" ewd:figID="5" ewd:figtype="jb" style="cursor:pointer;"><path d=" M   577.90,   103.77  L   713.88,   103.77  L   713.88,    35.78  L   577.90,    35.78  L   577.90,   103.77  " style="&st4; " /></a><a ewd:code="3" ewd:figID="6" ewd:figtype="jb" style="cursor:pointer;"><path d=" M   297.45,   103.77  L   365.44,   103.77  L   365.44,    35.78  L   297.45,    35.78  L   297.45,   103.77  " style="&st4; " /></a><a ewd:code="FUSE75" ewd:figID="7" ewd:figtype="fuse" style="cursor:pointer;"><path d=" M   650.14,    35.78  L   650.14,    78.27  L   675.64,    78.27  L   675.64,    35.78  L   650.14,    35.78 " style="&st7; stroke-width:0;" /></a><a ewd:code="FUSE74" ewd:figID="8" ewd:figtype="fuse" style="cursor:pointer;"><path d=" M   301.70,    35.78  L   301.70,    78.27  L   327.20,    78.27  L   327.20,    35.78  L   301.70,    35.78 " style="&st7; stroke-width:0;" /></a><a ewd:code="FUSE71" ewd:figID="9" ewd:figtype="fuse" style="cursor:pointer;"><path d=" M   582.15,    35.78  L   582.15,    78.27  L   607.65,    78.27  L   607.65,    35.78  L   582.15,    35.78 " style="&st7; stroke-width:0;" /></a><a ewd:lineID="1" style="cursor:pointer;"><path d=" M   101.98,   681.67  L   101.98,   435.21  " style="stroke:#000000;stroke-width: 5.10 ;&st6;" /><path d=" M   101.98,   681.67  L   101.98,   435.21  " style="stroke:#FFFFFF;stroke-width: 4.53 ;&st6;" /><path d=" M   101.98,   681.67  L   101.98,   435.21  " style="stroke:#000000;stroke-width: 1.13 ;&st6;" /></a><a ewd:lineID="2" style="cursor:pointer;"><path d=" M   101.98,   350.23  L   101.98,   420.48  " style="stroke:#000000;stroke-width: 5.10 ;&st6;" /><path d=" M   101.98,   350.23  L   101.98,   420.48  " style="stroke:#FFFFFF;stroke-width: 4.53 ;&st6;" /><path d=" M   101.98,   350.23  L   101.98,   420.48  " style="stroke:#000000;stroke-width: 1.13 ;&st6;" /></a><a ewd:lineID="3" style="cursor:pointer;"><path d=" M   144.48,   214.25  L   144.48,   273.74  L   101.98,   273.74  L   101.98,   333.23  " style="stroke:#000000;stroke-width: 5.10 ;&st6;" /><path d=" M   144.48,   214.25  L   144.48,   273.74  L   101.98,   273.74  L   101.98,   333.23  " style="stroke:#FFFFFF;stroke-width: 4.53 ;&st6;" /><path d=" M   144.48,   214.25  L   144.48,   273.74  L   101.98,   273.74  L   101.98,   333.23  " style="stroke:#000000;stroke-width: 1.13 ;&st6;" /></a><a ewd:lineID="4" style="cursor:pointer;"><path d=" M   186.97,   401.22  L   186.97,   367.22  " style="stroke:#000000;stroke-width: 5.10 ;&st6;" /></a><a ewd:lineID="5" style="cursor:pointer;"><path d=" M   186.97,   324.73  L   186.97,   352.49  " style="stroke:#000000;stroke-width: 5.10 ;&st6;" /></a><a ewd:lineID="6" style="cursor:pointer;"><path d=" M   186.97,   214.25  L   186.97,   310.00  " style="stroke:#56077D;stroke-width: 5.10 ;&st6;" /></a><a ewd:lineID="7" style="cursor:pointer;"><path d=" M   220.96,   214.25  L   220.96,   273.74  L   314.45,   273.74  L   314.45,   203.48  " style="stroke:#7FC97F;stroke-width: 5.10 ;&st6;" /></a><a ewd:lineID="8" style="cursor:pointer;"><path d=" M   314.45,   103.77  L   314.45,   188.75  " style="stroke:#FF0000;stroke-width: 5.10 ;&st6;" /></a><a ewd:lineID="9" style="cursor:pointer;"><path d=" M   348.44,   401.22  L   348.44,   341.73  L   586.40,   341.73  " style="stroke:#FFE600;stroke-width: 5.10 ;&st6;" /></a><a ewd:lineID="10" style="cursor:pointer;"><path d=" M   365.44,   554.19  L   365.44,   622.18  L   705.38,   622.18  " style="stroke:#000000;stroke-width: 5.10 ;&st6;" /><path d=" M   365.44,   554.19  L   365.44,   622.18  L   705.38,   622.18  " style="stroke:#FFFFFF;stroke-width: 4.53 ;&st6;" /><path d=" M   365.44,   554.19  L   365.44,   622.18  L   705.38,   622.18  " style="stroke:#000000;stroke-width: 1.13 ;&st6;" /></a><a ewd:lineID="11" style="cursor:pointer;"><path d=" M   594.90,   401.22  L   594.90,   350.23  " style="stroke:#FFE600;stroke-width: 5.10 ;&st6;" /></a><a ewd:lineID="12" style="cursor:pointer;"><path d=" M   594.90,   103.77  L   594.90,   333.23  " style="stroke:#FFE600;stroke-width: 5.10 ;&st6;" /></a><a ewd:lineID="13" style="cursor:pointer;"><path d=" M   662.89,   254.48  L   662.89,   273.74  L   917.85,   273.74  L   917.85,   214.25  " style="stroke:#7FC97F;stroke-width: 5.10 ;&st6;" /></a><a ewd:lineID="14" style="cursor:pointer;"><path d=" M   662.89,   239.75  L   662.89,   203.48  " style="stroke:#FF0000;stroke-width: 5.10 ;&st6;" /></a><a ewd:lineID="15" style="cursor:pointer;"><path d=" M   662.89,   154.76  L   662.89,   188.75  " style="stroke:#FF0000;stroke-width: 5.10 ;&st6;" /></a><a ewd:lineID="16" style="cursor:pointer;"><path d=" M   662.89,   103.77  L   662.89,   140.03  " style="stroke:#56077D;stroke-width: 5.10 ;&st6;" /></a><a ewd:lineID="17" style="cursor:pointer;"><path d=" M   713.88,   630.68  L   713.88,   681.67  " style="stroke:#000000;stroke-width: 5.10 ;&st6;" /><path d=" M   713.88,   630.68  L   713.88,   681.67  " style="stroke:#FFFFFF;stroke-width: 4.53 ;&st6;" /><path d=" M   713.88,   630.68  L   713.88,   681.67  " style="stroke:#000000;stroke-width: 1.13 ;&st6;" /></a><a ewd:lineID="18" style="cursor:pointer;"><path d=" M   713.88,   562.69  L   713.88,   613.68  " style="stroke:#000000;stroke-width: 5.10 ;&st6;" /><path d=" M   713.88,   562.69  L   713.88,   613.68  " style="stroke:#FFFFFF;stroke-width: 4.53 ;&st6;" /><path d=" M   713.88,   562.69  L   713.88,   613.68  " style="stroke:#000000;stroke-width: 1.13 ;&st6;" /></a><a ewd:lineID="19" style="cursor:pointer;"><path d=" M   781.87,   367.22  L   781.87,   401.22  " style="stroke:#56077D;stroke-width: 5.10 ;&st6;" /></a><a ewd:lineID="20" style="cursor:pointer;"><path d=" M   781.87,   352.49  L   781.87,   324.73  " style="stroke:#56077D;stroke-width: 5.10 ;&st6;" /></a><a ewd:lineID="21" style="cursor:pointer;"><path d=" M   951.84,   214.25  L   951.84,   290.74  L   781.87,   290.74  L   781.87,   310.00  " style="stroke:#56077D;stroke-width: 5.10 ;&st6;" /></a><a ewd:lineID="22" style="cursor:pointer;"><path d=" M   875.35,   681.67  L   875.35,   435.21  " style="stroke:#000000;stroke-width: 5.10 ;&st6;" /><path d=" M   875.35,   681.67  L   875.35,   435.21  " style="stroke:#FFFFFF;stroke-width: 4.53 ;&st6;" /><path d=" M   875.35,   681.67  L   875.35,   435.21  " style="stroke:#000000;stroke-width: 1.13 ;&st6;" /></a><a ewd:lineID="23" style="cursor:pointer;"><path d=" M   875.35,   350.23  L   875.35,   420.48  " style="stroke:#000000;stroke-width: 5.10 ;&st6;" /><path d=" M   875.35,   350.23  L   875.35,   420.48  " style="stroke:#FFFFFF;stroke-width: 4.53 ;&st6;" /><path d=" M   875.35,   350.23  L   875.35,   420.48  " style="stroke:#000000;stroke-width: 1.13 ;&st6;" /></a><a ewd:lineID="24" style="cursor:pointer;"><path d=" M   875.35,   214.25  L   875.35,   333.23  " style="stroke:#000000;stroke-width: 5.10 ;&st6;" /><path d=" M   875.35,   214.25  L   875.35,   333.23  " style="stroke:#FFFFFF;stroke-width: 4.53 ;&st6;" /><path d=" M   875.35,   214.25  L   875.35,   333.23  " style="stroke:#000000;stroke-width: 1.13 ;&st6;" /></a><a ewd:code="IO1" ewd:figID="10" ewd:figtype="w2w" ewd:pinNo="2" style="cursor:pointer;"><path d=" M   671.39,   188.75  L   654.39,   188.75  L   654.39,   197.25  L   671.39,   197.25  L   671.39,   188.75 " style="&st2;" /><text style="&st8;" transform="matrix(&st16;  658.22  195.12 )"><tspan style="&st18;" x="0" y="0">IO1</tspan></text></a><a ewd:code="Ne1" ewd:figID="11" ewd:figtype="w2w" ewd:pinNo="6" style="cursor:pointer;"><path d=" M   322.95,   188.75  L   305.95,   188.75  L   305.95,   197.25  L   322.95,   197.25  L   322.95,   188.75 " style="&st2;" /><text style="&st8;" transform="matrix(&st16;  309.52  195.12 )"><tspan style="&st18;" x="0" y="0">Ne1</tspan></text></a><a ewd:code="Ne1" ewd:figID="12" ewd:figtype="w2w" ewd:pinNo="11" style="cursor:pointer;"><path d=" M   195.47,   316.23  L   178.47,   316.23  L   178.47,   324.73  L   195.47,   324.73  L   195.47,   316.23 " style="&st2;" /><text style="&st8;" transform="matrix(&st16;  182.04  322.6 )"><tspan style="&st18;" x="0" y="0">Ne1</tspan></text></a><a ewd:code="IN1" ewd:figID="13" ewd:figtype="w2w" ewd:pinNo="5" style="cursor:pointer;"><path d=" M   195.47,   358.73  L   178.47,   358.73  L   178.47,   367.22  L   195.47,   367.22  L   195.47,   358.73 " style="&st2;" /><text style="&st8;" transform="matrix(&st16;  182.6  365.09 )"><tspan style="&st18;" x="0" y="0">IN1</tspan></text></a><a ewd:code="Ne1" ewd:figID="14" ewd:figtype="w2w" ewd:pinNo="5" style="cursor:pointer;"><path d=" M   110.48,   426.71  L    93.48,   426.71  L    93.48,   435.21  L   110.48,   435.21  L   110.48,   426.71 " style="&st2;" /><text style="&st8;" transform="matrix(&st16;  97.05  433.08 )"><tspan style="&st18;" x="0" y="0">Ne1</tspan></text></a><a ewd:code="Od1" ewd:figID="15" ewd:figtype="w2w" ewd:pinNo="11" style="cursor:pointer;"><path d=" M   790.37,   316.23  L   773.37,   316.23  L   773.37,   324.73  L   790.37,   324.73  L   790.37,   316.23 " style="&st2;" /><text style="&st8;" transform="matrix(&st16;  776.56  322.6 )"><tspan style="&st18;" x="0" y="0">Od1</tspan></text></a><a ewd:code="IO2" ewd:figID="16" ewd:figtype="w2w" ewd:pinNo="22" style="cursor:pointer;"><path d=" M   790.37,   358.73  L   773.37,   358.73  L   773.37,   367.22  L   790.37,   367.22  L   790.37,   358.73 " style="&st2;" /><text style="&st8;" transform="matrix(&st16;  777.2  365.09 )"><tspan style="&st18;" x="0" y="0">IO2</tspan></text></a><a ewd:code="IN1" ewd:figID="17" ewd:figtype="w2w" ewd:pinNo="12" style="cursor:pointer;"><path d=" M   671.39,   146.26  L   654.39,   146.26  L   654.39,   154.76  L   671.39,   154.76  L   671.39,   146.26 " style="&st2;" /><text style="&st8;" transform="matrix(&st16;  658.52  152.63 )"><tspan style="&st18;" x="0" y="0">IN1</tspan></text></a><a ewd:code="Od1" ewd:figID="18" ewd:figtype="w2w" ewd:pinNo="6" style="cursor:pointer;"><path d=" M   671.39,   239.75  L   654.39,   239.75  L   654.39,   248.24  L   671.39,   248.24  L   671.39,   239.75 " style="&st2;" /><text style="&st8;" transform="matrix(&st16;  657.58  246.11 )"><tspan style="&st18;" x="0" y="0">Od1</tspan></text></a><a ewd:code="Od1" ewd:figID="19" ewd:figtype="w2w" ewd:pinNo="5" style="cursor:pointer;"><path d=" M   883.85,   426.71  L   866.86,   426.71  L   866.86,   435.21  L   883.85,   435.21  L   883.85,   426.71 " style="&st2;" /><text style="&st8;" transform="matrix(&st16;  870.05  433.08 )"><tspan style="&st18;" x="0" y="0">Od1</tspan></text></a><a ewd:code="I3" ewd:figID="20" ewd:figtype="gp" style="cursor:pointer;"><path d=" M   703.26,   681.67  L   724.50,   681.67  L   713.88,   697.25  L   703.26,   681.67 " style="&st2;" /><text style="&st8;" transform="matrix(&st16;  711.51  689.46 )"><tspan style="&st18;" x="0" y="0">I3</tspan></text></a><a ewd:code="O1" ewd:figID="21" ewd:figtype="gp" style="cursor:pointer;"><path d=" M   864.73,   681.67  L   885.98,   681.67  L   875.35,   697.25  L   864.73,   681.67 " style="&st2;" /><text style="&st8;" transform="matrix(&st16;  871.55  689.46 )"><tspan style="&st18;" x="0" y="0">O1</tspan></text></a><a ewd:code="N1" ewd:figID="22" ewd:figtype="gp" style="cursor:pointer;"><path d=" M    91.36,   681.67  L   112.61,   681.67  L   101.98,   697.25  L    91.36,   681.67 " style="&st2;" /><text style="&st8;" transform="matrix(&st16;  98.48  689.46 )"><tspan style="&st18;" x="0" y="0">N1</tspan></text></a><a ewd:code="5077" ewd:figID="23" ewd:figtype="sp" style="cursor:pointer;"><path d=" M    97.73,   333.23  L   106.23,   333.23  L   110.48,   337.48  L   110.48,   345.98  L   106.23,   350.23  L    97.73,   350.23  L    93.48,   345.98  L    93.48,   337.48  L    97.73,   333.23 " style="&st2;" /></a><a ewd:code="5137" ewd:figID="24" ewd:figtype="sp" style="cursor:pointer;"><path d=" M   871.10,   333.23  L   879.60,   333.23  L   883.85,   337.48  L   883.85,   345.98  L   879.60,   350.23  L   871.10,   350.23  L   866.86,   345.98  L   866.86,   337.48  L   871.10,   333.23 " style="&st2;" /></a><a ewd:code="5197" ewd:figID="25" ewd:figtype="sp" style="cursor:pointer;"><path d=" M   709.63,   613.68  L   718.13,   613.68  L   722.38,   617.93  L   722.38,   626.43  L   718.13,   630.68  L   709.63,   630.68  L   705.38,   626.43  L   705.38,   617.93  L   709.63,   613.68 " style="&st2;" /></a><a ewd:code="5017" ewd:figID="26" ewd:figtype="sp" style="cursor:pointer;"><path d=" M   590.65,   333.23  L   599.15,   333.23  L   603.40,   337.48  L   603.40,   345.98  L   599.15,   350.23  L   590.65,   350.23  L   586.40,   345.98  L   586.40,   337.48  L   590.65,   333.23 " style="&st2;" /></a></g></svg>