﻿<?xml version="1.0"?>
<!-- Generator: Adobe Illustrator 10.0, SVG Export Plug-In . SVG Version: 3.0.0 Build 77)  -->
<!DOCTYPE svg PUBLIC "-//W3C//DTD SVG 1.0//EN" "http://www.w3.org/TR/2001/REC-SVG-20010904/DTD/svg10.dtd"[
	<!ENTITY ns_flows "http://ns.adobe.com/Flows/1.0/">
	<!ENTITY ns_svg "http://www.w3.org/2000/svg">
	<!ENTITY ns_xlink "http://www.w3.org/1999/xlink">
	<!ENTITY st0 "fill:none;stroke:#000000;stroke-linecap:round;stroke-linejoin:round;">
	<!ENTITY st1 "fill:none;stroke:#000000;stroke-width:0.6;stroke-linecap:round;stroke-linejoin:round;">
	<!ENTITY st2 "fill:none;stroke:#000000;">
	<!ENTITY st3 "font-family:'Arial';font-weight:bold;">
	<!ENTITY st4 "font-size:8px;">
	<!ENTITY st5 "font-family:'Arial';">
	<!ENTITY st6 "font-size:10px;">
	<!ENTITY st7 "font-size:16px;">
	<!ENTITY st8 "fill:none;stroke:#FFFFFF;stroke-width:0.2;">
	<!ATTLIST svg
		xmlns:ewd CDATA #FIXED "http://shcl.co.jp/ewd"
		xmlns:a CDATA #FIXED "http://ns.adobe.com/AdobeSVGViewerExtensions/3.0/"
		ewd:ver CDATA #IMPLIED>
	<!ATTLIST a
		ewd:innerGroupID CDATA #IMPLIED
		ewd:figtype CDATA #IMPLIED
		ewd:code CDATA #IMPLIED
		ewd:pinNo CDATA #IMPLIED>
]>
<svg width="1006.499" height="643.664" viewBox="0 0 1006.499 643.664" style="overflow:visible;enable-background:new 0 0 1006.499 643.664" xml:space="preserve" onload="call_execInitLoadProc_svg('inner')" ewd:ver="L2.1.2.9" xmlns="&ns_svg;" xmlns:ewd="http://shcl.co.jp/ewd" xmlns:a="http://ns.adobe.com/AdobeSVGViewerExtensions/3.0/" xmlns:xlink="&ns_xlink;">
<script type="text/javascript" xlink:href="../../../../../system/js/ewd/fig/svgfig.js"/>
<g id="WAKU">
	<path style="&st8;" d="M510.336,643.564V0.1H0.1v643.464H510.336z"/>
	<path style="&st8;" d="M1006.399,643.564V0.1H496.163v643.464H1006.399z"/>
</g>
<g id="レイヤ_xFF0D__1">
	<path style="&st0;" d="M158.518,221.352v229.461h195.468V221.352H158.518"/>
	<path style="&st1;" d="M353.986,246.848h-67.988v178.47h67.988"/>
	<path style="&st1;" d="M285.998,272.344h67.988"/>
	<path style="&st1;" d="M285.998,297.839h67.988"/>
	<path style="&st1;" d="M285.998,323.335h67.988"/>
	<path style="&st1;" d="M285.998,348.831h67.988"/>
	<path style="&st1;" d="M285.998,374.326h67.988"/>
	<path style="&st1;" d="M285.998,399.822h67.988"/>
	<path style="&st1;" d="M158.518,246.848h67.989v178.47h-67.989"/>
	<path style="&st1;" d="M158.518,272.344h67.989"/>
	<path style="&st1;" d="M158.518,297.839h67.989"/>
	<path style="&st1;" d="M158.518,323.335h67.989"/>
	<path style="&st1;" d="M158.518,348.831h67.989"/>
	<path style="&st1;" d="M158.518,374.326h67.989"/>
	<path style="&st1;" d="M158.518,399.822h67.989"/>
	<path style="&st1;" d="M284.804,271.341l-0.271,0.47l-0.094,0.533l0.094,0.532l0.271,0.471l0.414,0.346l0.507,0.187h0.544    l0.507-0.187l0.413-0.346l0.272-0.471l0.094-0.532l-0.094-0.533l-0.272-0.47l-0.413-0.346l-0.507-0.187h-0.544l-0.507,0.187    L284.804,271.341l0.395,0.711v0.583l0.373,0.445l0.572,0.099l0.505-0.289l0.197-0.547l-0.197-0.547l-0.505-0.289l-0.572,0.099    l0.426,0.737"/>
	<path style="&st1;" d="M284.804,296.836l-0.271,0.47l-0.094,0.533l0.094,0.533l0.271,0.47l0.414,0.346l0.507,0.187h0.544    l0.507-0.187l0.413-0.346l0.272-0.47l0.094-0.533l-0.094-0.533l-0.272-0.47l-0.413-0.345l-0.507-0.187h-0.544l-0.507,0.187    L284.804,296.836l0.395,0.711v0.583l0.373,0.445l0.572,0.099l0.505-0.289l0.197-0.547l-0.197-0.546l-0.505-0.289l-0.572,0.099    l0.426,0.736"/>
	<path style="&st1;" d="M284.804,322.333l-0.271,0.47l-0.094,0.532l0.094,0.533l0.271,0.47l0.414,0.346l0.507,0.187h0.544    l0.507-0.187l0.413-0.346l0.272-0.47l0.094-0.533l-0.094-0.532l-0.272-0.47l-0.413-0.346l-0.507-0.187h-0.544l-0.507,0.187    L284.804,322.333l0.395,0.711v0.583l0.373,0.445l0.572,0.099l0.505-0.289l0.197-0.547l-0.197-0.546l-0.505-0.289l-0.572,0.099    l0.426,0.736"/>
	<path style="&st1;" d="M284.804,347.828l-0.271,0.47l-0.094,0.533l0.094,0.532l0.271,0.471l0.414,0.346l0.507,0.187h0.544    l0.507-0.187l0.413-0.346l0.272-0.471l0.094-0.532l-0.094-0.533l-0.272-0.47l-0.413-0.346l-0.507-0.187h-0.544l-0.507,0.187    L284.804,347.828l0.395,0.711v0.583l0.373,0.445l0.572,0.1l0.505-0.289l0.197-0.547l-0.197-0.547l-0.505-0.289l-0.572,0.1    l0.426,0.736"/>
	<path style="&st1;" d="M284.804,373.323l-0.271,0.471l-0.094,0.532l0.094,0.533l0.271,0.471l0.414,0.346l0.507,0.187h0.544    l0.507-0.187l0.413-0.346l0.272-0.471l0.094-0.533l-0.094-0.532l-0.272-0.471l-0.413-0.346l-0.507-0.187h-0.544l-0.507,0.187    L284.804,373.323l0.395,0.711v0.584l0.373,0.445l0.572,0.099l0.505-0.288l0.197-0.548l-0.197-0.546l-0.505-0.289l-0.572,0.1    l0.426,0.735"/>
	<path style="&st1;" d="M284.804,398.819l-0.271,0.471l-0.094,0.532l0.094,0.533l0.271,0.47l0.414,0.346l0.507,0.188h0.544    l0.507-0.188l0.413-0.346l0.272-0.47l0.094-0.533l-0.094-0.532l-0.272-0.471l-0.413-0.346l-0.507-0.187h-0.544l-0.507,0.187    L284.804,398.819l0.395,0.711v0.584l0.373,0.445l0.572,0.099l0.505-0.289l0.197-0.547l-0.197-0.547l-0.505-0.288l-0.572,0.099    l0.426,0.736"/>
	<path style="&st1;" d="M225.314,271.341l-0.271,0.47l-0.094,0.533l0.094,0.532l0.271,0.471l0.414,0.346l0.507,0.187h0.544    l0.507-0.187l0.414-0.346l0.272-0.471l0.093-0.532l-0.093-0.533l-0.272-0.47l-0.414-0.346l-0.507-0.187h-0.544l-0.507,0.187    L225.314,271.341l0.394,0.711v0.583l0.374,0.445l0.572,0.099l0.504-0.289l0.198-0.547l-0.198-0.547l-0.504-0.289l-0.572,0.099    l0.425,0.737"/>
	<path style="&st1;" d="M225.314,296.836l-0.271,0.47l-0.094,0.533l0.094,0.533l0.271,0.47l0.414,0.346l0.507,0.187h0.544    l0.507-0.187l0.414-0.346l0.272-0.47l0.093-0.533l-0.093-0.533l-0.272-0.47l-0.414-0.345l-0.507-0.187h-0.544l-0.507,0.187    L225.314,296.836l0.394,0.711v0.583l0.374,0.445l0.572,0.099l0.504-0.289l0.198-0.547l-0.198-0.546l-0.504-0.289l-0.572,0.099    l0.425,0.736"/>
	<path style="&st1;" d="M225.314,322.333l-0.271,0.47l-0.094,0.532l0.094,0.533l0.271,0.47l0.414,0.346l0.507,0.187h0.544    l0.507-0.187l0.414-0.346l0.272-0.47l0.093-0.533l-0.093-0.532l-0.272-0.47l-0.414-0.346l-0.507-0.187h-0.544l-0.507,0.187    L225.314,322.333l0.394,0.711v0.583l0.374,0.445l0.572,0.099l0.504-0.289l0.198-0.547l-0.198-0.546l-0.504-0.289l-0.572,0.099    l0.425,0.736"/>
	<path style="&st1;" d="M225.314,347.828l-0.271,0.47l-0.094,0.533l0.094,0.532l0.271,0.471l0.414,0.346l0.507,0.187h0.544    l0.507-0.187l0.414-0.346l0.272-0.471l0.093-0.532l-0.093-0.533l-0.272-0.47l-0.414-0.346l-0.507-0.187h-0.544l-0.507,0.187    L225.314,347.828l0.394,0.711v0.583l0.374,0.445l0.572,0.1l0.504-0.289l0.198-0.547l-0.198-0.547l-0.504-0.289l-0.572,0.1    l0.425,0.736"/>
	<path style="&st1;" d="M225.314,373.323l-0.271,0.471l-0.094,0.532l0.094,0.533l0.271,0.471l0.414,0.346l0.507,0.187h0.544    l0.507-0.187l0.414-0.346l0.272-0.471l0.093-0.533l-0.093-0.532l-0.272-0.471l-0.414-0.346l-0.507-0.187h-0.544l-0.507,0.187    L225.314,373.323l0.394,0.711v0.584l0.374,0.445l0.572,0.099l0.504-0.288l0.198-0.548l-0.198-0.546l-0.504-0.289l-0.572,0.1    l0.425,0.735"/>
	<path style="&st1;" d="M225.314,398.819l-0.271,0.471l-0.094,0.532l0.094,0.533l0.271,0.47l0.414,0.346l0.507,0.188h0.544    l0.507-0.188l0.414-0.346l0.272-0.47l0.093-0.533l-0.093-0.532l-0.272-0.471l-0.414-0.346l-0.507-0.187h-0.544l-0.507,0.187    L225.314,398.819l0.394,0.711v0.584l0.374,0.445l0.572,0.099l0.504-0.289l0.198-0.547l-0.198-0.547l-0.504-0.288l-0.572,0.099    l0.425,0.736"/>
	<path style="&st0;" d="M654.581,221.352v229.461h195.468V221.352H654.581"/>
	<path style="&st1;" d="M850.048,246.848H782.06v178.47h67.988"/>
	<path style="&st1;" d="M782.06,272.344h67.988"/>
	<path style="&st1;" d="M782.06,297.839h67.988"/>
	<path style="&st1;" d="M782.06,323.335h67.988"/>
	<path style="&st1;" d="M782.06,348.831h67.988"/>
	<path style="&st1;" d="M782.06,374.326h67.988"/>
	<path style="&st1;" d="M782.06,399.822h67.988"/>
	<path style="&st1;" d="M654.581,246.848h67.989v178.47h-67.989"/>
	<path style="&st1;" d="M654.581,272.344h67.989"/>
	<path style="&st1;" d="M654.581,297.839h67.989"/>
	<path style="&st1;" d="M654.581,323.335h67.989"/>
	<path style="&st1;" d="M654.581,348.831h67.989"/>
	<path style="&st1;" d="M654.581,374.326h67.989"/>
	<path style="&st1;" d="M654.581,399.822h67.989"/>
	<path style="&st1;" d="M780.867,271.341l-0.271,0.47l-0.094,0.533l0.094,0.532l0.271,0.471l0.414,0.346l0.507,0.187h0.544    l0.507-0.187l0.413-0.346l0.272-0.471l0.094-0.532l-0.094-0.533l-0.272-0.47l-0.413-0.346l-0.507-0.187h-0.544l-0.507,0.187    L780.867,271.341l0.395,0.711v0.583l0.373,0.445l0.572,0.099l0.505-0.289l0.197-0.547l-0.197-0.547l-0.505-0.289l-0.572,0.099    l0.426,0.737"/>
	<path style="&st1;" d="M780.867,296.836l-0.271,0.47l-0.094,0.533l0.094,0.533l0.271,0.47l0.414,0.346l0.507,0.187h0.544    l0.507-0.187l0.413-0.346l0.272-0.47l0.094-0.533l-0.094-0.533l-0.272-0.47l-0.413-0.345l-0.507-0.187h-0.544l-0.507,0.187    L780.867,296.836l0.395,0.711v0.583l0.373,0.445l0.572,0.099l0.505-0.289l0.197-0.547l-0.197-0.546l-0.505-0.289l-0.572,0.099    l0.426,0.736"/>
	<path style="&st1;" d="M780.867,322.333l-0.271,0.47l-0.094,0.532l0.094,0.533l0.271,0.47l0.414,0.346l0.507,0.187h0.544    l0.507-0.187l0.413-0.346l0.272-0.47l0.094-0.533l-0.094-0.532l-0.272-0.47l-0.413-0.346l-0.507-0.187h-0.544l-0.507,0.187    L780.867,322.333l0.395,0.711v0.583l0.373,0.444l0.572,0.1l0.505-0.289l0.197-0.547l-0.197-0.547l-0.505-0.289l-0.572,0.1    l0.426,0.736"/>
	<path style="&st1;" d="M780.867,347.828l-0.271,0.47l-0.094,0.533l0.094,0.532l0.271,0.471l0.414,0.346l0.507,0.187h0.544    l0.507-0.187l0.413-0.346l0.272-0.471l0.094-0.532l-0.094-0.533l-0.272-0.47l-0.413-0.346l-0.507-0.187h-0.544l-0.507,0.187    L780.867,347.828l0.395,0.711v0.583l0.373,0.445l0.572,0.1l0.505-0.289l0.197-0.547l-0.197-0.547l-0.505-0.289l-0.572,0.1    l0.426,0.736"/>
	<path style="&st1;" d="M780.867,373.323l-0.271,0.471l-0.094,0.532l0.094,0.533l0.271,0.471l0.414,0.346l0.507,0.187h0.544    l0.507-0.187l0.413-0.346l0.272-0.471l0.094-0.533l-0.094-0.532l-0.272-0.471l-0.413-0.346l-0.507-0.187h-0.544l-0.507,0.187    L780.867,373.323l0.395,0.711v0.584l0.373,0.445l0.572,0.099l0.505-0.288l0.197-0.548l-0.197-0.546l-0.505-0.289l-0.572,0.1    l0.426,0.735"/>
	<path style="&st1;" d="M780.867,398.819l-0.271,0.471l-0.094,0.532l0.094,0.533l0.271,0.47l0.414,0.346l0.507,0.188h0.544    l0.507-0.188l0.413-0.346l0.272-0.47l0.094-0.533l-0.094-0.532l-0.272-0.471l-0.413-0.346l-0.507-0.187h-0.544l-0.507,0.187    L780.867,398.819l0.395,0.711v0.584l0.373,0.445l0.572,0.099l0.505-0.289l0.197-0.547l-0.197-0.547l-0.505-0.288l-0.572,0.099    l0.426,0.736"/>
	<path style="&st1;" d="M721.376,271.341l-0.271,0.47l-0.094,0.533l0.094,0.532l0.271,0.471l0.414,0.346l0.507,0.187h0.544    l0.507-0.187l0.414-0.346l0.272-0.471l0.093-0.532l-0.093-0.533l-0.272-0.47l-0.414-0.346l-0.507-0.187h-0.544l-0.507,0.187    L721.376,271.341l0.395,0.711v0.583l0.373,0.445l0.572,0.099l0.504-0.289l0.199-0.547l-0.199-0.547l-0.504-0.289l-0.572,0.099    l0.426,0.737"/>
	<path style="&st1;" d="M721.376,296.836l-0.271,0.47l-0.094,0.533l0.094,0.533l0.271,0.47l0.414,0.346l0.507,0.187h0.544    l0.507-0.187l0.414-0.346l0.272-0.47l0.093-0.533l-0.093-0.533l-0.272-0.47l-0.414-0.345l-0.507-0.187h-0.544l-0.507,0.187    L721.376,296.836l0.395,0.711v0.583l0.373,0.445l0.572,0.099l0.504-0.289l0.199-0.547l-0.199-0.546l-0.504-0.289l-0.572,0.099    l0.426,0.736"/>
	<path style="&st1;" d="M721.376,322.333l-0.271,0.47l-0.094,0.532l0.094,0.533l0.271,0.47l0.414,0.346l0.507,0.187h0.544    l0.507-0.187l0.414-0.346l0.272-0.47l0.093-0.533l-0.093-0.532l-0.272-0.47l-0.414-0.346l-0.507-0.187h-0.544l-0.507,0.187    L721.376,322.333l0.395,0.711v0.583l0.373,0.444l0.572,0.1l0.504-0.289l0.199-0.547l-0.199-0.547l-0.504-0.289l-0.572,0.1    l0.426,0.736"/>
	<path style="&st1;" d="M721.376,347.828l-0.271,0.47l-0.094,0.533l0.094,0.532l0.271,0.471l0.414,0.346l0.507,0.187h0.544    l0.507-0.187l0.414-0.346l0.272-0.471l0.093-0.532l-0.093-0.533l-0.272-0.47l-0.414-0.346l-0.507-0.187h-0.544l-0.507,0.187    L721.376,347.828l0.395,0.711v0.583l0.373,0.445l0.572,0.1l0.504-0.289l0.199-0.547l-0.199-0.547l-0.504-0.289l-0.572,0.1    l0.426,0.736"/>
	<path style="&st1;" d="M721.376,373.323l-0.271,0.471l-0.094,0.532l0.094,0.533l0.271,0.471l0.414,0.346l0.507,0.187h0.544    l0.507-0.187l0.414-0.346l0.272-0.471l0.093-0.533l-0.093-0.532l-0.272-0.471l-0.414-0.346l-0.507-0.187h-0.544l-0.507,0.187    L721.376,373.323l0.395,0.711v0.584l0.373,0.445l0.572,0.099l0.504-0.288l0.199-0.548l-0.199-0.546l-0.504-0.289l-0.572,0.1    l0.426,0.735"/>
	<path style="&st1;" d="M721.376,398.819l-0.271,0.471l-0.094,0.532l0.094,0.533l0.271,0.47l0.414,0.346l0.507,0.188h0.544    l0.507-0.188l0.414-0.346l0.272-0.47l0.093-0.533l-0.093-0.532l-0.272-0.471l-0.414-0.346l-0.507-0.187h-0.544l-0.507,0.187    L721.376,398.819l0.395,0.711v0.584l0.373,0.445l0.572,0.099l0.504-0.289l0.199-0.547l-0.199-0.547l-0.504-0.288l-0.572,0.099    l0.426,0.736"/>
</g>
<g id="キャプション">
	<g>
		<text transform="matrix(0.88 0 0 1 158.7188 195.77)"><tspan x="0" y="0" style="&st3; &st6;">I93(A), I94(B), I95(C), I96(D), I97(E), I100(F), I102(G), </tspan><tspan x="0" y="10" style="&st3; &st6;">I103(H), I104(I), I107(J), I112(K)</tspan></text>
	</g>
	<g>
		<text transform="matrix(0.88 0 0 1 151.6577 265.4658)"><tspan x="0" y="0" style="&st5; &st4;">2</tspan></text>
	</g>
	<g>
		<path style="&st2;" d="M153.462,277.399c2.792,0,5.056-2.264,5.056-5.056c0-2.792-2.264-5.056-5.056-5.056     c-2.792,0-5.056,2.264-5.056,5.056C148.406,275.136,150.67,277.399,153.462,277.399z"/>
		<g>
			<text transform="matrix(0.88 0 0 1 150.9053 275.0493)"><tspan x="0" y="0" style="&st5; &st4;">C</tspan></text>
		</g>
	</g>
	<g>
		<text transform="matrix(0.88 0 0 1 357.2368 265.4658)"><tspan x="0" y="0" style="&st5; &st4;">1</tspan></text>
	</g>
	<g>
		<path style="&st2;" d="M359.042,277.399c2.792,0,5.056-2.264,5.056-5.056c0-2.792-2.264-5.056-5.056-5.056     s-5.056,2.264-5.056,5.056C353.986,275.136,356.25,277.399,359.042,277.399z"/>
		<g>
			<text transform="matrix(0.88 0 0 1 356.4849 275.0493)"><tspan x="0" y="0" style="&st5; &st4;">C</tspan></text>
		</g>
	</g>
	<g>
		<text transform="matrix(0.88 0 0 1 151.6577 316.457)"><tspan x="0" y="0" style="&st5; &st4;">2</tspan></text>
	</g>
	<g>
		<path style="&st2;" d="M153.462,328.391c2.792,0,5.056-2.264,5.056-5.056c0-2.792-2.264-5.056-5.056-5.056     c-2.792,0-5.056,2.264-5.056,5.056C148.406,326.127,150.67,328.391,153.462,328.391z"/>
		<g>
			<text transform="matrix(0.88 0 0 1 150.9053 326.04)"><tspan x="0" y="0" style="&st5; &st4;">H</tspan></text>
		</g>
	</g>
	<g>
		<text transform="matrix(0.88 0 0 1 357.2368 316.457)"><tspan x="0" y="0" style="&st5; &st4;">1</tspan></text>
	</g>
	<g>
		<path style="&st2;" d="M359.042,328.391c2.792,0,5.056-2.264,5.056-5.056c0-2.792-2.264-5.056-5.056-5.056     s-5.056,2.264-5.056,5.056C353.986,326.127,356.25,328.391,359.042,328.391z"/>
		<g>
			<text transform="matrix(0.88 0 0 1 356.4849 326.04)"><tspan x="0" y="0" style="&st5; &st4;">H</tspan></text>
		</g>
	</g>
	<g>
		<text transform="matrix(0.88 0 0 1 151.6577 341.9541)"><tspan x="0" y="0" style="&st5; &st4;">2</tspan></text>
	</g>
	<g>
		<path style="&st2;" d="M153.462,353.888c2.792,0,5.056-2.264,5.056-5.057c0-2.792-2.264-5.056-5.056-5.056     c-2.792,0-5.056,2.264-5.056,5.056C148.406,351.624,150.67,353.888,153.462,353.888z"/>
		<g>
			<text transform="matrix(0.88 0 0 1 151.2969 351.5361)"><tspan x="0" y="0" style="&st5; &st4;">F</tspan></text>
		</g>
	</g>
	<g>
		<text transform="matrix(0.88 0 0 1 357.2368 341.9541)"><tspan x="0" y="0" style="&st5; &st4;">1</tspan></text>
	</g>
	<g>
		<path style="&st2;" d="M359.042,353.888c2.792,0,5.056-2.264,5.056-5.057c0-2.792-2.264-5.056-5.056-5.056     s-5.056,2.264-5.056,5.056C353.986,351.624,356.25,353.888,359.042,353.888z"/>
		<g>
			<text transform="matrix(0.88 0 0 1 356.4849 351.5361)"><tspan x="0" y="0" style="&st5; &st4;">D</tspan></text>
		</g>
	</g>
	<g>
		<text transform="matrix(0.88 0 0 1 151.6577 418.4424)"><tspan x="0" y="0" style="&st5; &st4;">2</tspan></text>
	</g>
	<g>
		<path style="&st2;" d="M153.462,430.376c2.792,0,5.056-2.264,5.056-5.057c0-2.791-2.264-5.055-5.056-5.055     c-2.792,0-5.056,2.264-5.056,5.055C148.406,428.112,150.67,430.376,153.462,430.376z"/>
		<g>
			<text transform="matrix(0.88 0 0 1 151.0996 428.0244)"><tspan x="0" y="0" style="&st5; &st4;">A</tspan></text>
		</g>
	</g>
	<g>
		<text transform="matrix(0.88 0 0 1 141.5459 341.9541)"><tspan x="0" y="0" style="&st5; &st4;">2</tspan></text>
	</g>
	<g>
		<path style="&st2;" d="M143.351,353.888c2.792,0,5.056-2.264,5.056-5.057c0-2.792-2.264-5.056-5.056-5.056     c-2.792,0-5.056,2.264-5.056,5.056C138.294,351.624,140.558,353.888,143.351,353.888z"/>
		<g>
			<text transform="matrix(0.88 0 0 1 140.7935 351.5361)"><tspan x="0" y="0" style="&st5; &st4;">D</tspan></text>
		</g>
	</g>
	<g>
		<text transform="matrix(0.88 0 0 1 357.2368 418.4424)"><tspan x="0" y="0" style="&st5; &st4;">1</tspan></text>
	</g>
	<g>
		<path style="&st2;" d="M359.042,430.376c2.792,0,5.056-2.264,5.056-5.057c0-2.791-2.264-5.055-5.056-5.055     s-5.056,2.264-5.056,5.055C353.986,428.112,356.25,430.376,359.042,430.376z"/>
		<g>
			<text transform="matrix(0.88 0 0 1 356.6792 428.0244)"><tspan x="0" y="0" style="&st5; &st4;">A</tspan></text>
		</g>
	</g>
	<g>
		<text transform="matrix(0.88 0 0 1 367.3481 341.9541)"><tspan x="0" y="0" style="&st5; &st4;">1</tspan></text>
	</g>
	<g>
		<path style="&st2;" d="M369.153,353.888c2.792,0,5.056-2.264,5.056-5.057c0-2.792-2.264-5.056-5.056-5.056     s-5.056,2.264-5.056,5.056C364.097,351.624,366.361,353.888,369.153,353.888z"/>
		<g>
			<text transform="matrix(0.88 0 0 1 366.9878 351.5361)"><tspan x="0" y="0" style="&st5; &st4;">F</tspan></text>
		</g>
	</g>
	<text transform="matrix(0.88 0 0 1 158.7188 215.6128)"><tspan x="0" y="0" style="&st5; &st6;">Junction Connector</tspan></text>
	<g>
		<text transform="matrix(0.88 0 0 1 151.6577 239.9702)"><tspan x="0" y="0" style="&st5; &st4;">2</tspan></text>
	</g>
	<g>
		<path style="&st2;" d="M153.462,251.904c2.792,0,5.056-2.264,5.056-5.056c0-2.792-2.264-5.056-5.056-5.056     c-2.792,0-5.056,2.264-5.056,5.056C148.406,249.64,150.67,251.904,153.462,251.904z"/>
		<g>
			<text transform="matrix(0.88 0 0 1 151.0996 249.5537)"><tspan x="0" y="0" style="&st5; &st4;">K</tspan></text>
		</g>
	</g>
	<text transform="matrix(0.8 0 0 1 148.3062 258.9902)"><tspan x="0" y="0" style="&st5; &st4;">(*1)</tspan></text>
	<g>
		<text transform="matrix(0.88 0 0 1 151.6577 290.9614)"><tspan x="0" y="0" style="&st5; &st4;">2</tspan></text>
	</g>
	<g>
		<path style="&st2;" d="M153.462,302.895c2.792,0,5.056-2.264,5.056-5.056c0-2.792-2.264-5.056-5.056-5.056     c-2.792,0-5.056,2.264-5.056,5.056C148.406,300.631,150.67,302.895,153.462,302.895z"/>
		<g>
			<text transform="matrix(0.88 0 0 1 150.7095 300.5449)"><tspan x="0" y="0" style="&st5; &st4;">G</tspan></text>
		</g>
	</g>
	<g>
		<text transform="matrix(0.88 0 0 1 141.5459 290.9614)"><tspan x="0" y="0" style="&st5; &st4;">2</tspan></text>
	</g>
	<g>
		<path style="&st2;" d="M143.351,302.895c2.792,0,5.056-2.264,5.056-5.056c0-2.792-2.264-5.056-5.056-5.056     c-2.792,0-5.056,2.264-5.056,5.056C138.294,300.631,140.558,302.895,143.351,302.895z"/>
		<g>
			<text transform="matrix(0.88 0 0 1 140.9878 300.5449)"><tspan x="0" y="0" style="&st5; &st4;">E</tspan></text>
		</g>
	</g>
	<text transform="matrix(0.8 0 0 1 138.1943 309.9814)"><tspan x="0" y="0" style="&st5; &st4;">(*1)</tspan></text>
	<text transform="matrix(0.8 0 0 1 148.3062 309.9814)"><tspan x="0" y="0" style="&st5; &st4;">(*2)</tspan></text>
	<text transform="matrix(0.8 0 0 1 138.1943 360.9746)"><tspan x="0" y="0" style="&st5; &st4;">(*1)</tspan></text>
	<text transform="matrix(0.8 0 0 1 148.3062 360.9746)"><tspan x="0" y="0" style="&st5; &st4;">(*2)</tspan></text>
	<g>
		<text transform="matrix(0.88 0 0 1 151.6577 367.4492)"><tspan x="0" y="0" style="&st5; &st4;">2</tspan></text>
	</g>
	<g>
		<path style="&st2;" d="M153.462,379.383c2.792,0,5.056-2.264,5.056-5.057c0-2.792-2.264-5.056-5.056-5.056     c-2.792,0-5.056,2.264-5.056,5.056C148.406,377.119,150.67,379.383,153.462,379.383z"/>
		<g>
			<text transform="matrix(0.88 0 0 1 152.4692 377.0313)"><tspan x="0" y="0" style="&st5; &st4;">I</tspan></text>
		</g>
	</g>
	<g>
		<text transform="matrix(0.88 0 0 1 141.5459 367.4492)"><tspan x="0" y="0" style="&st5; &st4;">2</tspan></text>
	</g>
	<g>
		<path style="&st2;" d="M143.351,379.383c2.792,0,5.056-2.264,5.056-5.057c0-2.792-2.264-5.056-5.056-5.056     c-2.792,0-5.056,2.264-5.056,5.056C138.294,377.119,140.558,379.383,143.351,379.383z"/>
		<g>
			<text transform="matrix(0.88 0 0 1 141.1851 377.0313)"><tspan x="0" y="0" style="&st5; &st4;">F</tspan></text>
		</g>
	</g>
	<text transform="matrix(0.8 0 0 1 138.1943 386.4697)"><tspan x="0" y="0" style="&st5; &st4;">(*1)</tspan></text>
	<text transform="matrix(0.8 0 0 1 148.3062 386.4697)"><tspan x="0" y="0" style="&st5; &st4;">(*2)</tspan></text>
	<g>
		<text transform="matrix(0.88 0 0 1 151.6577 392.9453)"><tspan x="0" y="0" style="&st5; &st4;">2</tspan></text>
	</g>
	<g>
		<path style="&st2;" d="M153.462,404.879c2.792,0,5.056-2.264,5.056-5.057c0-2.791-2.264-5.055-5.056-5.055     c-2.792,0-5.056,2.264-5.056,5.055C148.406,402.615,150.67,404.879,153.462,404.879z"/>
		<g>
			<text transform="matrix(0.88 0 0 1 151.687 402.5273)"><tspan x="0" y="0" style="&st5; &st4;">J</tspan></text>
		</g>
	</g>
	<g>
		<text transform="matrix(0.88 0 0 1 141.5459 392.9453)"><tspan x="0" y="0" style="&st5; &st4;">2</tspan></text>
	</g>
	<g>
		<path style="&st2;" d="M143.351,404.879c2.792,0,5.056-2.264,5.056-5.057c0-2.791-2.264-5.055-5.056-5.055     c-2.792,0-5.056,2.264-5.056,5.055C138.294,402.615,140.558,404.879,143.351,404.879z"/>
		<g>
			<text transform="matrix(0.88 0 0 1 140.9878 402.5273)"><tspan x="0" y="0" style="&st5; &st4;">B</tspan></text>
		</g>
	</g>
	<text transform="matrix(0.8 0 0 1 138.1943 412.2236)"><tspan x="0" y="0" style="&st5; &st4;">(*1)</tspan></text>
	<text transform="matrix(0.8 0 0 1 148.3062 412.2236)"><tspan x="0" y="0" style="&st5; &st4;">(*2)</tspan></text>
	<g>
		<text transform="matrix(0.88 0 0 1 357.2368 239.9702)"><tspan x="0" y="0" style="&st5; &st4;">1</tspan></text>
	</g>
	<g>
		<path style="&st2;" d="M359.042,251.904c2.792,0,5.056-2.264,5.056-5.056c0-2.792-2.264-5.056-5.056-5.056     s-5.056,2.264-5.056,5.056C353.986,249.64,356.25,251.904,359.042,251.904z"/>
		<g>
			<text transform="matrix(0.88 0 0 1 356.6792 249.5537)"><tspan x="0" y="0" style="&st5; &st4;">K</tspan></text>
		</g>
	</g>
	<text transform="matrix(0.8 0 0 1 353.8853 258.9902)"><tspan x="0" y="0" style="&st5; &st4;">(*1)</tspan></text>
	<text transform="matrix(0.8 0 0 1 353.8853 360.9746)"><tspan x="0" y="0" style="&st5; &st4;">(*1)</tspan></text>
	<text transform="matrix(0.8 0 0 1 363.9976 360.9746)"><tspan x="0" y="0" style="&st5; &st4;">(*2)</tspan></text>
	<g>
		<text transform="matrix(0.88 0 0 1 357.2368 367.4492)"><tspan x="0" y="0" style="&st5; &st4;">1</tspan></text>
	</g>
	<g>
		<path style="&st2;" d="M359.042,379.383c2.792,0,5.056-2.264,5.056-5.057c0-2.792-2.264-5.056-5.056-5.056     s-5.056,2.264-5.056,5.056C353.986,377.119,356.25,379.383,359.042,379.383z"/>
		<g>
			<text transform="matrix(0.88 0 0 1 356.8765 377.0313)"><tspan x="0" y="0" style="&st5; &st4;">F</tspan></text>
		</g>
	</g>
	<g>
		<text transform="matrix(0.88 0 0 1 367.3481 367.4492)"><tspan x="0" y="0" style="&st5; &st4;">1</tspan></text>
	</g>
	<g>
		<path style="&st2;" d="M369.153,379.383c2.792,0,5.056-2.264,5.056-5.057c0-2.792-2.264-5.056-5.056-5.056     s-5.056,2.264-5.056,5.056C364.097,377.119,366.361,379.383,369.153,379.383z"/>
		<g>
			<text transform="matrix(0.88 0 0 1 368.1606 377.0313)"><tspan x="0" y="0" style="&st5; &st4;">I</tspan></text>
		</g>
	</g>
	<text transform="matrix(0.8 0 0 1 353.8853 386.4697)"><tspan x="0" y="0" style="&st5; &st4;">(*1)</tspan></text>
	<text transform="matrix(0.8 0 0 1 363.9976 386.4697)"><tspan x="0" y="0" style="&st5; &st4;">(*2)</tspan></text>
	<g>
		<text transform="matrix(0.88 0 0 1 357.2368 290.9624)"><tspan x="0" y="0" style="&st5; &st4;">1</tspan></text>
	</g>
	<g>
		<path style="&st2;" d="M359.042,302.896c2.792,0,5.056-2.264,5.056-5.057c0-2.792-2.264-5.056-5.056-5.056     s-5.056,2.264-5.056,5.056C353.986,300.632,356.25,302.896,359.042,302.896z"/>
		<g>
			<text transform="matrix(0.88 0 0 1 356.6792 300.5444)"><tspan x="0" y="0" style="&st5; &st4;">E</tspan></text>
		</g>
	</g>
	<g>
		<text transform="matrix(0.88 0 0 1 357.2368 316.4585)"><tspan x="0" y="0" style="&st5; &st4;">1</tspan></text>
	</g>
	<g>
		<text transform="matrix(0.88 0 0 1 367.3481 290.9624)"><tspan x="0" y="0" style="&st5; &st4;">1</tspan></text>
	</g>
	<g>
		<path style="&st2;" d="M369.153,302.896c2.792,0,5.056-2.264,5.056-5.057c0-2.792-2.264-5.056-5.056-5.056     s-5.056,2.264-5.056,5.056C364.097,300.632,366.361,302.896,369.153,302.896z"/>
		<g>
			<text transform="matrix(0.88 0 0 1 366.3999 300.5444)"><tspan x="0" y="0" style="&st5; &st4;">G</tspan></text>
		</g>
	</g>
	<text transform="matrix(0.8 0 0 1 353.8853 309.9829)"><tspan x="0" y="0" style="&st5; &st4;">(*1)</tspan></text>
	<text transform="matrix(0.8 0 0 1 363.9976 309.9829)"><tspan x="0" y="0" style="&st5; &st4;">(*2)</tspan></text>
	<g>
		<text transform="matrix(0.88 0 0 1 357.2368 392.9453)"><tspan x="0" y="0" style="&st5; &st4;">1</tspan></text>
	</g>
	<g>
		<path style="&st2;" d="M359.042,404.879c2.792,0,5.056-2.264,5.056-5.057c0-2.791-2.264-5.055-5.056-5.055     s-5.056,2.264-5.056,5.055C353.986,402.615,356.25,404.879,359.042,404.879z"/>
		<g>
			<text transform="matrix(0.88 0 0 1 356.6792 402.5273)"><tspan x="0" y="0" style="&st5; &st4;">B</tspan></text>
		</g>
	</g>
	<g>
		<text transform="matrix(0.88 0 0 1 367.3481 392.9453)"><tspan x="0" y="0" style="&st5; &st4;">1</tspan></text>
	</g>
	<g>
		<path style="&st2;" d="M369.153,404.879c2.792,0,5.056-2.264,5.056-5.057c0-2.791-2.264-5.055-5.056-5.055     s-5.056,2.264-5.056,5.055C364.097,402.615,366.361,404.879,369.153,404.879z"/>
		<g>
			<text transform="matrix(0.88 0 0 1 367.3784 402.5273)"><tspan x="0" y="0" style="&st5; &st4;">J</tspan></text>
		</g>
	</g>
	<text transform="matrix(0.8 0 0 1 353.8853 412.2236)"><tspan x="0" y="0" style="&st5; &st4;">(*1)</tspan></text>
	<text transform="matrix(0.8 0 0 1 363.9976 412.2236)"><tspan x="0" y="0" style="&st5; &st4;">(*2)</tspan></text>
	<text transform="matrix(1 0 0 1 352.3042 128.3003)"><tspan x="0" y="0" style="&st5; &st4;">* 1:LHD</tspan><tspan x="-0.664" y="8" style="&st5; &st4;">* 2:RHD</tspan></text>
	<g>
		<text transform="matrix(0.88 0 0 1 647.7192 239.9702)"><tspan x="0" y="0" style="&st5; &st4;">2</tspan></text>
	</g>
	<g>
		<text transform="matrix(0.88 0 0 1 661.2319 195.77)"><tspan x="0" y="0" style="&st3; &st6;">I93(A), I94(B), I95(C), I96(D), I97(E), I100(F), </tspan><tspan x="0" y="10" style="&st3; &st6;">I103(G)</tspan></text>
	</g>
	<g>
		<path style="&st2;" d="M649.525,251.904c2.792,0,5.056-2.264,5.056-5.056c0-2.792-2.264-5.056-5.056-5.056     c-2.793,0-5.057,2.264-5.057,5.056C644.468,249.64,646.732,251.904,649.525,251.904z"/>
		<g>
			<text transform="matrix(0.88 0 0 1 647.1616 249.5537)"><tspan x="0" y="0" style="&st5; &st4;">A</tspan></text>
		</g>
	</g>
	<g>
		<text transform="matrix(0.88 0 0 1 647.7192 265.4658)"><tspan x="0" y="0" style="&st5; &st4;">2</tspan></text>
	</g>
	<g>
		<path style="&st2;" d="M649.525,277.399c2.792,0,5.056-2.264,5.056-5.056c0-2.792-2.264-5.056-5.056-5.056     c-2.793,0-5.057,2.264-5.057,5.056C644.468,275.136,646.732,277.399,649.525,277.399z"/>
		<g>
			<text transform="matrix(0.88 0 0 1 647.1616 275.0493)"><tspan x="0" y="0" style="&st5; &st4;">B</tspan></text>
		</g>
	</g>
	<g>
		<text transform="matrix(0.88 0 0 1 647.7192 290.9604)"><tspan x="0" y="0" style="&st5; &st4;">2</tspan></text>
	</g>
	<g>
		<path style="&st2;" d="M649.525,302.894c2.792,0,5.056-2.264,5.056-5.056c0-2.792-2.264-5.056-5.056-5.056     c-2.793,0-5.057,2.264-5.057,5.056C644.468,300.63,646.732,302.894,649.525,302.894z"/>
		<g>
			<text transform="matrix(0.88 0 0 1 646.9673 300.5439)"><tspan x="0" y="0" style="&st5; &st4;">C</tspan></text>
		</g>
	</g>
	<g>
		<text transform="matrix(0.88 0 0 1 853.2993 239.9702)"><tspan x="0" y="0" style="&st5; &st4;">1</tspan></text>
	</g>
	<g>
		<path style="&st2;" d="M855.104,251.904c2.792,0,5.056-2.264,5.056-5.056c0-2.792-2.264-5.056-5.056-5.056     s-5.056,2.264-5.056,5.056C850.048,249.64,852.312,251.904,855.104,251.904z"/>
		<g>
			<text transform="matrix(0.88 0 0 1 852.7417 249.5537)"><tspan x="0" y="0" style="&st5; &st4;">A</tspan></text>
		</g>
	</g>
	<g>
		<text transform="matrix(0.88 0 0 1 853.2993 265.4658)"><tspan x="0" y="0" style="&st5; &st4;">1</tspan></text>
	</g>
	<g>
		<path style="&st2;" d="M855.104,277.399c2.792,0,5.056-2.264,5.056-5.056c0-2.792-2.264-5.056-5.056-5.056     s-5.056,2.264-5.056,5.056C850.048,275.136,852.312,277.399,855.104,277.399z"/>
		<g>
			<text transform="matrix(0.88 0 0 1 852.7417 275.0493)"><tspan x="0" y="0" style="&st5; &st4;">B</tspan></text>
		</g>
	</g>
	<g>
		<text transform="matrix(0.88 0 0 1 853.2993 290.9604)"><tspan x="0" y="0" style="&st5; &st4;">1</tspan></text>
	</g>
	<g>
		<path style="&st2;" d="M855.104,302.894c2.792,0,5.056-2.264,5.056-5.056c0-2.792-2.264-5.056-5.056-5.056     s-5.056,2.264-5.056,5.056C850.048,300.63,852.312,302.894,855.104,302.894z"/>
		<g>
			<text transform="matrix(0.88 0 0 1 852.5474 300.5439)"><tspan x="0" y="0" style="&st5; &st4;">C</tspan></text>
		</g>
	</g>
	<g>
		<text transform="matrix(0.88 0 0 1 647.7192 316.457)"><tspan x="0" y="0" style="&st5; &st4;">2</tspan></text>
	</g>
	<g>
		<path style="&st2;" d="M649.525,328.391c2.792,0,5.056-2.264,5.056-5.056c0-2.792-2.264-5.056-5.056-5.056     c-2.793,0-5.057,2.264-5.057,5.056C644.468,326.127,646.732,328.391,649.525,328.391z"/>
		<g>
			<text transform="matrix(0.88 0 0 1 646.9673 326.04)"><tspan x="0" y="0" style="&st5; &st4;">D</tspan></text>
		</g>
	</g>
	<g>
		<text transform="matrix(0.88 0 0 1 853.2993 316.457)"><tspan x="0" y="0" style="&st5; &st4;">1</tspan></text>
	</g>
	<g>
		<path style="&st2;" d="M855.104,328.391c2.792,0,5.056-2.264,5.056-5.056c0-2.792-2.264-5.056-5.056-5.056     s-5.056,2.264-5.056,5.056C850.048,326.127,852.312,328.391,855.104,328.391z"/>
		<g>
			<text transform="matrix(0.88 0 0 1 852.5474 326.04)"><tspan x="0" y="0" style="&st5; &st4;">D</tspan></text>
		</g>
	</g>
	<g>
		<text transform="matrix(0.88 0 0 1 647.7192 341.9541)"><tspan x="0" y="0" style="&st5; &st4;">2</tspan></text>
	</g>
	<g>
		<path style="&st2;" d="M649.525,353.888c2.792,0,5.056-2.264,5.056-5.057c0-2.792-2.264-5.056-5.056-5.056     c-2.793,0-5.057,2.264-5.057,5.056C644.468,351.624,646.732,353.888,649.525,353.888z"/>
		<g>
			<text transform="matrix(0.88 0 0 1 647.1616 351.5361)"><tspan x="0" y="0" style="&st5; &st4;">E</tspan></text>
		</g>
	</g>
	<g>
		<text transform="matrix(0.88 0 0 1 853.2993 341.9541)"><tspan x="0" y="0" style="&st5; &st4;">1</tspan></text>
	</g>
	<g>
		<path style="&st2;" d="M855.104,353.888c2.792,0,5.056-2.264,5.056-5.057c0-2.792-2.264-5.056-5.056-5.056     s-5.056,2.264-5.056,5.056C850.048,351.624,852.312,353.888,855.104,353.888z"/>
		<g>
			<text transform="matrix(0.88 0 0 1 852.7417 351.5361)"><tspan x="0" y="0" style="&st5; &st4;">E</tspan></text>
		</g>
	</g>
	<g>
		<text transform="matrix(0.8 0 0 1 647.8979 367.4502)"><tspan x="0" y="0" style="&st5; &st4;">2</tspan></text>
	</g>
	<g>
		<path style="&st2;" d="M649.525,379.384c2.792,0,5.056-2.264,5.056-5.057c0-2.791-2.264-5.055-5.056-5.055     c-2.793,0-5.057,2.264-5.057,5.055C644.468,377.12,646.732,379.384,649.525,379.384z"/>
		<g>
			<text transform="matrix(0.88 0 0 1 647.3589 377.0322)"><tspan x="0" y="0" style="&st5; &st4;">F</tspan></text>
		</g>
	</g>
	<g>
		<text transform="matrix(0.88 0 0 1 853.2993 367.4502)"><tspan x="0" y="0" style="&st5; &st4;">1</tspan></text>
	</g>
	<g>
		<path style="&st2;" d="M855.104,379.384c2.792,0,5.056-2.264,5.056-5.057c0-2.791-2.264-5.055-5.056-5.055     s-5.056,2.264-5.056,5.055C850.048,377.12,852.312,379.384,855.104,379.384z"/>
		<g>
			<text transform="matrix(0.88 0 0 1 852.939 377.0322)"><tspan x="0" y="0" style="&st5; &st4;">F</tspan></text>
		</g>
	</g>
	<g>
		<text transform="matrix(0.88 0 0 1 647.7192 392.9463)"><tspan x="0" y="0" style="&st5; &st4;">2</tspan></text>
	</g>
	<g>
		<path style="&st2;" d="M649.525,404.88c2.792,0,5.056-2.264,5.056-5.057c0-2.791-2.264-5.055-5.056-5.055     c-2.793,0-5.057,2.264-5.057,5.055C644.468,402.616,646.732,404.88,649.525,404.88z"/>
		<g>
			<text transform="matrix(0.88 0 0 1 646.771 402.5283)"><tspan x="0" y="0" style="&st5; &st4;">G</tspan></text>
		</g>
	</g>
	<g>
		<text transform="matrix(0.88 0 0 1 853.2993 392.9463)"><tspan x="0" y="0" style="&st5; &st4;">1</tspan></text>
	</g>
	<g>
		<path style="&st2;" d="M855.104,404.88c2.792,0,5.056-2.264,5.056-5.057c0-2.791-2.264-5.055-5.056-5.055     s-5.056,2.264-5.056,5.055C850.048,402.616,852.312,404.88,855.104,404.88z"/>
		<g>
			<text transform="matrix(0.88 0 0 1 852.3511 402.5283)"><tspan x="0" y="0" style="&st5; &st4;">G</tspan></text>
		</g>
	</g>
	<text transform="matrix(0.88 0 0 1 661.2319 215.6128)"><tspan x="0" y="0" style="&st5; &st6;">Junction Connector</tspan></text>
	<text transform="matrix(1 0 0 1 7.1865 23.1865)"><tspan x="0" y="0" style="&st3; &st7;">(Except TMMK Made)</tspan></text>
	<text transform="matrix(1 0 0 1 503.2495 23.1865)"><tspan x="0" y="0" style="&st3; &st7;">(TMMK Made)</tspan></text>
</g>
</svg>